<?xml version="1.0" encoding="UTF-8" standalone="no"?>
<svg
   xmlns:dc="http://purl.org/dc/elements/1.1/"
   xmlns:cc="http://creativecommons.org/ns#"
   xmlns:rdf="http://www.w3.org/1999/02/22-rdf-syntax-ns#"
   xmlns:svg="http://www.w3.org/2000/svg"
   xmlns="http://www.w3.org/2000/svg"
   xmlns:sodipodi="http://sodipodi.sourceforge.net/DTD/sodipodi-0.dtd"
   xmlns:inkscape="http://www.inkscape.org/namespaces/inkscape"
   inkscape:export-ydpi="241.89999"
   inkscape:export-xdpi="241.89999"
   inkscape:export-filename="B:\Data\ABC\your-risk.com\your-covid-19-risk\design\posters\QR-code--design-6.png"
   inkscape:version="1.0 (4035a4fb49, 2020-05-01)"
   sodipodi:docname="QR-code--design-6.svg"
   width="210mm"
   height="297mm"
   viewBox="0 0 210 297"
   version="1.1"
   id="svg8">
  <sodipodi:namedview
     inkscape:snap-bbox="true"
     inkscape:snap-page="true"
     inkscape:current-layer="svg8"
     inkscape:window-maximized="1"
     inkscape:window-y="-8"
     inkscape:window-x="-8"
     inkscape:cy="622.34935"
     inkscape:cx="396.85039"
     inkscape:zoom="0.65477694"
     showgrid="false"
     id="namedview11813"
     inkscape:window-height="975"
     inkscape:window-width="1920"
     inkscape:pageshadow="2"
     inkscape:pageopacity="0"
     guidetolerance="10"
     gridtolerance="10"
     objecttolerance="10"
     borderopacity="1"
     bordercolor="#666666"
     pagecolor="#ffffff" />
  <defs
     id="defs2">
    <clipPath
       id="clipPath26"
       clipPathUnits="userSpaceOnUse">
      <path
         id="path24"
         clip-rule="evenodd"
         d="M 0,0 H 2483.3333 V 3540.4688 H 0 Z" />
    </clipPath>
    <clipPath
       id="clipPath38"
       clipPathUnits="userSpaceOnUse">
      <path
         id="path36"
         clip-rule="evenodd"
         d="M 0,0 H 2483.3333 V 3512.3203 H 0 Z" />
    </clipPath>
    <clipPath
       id="clipPath50"
       clipPathUnits="userSpaceOnUse">
      <path
         id="path48"
         clip-rule="evenodd"
         d="M 0,0 H 2483.3333 V 3512.3203 H 0 Z" />
    </clipPath>
    <clipPath
       id="clipPath58"
       clipPathUnits="userSpaceOnUse">
      <path
         id="path56"
         d="M 0,0 H 1353 V 296 H 0 Z" />
    </clipPath>
    <clipPath
       id="clipPath72"
       clipPathUnits="userSpaceOnUse">
      <path
         id="path70"
         clip-rule="evenodd"
         d="m 163.55864,298.9375 h 603.63141 v 969.5634 H 163.55864 Z" />
    </clipPath>
    <clipPath
       id="clipPath84"
       clipPathUnits="userSpaceOnUse">
      <path
         id="path82"
         clip-rule="evenodd"
         d="m 163.55864,1268.5009 h 603.63141 v 969.5633 H 163.55864 Z" />
    </clipPath>
    <clipPath
       id="clipPath96"
       clipPathUnits="userSpaceOnUse">
      <path
         id="path94"
         clip-rule="evenodd"
         d="M 163.55864,2238.0642 H 767.19005 V 3204.5 H 163.55864 Z" />
    </clipPath>
    <clipPath
       id="clipPath108"
       clipPathUnits="userSpaceOnUse">
      <path
         id="path106"
         clip-rule="evenodd"
         d="M 882.63019,3054.8066 H 2233.7637 v 31.2761 H 882.63019 Z" />
    </clipPath>
    <clipPath
       id="clipPath120"
       clipPathUnits="userSpaceOnUse">
      <path
         id="path118"
         clip-rule="evenodd"
         d="m 1361.6864,2064.6641 h 872.6071 v 891.3728 h -872.6071 z" />
    </clipPath>
    <clipPath
       id="clipPath132"
       clipPathUnits="userSpaceOnUse">
      <path
         id="path130"
         clip-rule="evenodd"
         d="M 0,0 H 2483.3333 V 3512.3203 H 0 Z" />
    </clipPath>
    <clipPath
       id="clipPath244"
       clipPathUnits="userSpaceOnUse">
      <path
         id="path242"
         clip-rule="evenodd"
         d="M 0,2.4414063e-4 H 2483.3333 V 3540.4704 H 0 Z" />
    </clipPath>
    <clipPath
       id="clipPath256"
       clipPathUnits="userSpaceOnUse">
      <path
         id="path254"
         clip-rule="evenodd"
         d="M 0,2.4414063e-4 H 2483.3333 V 3512.3215 H 0 Z" />
    </clipPath>
    <clipPath
       id="clipPath268"
       clipPathUnits="userSpaceOnUse">
      <path
         id="path266"
         clip-rule="evenodd"
         d="M 1040.4301,1705.7661 3.7567218e-6,1262.0658 0,2.4414063e-4 979.25415,2.4912407e-4 1646.5159,284.55975 Z" />
    </clipPath>
    <clipPath
       id="clipPath292"
       clipPathUnits="userSpaceOnUse">
      <path
         id="path290"
         clip-rule="evenodd"
         d="M 936.98865,2320.0339 2483.3333,1971.2926 V 3512.3215 H 1205.8806 Z" />
    </clipPath>
    <clipPath
       id="clipPath316"
       clipPathUnits="userSpaceOnUse">
      <path
         id="path314"
         clip-rule="evenodd"
         d="M 2483.3333,885.09906 V 26.245432 l -730.0065,149.764788 169.082,824.16558 z" />
    </clipPath>
    <clipPath
       id="clipPath402"
       clipPathUnits="userSpaceOnUse">
      <path
         id="path400"
         clip-rule="evenodd"
         d="M 9.9303761e-6,2885.7346 386.63483,2806.4143 506.06079,3388.5386 0,3492.3596 Z" />
    </clipPath>
    <clipPath
       id="clipPath480"
       clipPathUnits="userSpaceOnUse">
      <path
         id="path478"
         clip-rule="evenodd"
         d="M 83.941238,2393.8196 H 1091.0361 V 3422.8079 H 83.941238 Z" />
    </clipPath>
    <clipPath
       id="clipPath492"
       clipPathUnits="userSpaceOnUse">
      <path
         id="path490"
         clip-rule="evenodd"
         d="M 0,2.4414063e-4 H 2483.3333 V 3512.3215 H 0 Z" />
    </clipPath>
    <clipPath
       id="clipPath660"
       clipPathUnits="userSpaceOnUse">
      <path
         id="path658"
         clip-rule="evenodd"
         d="M 0,0 H 2483.3333 V 3540.4707 H 0 Z" />
    </clipPath>
    <clipPath
       id="clipPath672"
       clipPathUnits="userSpaceOnUse">
      <path
         id="path670"
         clip-rule="evenodd"
         d="M 0,0 H 2483.3333 V 3512.3215 H 0 Z" />
    </clipPath>
    <clipPath
       id="clipPath684"
       clipPathUnits="userSpaceOnUse">
      <path
         id="path682"
         clip-rule="evenodd"
         d="M 0,0 H 2483.3333 V 3512.3223 H 0 Z" />
    </clipPath>
    <clipPath
       id="clipPath692"
       clipPathUnits="userSpaceOnUse">
      <path
         id="path690"
         d="M 0,0 H 1690 V 1615 H 0 Z" />
    </clipPath>
    <clipPath
       id="clipPath696"
       clipPathUnits="userSpaceOnUse">
      <path
         id="path694"
         clip-rule="evenodd"
         d="M 224.52863,0.4609375 H 1350.4732 V 1276.5315 H 224.52863 Z" />
    </clipPath>
    <clipPath
       id="clipPath728"
       clipPathUnits="userSpaceOnUse">
      <path
         id="path726"
         clip-rule="evenodd"
         d="m 1664.1904,2647.9521 h 697.46 v 713.0981 h -697.46 z" />
    </clipPath>
    <clipPath
       id="clipPath791"
       clipPathUnits="userSpaceOnUse">
      <path
         id="path789"
         clip-rule="evenodd"
         d="M 0,9.765625e-4 H 2483.3333 V 3540.4717 H 0 Z" />
    </clipPath>
    <clipPath
       id="clipPath803"
       clipPathUnits="userSpaceOnUse">
      <path
         id="path801"
         clip-rule="evenodd"
         d="M 0,9.765625e-4 H 2483.3333 V 3512.3213 H 0 Z" />
    </clipPath>
    <clipPath
       id="clipPath815"
       clipPathUnits="userSpaceOnUse">
      <path
         id="path813"
         clip-rule="evenodd"
         d="M 0,888.7207 H 1142.3239 V 2346.1934 H 0 Z" />
    </clipPath>
    <clipPath
       id="clipPath2593"
       clipPathUnits="userSpaceOnUse">
      <path
         id="path2591"
         clip-rule="evenodd"
         d="M 0,9.765625e-4 H 2483.3333 V 3512.3213 H 0 Z" />
    </clipPath>
    <clipPath
       id="clipPath2605"
       clipPathUnits="userSpaceOnUse">
      <path
         id="path2603"
         clip-rule="evenodd"
         d="M 1216.4744,1103.0215 H 2483.3333 V 2810.7041 H 1216.4744 Z" />
    </clipPath>
    <clipPath
       id="clipPath4283"
       clipPathUnits="userSpaceOnUse">
      <path
         id="path4281"
         clip-rule="evenodd"
         d="M 0,9.765625e-4 H 2483.3333 V 3512.3213 H 0 Z" />
    </clipPath>
    <clipPath
       id="clipPath4295"
       clipPathUnits="userSpaceOnUse">
      <path
         id="path4293"
         clip-rule="evenodd"
         d="M 0,2426.6455 H 1640.9763 V 3512.3213 H 0 Z" />
    </clipPath>
    <clipPath
       id="clipPath5579"
       clipPathUnits="userSpaceOnUse">
      <path
         id="path5577"
         clip-rule="evenodd"
         d="M 0,9.765625e-4 H 2483.3333 V 3512.3213 H 0 Z" />
    </clipPath>
    <clipPath
       id="clipPath5591"
       clipPathUnits="userSpaceOnUse">
      <path
         id="path5589"
         clip-rule="evenodd"
         d="M 1232.8471,1294.4248 H 2386.9402 V 1525.869 H 1232.8471 Z" />
    </clipPath>
    <clipPath
       id="clipPath5603"
       clipPathUnits="userSpaceOnUse">
      <path
         id="path5601"
         clip-rule="evenodd"
         d="M 346.30573,908.67773 H 1500.399 V 1140.1219 H 346.30573 Z" />
    </clipPath>
    <clipPath
       id="clipPath5615"
       clipPathUnits="userSpaceOnUse">
      <path
         id="path5613"
         clip-rule="evenodd"
         d="M 564.85651,2532.5596 H 1718.9498 v 231.4441 H 564.85651 Z" />
    </clipPath>
    <clipPath
       id="clipPath5627"
       clipPathUnits="userSpaceOnUse">
      <path
         id="path5625"
         clip-rule="evenodd"
         d="m 1641.9254,1587.2412 h 688.0773 v 756.885 h -688.0773 z" />
    </clipPath>
    <clipPath
       id="clipPath5639"
       clipPathUnits="userSpaceOnUse">
      <path
         id="path5637"
         clip-rule="evenodd"
         d="M 216.32024,2822.665 H 1032.63 v 609.8867 H 216.32024 Z" />
    </clipPath>
    <clipPath
       id="clipPath5651"
       clipPathUnits="userSpaceOnUse">
      <path
         id="path5649"
         clip-rule="evenodd"
         d="M 78.417343,1211.8682 H 753.98405 v 644.2905 H 78.417343 Z" />
    </clipPath>
    <clipPath
       id="clipPath5663"
       clipPathUnits="userSpaceOnUse">
      <path
         id="path5661"
         clip-rule="evenodd"
         d="M 0,9.765625e-4 H 2483.3333 V 3512.3213 H 0 Z" />
    </clipPath>
    <clipPath
       id="clipPath5683"
       clipPathUnits="userSpaceOnUse">
      <path
         id="path5681"
         clip-rule="evenodd"
         d="m 1869.1389,2903.2549 h 516.0579 v 528.5684 h -516.0579 z" />
    </clipPath>
    <clipPath
       id="clipPath5695"
       clipPathUnits="userSpaceOnUse">
      <path
         id="path5693"
         clip-rule="evenodd"
         d="M 0,9.765625e-4 H 2483.3333 V 3512.3213 H 0 Z" />
    </clipPath>
    <clipPath
       id="clipPath8197"
       clipPathUnits="userSpaceOnUse">
      <path
         id="path8195"
         clip-rule="evenodd"
         d="M 0,0 H 2483.3333 V 3540.4688 H 0 Z" />
    </clipPath>
    <clipPath
       id="clipPath8209"
       clipPathUnits="userSpaceOnUse">
      <path
         id="path8207"
         clip-rule="evenodd"
         d="M 0,0 H 2483.3333 V 3512.3203 H 0 Z" />
    </clipPath>
    <clipPath
       id="clipPath8221"
       clipPathUnits="userSpaceOnUse">
      <path
         id="path8219"
         clip-rule="evenodd"
         d="M 0,0 H 2483.3333 V 3512.3203 H 0 Z" />
    </clipPath>
    <clipPath
       id="clipPath8229"
       clipPathUnits="userSpaceOnUse">
      <path
         id="path8227"
         d="M 0,0 H 1353 V 296 H 0 Z" />
    </clipPath>
    <clipPath
       id="clipPath8243"
       clipPathUnits="userSpaceOnUse">
      <path
         id="path8241"
         clip-rule="evenodd"
         d="m 163.55864,298.9375 h 603.63141 v 969.5634 H 163.55864 Z" />
    </clipPath>
    <clipPath
       id="clipPath8255"
       clipPathUnits="userSpaceOnUse">
      <path
         id="path8253"
         clip-rule="evenodd"
         d="m 163.55864,1268.5009 h 603.63141 v 969.5633 H 163.55864 Z" />
    </clipPath>
    <clipPath
       id="clipPath8267"
       clipPathUnits="userSpaceOnUse">
      <path
         id="path8265"
         clip-rule="evenodd"
         d="M 163.55864,2238.0642 H 767.19005 V 3204.5 H 163.55864 Z" />
    </clipPath>
    <clipPath
       id="clipPath8279"
       clipPathUnits="userSpaceOnUse">
      <path
         id="path8277"
         clip-rule="evenodd"
         d="M 882.63019,3054.8066 H 2233.7637 v 31.2761 H 882.63019 Z" />
    </clipPath>
    <clipPath
       id="clipPath8291"
       clipPathUnits="userSpaceOnUse">
      <path
         id="path8289"
         clip-rule="evenodd"
         d="m 1361.6864,2064.6641 h 872.6071 v 891.3728 h -872.6071 z" />
    </clipPath>
    <clipPath
       id="clipPath8303"
       clipPathUnits="userSpaceOnUse">
      <path
         id="path8301"
         clip-rule="evenodd"
         d="M 0,0 H 2483.3333 V 3512.3203 H 0 Z" />
    </clipPath>
    <clipPath
       id="clipPath8415"
       clipPathUnits="userSpaceOnUse">
      <path
         id="path8413"
         clip-rule="evenodd"
         d="M 0,0 H 2483.3333 V 3540.4702 H 0 Z" />
    </clipPath>
    <clipPath
       id="clipPath8429"
       clipPathUnits="userSpaceOnUse">
      <path
         id="path8427"
         clip-rule="evenodd"
         d="M 31.326017,2550.9561 H 816.35959 v 925.7766 H 31.326017 Z" />
    </clipPath>
    <clipPath
       id="clipPath8441"
       clipPathUnits="userSpaceOnUse">
      <path
         id="path8439"
         clip-rule="evenodd"
         d="m 847.6358,2550.9561 h 785.0336 v 925.7766 H 847.6358 Z" />
    </clipPath>
    <clipPath
       id="clipPath8453"
       clipPathUnits="userSpaceOnUse">
      <path
         id="path8451"
         clip-rule="evenodd"
         d="m 1663.9457,2550.9561 h 788.161 v 925.7766 h -788.161 z" />
    </clipPath>
    <clipPath
       id="clipPath8465"
       clipPathUnits="userSpaceOnUse">
      <path
         id="path8463"
         clip-rule="evenodd"
         d="M 617.93982,979.33997 H 1865.8617 V 2255.4106 H 617.93982 Z" />
    </clipPath>
    <clipPath
       id="clipPath8477"
       clipPathUnits="userSpaceOnUse">
      <path
         id="path8475"
         clip-rule="evenodd"
         d="M 0,0 H 2483.3333 V 3512.3215 H 0 Z" />
    </clipPath>
    <clipPath
       id="clipPath8549"
       clipPathUnits="userSpaceOnUse">
      <path
         id="path8547"
         clip-rule="evenodd"
         d="M 0,4.8828125e-4 H 2483.3333 V 3540.4702 H 0 Z" />
    </clipPath>
    <clipPath
       id="clipPath8561"
       clipPathUnits="userSpaceOnUse">
      <path
         id="path8559"
         clip-rule="evenodd"
         d="M 0,4.8828125e-4 H 2483.3333 V 3512.3218 H 0 Z" />
    </clipPath>
    <clipPath
       id="clipPath8573"
       clipPathUnits="userSpaceOnUse">
      <path
         id="path8571"
         clip-rule="evenodd"
         d="M 0,4.8828125e-4 H 2483.3333 V 3512.3218 H 0 Z" />
    </clipPath>
    <clipPath
       id="clipPath8611"
       clipPathUnits="userSpaceOnUse">
      <path
         id="path8609"
         clip-rule="evenodd"
         d="m 1886.3773,2902.0718 h 466.016 v 481.6541 h -466.016 z" />
    </clipPath>
    <clipPath
       id="clipPath8623"
       clipPathUnits="userSpaceOnUse">
      <path
         id="path8621"
         clip-rule="evenodd"
         d="M 0,4.8828125e-4 H 2483.3333 V 3512.3218 H 0 Z" />
    </clipPath>
    <linearGradient
       id="SVGID_1_"
       gradientUnits="userSpaceOnUse"
       x1="91.062599"
       y1="6.5303001"
       x2="294.35931"
       y2="209.8271">
      <stop
         offset="0"
         style="stop-color:#B7212B"
         id="stop2" />
      <stop
         offset="7.399303e-02"
         style="stop-color:#C62D35"
         id="stop4" />
      <stop
         offset="0.1787"
         style="stop-color:#D63941"
         id="stop6" />
      <stop
         offset="0.3091"
         style="stop-color:#E14349"
         id="stop8" />
      <stop
         offset="0.4921"
         style="stop-color:#E8494F"
         id="stop10" />
      <stop
         offset="1"
         style="stop-color:#E94A50"
         id="stop12" />
    </linearGradient>
  </defs>
  <metadata
     id="metadata5">
    <rdf:RDF>
      <cc:Work
         rdf:about="">
        <dc:format>image/svg+xml</dc:format>
        <dc:type
           rdf:resource="http://purl.org/dc/dcmitype/StillImage" />
        <dc:title></dc:title>
      </cc:Work>
    </rdf:RDF>
  </metadata>
  <g
     transform="matrix(0.08456376,0,0,0.08455946,0,-4.1288801e-5)"
     id="g8555">
    <g
       clip-path="url(#clipPath8561)"
       id="g8557">
      <g
         transform="matrix(3.1276238,0,0,3.1276238,0,4.8828125e-4)"
         id="g8563">
        <path
           id="path8565"
           style="fill:#c42d35;fill-opacity:1;fill-rule:nonzero;stroke:none"
           d="M 0,0 H 794 V 1123 H 0 Z" />
      </g>
    </g>
  </g>
  <g
     transform="matrix(0.08466666,0,0,0.08466666,-2.6403215,5.9688132)"
     id="g8567">
    <g
       clip-path="url(#clipPath8573)"
       id="g8569">
      <g
         transform="matrix(1.5638119,0,0,1.5638119,923.15607,284.88281)"
         id="g8575">
        <text
           id="text8579"
           style="font-variant:normal;font-weight:bold;font-size:298.66px;font-family:OpenSans;-inkscape-font-specification:OpenSans-Bold;writing-mode:lr-tb;fill:#ffffff;fill-opacity:1;fill-rule:nonzero;stroke:none"
           transform="translate(123.84375,242)"><tspan
             id="tspan8577"
             y="0"
             x="0">C</tspan></text>
        <text
           id="text8583"
           style="font-variant:normal;font-weight:bold;font-size:298.66px;font-family:OpenSans;-inkscape-font-specification:OpenSans-Bold;writing-mode:lr-tb;fill:#ffffff;fill-opacity:1;fill-rule:nonzero;stroke:none"
           transform="translate(100.15625,495)"><tspan
             id="tspan8581"
             y="0"
             x="0">O</tspan></text>
        <text
           id="text8587"
           style="font-variant:normal;font-weight:bold;font-size:298.66px;font-family:OpenSans;-inkscape-font-specification:OpenSans-Bold;writing-mode:lr-tb;fill:#ffffff;fill-opacity:1;fill-rule:nonzero;stroke:none"
           transform="translate(121.95313,748)"><tspan
             id="tspan8585"
             y="0"
             x="0">V</tspan></text>
        <text
           id="text8591"
           style="font-variant:normal;font-weight:bold;font-size:298.66px;font-family:OpenSans;-inkscape-font-specification:OpenSans-Bold;writing-mode:lr-tb;fill:#ffffff;fill-opacity:1;fill-rule:nonzero;stroke:none"
           transform="translate(169.5625,1001)"><tspan
             id="tspan8589"
             y="0"
             x="0">I</tspan></text>
        <text
           id="text8595"
           style="font-variant:normal;font-weight:bold;font-size:298.66px;font-family:OpenSans;-inkscape-font-specification:OpenSans-Bold;writing-mode:lr-tb;fill:#ffffff;fill-opacity:1;fill-rule:nonzero;stroke:none"
           transform="translate(108.45313,1254)"><tspan
             id="tspan8593"
             y="0"
             x="0">D</tspan></text>
        <text
           id="text8599"
           style="font-variant:normal;font-weight:bold;font-size:298.66px;font-family:OpenSans;-inkscape-font-specification:OpenSans-Bold;writing-mode:lr-tb;fill:#ffffff;fill-opacity:1;fill-rule:nonzero;stroke:none"
           transform="translate(170.95313,1507)"><tspan
             id="tspan8597"
             y="0"
             x="0">-</tspan></text>
        <text
           id="text8603"
           style="font-variant:normal;font-weight:bold;font-size:298.66px;font-family:OpenSans;-inkscape-font-specification:OpenSans-Bold;writing-mode:lr-tb;fill:#ffffff;fill-opacity:1;fill-rule:nonzero;stroke:none"
           transform="translate(48.53125,1760)"><tspan
             id="tspan8601"
             y="0"
             x="0 170.47536">19</tspan></text>
      </g>
    </g>
  </g>
  <g
     transform="matrix(0.08466666,0,0,0.08466666,2.9734226,4.0140781)"
     id="g8617">
    <g
       clip-path="url(#clipPath8623)"
       id="g8619">
      <g
         transform="matrix(3.1276238,0,0,3.1276238,-100.14719,3252.5718)"
         id="g8625">
        <text
           id="text8629"
           style="font-variant:normal;font-weight:normal;font-size:32px;font-family:OpenSans;-inkscape-font-specification:OpenSans-Regular;writing-mode:lr-tb;fill:#ffffff;fill-opacity:1;fill-rule:nonzero;stroke:none"
           transform="translate(87.125,34)"><tspan
             id="tspan8627"
             y="0"
             x="0 19.640625 30.9375 42.234375 61.84375 77.109375 85.625 97.375 109.125 125.25 144.57812 164.21875 177.28125 187.57812 202.8125 222.14062 238.17188 246.26562 265.875 276.17188 294.46875 312.76562 323.0625 336.125 344.21875 359.48438 376.28125 384.79688 400.03125 419.35938 449.125">https://your-covid-19-risk.com/</tspan></text>
      </g>
    </g>
  </g>
  <rect
     y="235.98039"
     x="150.31511"
     height="53.749386"
     width="53.749386"
     id="rect12445"
     style="color:#000000;overflow:visible;fill:#ffffff;stroke:#ffffff;stroke-width:0.0434692;stroke-linecap:square" />
  <g
     transform="matrix(0.56546577,0,0,0.56546577,93.218137,203.48118)"
     style="display:inline"
     id="g20564">
    <g
       style="display:inline;fill:#384e71;fill-opacity:1;stroke:none"
       id="g12194"
       transform="matrix(0.264583,0,0,0.264583,94.26049,50.760484)">
      <path
         d="M 40,40 H 50 V 50 H 40 Z m 10,0 H 60 V 50 H 50 Z m 10,0 H 70 V 50 H 60 Z m 10,0 H 80 V 50 H 70 Z m 10,0 H 90 V 50 H 80 Z m 10,0 h 10 V 50 H 90 Z m 10,0 h 10 v 10 h -10 z m 20,0 h 10 v 10 h -10 z m 20,0 h 10 v 10 h -10 z m 20,0 h 10 v 10 h -10 z m 20,0 h 10 v 10 h -10 z m 10,0 h 10 v 10 h -10 z m 10,0 h 10 v 10 h -10 z m 10,0 h 10 v 10 h -10 z m 10,0 h 10 v 10 h -10 z m 50,0 h 10 v 10 h -10 z m 10,0 h 10 v 10 h -10 z m 20,0 h 10 v 10 h -10 z m 10,0 h 10 v 10 h -10 z m 10,0 h 10 v 10 h -10 z m 10,0 h 10 v 10 h -10 z m 10,0 h 10 v 10 h -10 z m 10,0 h 10 v 10 h -10 z m 10,0 h 10 V 50 H 360 Z M 40,50 H 50 V 60 H 40 Z m 60,0 h 10 v 10 h -10 z m 20,0 h 10 v 10 h -10 z m 70,0 h 10 v 10 h -10 z m 70,0 h 10 v 10 h -10 z m 20,0 h 10 v 10 h -10 z m 20,0 h 10 v 10 h -10 z m 60,0 h 10 V 60 H 360 Z M 40,60 H 50 V 70 H 40 Z m 20,0 H 70 V 70 H 60 Z m 10,0 H 80 V 70 H 70 Z m 10,0 H 90 V 70 H 80 Z m 20,0 h 10 v 10 h -10 z m 20,0 h 10 v 10 h -10 z m 20,0 h 10 v 10 h -10 z m 40,0 h 10 v 10 h -10 z m 10,0 h 10 v 10 h -10 z m 20,0 h 10 v 10 h -10 z m 30,0 h 10 v 10 h -10 z m 10,0 h 10 v 10 h -10 z m 10,0 h 10 v 10 h -10 z m 10,0 h 10 v 10 h -10 z m 10,0 h 10 v 10 h -10 z m 20,0 h 10 v 10 h -10 z m 20,0 h 10 v 10 h -10 z m 10,0 h 10 v 10 h -10 z m 10,0 h 10 v 10 h -10 z m 20,0 h 10 V 70 H 360 Z M 40,70 H 50 V 80 H 40 Z m 20,0 H 70 V 80 H 60 Z m 10,0 H 80 V 80 H 70 Z m 10,0 H 90 V 80 H 80 Z m 20,0 h 10 v 10 h -10 z m 30,0 h 10 v 10 h -10 z m 10,0 h 10 v 10 h -10 z m 30,0 h 10 v 10 h -10 z m 10,0 h 10 v 10 h -10 z m 10,0 h 10 v 10 h -10 z m 10,0 h 10 v 10 h -10 z m 20,0 h 10 v 10 h -10 z m 40,0 h 10 v 10 h -10 z m 10,0 h 10 v 10 h -10 z m 30,0 h 10 v 10 h -10 z m 20,0 h 10 v 10 h -10 z m 10,0 h 10 v 10 h -10 z m 10,0 h 10 v 10 h -10 z m 20,0 h 10 V 80 H 360 Z M 40,80 H 50 V 90 H 40 Z m 20,0 H 70 V 90 H 60 Z m 10,0 H 80 V 90 H 70 Z m 10,0 H 90 V 90 H 80 Z m 20,0 h 10 v 10 h -10 z m 50,0 h 10 v 10 h -10 z m 10,0 h 10 v 10 h -10 z m 20,0 h 10 v 10 h -10 z m 10,0 h 10 v 10 h -10 z m 10,0 h 10 v 10 h -10 z m 20,0 h 10 v 10 h -10 z m 20,0 h 10 v 10 h -10 z m 20,0 h 10 v 10 h -10 z m 20,0 h 10 v 10 h -10 z m 20,0 h 10 v 10 h -10 z m 20,0 h 10 v 10 h -10 z m 10,0 h 10 v 10 h -10 z m 10,0 h 10 v 10 h -10 z m 20,0 h 10 V 90 H 360 Z M 40,90 h 10 v 10 H 40 Z m 60,0 h 10 v 10 h -10 z m 20,0 h 10 v 10 h -10 z m 10,0 h 10 v 10 h -10 z m 10,0 h 10 v 10 h -10 z m 10,0 h 10 v 10 h -10 z m 10,0 h 10 v 10 h -10 z m 20,0 h 10 v 10 h -10 z m 10,0 h 10 v 10 h -10 z m 10,0 h 10 v 10 h -10 z m 10,0 h 10 v 10 h -10 z m 40,0 h 10 v 10 h -10 z m 50,0 h 10 v 10 h -10 z m 60,0 h 10 v 10 H 360 Z M 40,100 h 10 v 10 H 40 Z m 10,0 h 10 v 10 H 50 Z m 10,0 h 10 v 10 H 60 Z m 10,0 h 10 v 10 H 70 Z m 10,0 h 10 v 10 H 80 Z m 10,0 h 10 v 10 H 90 Z m 10,0 h 10 v 10 h -10 z m 20,0 h 10 v 10 h -10 z m 20,0 h 10 v 10 h -10 z m 20,0 h 10 v 10 h -10 z m 20,0 h 10 v 10 h -10 z m 20,0 h 10 v 10 h -10 z m 20,0 h 10 v 10 h -10 z m 20,0 h 10 v 10 h -10 z m 20,0 h 10 v 10 h -10 z m 20,0 h 10 v 10 h -10 z m 20,0 h 10 v 10 h -10 z m 10,0 h 10 v 10 h -10 z m 10,0 h 10 v 10 h -10 z m 10,0 h 10 v 10 h -10 z m 10,0 h 10 v 10 h -10 z m 10,0 h 10 v 10 h -10 z m 10,0 h 10 v 10 h -10 z m -240,10 h 10 v 10 h -10 z m 10,0 h 10 v 10 h -10 z m 10,0 h 10 v 10 h -10 z m 10,0 h 10 v 10 h -10 z m 50,0 h 10 v 10 h -10 z m 50,0 h 10 v 10 h -10 z m 10,0 h 10 v 10 h -10 z m 20,0 h 10 v 10 H 280 Z M 60,120 h 10 v 10 H 60 Z m 10,0 h 10 v 10 H 70 Z m 10,0 h 10 v 10 H 80 Z m 20,0 h 10 v 10 h -10 z m 20,0 h 10 v 10 h -10 z m 20,0 h 10 v 10 h -10 z m 10,0 h 10 v 10 h -10 z m 20,0 h 10 v 10 h -10 z m 20,0 h 10 v 10 h -10 z m 10,0 h 10 v 10 h -10 z m 10,0 h 10 v 10 h -10 z m 10,0 h 10 v 10 h -10 z m 20,0 h 10 v 10 h -10 z m 20,0 h 10 v 10 h -10 z m 20,0 h 10 v 10 h -10 z m 10,0 h 10 v 10 h -10 z m 10,0 h 10 v 10 h -10 z m 10,0 h 10 v 10 h -10 z m 30,0 h 10 v 10 h -10 z m 10,0 h 10 v 10 h -10 z m 10,0 h 10 v 10 H 360 Z M 40,130 h 10 v 10 H 40 Z m 10,0 h 10 v 10 H 50 Z m 20,0 h 10 v 10 H 70 Z m 10,0 h 10 v 10 H 80 Z m 10,0 h 10 v 10 H 90 Z m 50,0 h 10 v 10 h -10 z m 40,0 h 10 v 10 h -10 z m 10,0 h 10 v 10 h -10 z m 30,0 h 10 v 10 h -10 z m 20,0 h 10 v 10 h -10 z m 20,0 h 10 v 10 h -10 z m 10,0 h 10 v 10 h -10 z m 20,0 h 10 v 10 h -10 z m 10,0 h 10 v 10 h -10 z m 30,0 h 10 v 10 h -10 z m 10,0 h 10 v 10 h -10 z m 20,0 h 10 v 10 H 360 Z M 40,140 h 10 v 10 H 40 Z m 10,0 h 10 v 10 H 50 Z m 30,0 h 10 v 10 H 80 Z m 10,0 h 10 v 10 H 90 Z m 10,0 h 10 v 10 h -10 z m 10,0 h 10 v 10 h -10 z m 10,0 h 10 v 10 h -10 z m 10,0 h 10 v 10 h -10 z m 30,0 h 10 v 10 h -10 z m 10,0 h 10 v 10 h -10 z m 20,0 h 10 v 10 h -10 z m 10,0 h 10 v 10 h -10 z m 10,0 h 10 v 10 h -10 z m 30,0 h 10 v 10 h -10 z m 20,0 h 10 v 10 h -10 z m 20,0 h 10 v 10 h -10 z m 30,0 h 10 v 10 h -10 z m 30,0 h 10 v 10 h -10 z m 10,0 h 10 v 10 H 350 Z M 70,150 h 10 v 10 H 70 Z m 10,0 h 10 v 10 H 80 Z m 10,0 h 10 v 10 H 90 Z m 30,0 h 10 v 10 h -10 z m 10,0 h 10 v 10 h -10 z m 10,0 h 10 v 10 h -10 z m 20,0 h 10 v 10 h -10 z m 10,0 h 10 v 10 h -10 z m 10,0 h 10 v 10 h -10 z m 20,0 h 10 v 10 h -10 z m 40,0 h 10 v 10 h -10 z m 30,0 h 10 v 10 h -10 z m 10,0 h 10 v 10 h -10 z m 20,0 h 10 v 10 h -10 z m 40,0 h 10 v 10 h -10 z m 10,0 h 10 v 10 H 350 Z M 40,160 h 10 v 10 H 40 Z m 20,0 h 10 v 10 H 60 Z m 10,0 h 10 v 10 H 70 Z m 30,0 h 10 v 10 h -10 z m 50,0 h 10 v 10 h -10 z m 10,0 h 10 v 10 h -10 z m 10,0 h 10 v 10 h -10 z m 20,0 h 10 v 10 h -10 z m 10,0 h 10 v 10 h -10 z m 10,0 h 10 v 10 h -10 z m 10,0 h 10 v 10 h -10 z m 10,0 h 10 v 10 h -10 z m 10,0 h 10 v 10 h -10 z m 10,0 h 10 v 10 h -10 z m 10,0 h 10 v 10 h -10 z m 20,0 h 10 v 10 h -10 z m 30,0 h 10 v 10 h -10 z m 10,0 h 10 v 10 h -10 z m 40,0 h 10 v 10 H 360 Z M 40,170 h 10 v 10 H 40 Z m 10,0 h 10 v 10 H 50 Z m 30,0 h 10 v 10 H 80 Z m 10,0 h 10 v 10 H 90 Z m 20,0 h 10 v 10 h -10 z m 10,0 h 10 v 10 h -10 z m 50,0 h 10 v 10 h -10 z m 20,0 h 10 v 10 h -10 z m 10,0 h 10 v 10 h -10 z m 10,0 h 10 v 10 h -10 z m 10,0 h 10 v 10 h -10 z m 10,0 h 10 v 10 h -10 z m 40,0 h 10 v 10 h -10 z m 30,0 h 10 v 10 h -10 z m 30,0 h 10 v 10 h -10 z m 30,0 h 10 v 10 H 360 Z M 60,180 h 10 v 10 H 60 Z m 40,0 h 10 v 10 h -10 z m 30,0 h 10 v 10 h -10 z m 30,0 h 10 v 10 h -10 z m 20,0 h 10 v 10 h -10 z m 10,0 h 10 v 10 h -10 z m 40,0 h 10 v 10 h -10 z m 10,0 h 10 v 10 h -10 z m 20,0 h 10 v 10 h -10 z m 40,0 h 10 v 10 h -10 z m 20,0 h 10 v 10 h -10 z m 30,0 h 10 v 10 H 350 Z M 40,190 h 10 v 10 H 40 Z m 30,0 h 10 v 10 H 70 Z m 20,0 h 10 v 10 H 90 Z m 30,0 h 10 v 10 h -10 z m 20,0 h 10 v 10 h -10 z m 10,0 h 10 v 10 h -10 z m 30,0 h 10 v 10 h -10 z m 10,0 h 10 v 10 h -10 z m 40,0 h 10 v 10 h -10 z m 10,0 h 10 v 10 h -10 z m 10,0 h 10 v 10 h -10 z m 10,0 h 10 v 10 h -10 z m 10,0 h 10 v 10 h -10 z m 10,0 h 10 v 10 h -10 z m 10,0 h 10 v 10 h -10 z m 30,0 h 10 v 10 h -10 z m 10,0 h 10 v 10 h -10 z m 10,0 h 10 v 10 h -10 z m 20,0 h 10 v 10 H 360 Z M 40,200 h 10 v 10 H 40 Z m 30,0 h 10 v 10 H 70 Z m 10,0 h 10 v 10 H 80 Z m 10,0 h 10 v 10 H 90 Z m 10,0 h 10 v 10 h -10 z m 10,0 h 10 v 10 h -10 z m 10,0 h 10 v 10 h -10 z m 20,0 h 10 v 10 h -10 z m 20,0 h 10 v 10 h -10 z m 10,0 h 10 v 10 h -10 z m 20,0 h 10 v 10 h -10 z m 10,0 h 10 v 10 h -10 z m 20,0 h 10 v 10 h -10 z m 20,0 h 10 v 10 h -10 z m 80,0 h 10 v 10 h -10 z m 30,0 h 10 v 10 h -10 z m 10,0 h 10 v 10 H 360 Z M 40,210 h 10 v 10 H 40 Z m 20,0 h 10 v 10 H 60 Z m 20,0 h 10 v 10 H 80 Z m 10,0 h 10 v 10 H 90 Z m 20,0 h 10 v 10 h -10 z m 10,0 h 10 v 10 h -10 z m 20,0 h 10 v 10 h -10 z m 10,0 h 10 v 10 h -10 z m 10,0 h 10 v 10 h -10 z m 10,0 h 10 v 10 h -10 z m 20,0 h 10 v 10 h -10 z m 20,0 h 10 v 10 h -10 z m 10,0 h 10 v 10 h -10 z m 20,0 h 10 v 10 h -10 z m 10,0 h 10 v 10 h -10 z m 20,0 h 10 v 10 h -10 z m 10,0 h 10 v 10 h -10 z m 20,0 h 10 v 10 h -10 z m 10,0 h 10 v 10 h -10 z m 50,0 h 10 v 10 H 360 Z M 60,220 h 10 v 10 H 60 Z m 20,0 h 10 v 10 H 80 Z m 10,0 h 10 v 10 H 90 Z m 10,0 h 10 v 10 h -10 z m 10,0 h 10 v 10 h -10 z m 10,0 h 10 v 10 h -10 z m 30,0 h 10 v 10 h -10 z m 10,0 h 10 v 10 h -10 z m 100,0 h 10 v 10 h -10 z m 30,0 h 10 v 10 h -10 z m 10,0 h 10 v 10 h -10 z m 40,0 h 10 v 10 H 340 Z M 50,230 h 10 v 10 H 50 Z m 40,0 h 10 v 10 H 90 Z m 20,0 h 10 v 10 h -10 z m 20,0 h 10 v 10 h -10 z m 10,0 h 10 v 10 h -10 z m 10,0 h 10 v 10 h -10 z m 10,0 h 10 v 10 h -10 z m 20,0 h 10 v 10 h -10 z m 10,0 h 10 v 10 h -10 z m 20,0 h 10 v 10 h -10 z m 20,0 h 10 v 10 h -10 z m 20,0 h 10 v 10 h -10 z m 20,0 h 10 v 10 h -10 z m 10,0 h 10 v 10 h -10 z m 10,0 h 10 v 10 h -10 z m 20,0 h 10 v 10 h -10 z m 20,0 h 10 v 10 h -10 z m 10,0 h 10 v 10 h -10 z m 10,0 h 10 v 10 h -10 z m 10,0 h 10 v 10 H 360 Z M 40,240 h 10 v 10 H 40 Z m 30,0 h 10 v 10 H 70 Z m 30,0 h 10 v 10 h -10 z m 10,0 h 10 v 10 h -10 z m 10,0 h 10 v 10 h -10 z m 30,0 h 10 v 10 h -10 z m 50,0 h 10 v 10 h -10 z m 20,0 h 10 v 10 h -10 z m 40,0 h 10 v 10 h -10 z m 20,0 h 10 v 10 h -10 z m 40,0 h 10 v 10 h -10 z m 10,0 h 10 v 10 h -10 z m 30,0 h 10 v 10 H 360 Z M 40,250 h 10 v 10 H 40 Z m 10,0 h 10 v 10 H 50 Z m 10,0 h 10 v 10 H 60 Z m 10,0 h 10 v 10 H 70 Z m 10,0 h 10 v 10 H 80 Z m 30,0 h 10 v 10 h -10 z m 10,0 h 10 v 10 h -10 z m 10,0 h 10 v 10 h -10 z m 10,0 h 10 v 10 h -10 z m 20,0 h 10 v 10 h -10 z m 40,0 h 10 v 10 h -10 z m 10,0 h 10 v 10 h -10 z m 20,0 h 10 v 10 h -10 z m 10,0 h 10 v 10 h -10 z m 10,0 h 10 v 10 h -10 z m 80,0 h 10 v 10 h -10 z m 30,0 h 10 v 10 H 360 Z M 40,260 h 10 v 10 H 40 Z m 20,0 h 10 v 10 H 60 Z m 20,0 h 10 v 10 H 80 Z m 10,0 h 10 v 10 H 90 Z m 10,0 h 10 v 10 h -10 z m 40,0 h 10 v 10 h -10 z m 20,0 h 10 v 10 h -10 z m 10,0 h 10 v 10 h -10 z m 10,0 h 10 v 10 h -10 z m 10,0 h 10 v 10 h -10 z m 10,0 h 10 v 10 h -10 z m 20,0 h 10 v 10 h -10 z m 10,0 h 10 v 10 h -10 z m 10,0 h 10 v 10 h -10 z m 30,0 h 10 v 10 h -10 z m 10,0 h 10 v 10 h -10 z m 50,0 h 10 v 10 h -10 z m 20,0 h 10 v 10 H 350 Z M 40,270 h 10 v 10 H 40 Z m 20,0 h 10 v 10 H 60 Z m 10,0 h 10 v 10 H 70 Z m 40,0 h 10 v 10 h -10 z m 20,0 h 10 v 10 h -10 z m 10,0 h 10 v 10 h -10 z m 10,0 h 10 v 10 h -10 z m 10,0 h 10 v 10 h -10 z m 10,0 h 10 v 10 h -10 z m 10,0 h 10 v 10 h -10 z m 30,0 h 10 v 10 h -10 z m 20,0 h 10 v 10 h -10 z m 10,0 h 10 v 10 h -10 z m 10,0 h 10 v 10 h -10 z m 10,0 h 10 v 10 h -10 z m 10,0 h 10 v 10 h -10 z m 60,0 h 10 v 10 h -10 z m 10,0 h 10 v 10 h -10 z m 10,0 h 10 v 10 H 350 Z M 40,280 h 10 v 10 H 40 Z m 20,0 h 10 v 10 H 60 Z m 30,0 h 10 v 10 H 90 Z m 10,0 h 10 v 10 h -10 z m 10,0 h 10 v 10 h -10 z m 10,0 h 10 v 10 h -10 z m 30,0 h 10 v 10 h -10 z m 40,0 h 10 v 10 h -10 z m 20,0 h 10 v 10 h -10 z m 10,0 h 10 v 10 h -10 z m 40,0 h 10 v 10 h -10 z m 10,0 h 10 v 10 h -10 z m 10,0 h 10 v 10 h -10 z m 10,0 h 10 v 10 h -10 z m 10,0 h 10 v 10 h -10 z m 10,0 h 10 v 10 h -10 z m 10,0 h 10 v 10 h -10 z m 10,0 h 10 v 10 h -10 z m 30,0 h 10 v 10 h -10 z m -240,10 h 10 v 10 h -10 z m 20,0 h 10 v 10 h -10 z m 10,0 h 10 v 10 h -10 z m 40,0 h 10 v 10 h -10 z m 10,0 h 10 v 10 h -10 z m 40,0 h 10 v 10 h -10 z m 10,0 h 10 v 10 h -10 z m 20,0 h 10 v 10 h -10 z m 10,0 h 10 v 10 h -10 z m 40,0 h 10 v 10 h -10 z m 10,0 h 10 v 10 h -10 z m 20,0 h 10 v 10 h -10 z m 10,0 h 10 v 10 H 360 Z M 40,300 h 10 v 10 H 40 Z m 10,0 h 10 v 10 H 50 Z m 10,0 h 10 v 10 H 60 Z m 10,0 h 10 v 10 H 70 Z m 10,0 h 10 v 10 H 80 Z m 10,0 h 10 v 10 H 90 Z m 10,0 h 10 v 10 h -10 z m 30,0 h 10 v 10 h -10 z m 30,0 h 10 v 10 h -10 z m 20,0 h 10 v 10 h -10 z m 10,0 h 10 v 10 h -10 z m 10,0 h 10 v 10 h -10 z m 10,0 h 10 v 10 h -10 z m 10,0 h 10 v 10 h -10 z m 30,0 h 10 v 10 h -10 z m 20,0 h 10 v 10 h -10 z m 10,0 h 10 v 10 h -10 z m 20,0 h 10 v 10 h -10 z m 20,0 h 10 v 10 h -10 z m 10,0 h 10 v 10 h -10 z m 10,0 h 10 v 10 h -10 z m 10,0 h 10 v 10 H 350 Z M 40,310 h 10 v 10 H 40 Z m 60,0 h 10 v 10 h -10 z m 100,0 h 10 v 10 h -10 z m 30,0 h 10 v 10 h -10 z m 10,0 h 10 v 10 h -10 z m 10,0 h 10 v 10 h -10 z m 10,0 h 10 v 10 h -10 z m 10,0 h 10 v 10 h -10 z m 10,0 h 10 v 10 h -10 z m 40,0 h 10 v 10 h -10 z m 20,0 h 10 v 10 h -10 z m 10,0 h 10 v 10 h -10 z m 10,0 h 10 v 10 H 360 Z M 40,320 h 10 v 10 H 40 Z m 20,0 h 10 v 10 H 60 Z m 10,0 h 10 v 10 H 70 Z m 10,0 h 10 v 10 H 80 Z m 20,0 h 10 v 10 h -10 z m 20,0 h 10 v 10 h -10 z m 20,0 h 10 v 10 h -10 z m 10,0 h 10 v 10 h -10 z m 20,0 h 10 v 10 h -10 z m 40,0 h 10 v 10 h -10 z m 10,0 h 10 v 10 h -10 z m 10,0 h 10 v 10 h -10 z m 10,0 h 10 v 10 h -10 z m 10,0 h 10 v 10 h -10 z m 30,0 h 10 v 10 h -10 z m 10,0 h 10 v 10 h -10 z m 10,0 h 10 v 10 h -10 z m 10,0 h 10 v 10 h -10 z m 10,0 h 10 v 10 h -10 z m 10,0 h 10 v 10 h -10 z m 20,0 h 10 v 10 h -10 z m 10,0 h 10 v 10 H 360 Z M 40,330 h 10 v 10 H 40 Z m 20,0 h 10 v 10 H 60 Z m 10,0 h 10 v 10 H 70 Z m 10,0 h 10 v 10 H 80 Z m 20,0 h 10 v 10 h -10 z m 20,0 h 10 v 10 h -10 z m 10,0 h 10 v 10 h -10 z m 10,0 h 10 v 10 h -10 z m 10,0 h 10 v 10 h -10 z m 10,0 h 10 v 10 h -10 z m 10,0 h 10 v 10 h -10 z m 20,0 h 10 v 10 h -10 z m 10,0 h 10 v 10 h -10 z m 10,0 h 10 v 10 h -10 z m 10,0 h 10 v 10 h -10 z m 10,0 h 10 v 10 h -10 z m 30,0 h 10 v 10 h -10 z m 10,0 h 10 v 10 h -10 z m 10,0 h 10 v 10 h -10 z m 10,0 h 10 v 10 h -10 z m 30,0 h 10 v 10 h -10 z m 20,0 h 10 v 10 h -10 z m 10,0 h 10 v 10 H 350 Z M 40,340 h 10 v 10 H 40 Z m 20,0 h 10 v 10 H 60 Z m 10,0 h 10 v 10 H 70 Z m 10,0 h 10 v 10 H 80 Z m 20,0 h 10 v 10 h -10 z m 20,0 h 10 v 10 h -10 z m 20,0 h 10 v 10 h -10 z m 20,0 h 10 v 10 h -10 z m 10,0 h 10 v 10 h -10 z m 10,0 h 10 v 10 h -10 z m 10,0 h 10 v 10 h -10 z m 20,0 h 10 v 10 h -10 z m 20,0 h 10 v 10 h -10 z m 20,0 h 10 v 10 h -10 z m 20,0 h 10 v 10 h -10 z m 20,0 h 10 v 10 h -10 z m 10,0 h 10 v 10 h -10 z m 30,0 h 10 v 10 H 330 Z M 40,350 h 10 v 10 H 40 Z m 60,0 h 10 v 10 h -10 z m 40,0 h 10 v 10 h -10 z m 20,0 h 10 v 10 h -10 z m 30,0 h 10 v 10 h -10 z m 20,0 h 10 v 10 h -10 z m 20,0 h 10 v 10 h -10 z m 20,0 h 10 v 10 h -10 z m 40,0 h 10 v 10 h -10 z m 10,0 h 10 v 10 h -10 z m 10,0 h 10 v 10 h -10 z m 20,0 h 10 v 10 h -10 z m 10,0 h 10 v 10 H 340 Z M 40,360 h 10 v 10 H 40 Z m 10,0 h 10 v 10 H 50 Z m 10,0 h 10 v 10 H 60 Z m 10,0 h 10 v 10 H 70 Z m 10,0 h 10 v 10 H 80 Z m 10,0 h 10 v 10 H 90 Z m 10,0 h 10 v 10 h -10 z m 60,0 h 10 v 10 h -10 z m 10,0 h 10 v 10 h -10 z m 20,0 h 10 v 10 h -10 z m 10,0 h 10 v 10 h -10 z m 10,0 h 10 v 10 h -10 z m 20,0 h 10 v 10 h -10 z m 20,0 h 10 v 10 h -10 z m 20,0 h 10 v 10 h -10 z m 10,0 h 10 v 10 h -10 z m 10,0 h 10 v 10 h -10 z m 60,0 h 10 v 10 h -10 z"
         id="path12192"
         style="fill:#384e71;fill-opacity:1" />
    </g>
    <path
       style="display:inline;fill:#b71f2b;fill-opacity:1;stroke:#b71f2b;stroke-width:0.1;stroke-miterlimit:4;stroke-dasharray:none;stroke-opacity:1"
       d="m 120.71878,146.01037 h 2.64584 v 2.64582 h -2.64584 z"
       id="path2219" />
    <path
       style="display:inline;fill:#b71f2b;fill-opacity:1;stroke:#b71f2b;stroke-width:0.1;stroke-miterlimit:4;stroke-dasharray:none;stroke-opacity:1"
       d="m 118.07296,146.01037 h 2.64582 v 2.64582 h -2.64582 z"
       id="path2217" />
    <path
       style="display:inline;fill:#b71f2b;fill-opacity:1;stroke:#b71f2b;stroke-width:0.1;stroke-miterlimit:4;stroke-dasharray:none;stroke-opacity:1"
       d="m 115.42713,146.01037 h 2.64583 v 2.64582 h -2.64583 z"
       id="path2215" />
    <path
       style="display:inline;fill:#b71f2b;fill-opacity:1;stroke:#b71f2b;stroke-width:0.1;stroke-miterlimit:4;stroke-dasharray:none;stroke-opacity:1"
       d="m 112.7813,146.01037 h 2.64583 v 2.64582 h -2.64583 z"
       id="path2213" />
    <path
       style="display:inline;fill:#b71f2b;fill-opacity:1;stroke:#b71f2b;stroke-width:0.1;stroke-miterlimit:4;stroke-dasharray:none;stroke-opacity:1"
       d="m 110.13547,146.01037 h 2.64583 v 2.64582 h -2.64583 z"
       id="path2211" />
    <path
       style="display:inline;fill:#b71f2b;fill-opacity:1;stroke:#b71f2b;stroke-width:0.1;stroke-miterlimit:4;stroke-dasharray:none;stroke-opacity:1"
       d="m 107.48964,146.01037 h 2.64583 v 2.64582 h -2.64583 z"
       id="path2209" />
    <path
       style="display:inline;fill:#b71f2b;fill-opacity:1;stroke:#b71f2b;stroke-width:0.1;stroke-miterlimit:4;stroke-dasharray:none;stroke-opacity:1"
       d="m 104.84381,146.01037 h 2.64583 v 2.64582 h -2.64583 z"
       id="path2207" />
    <path
       style="display:inline;fill:#b71f2b;fill-opacity:1;stroke:#b71f2b;stroke-width:0.1;stroke-miterlimit:4;stroke-dasharray:none;stroke-opacity:1"
       d="m 120.71878,143.36454 h 2.64584 v 2.64583 h -2.64584 z"
       id="path2185" />
    <path
       style="display:inline;fill:#b71f2b;fill-opacity:1;stroke:#b71f2b;stroke-width:0.1;stroke-miterlimit:4;stroke-dasharray:none;stroke-opacity:1"
       d="m 104.84381,143.36454 h 2.64583 v 2.64583 h -2.64583 z"
       id="path2183" />
    <path
       style="display:inline;fill:#b71f2b;fill-opacity:1;stroke:#b71f2b;stroke-width:0.1;stroke-miterlimit:4;stroke-dasharray:none;stroke-opacity:1"
       d="m 120.71878,140.7187 h 2.64584 v 2.64584 h -2.64584 z"
       id="path2153" />
    <path
       style="display:inline;fill:#b71f2b;fill-opacity:1;stroke:#b71f2b;stroke-width:0.1;stroke-miterlimit:4;stroke-dasharray:none;stroke-opacity:1"
       d="m 115.42713,140.7187 h 2.64583 v 2.64584 h -2.64583 z"
       id="path2151" />
    <path
       style="display:inline;fill:#b71f2b;fill-opacity:1;stroke:#b71f2b;stroke-width:0.1;stroke-miterlimit:4;stroke-dasharray:none;stroke-opacity:1"
       d="m 112.7813,140.7187 h 2.64583 v 2.64584 h -2.64583 z"
       id="path2149" />
    <path
       style="display:inline;fill:#b71f2b;fill-opacity:1;stroke:#b71f2b;stroke-width:0.1;stroke-miterlimit:4;stroke-dasharray:none;stroke-opacity:1"
       d="m 110.13547,140.7187 h 2.64583 v 2.64584 h -2.64583 z"
       id="path2147" />
    <path
       style="display:inline;fill:#b71f2b;fill-opacity:1;stroke:#b71f2b;stroke-width:0.1;stroke-miterlimit:4;stroke-dasharray:none;stroke-opacity:1"
       d="m 104.84381,140.7187 h 2.64583 v 2.64584 h -2.64583 z"
       id="path2145" />
    <path
       style="display:inline;fill:#b71f2b;fill-opacity:1;stroke:#b71f2b;stroke-width:0.1;stroke-miterlimit:4;stroke-dasharray:none;stroke-opacity:1"
       d="m 120.71878,138.07288 h 2.64584 v 2.64582 h -2.64584 z"
       id="path2119" />
    <path
       style="display:inline;fill:#b71f2b;fill-opacity:1;stroke:#b71f2b;stroke-width:0.1;stroke-miterlimit:4;stroke-dasharray:none;stroke-opacity:1"
       d="m 115.42713,138.07288 h 2.64583 v 2.64582 h -2.64583 z"
       id="path2117" />
    <path
       style="display:inline;fill:#b71f2b;fill-opacity:1;stroke:#b71f2b;stroke-width:0.1;stroke-miterlimit:4;stroke-dasharray:none;stroke-opacity:1"
       d="m 112.7813,138.07288 h 2.64583 v 2.64582 h -2.64583 z"
       id="path2115" />
    <path
       style="display:inline;fill:#b71f2b;fill-opacity:1;stroke:#b71f2b;stroke-width:0.1;stroke-miterlimit:4;stroke-dasharray:none;stroke-opacity:1"
       d="m 110.13547,138.07288 h 2.64583 v 2.64582 h -2.64583 z"
       id="path2113" />
    <path
       style="display:inline;fill:#b71f2b;fill-opacity:1;stroke:#b71f2b;stroke-width:0.1;stroke-miterlimit:4;stroke-dasharray:none;stroke-opacity:1"
       d="m 104.84381,138.07288 h 2.64583 v 2.64582 h -2.64583 z"
       id="path2111" />
    <path
       style="display:inline;fill:#b71f2b;fill-opacity:1;stroke:#b71f2b;stroke-width:0.1;stroke-miterlimit:4;stroke-dasharray:none;stroke-opacity:1"
       d="m 120.71878,135.42705 h 2.64584 v 2.64583 h -2.64584 z"
       id="path2077" />
    <path
       style="display:inline;fill:#b71f2b;fill-opacity:1;stroke:#b71f2b;stroke-width:0.1;stroke-miterlimit:4;stroke-dasharray:none;stroke-opacity:1"
       d="m 115.42713,135.42705 h 2.64583 v 2.64583 h -2.64583 z"
       id="path2075" />
    <path
       style="display:inline;fill:#b71f2b;fill-opacity:1;stroke:#b71f2b;stroke-width:0.1;stroke-miterlimit:4;stroke-dasharray:none;stroke-opacity:1"
       d="m 112.7813,135.42705 h 2.64583 v 2.64583 h -2.64583 z"
       id="path2073" />
    <path
       style="display:inline;fill:#b71f2b;fill-opacity:1;stroke:#b71f2b;stroke-width:0.1;stroke-miterlimit:4;stroke-dasharray:none;stroke-opacity:1"
       d="m 110.13547,135.42705 h 2.64583 v 2.64583 h -2.64583 z"
       id="path2071" />
    <path
       style="display:inline;fill:#b71f2b;fill-opacity:1;stroke:#b71f2b;stroke-width:0.1;stroke-miterlimit:4;stroke-dasharray:none;stroke-opacity:1"
       d="m 104.84381,135.42705 h 2.64583 v 2.64583 h -2.64583 z"
       id="path2069" />
    <path
       style="display:inline;fill:#b71f2b;fill-opacity:1;stroke:#b71f2b;stroke-width:0.1;stroke-miterlimit:4;stroke-dasharray:none;stroke-opacity:1"
       d="m 120.71878,132.78122 h 2.64584 v 2.64583 h -2.64584 z"
       id="path2049" />
    <path
       style="display:inline;fill:#b71f2b;fill-opacity:1;stroke:#b71f2b;stroke-width:0.1;stroke-miterlimit:4;stroke-dasharray:none;stroke-opacity:1"
       d="m 104.84381,132.78122 h 2.64583 v 2.64583 h -2.64583 z"
       id="path2047" />
    <path
       style="display:inline;fill:#b71f2b;fill-opacity:1;stroke:#b71f2b;stroke-width:0.1;stroke-miterlimit:4;stroke-dasharray:none;stroke-opacity:1"
       d="m 120.71878,130.13539 h 2.64584 v 2.64583 h -2.64584 z"
       id="path2021" />
    <path
       style="display:inline;fill:#b71f2b;fill-opacity:1;stroke:#b71f2b;stroke-width:0.1;stroke-miterlimit:4;stroke-dasharray:none;stroke-opacity:1"
       d="m 118.07296,130.13539 h 2.64582 v 2.64583 h -2.64582 z"
       id="path2019" />
    <path
       style="display:inline;fill:#b71f2b;fill-opacity:1;stroke:#b71f2b;stroke-width:0.1;stroke-miterlimit:4;stroke-dasharray:none;stroke-opacity:1"
       d="m 115.42713,130.13539 h 2.64583 v 2.64583 h -2.64583 z"
       id="path2017" />
    <path
       style="display:inline;fill:#b71f2b;fill-opacity:1;stroke:#b71f2b;stroke-width:0.1;stroke-miterlimit:4;stroke-dasharray:none;stroke-opacity:1"
       d="m 112.7813,130.13539 h 2.64583 v 2.64583 h -2.64583 z"
       id="path2015" />
    <path
       style="display:inline;fill:#b71f2b;fill-opacity:1;stroke:#b71f2b;stroke-width:0.1;stroke-miterlimit:4;stroke-dasharray:none;stroke-opacity:1"
       d="m 110.13547,130.13539 h 2.64583 v 2.64583 h -2.64583 z"
       id="path2013" />
    <path
       style="display:inline;fill:#b71f2b;fill-opacity:1;stroke:#b71f2b;stroke-width:0.1;stroke-miterlimit:4;stroke-dasharray:none;stroke-opacity:1"
       d="m 107.48964,130.13539 h 2.64583 v 2.64583 h -2.64583 z"
       id="path2011" />
    <path
       style="display:inline;fill:#b71f2b;fill-opacity:1;stroke:#b71f2b;stroke-width:0.1;stroke-miterlimit:4;stroke-dasharray:none;stroke-opacity:1"
       d="m 104.84381,130.13539 h 2.64583 v 2.64583 h -2.64583 z"
       id="path2009" />
    <path
       style="display:inline;fill:#b71f2b;fill-opacity:1;stroke:#b71f2b;stroke-width:0.1;stroke-miterlimit:4;stroke-dasharray:none;stroke-opacity:1"
       d="m 189.51037,77.218785 h 2.64582 v 2.64583 h -2.64582 z"
       id="path1401" />
    <path
       style="display:inline;fill:#b71f2b;fill-opacity:1;stroke:#b71f2b;stroke-width:0.1;stroke-miterlimit:4;stroke-dasharray:none;stroke-opacity:1"
       d="m 186.86454,77.218785 h 2.64583 v 2.64583 h -2.64583 z"
       id="path1399" />
    <path
       style="display:inline;fill:#b71f2b;fill-opacity:1;stroke:#b71f2b;stroke-width:0.1;stroke-miterlimit:4;stroke-dasharray:none;stroke-opacity:1"
       d="m 184.2187,77.218785 h 2.64584 v 2.64583 h -2.64584 z"
       id="path1397" />
    <path
       style="display:inline;fill:#b71f2b;fill-opacity:1;stroke:#b71f2b;stroke-width:0.1;stroke-miterlimit:4;stroke-dasharray:none;stroke-opacity:1"
       d="m 181.57288,77.218785 h 2.64582 v 2.64583 h -2.64582 z"
       id="path1395" />
    <path
       style="display:inline;fill:#b71f2b;fill-opacity:1;stroke:#b71f2b;stroke-width:0.1;stroke-miterlimit:4;stroke-dasharray:none;stroke-opacity:1"
       d="m 178.92705,77.218785 h 2.64583 v 2.64583 h -2.64583 z"
       id="path1393" />
    <path
       style="display:inline;fill:#b71f2b;fill-opacity:1;stroke:#b71f2b;stroke-width:0.1;stroke-miterlimit:4;stroke-dasharray:none;stroke-opacity:1"
       d="m 176.28122,77.218785 h 2.64583 v 2.64583 h -2.64583 z"
       id="path1391" />
    <path
       style="display:inline;fill:#b71f2b;fill-opacity:1;stroke:#b71f2b;stroke-width:0.1;stroke-miterlimit:4;stroke-dasharray:none;stroke-opacity:1"
       d="m 173.63539,77.218785 h 2.64583 v 2.64583 h -2.64583 z"
       id="path1389" />
    <path
       style="display:inline;fill:#b71f2b;fill-opacity:1;stroke:#b71f2b;stroke-width:0.1;stroke-miterlimit:4;stroke-dasharray:none;stroke-opacity:1"
       d="m 120.71878,77.218785 h 2.64584 v 2.64583 h -2.64584 z"
       id="path1369" />
    <path
       style="display:inline;fill:#b71f2b;fill-opacity:1;stroke:#b71f2b;stroke-width:0.1;stroke-miterlimit:4;stroke-dasharray:none;stroke-opacity:1"
       d="m 118.07296,77.218785 h 2.64582 v 2.64583 h -2.64582 z"
       id="path1367" />
    <path
       style="display:inline;fill:#b71f2b;fill-opacity:1;stroke:#b71f2b;stroke-width:0.1;stroke-miterlimit:4;stroke-dasharray:none;stroke-opacity:1"
       d="m 115.42713,77.218785 h 2.64583 v 2.64583 h -2.64583 z"
       id="path1365" />
    <path
       style="display:inline;fill:#b71f2b;fill-opacity:1;stroke:#b71f2b;stroke-width:0.1;stroke-miterlimit:4;stroke-dasharray:none;stroke-opacity:1"
       d="m 112.7813,77.218785 h 2.64583 v 2.64583 h -2.64583 z"
       id="path1363" />
    <path
       style="display:inline;fill:#b71f2b;fill-opacity:1;stroke:#b71f2b;stroke-width:0.1;stroke-miterlimit:4;stroke-dasharray:none;stroke-opacity:1"
       d="m 110.13547,77.218785 h 2.64583 v 2.64583 h -2.64583 z"
       id="path1361" />
    <path
       style="display:inline;fill:#b71f2b;fill-opacity:1;stroke:#b71f2b;stroke-width:0.1;stroke-miterlimit:4;stroke-dasharray:none;stroke-opacity:1"
       d="m 107.48964,77.218785 h 2.64583 v 2.64583 h -2.64583 z"
       id="path1359" />
    <path
       style="display:inline;fill:#b71f2b;fill-opacity:1;stroke:#b71f2b;stroke-width:0.1;stroke-miterlimit:4;stroke-dasharray:none;stroke-opacity:1"
       d="m 104.84381,77.218785 h 2.64583 v 2.64583 h -2.64583 z"
       id="path1357" />
    <path
       style="display:inline;fill:#b71f2b;fill-opacity:1;stroke:#b71f2b;stroke-width:0.1;stroke-miterlimit:4;stroke-dasharray:none;stroke-opacity:1"
       d="m 189.51037,74.572955 h 2.64582 v 2.64583 h -2.64582 z"
       id="path1355" />
    <path
       style="display:inline;fill:#b71f2b;fill-opacity:1;stroke:#b71f2b;stroke-width:0.1;stroke-miterlimit:4;stroke-dasharray:none;stroke-opacity:1"
       d="m 173.63539,74.572955 h 2.64583 v 2.64583 h -2.64583 z"
       id="path1353" />
    <path
       style="display:inline;fill:#b71f2b;fill-opacity:1;stroke:#b71f2b;stroke-width:0.1;stroke-miterlimit:4;stroke-dasharray:none;stroke-opacity:1"
       d="m 120.71878,74.572955 h 2.64584 v 2.64583 h -2.64584 z"
       id="path1335" />
    <path
       style="display:inline;fill:#b71f2b;fill-opacity:1;stroke:#b71f2b;stroke-width:0.1;stroke-miterlimit:4;stroke-dasharray:none;stroke-opacity:1"
       d="m 104.84381,74.572955 h 2.64583 v 2.64583 h -2.64583 z"
       id="path1333" />
    <path
       style="display:inline;fill:#b71f2b;fill-opacity:1;stroke:#b71f2b;stroke-width:0.1;stroke-miterlimit:4;stroke-dasharray:none;stroke-opacity:1"
       d="m 189.51037,71.927125 h 2.64582 v 2.64583 h -2.64582 z"
       id="path1331" />
    <path
       style="display:inline;fill:#b71f2b;fill-opacity:1;stroke:#b71f2b;stroke-width:0.1;stroke-miterlimit:4;stroke-dasharray:none;stroke-opacity:1"
       d="m 184.2187,71.927125 h 2.64584 v 2.64583 h -2.64584 z"
       id="path1329" />
    <path
       style="display:inline;fill:#b71f2b;fill-opacity:1;stroke:#b71f2b;stroke-width:0.1;stroke-miterlimit:4;stroke-dasharray:none;stroke-opacity:1"
       d="m 181.57288,71.927125 h 2.64582 v 2.64583 h -2.64582 z"
       id="path1327" />
    <path
       style="display:inline;fill:#b71f2b;fill-opacity:1;stroke:#b71f2b;stroke-width:0.1;stroke-miterlimit:4;stroke-dasharray:none;stroke-opacity:1"
       d="m 178.92705,71.927125 h 2.64583 v 2.64583 h -2.64583 z"
       id="path1325" />
    <path
       style="display:inline;fill:#b71f2b;fill-opacity:1;stroke:#b71f2b;stroke-width:0.1;stroke-miterlimit:4;stroke-dasharray:none;stroke-opacity:1"
       d="m 173.63539,71.927125 h 2.64583 v 2.64583 h -2.64583 z"
       id="path1323" />
    <path
       style="display:inline;fill:#b71f2b;fill-opacity:1;stroke:#b71f2b;stroke-width:0.1;stroke-miterlimit:4;stroke-dasharray:none;stroke-opacity:1"
       d="m 120.71878,71.927125 h 2.64584 v 2.64583 h -2.64584 z"
       id="path1297" />
    <path
       style="display:inline;fill:#b71f2b;fill-opacity:1;stroke:#b71f2b;stroke-width:0.1;stroke-miterlimit:4;stroke-dasharray:none;stroke-opacity:1"
       d="m 115.42713,71.927125 h 2.64583 v 2.64583 h -2.64583 z"
       id="path1295" />
    <path
       style="display:inline;fill:#b71f2b;fill-opacity:1;stroke:#b71f2b;stroke-width:0.1;stroke-miterlimit:4;stroke-dasharray:none;stroke-opacity:1"
       d="m 112.7813,71.927125 h 2.64583 v 2.64583 h -2.64583 z"
       id="path1293" />
    <path
       style="display:inline;fill:#b71f2b;fill-opacity:1;stroke:#b71f2b;stroke-width:0.1;stroke-miterlimit:4;stroke-dasharray:none;stroke-opacity:1"
       d="m 110.13547,71.927125 h 2.64583 v 2.64583 h -2.64583 z"
       id="path1291" />
    <path
       style="display:inline;fill:#b71f2b;fill-opacity:1;stroke:#b71f2b;stroke-width:0.1;stroke-miterlimit:4;stroke-dasharray:none;stroke-opacity:1"
       d="m 104.84381,71.927125 h 2.64583 v 2.64583 h -2.64583 z"
       id="path1289" />
    <path
       style="display:inline;fill:#b71f2b;fill-opacity:1;stroke:#b71f2b;stroke-width:0.1;stroke-miterlimit:4;stroke-dasharray:none;stroke-opacity:1"
       d="m 189.51037,69.281295 h 2.64582 v 2.64583 h -2.64582 z"
       id="path1287" />
    <path
       style="display:inline;fill:#b71f2b;fill-opacity:1;stroke:#b71f2b;stroke-width:0.1;stroke-miterlimit:4;stroke-dasharray:none;stroke-opacity:1"
       d="m 184.2187,69.281295 h 2.64584 v 2.64583 h -2.64584 z"
       id="path1285" />
    <path
       style="display:inline;fill:#b71f2b;fill-opacity:1;stroke:#b71f2b;stroke-width:0.1;stroke-miterlimit:4;stroke-dasharray:none;stroke-opacity:1"
       d="m 181.57288,69.281295 h 2.64582 v 2.64583 h -2.64582 z"
       id="path1283" />
    <path
       style="display:inline;fill:#b71f2b;fill-opacity:1;stroke:#b71f2b;stroke-width:0.1;stroke-miterlimit:4;stroke-dasharray:none;stroke-opacity:1"
       d="m 178.92705,69.281295 h 2.64583 v 2.64583 h -2.64583 z"
       id="path1281" />
    <path
       style="display:inline;fill:#b71f2b;fill-opacity:1;stroke:#b71f2b;stroke-width:0.1;stroke-miterlimit:4;stroke-dasharray:none;stroke-opacity:1"
       d="m 173.63539,69.281295 h 2.64583 v 2.64583 h -2.64583 z"
       id="path1279" />
    <path
       style="display:inline;fill:#b71f2b;fill-opacity:1;stroke:#b71f2b;stroke-width:0.1;stroke-miterlimit:4;stroke-dasharray:none;stroke-opacity:1"
       d="m 120.71878,69.281295 h 2.64584 v 2.64583 h -2.64584 z"
       id="path1267" />
    <path
       style="display:inline;fill:#b71f2b;fill-opacity:1;stroke:#b71f2b;stroke-width:0.1;stroke-miterlimit:4;stroke-dasharray:none;stroke-opacity:1"
       d="m 115.42713,69.281295 h 2.64583 v 2.64583 h -2.64583 z"
       id="path1265" />
    <path
       style="display:inline;fill:#b71f2b;fill-opacity:1;stroke:#b71f2b;stroke-width:0.1;stroke-miterlimit:4;stroke-dasharray:none;stroke-opacity:1"
       d="m 112.7813,69.281295 h 2.64583 v 2.64583 h -2.64583 z"
       id="path1263" />
    <path
       style="display:inline;fill:#b71f2b;fill-opacity:1;stroke:#b71f2b;stroke-width:0.1;stroke-miterlimit:4;stroke-dasharray:none;stroke-opacity:1"
       d="m 110.13547,69.281295 h 2.64583 v 2.64583 h -2.64583 z"
       id="path1261" />
    <path
       style="display:inline;fill:#b71f2b;fill-opacity:1;stroke:#b71f2b;stroke-width:0.1;stroke-miterlimit:4;stroke-dasharray:none;stroke-opacity:1"
       d="m 104.84381,69.281295 h 2.64583 v 2.64583 h -2.64583 z"
       id="path1259" />
    <path
       style="display:inline;fill:#b71f2b;fill-opacity:1;stroke:#b71f2b;stroke-width:0.1;stroke-miterlimit:4;stroke-dasharray:none;stroke-opacity:1"
       d="m 189.51037,66.635465 h 2.64582 v 2.64583 h -2.64582 z"
       id="path1257" />
    <path
       style="display:inline;fill:#b71f2b;fill-opacity:1;stroke:#b71f2b;stroke-width:0.1;stroke-miterlimit:4;stroke-dasharray:none;stroke-opacity:1"
       d="m 184.2187,66.635465 h 2.64584 v 2.64583 h -2.64584 z"
       id="path1255" />
    <path
       style="display:inline;fill:#b71f2b;fill-opacity:1;stroke:#b71f2b;stroke-width:0.1;stroke-miterlimit:4;stroke-dasharray:none;stroke-opacity:1"
       d="m 181.57288,66.635465 h 2.64582 v 2.64583 h -2.64582 z"
       id="path1253" />
    <path
       style="display:inline;fill:#b71f2b;fill-opacity:1;stroke:#b71f2b;stroke-width:0.1;stroke-miterlimit:4;stroke-dasharray:none;stroke-opacity:1"
       d="m 178.92705,66.635465 h 2.64583 v 2.64583 h -2.64583 z"
       id="path1251" />
    <path
       style="display:inline;fill:#b71f2b;fill-opacity:1;stroke:#b71f2b;stroke-width:0.1;stroke-miterlimit:4;stroke-dasharray:none;stroke-opacity:1"
       d="m 173.63539,66.635465 h 2.64583 v 2.64583 h -2.64583 z"
       id="path1249" />
    <path
       style="display:inline;fill:#b71f2b;fill-opacity:1;stroke:#b71f2b;stroke-width:0.1;stroke-miterlimit:4;stroke-dasharray:none;stroke-opacity:1"
       d="m 120.71878,66.635465 h 2.64584 v 2.64583 h -2.64584 z"
       id="path1227" />
    <path
       style="display:inline;fill:#b71f2b;fill-opacity:1;stroke:#b71f2b;stroke-width:0.1;stroke-miterlimit:4;stroke-dasharray:none;stroke-opacity:1"
       d="m 115.42713,66.635465 h 2.64583 v 2.64583 h -2.64583 z"
       id="path1225" />
    <path
       style="display:inline;fill:#b71f2b;fill-opacity:1;stroke:#b71f2b;stroke-width:0.1;stroke-miterlimit:4;stroke-dasharray:none;stroke-opacity:1"
       d="m 112.7813,66.635465 h 2.64583 v 2.64583 h -2.64583 z"
       id="path1223" />
    <path
       style="display:inline;fill:#b71f2b;fill-opacity:1;stroke:#b71f2b;stroke-width:0.1;stroke-miterlimit:4;stroke-dasharray:none;stroke-opacity:1"
       d="m 110.13547,66.635465 h 2.64583 v 2.64583 h -2.64583 z"
       id="path1221" />
    <path
       style="display:inline;fill:#b71f2b;fill-opacity:1;stroke:#b71f2b;stroke-width:0.1;stroke-miterlimit:4;stroke-dasharray:none;stroke-opacity:1"
       d="m 104.84381,66.635465 h 2.64583 v 2.64583 h -2.64583 z"
       id="path1219" />
    <path
       style="display:inline;fill:#b71f2b;fill-opacity:1;stroke:#b71f2b;stroke-width:0.1;stroke-miterlimit:4;stroke-dasharray:none;stroke-opacity:1"
       d="m 189.51037,63.989635 h 2.64582 v 2.64583 h -2.64582 z"
       id="path1217" />
    <path
       style="display:inline;fill:#b71f2b;fill-opacity:1;stroke:#b71f2b;stroke-width:0.1;stroke-miterlimit:4;stroke-dasharray:none;stroke-opacity:1"
       d="m 173.63539,63.989635 h 2.64583 v 2.64583 h -2.64583 z"
       id="path1215" />
    <path
       style="display:inline;fill:#b71f2b;fill-opacity:1;stroke:#b71f2b;stroke-width:0.1;stroke-miterlimit:4;stroke-dasharray:none;stroke-opacity:1"
       d="m 120.71878,63.989635 h 2.64584 v 2.64583 h -2.64584 z"
       id="path1197" />
    <path
       style="display:inline;fill:#b71f2b;fill-opacity:1;stroke:#b71f2b;stroke-width:0.1;stroke-miterlimit:4;stroke-dasharray:none;stroke-opacity:1"
       d="m 104.84381,63.989635 h 2.64583 v 2.64583 h -2.64583 z"
       id="path1195" />
    <path
       style="display:inline;fill:#b71f2b;fill-opacity:1;stroke:#b71f2b;stroke-width:0.1;stroke-miterlimit:4;stroke-dasharray:none;stroke-opacity:1"
       d="m 189.51037,61.343805 h 2.64582 v 2.64583 h -2.64582 z"
       id="path1193" />
    <path
       style="display:inline;fill:#b71f2b;fill-opacity:1;stroke:#b71f2b;stroke-width:0.1;stroke-miterlimit:4;stroke-dasharray:none;stroke-opacity:1"
       d="m 186.86454,61.343805 h 2.64583 v 2.64583 h -2.64583 z"
       id="path1191" />
    <path
       style="display:inline;fill:#b71f2b;fill-opacity:1;stroke:#b71f2b;stroke-width:0.1;stroke-miterlimit:4;stroke-dasharray:none;stroke-opacity:1"
       d="m 184.2187,61.343805 h 2.64584 v 2.64583 h -2.64584 z"
       id="path1189" />
    <path
       style="display:inline;fill:#b71f2b;fill-opacity:1;stroke:#b71f2b;stroke-width:0.1;stroke-miterlimit:4;stroke-dasharray:none;stroke-opacity:1"
       d="m 181.57288,61.343805 h 2.64582 v 2.64583 h -2.64582 z"
       id="path1187" />
    <path
       style="display:inline;fill:#b71f2b;fill-opacity:1;stroke:#b71f2b;stroke-width:0.1;stroke-miterlimit:4;stroke-dasharray:none;stroke-opacity:1"
       d="m 178.92705,61.343805 h 2.64583 v 2.64583 h -2.64583 z"
       id="path1185" />
    <path
       style="display:inline;fill:#b71f2b;fill-opacity:1;stroke:#b71f2b;stroke-width:0.1;stroke-miterlimit:4;stroke-dasharray:none;stroke-opacity:1"
       d="m 176.28122,61.343805 h 2.64583 v 2.64583 h -2.64583 z"
       id="path1183" />
    <path
       style="display:inline;fill:#b71f2b;fill-opacity:1;stroke:#b71f2b;stroke-width:0.1;stroke-miterlimit:4;stroke-dasharray:none;stroke-opacity:1"
       d="m 173.63539,61.343805 h 2.64583 v 2.64583 h -2.64583 z"
       id="path1181" />
    <path
       style="display:inline;fill:#b71f2b;fill-opacity:1;stroke:#b71f2b;stroke-width:0.1;stroke-miterlimit:4;stroke-dasharray:none;stroke-opacity:1"
       d="m 120.71878,61.343805 h 2.64584 v 2.64583 h -2.64584 z"
       id="path1159" />
    <path
       style="display:inline;fill:#b71f2b;fill-opacity:1;stroke:#b71f2b;stroke-width:0.1;stroke-miterlimit:4;stroke-dasharray:none;stroke-opacity:1"
       d="m 118.07296,61.343805 h 2.64582 v 2.64583 h -2.64582 z"
       id="path1157" />
    <path
       style="display:inline;fill:#b71f2b;fill-opacity:1;stroke:#b71f2b;stroke-width:0.1;stroke-miterlimit:4;stroke-dasharray:none;stroke-opacity:1"
       d="m 115.42713,61.343805 h 2.64583 v 2.64583 h -2.64583 z"
       id="path1155" />
    <path
       style="display:inline;fill:#b71f2b;fill-opacity:1;stroke:#b71f2b;stroke-width:0.1;stroke-miterlimit:4;stroke-dasharray:none;stroke-opacity:1"
       d="m 112.7813,61.343805 h 2.64583 v 2.64583 h -2.64583 z"
       id="path1153" />
    <path
       style="display:inline;fill:#b71f2b;fill-opacity:1;stroke:#b71f2b;stroke-width:0.1;stroke-miterlimit:4;stroke-dasharray:none;stroke-opacity:1"
       d="m 110.13547,61.343805 h 2.64583 v 2.64583 h -2.64583 z"
       id="path1151" />
    <path
       style="display:inline;fill:#b71f2b;fill-opacity:1;stroke:#b71f2b;stroke-width:0.1;stroke-miterlimit:4;stroke-dasharray:none;stroke-opacity:1"
       d="m 107.48964,61.343805 h 2.64583 v 2.64583 h -2.64583 z"
       id="path1149" />
    <path
       style="display:inline;fill:#b71f2b;fill-opacity:1;stroke:#b71f2b;stroke-width:0.1;stroke-miterlimit:4;stroke-dasharray:none;stroke-opacity:1"
       d="m 104.84381,61.343805 h 2.64583 v 2.64583 h -2.64583 z"
       id="path1110" />
    <rect
       style="color:#000000;display:inline;overflow:visible;fill:#ffffff;stroke:#ffffff;stroke-width:0.05;stroke-linecap:square;stroke-miterlimit:4;stroke-dasharray:none"
       id="rect8882"
       width="34.39579"
       height="23.812469"
       x="131.30211"
       y="93.093765" />
    <g
       id="g49"
       transform="matrix(0.07861652,0,0,0.07861652,133.30834,96.295388)">
      <linearGradient
         y2="209.8271"
         x2="294.35931"
         y1="6.5303001"
         x1="91.062599"
         gradientUnits="userSpaceOnUse"
         id="linearGradient908">
        <stop
           id="stop896"
           style="stop-color:#B7212B"
           offset="0" />
        <stop
           id="stop898"
           style="stop-color:#C62D35"
           offset="7.399303e-02" />
        <stop
           id="stop900"
           style="stop-color:#D63941"
           offset="0.1787" />
        <stop
           id="stop902"
           style="stop-color:#E14349"
           offset="0.3091" />
        <stop
           id="stop904"
           style="stop-color:#E8494F"
           offset="0.4921" />
        <stop
           id="stop906"
           style="stop-color:#E94A50"
           offset="1" />
      </linearGradient>
      <path
         id="path15"
         d="m 29.5,127.7 c 3.8,0 6.8,-0.9 9,-2.7 2.2,-1.8 3.6,-3.9 4.3,-6.3 l 14.3,1 c -0.7,2.9 -1.8,5.6 -3.4,8.2 -1.6,2.6 -3.6,4.9 -5.9,6.8 -2.3,1.9 -5.1,3.5 -8.1,4.7 -3.1,1.2 -6.5,1.8 -10.1,1.8 -4.1,0 -7.9,-0.8 -11.5,-2.3 -3.6,-1.6 -6.7,-3.7 -9.4,-6.5 -2.7,-2.8 -4.8,-6 -6.3,-9.7 -1.6,-3.7 -2.3,-7.7 -2.3,-12 0,-4.3 0.8,-8.2 2.3,-12 1.6,-3.7 3.7,-7 6.3,-9.7 2.7,-2.8 5.8,-4.9 9.4,-6.5 3.6,-1.6 7.4,-2.3 11.5,-2.3 3.6,0 6.8,0.6 9.9,1.8 3,1.2 5.7,2.7 8,4.7 2.3,1.9 4.3,4.2 5.9,6.8 1.6,2.6 2.7,5.3 3.4,8.2 l -14.3,1 c -0.4,-1.2 -0.9,-2.3 -1.6,-3.4 -0.7,-1.1 -1.6,-2 -2.7,-2.9 -1.1,-0.8 -2.3,-1.5 -3.8,-2 -1.4,-0.5 -3,-0.8 -4.8,-0.8 -2.2,0 -4.2,0.4 -6.1,1.3 -1.9,0.9 -3.6,2 -5,3.6 -1.4,1.5 -2.6,3.3 -3.4,5.4 -0.8,2.1 -1.2,4.4 -1.2,6.9 0,2.5 0.4,4.8 1.2,6.9 0.8,2.1 2,3.9 3.4,5.4 1.4,1.5 3.1,2.7 5,3.6 1.8,0.6 3.9,1 6,1 z m 93.4,-29.1 c -1.6,-3.7 -3.7,-7 -6.3,-9.7 -2.7,-2.8 -5.8,-4.9 -9.4,-6.5 -3.6,-1.6 -7.4,-2.3 -11.5,-2.3 -4.1,0 -7.9,0.8 -11.5,2.3 -3.6,1.6 -6.7,3.7 -9.4,6.5 -2.7,2.8 -4.8,6 -6.3,9.7 -1.6,3.7 -2.3,7.7 -2.3,12 0,4.3 0.8,8.3 2.3,12 1.6,3.7 3.7,6.9 6.3,9.7 2.7,2.8 5.8,4.9 9.4,6.5 3.6,1.6 7.4,2.3 11.5,2.3 4.1,0 7.9,-0.8 11.5,-2.3 3.6,-1.6 6.7,-3.7 9.4,-6.5 2.7,-2.8 4.8,-6 6.3,-9.7 1.6,-3.7 2.3,-7.7 2.3,-12 0,-4.3 -0.8,-8.2 -2.3,-12 z m -12.7,18.9 c -0.8,2.1 -2,3.9 -3.4,5.4 -1.4,1.5 -3.1,2.7 -5,3.6 -1.9,0.9 -3.9,1.3 -6.1,1.3 -2.2,0 -4.2,-0.4 -6.1,-1.3 -1.9,-0.9 -3.6,-2 -5,-3.6 -1.4,-1.5 -2.6,-3.3 -3.4,-5.4 -0.8,-2.1 -1.2,-4.4 -1.2,-6.9 0,-2.5 0.4,-4.8 1.2,-6.9 0.8,-2.1 2,-3.9 3.4,-5.4 1.4,-1.5 3.1,-2.7 5,-3.6 1.9,-0.9 3.9,-1.3 6.1,-1.3 2.2,0 4.2,0.4 6.1,1.3 1.9,0.9 3.6,2 5,3.6 1.4,1.5 2.6,3.3 3.4,5.4 0.8,2.1 1.2,4.4 1.2,6.9 0,2.5 -0.4,4.8 -1.2,6.9 z m 70.4,-36.9 -20.5,60 h -14.3 l -20.5,-60 h 14.3 L 153,122 166.3,80.6 Z m 22.2,60 H 189 v -60 h 13.8 z m 56.5,-41.7 c -1.6,-3.6 -3.7,-6.8 -6.4,-9.5 -2.7,-2.7 -5.9,-4.9 -9.5,-6.4 -3.6,-1.6 -7.5,-2.3 -11.7,-2.3 h -20.5 v 60 h 20.5 c 4.2,0 8.1,-0.8 11.7,-2.3 3.6,-1.6 6.8,-3.7 9.5,-6.4 2.7,-2.7 4.9,-5.9 6.4,-9.5 1.6,-3.6 2.3,-7.5 2.3,-11.7 0,-4.4 -0.8,-8.3 -2.3,-11.9 z m -12.7,18.4 c -0.8,2 -2,3.8 -3.4,5.2 -1.5,1.5 -3.2,2.6 -5.1,3.5 -2,0.9 -4.1,1.3 -6.4,1.3 H 225 V 93.9 h 6.7 c 2.3,0 4.4,0.4 6.4,1.3 2,0.9 3.7,2 5.1,3.5 1.5,1.5 2.6,3.2 3.4,5.3 0.8,2.1 1.2,4.3 1.2,6.6 0,2.4 -0.4,4.6 -1.2,6.7 z m 22.7,-13.8 h 29 v 11.4 h -29 z m 63.3,-22.9 v 60 H 318.8 V 97.7 l -6.2,4.3 -6.6,-10.4 15.7,-11 z m 50.8,12.2 c -1.1,-2.5 -2.6,-4.7 -4.6,-6.6 -2,-1.9 -4.3,-3.3 -7.1,-4.4 -2.8,-1.1 -5.8,-1.6 -9.1,-1.6 -3.4,0 -6.4,0.5 -9.1,1.6 -2.7,1.1 -5.1,2.6 -7,4.4 -2,1.9 -3.5,4.1 -4.6,6.6 -1.1,2.5 -1.6,5.3 -1.6,8.3 0,3.1 0.6,6 1.8,8.6 1.2,2.6 2.8,4.8 4.9,6.7 2,1.8 4.4,3.2 7,4.2 2.6,1 5.4,1.3 8.2,1 l -12.9,19 h 14.3 l 15.7,-23.3 c 1.1,-1.5 2,-3.1 2.9,-4.9 0.7,-1.5 1.3,-3.2 2,-5.1 0.6,-2 0.9,-4 0.9,-6.2 -0.1,-3 -0.6,-5.8 -1.7,-8.3 z m -14.7,14.8 c -1.7,1.7 -3.7,2.5 -6.1,2.5 -2.4,0 -4.4,-0.8 -6.1,-2.5 -1.7,-1.7 -2.5,-3.9 -2.5,-6.5 0,-2.7 0.8,-4.8 2.5,-6.5 1.6,-1.7 3.7,-2.5 6.1,-2.5 2.4,0 4.4,0.8 6.1,2.5 1.7,1.7 2.5,3.9 2.5,6.5 0,2.6 -0.8,4.8 -2.5,6.5 z"
         fill="url(#SVGID_1_)"
         style="fill:url(#SVGID_1_)" />
      <g
         id="g25">
        <path
           id="path17"
           d="m 215.8,154.7 c 3.4,0 6.6,0.6 9.4,1.7 2.8,1.1 5.3,2.6 7.3,4.5 2,1.9 3.6,4.1 4.7,6.7 1.1,2.6 1.7,5.3 1.7,8.2 0,3.7 -0.6,6.8 -1.9,9.4 -1.3,2.5 -2.7,4.6 -4.3,6.2 -1.6,1.6 -3.7,3.1 -6.4,4.5 L 241,221.1 H 224.2 L 212.1,199 h -7.9 v 22.1 H 189 v -66.3 h 26.8 z m 0,29.4 c 2.7,0 4.7,-0.7 6.2,-2.1 1.5,-1.4 2.2,-3.2 2.2,-5.3 0,-2.1 -0.7,-3.9 -2.2,-5.3 -1.5,-1.4 -3.5,-2.1 -6.2,-2.1 H 204.2 V 184 h 11.6 z"
           fill="#384e71" />
        <path
           id="path19"
           d="m 264.7,220.9 h -15.3 v -66.3 h 15.3 z"
           fill="#384e71" />
        <path
           id="path21"
           d="m 273.6,173.1 c 0,-2.5 0.5,-4.9 1.6,-7.2 1.1,-2.3 2.6,-4.3 4.7,-6 2,-1.7 4.5,-3.1 7.4,-4.2 2.9,-1.1 6.2,-1.6 9.9,-1.6 3.6,0 6.8,0.5 9.6,1.6 2.8,1.1 5.3,2.5 7.3,4.4 2,1.9 3.5,4.1 4.6,6.7 1.1,2.6 1.6,5.3 1.6,8.4 l -14.7,1.1 c 0,-2.7 -0.7,-4.7 -2.2,-6.2 -1.5,-1.5 -3.5,-2.2 -6.2,-2.2 -2.4,0 -4.3,0.6 -5.7,1.9 -1.4,1.3 -2.2,2.8 -2.2,4.4 0,1.6 0.8,2.8 2.4,3.7 1.6,0.8 3.6,1.6 6,2.4 2.4,0.7 5,1.5 7.8,2.4 2.8,0.8 5.4,2 7.8,3.6 2.4,1.5 4.4,3.6 6,6.1 1.6,2.5 2.4,5.8 2.4,9.8 0,2.7 -0.5,5.2 -1.6,7.5 -1.1,2.3 -2.7,4.4 -4.8,6.2 -2.1,1.8 -4.7,3.2 -7.8,4.2 -3.1,1.1 -6.6,1.6 -10.5,1.6 -3.8,0 -7.2,-0.5 -10.2,-1.6 -3,-1.1 -5.6,-2.5 -7.6,-4.5 -2.1,-1.9 -3.6,-4.2 -4.7,-6.8 -1.1,-2.6 -1.6,-5.5 -1.6,-8.7 l 14.7,-1.1 c 0,6 3.2,8.9 9.5,8.9 2.9,0 5.2,-0.7 6.7,-2.1 1.5,-1.4 2.3,-3 2.3,-4.8 0,-1.7 -0.8,-3 -2.4,-3.9 -1.6,-0.9 -3.6,-1.8 -6,-2.5 -2.4,-0.8 -5,-1.6 -7.8,-2.4 -2.8,-0.8 -5.4,-2 -7.8,-3.5 -2.4,-1.5 -4.4,-3.5 -6,-5.9 -1.7,-2.6 -2.5,-5.8 -2.5,-9.7 z"
           fill="#384e71" />
        <path
           id="path23"
           d="m 367.2,220.9 -21.6,-29.5 v 29.5 h -15.3 v -66.3 h 15.3 V 183 l 20,-28.4 H 383 l -23.4,32.6 24.9,33.7 z"
           fill="#384e71" />
      </g>
      <path
         id="path27"
         d="M 24.2,41.9 2.2,0.5 H 18.4 L 31.8,26.7 45.2,0.5 h 16.2 l -22,41.4 V 66.5 H 24.2 Z"
         fill="#384e71" />
      <path
         id="path29"
         d="m 121.6,33.5 c 0,4.8 -0.9,9.2 -2.6,13.2 -1.7,4.1 -4,7.6 -7,10.6 -2.9,3 -6.4,5.4 -10.3,7.1 -3.9,1.7 -8.2,2.6 -12.6,2.6 -4.5,0 -8.7,-0.9 -12.6,-2.6 -3.9,-1.7 -7.4,-4.1 -10.3,-7.1 -2.9,-3 -5.3,-6.6 -7,-10.6 -1.7,-4.1 -2.6,-8.5 -2.6,-13.2 0,-4.7 0.9,-9.1 2.6,-13.2 1.7,-4.1 4,-7.7 7,-10.7 2.9,-3 6.4,-5.4 10.3,-7.1 C 80.4,0.9 84.6,0 89.1,0 c 4.5,0 8.7,0.9 12.6,2.6 3.9,1.7 7.4,4.1 10.3,7.1 2.9,3 5.3,6.6 7,10.7 1.7,4.1 2.6,8.5 2.6,13.1 z m -15.2,0 c 0,-2.7 -0.5,-5.2 -1.4,-7.5 -0.9,-2.3 -2.1,-4.3 -3.7,-6 -1.6,-1.7 -3.4,-3 -5.5,-3.9 -2.1,-0.9 -4.3,-1.4 -6.7,-1.4 -2.4,0 -4.6,0.5 -6.7,1.4 -2.1,0.9 -3.9,2.3 -5.5,3.9 -1.6,1.7 -2.8,3.7 -3.7,6 -0.9,2.3 -1.4,4.8 -1.4,7.5 0,2.7 0.5,5.2 1.4,7.5 0.9,2.3 2.1,4.3 3.7,6 1.6,1.7 3.4,3 5.5,3.9 2.1,0.9 4.3,1.4 6.7,1.4 2.4,0 4.6,-0.5 6.7,-1.4 2.1,-0.9 3.9,-2.3 5.5,-3.9 1.6,-1.6 2.8,-3.7 3.7,-6 0.9,-2.2 1.4,-4.7 1.4,-7.5 z"
         fill="#384e71" />
      <path
         id="path31"
         d="m 142.6,0.5 v 39.3 c 0,4 1.1,7.1 3.2,9.3 2.2,2.2 5.1,3.3 8.8,3.3 3.7,0 6.6,-1.1 8.8,-3.3 2.2,-2.2 3.2,-5.3 3.2,-9.3 V 0.5 h 15.2 v 39.3 c 0,4.1 -0.7,7.8 -2,11.1 -1.3,3.4 -3.2,6.2 -5.6,8.6 -2.4,2.4 -5.2,4.2 -8.6,5.6 -3.4,1.3 -7.1,2 -11.1,2 -4.1,0 -7.8,-0.7 -11.1,-2 -3.4,-1.3 -6.2,-3.2 -8.6,-5.6 -2.4,-2.4 -4.2,-5.2 -5.6,-8.6 -1.3,-3.4 -2,-7.1 -2,-11.1 V 0.5 Z"
         fill="#384e71" />
      <path
         id="path33"
         d="m 215.7,0.4 c 3.4,0 6.5,0.6 9.4,1.7 2.8,1.1 5.3,2.6 7.3,4.5 2,1.9 3.6,4.1 4.7,6.7 1.1,2.6 1.7,5.3 1.7,8.1 0,3.7 -0.6,6.8 -1.9,9.3 -1.3,2.5 -2.7,4.6 -4.3,6.1 -1.6,1.6 -3.7,3.1 -6.3,4.5 L 241,66.5 h -16.8 l -12.1,-22 h -7.9 v 22 H 189 v -66 h 26.7 z m 0,29.3 c 2.7,0 4.7,-0.7 6.2,-2.1 1.5,-1.4 2.2,-3.1 2.2,-5.2 0,-2.1 -0.7,-3.8 -2.2,-5.2 -1.5,-1.4 -3.5,-2.1 -6.2,-2.1 h -11.5 v 14.7 h 11.5 z"
         fill="#384e71" />
      <path
         id="path35"
         d="M 256.7,39.5 V 25.7 h 126.2 v 13.8 z"
         fill="#384e71" />
      <g
         id="g47">
        <path
           id="path37"
           d="m 158.4,194.7 h 14.7 V 180.9 H 139 c 6.9,3.9 13.4,8.5 19.4,13.8 z"
           fill="#384e71" />
        <path
           id="path39"
           d="M 43.8,191.5 C 30.6,190 16.4,191.1 2.2,194.6 v 0.1 h 57.3 c -1.9,-0.6 -3.8,-1.1 -5.6,-1.5 -3.2,-0.8 -6.7,-1.3 -10.1,-1.7 z"
           fill="#384e71" />
        <path
           id="path41"
           d="m 71.7,185.6 c -5,-2 -10.2,-3.5 -15.5,-4.7 H 12.3 c -3.4,0.7 -6.7,1.4 -10.1,2.4 v 4.4 c 14.4,-3.4 28.6,-4.3 42.3,-2.8 3.7,0.4 7.3,1 10.9,1.8 3.9,1 7.8,2.1 11.6,3.4 l 0.2,0.1 c 3.6,1.5 6.8,2.9 9.8,4.2 0.2,0.1 0.4,0.2 0.7,0.3 h 14.6 c -3.9,-1.6 -7.7,-3.2 -11.4,-4.9 -3.5,-1.5 -6.5,-2.9 -9.2,-4.2 z"
           fill="#384e71" />
        <path
           id="path43"
           d="m 68.6,180.9 c 1.5,0.5 3,1 4.4,1.6 l 0.1,0.1 c 2.7,1.3 5.6,2.7 9,4.2 4.6,2 9.3,4 14.3,6.1 1.4,0.6 2.9,1.2 4.3,1.8 h 29 C 120,189 109.3,184.3 97.8,180.9 Z"
           fill="#384e71" />
        <path
           id="path45"
           d="m 108.3,180.9 c 10,3.7 19.3,8.3 27.8,13.8 h 15.5 c -6.4,-5.1 -13.7,-9.7 -22,-13.8 z"
           fill="#384e71" />
      </g>
    </g>
  </g>
</svg>
