<?xml version='1.0' encoding='UTF-8' ?>
<svg xmlns='http://www.w3.org/2000/svg' xmlns:xlink='http://www.w3.org/1999/xlink' viewBox='0 0 510.24 321.45'>
<defs>
  <style type='text/css'><![CDATA[
    line, polyline, polygon, path, rect, circle {
      fill: none;
      stroke: #000000;
      stroke-linecap: round;
      stroke-linejoin: round;
      stroke-miterlimit: 10.00;
    }
  ]]></style>
</defs>
<rect width='100%' height='100%' style='stroke: none; fill: none;'/>
<defs>
  <clipPath id='cpMjU4LjM4fDQxOC43NHwzMjEuNDV8MTguMDA='>
    <rect x='258.38' y='18.00' width='160.36' height='303.45' />
  </clipPath>
</defs>
<rect x='258.38' y='18.00' width='160.36' height='303.45' style='stroke-width: 0.78; stroke: #FFFFFF; fill: #FFFFFF;' clip-path='url(#cpMjU4LjM4fDQxOC43NHwzMjEuNDV8MTguMDA=)' />
<defs>
  <clipPath id='cpMC4wMHw1MTAuMjR8MzIxLjQ1fDAuMDA='>
    <rect x='0.00' y='0.00' width='510.24' height='321.45' />
  </clipPath>
</defs>
<defs>
  <clipPath id='cpMjkwLjE0fDM4MS42NXwyOTguOTV8MjEuOTk='>
    <rect x='290.14' y='21.99' width='91.50' height='276.97' />
  </clipPath>
</defs>
<rect x='290.14' y='21.99' width='91.50' height='276.97' style='stroke-width: 0.78; stroke: none; fill: #FFFFFF;' clip-path='url(#cpMjkwLjE0fDM4MS42NXwyOTguOTV8MjEuOTk=)' />
<polyline points='297.91,298.95 297.91,21.99 ' style='stroke-width: 0.39; stroke: #EBEBEB; stroke-linecap: butt;' clip-path='url(#cpMjkwLjE0fDM4MS42NXwyOTguOTV8MjEuOTk=)' />
<polyline points='313.99,298.95 313.99,21.99 ' style='stroke-width: 0.39; stroke: #EBEBEB; stroke-linecap: butt;' clip-path='url(#cpMjkwLjE0fDM4MS42NXwyOTguOTV8MjEuOTk=)' />
<polyline points='330.07,298.95 330.07,21.99 ' style='stroke-width: 0.39; stroke: #EBEBEB; stroke-linecap: butt;' clip-path='url(#cpMjkwLjE0fDM4MS42NXwyOTguOTV8MjEuOTk=)' />
<polyline points='346.15,298.95 346.15,21.99 ' style='stroke-width: 0.39; stroke: #EBEBEB; stroke-linecap: butt;' clip-path='url(#cpMjkwLjE0fDM4MS42NXwyOTguOTV8MjEuOTk=)' />
<polyline points='362.23,298.95 362.23,21.99 ' style='stroke-width: 0.39; stroke: #EBEBEB; stroke-linecap: butt;' clip-path='url(#cpMjkwLjE0fDM4MS42NXwyOTguOTV8MjEuOTk=)' />
<polyline points='378.31,298.95 378.31,21.99 ' style='stroke-width: 0.39; stroke: #EBEBEB; stroke-linecap: butt;' clip-path='url(#cpMjkwLjE0fDM4MS42NXwyOTguOTV8MjEuOTk=)' />
<polyline points='290.14,278.92 381.65,278.92 ' style='stroke-width: 0.78; stroke: #EBEBEB; stroke-linecap: butt;' clip-path='url(#cpMjkwLjE0fDM4MS42NXwyOTguOTV8MjEuOTk=)' />
<polyline points='290.14,252.53 381.65,252.53 ' style='stroke-width: 0.78; stroke: #EBEBEB; stroke-linecap: butt;' clip-path='url(#cpMjkwLjE0fDM4MS42NXwyOTguOTV8MjEuOTk=)' />
<polyline points='290.14,226.13 381.65,226.13 ' style='stroke-width: 0.78; stroke: #EBEBEB; stroke-linecap: butt;' clip-path='url(#cpMjkwLjE0fDM4MS42NXwyOTguOTV8MjEuOTk=)' />
<polyline points='290.14,199.73 381.65,199.73 ' style='stroke-width: 0.78; stroke: #EBEBEB; stroke-linecap: butt;' clip-path='url(#cpMjkwLjE0fDM4MS42NXwyOTguOTV8MjEuOTk=)' />
<polyline points='290.14,173.34 381.65,173.34 ' style='stroke-width: 0.78; stroke: #EBEBEB; stroke-linecap: butt;' clip-path='url(#cpMjkwLjE0fDM4MS42NXwyOTguOTV8MjEuOTk=)' />
<polyline points='290.14,146.94 381.65,146.94 ' style='stroke-width: 0.78; stroke: #EBEBEB; stroke-linecap: butt;' clip-path='url(#cpMjkwLjE0fDM4MS42NXwyOTguOTV8MjEuOTk=)' />
<polyline points='290.14,120.55 381.65,120.55 ' style='stroke-width: 0.78; stroke: #EBEBEB; stroke-linecap: butt;' clip-path='url(#cpMjkwLjE0fDM4MS42NXwyOTguOTV8MjEuOTk=)' />
<polyline points='290.14,94.15 381.65,94.15 ' style='stroke-width: 0.78; stroke: #EBEBEB; stroke-linecap: butt;' clip-path='url(#cpMjkwLjE0fDM4MS42NXwyOTguOTV8MjEuOTk=)' />
<polyline points='290.14,67.76 381.65,67.76 ' style='stroke-width: 0.78; stroke: #EBEBEB; stroke-linecap: butt;' clip-path='url(#cpMjkwLjE0fDM4MS42NXwyOTguOTV8MjEuOTk=)' />
<polyline points='290.14,41.36 381.65,41.36 ' style='stroke-width: 0.78; stroke: #EBEBEB; stroke-linecap: butt;' clip-path='url(#cpMjkwLjE0fDM4MS42NXwyOTguOTV8MjEuOTk=)' />
<polyline points='305.95,298.95 305.95,21.99 ' style='stroke-width: 0.78; stroke: #EBEBEB; stroke-linecap: butt;' clip-path='url(#cpMjkwLjE0fDM4MS42NXwyOTguOTV8MjEuOTk=)' />
<polyline points='322.03,298.95 322.03,21.99 ' style='stroke-width: 0.78; stroke: #EBEBEB; stroke-linecap: butt;' clip-path='url(#cpMjkwLjE0fDM4MS42NXwyOTguOTV8MjEuOTk=)' />
<polyline points='338.11,298.95 338.11,21.99 ' style='stroke-width: 0.78; stroke: #EBEBEB; stroke-linecap: butt;' clip-path='url(#cpMjkwLjE0fDM4MS42NXwyOTguOTV8MjEuOTk=)' />
<polyline points='354.19,298.95 354.19,21.99 ' style='stroke-width: 0.78; stroke: #EBEBEB; stroke-linecap: butt;' clip-path='url(#cpMjkwLjE0fDM4MS42NXwyOTguOTV8MjEuOTk=)' />
<polyline points='370.27,298.95 370.27,21.99 ' style='stroke-width: 0.78; stroke: #EBEBEB; stroke-linecap: butt;' clip-path='url(#cpMjkwLjE0fDM4MS42NXwyOTguOTV8MjEuOTk=)' />
<circle cx='373.20' cy='276.27' r='2.13' style='stroke-width: 0.00; stroke: #444444; stroke-opacity: 0.10; fill: #444444; fill-opacity: 0.10;' clip-path='url(#cpMjkwLjE0fDM4MS42NXwyOTguOTV8MjEuOTk=)' />
<circle cx='305.22' cy='286.08' r='2.13' style='stroke-width: 0.00; stroke: #444444; stroke-opacity: 0.10; fill: #444444; fill-opacity: 0.10;' clip-path='url(#cpMjkwLjE0fDM4MS42NXwyOTguOTV8MjEuOTk=)' />
<circle cx='312.45' cy='283.82' r='2.13' style='stroke-width: 0.00; stroke: #444444; stroke-opacity: 0.10; fill: #444444; fill-opacity: 0.10;' clip-path='url(#cpMjkwLjE0fDM4MS42NXwyOTguOTV8MjEuOTk=)' />
<circle cx='303.70' cy='286.36' r='2.13' style='stroke-width: 0.00; stroke: #444444; stroke-opacity: 0.10; fill: #444444; fill-opacity: 0.10;' clip-path='url(#cpMjkwLjE0fDM4MS42NXwyOTguOTV8MjEuOTk=)' />
<circle cx='372.12' cy='271.67' r='2.13' style='stroke-width: 0.00; stroke: #444444; stroke-opacity: 0.10; fill: #444444; fill-opacity: 0.10;' clip-path='url(#cpMjkwLjE0fDM4MS42NXwyOTguOTV8MjEuOTk=)' />
<circle cx='369.13' cy='275.40' r='2.13' style='stroke-width: 0.00; stroke: #444444; stroke-opacity: 0.10; fill: #444444; fill-opacity: 0.10;' clip-path='url(#cpMjkwLjE0fDM4MS42NXwyOTguOTV8MjEuOTk=)' />
<circle cx='334.25' cy='280.80' r='2.13' style='stroke-width: 0.00; stroke: #444444; stroke-opacity: 0.10; fill: #444444; fill-opacity: 0.10;' clip-path='url(#cpMjkwLjE0fDM4MS42NXwyOTguOTV8MjEuOTk=)' />
<circle cx='300.41' cy='273.39' r='2.13' style='stroke-width: 0.00; stroke: #444444; stroke-opacity: 0.10; fill: #444444; fill-opacity: 0.10;' clip-path='url(#cpMjkwLjE0fDM4MS42NXwyOTguOTV8MjEuOTk=)' />
<circle cx='364.17' cy='275.03' r='2.13' style='stroke-width: 0.00; stroke: #444444; stroke-opacity: 0.10; fill: #444444; fill-opacity: 0.10;' clip-path='url(#cpMjkwLjE0fDM4MS42NXwyOTguOTV8MjEuOTk=)' />
<circle cx='353.99' cy='277.35' r='2.13' style='stroke-width: 0.00; stroke: #444444; stroke-opacity: 0.10; fill: #444444; fill-opacity: 0.10;' clip-path='url(#cpMjkwLjE0fDM4MS42NXwyOTguOTV8MjEuOTk=)' />
<circle cx='306.73' cy='271.98' r='2.13' style='stroke-width: 0.00; stroke: #444444; stroke-opacity: 0.10; fill: #444444; fill-opacity: 0.10;' clip-path='url(#cpMjkwLjE0fDM4MS42NXwyOTguOTV8MjEuOTk=)' />
<circle cx='305.93' cy='282.80' r='2.13' style='stroke-width: 0.00; stroke: #444444; stroke-opacity: 0.10; fill: #444444; fill-opacity: 0.10;' clip-path='url(#cpMjkwLjE0fDM4MS42NXwyOTguOTV8MjEuOTk=)' />
<circle cx='308.85' cy='271.43' r='2.13' style='stroke-width: 0.00; stroke: #444444; stroke-opacity: 0.10; fill: #444444; fill-opacity: 0.10;' clip-path='url(#cpMjkwLjE0fDM4MS42NXwyOTguOTV8MjEuOTk=)' />
<circle cx='310.35' cy='286.24' r='2.13' style='stroke-width: 0.00; stroke: #444444; stroke-opacity: 0.10; fill: #444444; fill-opacity: 0.10;' clip-path='url(#cpMjkwLjE0fDM4MS42NXwyOTguOTV8MjEuOTk=)' />
<circle cx='303.47' cy='279.07' r='2.13' style='stroke-width: 0.00; stroke: #444444; stroke-opacity: 0.10; fill: #444444; fill-opacity: 0.10;' clip-path='url(#cpMjkwLjE0fDM4MS42NXwyOTguOTV8MjEuOTk=)' />
<circle cx='299.08' cy='273.05' r='2.13' style='stroke-width: 0.00; stroke: #444444; stroke-opacity: 0.10; fill: #444444; fill-opacity: 0.10;' clip-path='url(#cpMjkwLjE0fDM4MS42NXwyOTguOTV8MjEuOTk=)' />
<circle cx='300.46' cy='278.51' r='2.13' style='stroke-width: 0.00; stroke: #444444; stroke-opacity: 0.10; fill: #444444; fill-opacity: 0.10;' clip-path='url(#cpMjkwLjE0fDM4MS42NXwyOTguOTV8MjEuOTk=)' />
<circle cx='371.83' cy='283.93' r='2.13' style='stroke-width: 0.00; stroke: #444444; stroke-opacity: 0.10; fill: #444444; fill-opacity: 0.10;' clip-path='url(#cpMjkwLjE0fDM4MS42NXwyOTguOTV8MjEuOTk=)' />
<circle cx='300.37' cy='276.54' r='2.13' style='stroke-width: 0.00; stroke: #444444; stroke-opacity: 0.10; fill: #444444; fill-opacity: 0.10;' clip-path='url(#cpMjkwLjE0fDM4MS42NXwyOTguOTV8MjEuOTk=)' />
<circle cx='308.55' cy='285.62' r='2.13' style='stroke-width: 0.00; stroke: #444444; stroke-opacity: 0.10; fill: #444444; fill-opacity: 0.10;' clip-path='url(#cpMjkwLjE0fDM4MS42NXwyOTguOTV8MjEuOTk=)' />
<circle cx='307.83' cy='258.28' r='2.13' style='stroke-width: 0.00; stroke: #444444; stroke-opacity: 0.10; fill: #444444; fill-opacity: 0.10;' clip-path='url(#cpMjkwLjE0fDM4MS42NXwyOTguOTV8MjEuOTk=)' />
<circle cx='349.24' cy='256.78' r='2.13' style='stroke-width: 0.00; stroke: #444444; stroke-opacity: 0.10; fill: #444444; fill-opacity: 0.10;' clip-path='url(#cpMjkwLjE0fDM4MS42NXwyOTguOTV8MjEuOTk=)' />
<circle cx='334.41' cy='251.07' r='2.13' style='stroke-width: 0.00; stroke: #444444; stroke-opacity: 0.10; fill: #444444; fill-opacity: 0.10;' clip-path='url(#cpMjkwLjE0fDM4MS42NXwyOTguOTV8MjEuOTk=)' />
<circle cx='373.79' cy='256.11' r='2.13' style='stroke-width: 0.00; stroke: #444444; stroke-opacity: 0.10; fill: #444444; fill-opacity: 0.10;' clip-path='url(#cpMjkwLjE0fDM4MS42NXwyOTguOTV8MjEuOTk=)' />
<circle cx='344.58' cy='247.50' r='2.13' style='stroke-width: 0.00; stroke: #444444; stroke-opacity: 0.10; fill: #444444; fill-opacity: 0.10;' clip-path='url(#cpMjkwLjE0fDM4MS42NXwyOTguOTV8MjEuOTk=)' />
<circle cx='363.93' cy='246.34' r='2.13' style='stroke-width: 0.00; stroke: #444444; stroke-opacity: 0.10; fill: #444444; fill-opacity: 0.10;' clip-path='url(#cpMjkwLjE0fDM4MS42NXwyOTguOTV8MjEuOTk=)' />
<circle cx='375.81' cy='251.51' r='2.13' style='stroke-width: 0.00; stroke: #444444; stroke-opacity: 0.10; fill: #444444; fill-opacity: 0.10;' clip-path='url(#cpMjkwLjE0fDM4MS42NXwyOTguOTV8MjEuOTk=)' />
<circle cx='303.02' cy='254.86' r='2.13' style='stroke-width: 0.00; stroke: #444444; stroke-opacity: 0.10; fill: #444444; fill-opacity: 0.10;' clip-path='url(#cpMjkwLjE0fDM4MS42NXwyOTguOTV8MjEuOTk=)' />
<circle cx='318.99' cy='248.80' r='2.13' style='stroke-width: 0.00; stroke: #444444; stroke-opacity: 0.10; fill: #444444; fill-opacity: 0.10;' clip-path='url(#cpMjkwLjE0fDM4MS42NXwyOTguOTV8MjEuOTk=)' />
<circle cx='349.40' cy='256.26' r='2.13' style='stroke-width: 0.00; stroke: #444444; stroke-opacity: 0.10; fill: #444444; fill-opacity: 0.10;' clip-path='url(#cpMjkwLjE0fDM4MS42NXwyOTguOTV8MjEuOTk=)' />
<circle cx='357.88' cy='248.86' r='2.13' style='stroke-width: 0.00; stroke: #444444; stroke-opacity: 0.10; fill: #444444; fill-opacity: 0.10;' clip-path='url(#cpMjkwLjE0fDM4MS42NXwyOTguOTV8MjEuOTk=)' />
<circle cx='370.85' cy='251.90' r='2.13' style='stroke-width: 0.00; stroke: #444444; stroke-opacity: 0.10; fill: #444444; fill-opacity: 0.10;' clip-path='url(#cpMjkwLjE0fDM4MS42NXwyOTguOTV8MjEuOTk=)' />
<circle cx='307.90' cy='251.49' r='2.13' style='stroke-width: 0.00; stroke: #444444; stroke-opacity: 0.10; fill: #444444; fill-opacity: 0.10;' clip-path='url(#cpMjkwLjE0fDM4MS42NXwyOTguOTV8MjEuOTk=)' />
<circle cx='367.19' cy='254.24' r='2.13' style='stroke-width: 0.00; stroke: #444444; stroke-opacity: 0.10; fill: #444444; fill-opacity: 0.10;' clip-path='url(#cpMjkwLjE0fDM4MS42NXwyOTguOTV8MjEuOTk=)' />
<circle cx='338.68' cy='256.70' r='2.13' style='stroke-width: 0.00; stroke: #444444; stroke-opacity: 0.10; fill: #444444; fill-opacity: 0.10;' clip-path='url(#cpMjkwLjE0fDM4MS42NXwyOTguOTV8MjEuOTk=)' />
<circle cx='356.14' cy='253.14' r='2.13' style='stroke-width: 0.00; stroke: #444444; stroke-opacity: 0.10; fill: #444444; fill-opacity: 0.10;' clip-path='url(#cpMjkwLjE0fDM4MS42NXwyOTguOTV8MjEuOTk=)' />
<circle cx='367.60' cy='257.11' r='2.13' style='stroke-width: 0.00; stroke: #444444; stroke-opacity: 0.10; fill: #444444; fill-opacity: 0.10;' clip-path='url(#cpMjkwLjE0fDM4MS42NXwyOTguOTV8MjEuOTk=)' />
<circle cx='375.52' cy='251.47' r='2.13' style='stroke-width: 0.00; stroke: #444444; stroke-opacity: 0.10; fill: #444444; fill-opacity: 0.10;' clip-path='url(#cpMjkwLjE0fDM4MS42NXwyOTguOTV8MjEuOTk=)' />
<circle cx='373.13' cy='252.87' r='2.13' style='stroke-width: 0.00; stroke: #444444; stroke-opacity: 0.10; fill: #444444; fill-opacity: 0.10;' clip-path='url(#cpMjkwLjE0fDM4MS42NXwyOTguOTV8MjEuOTk=)' />
<circle cx='323.83' cy='260.04' r='2.13' style='stroke-width: 0.00; stroke: #444444; stroke-opacity: 0.10; fill: #444444; fill-opacity: 0.10;' clip-path='url(#cpMjkwLjE0fDM4MS42NXwyOTguOTV8MjEuOTk=)' />
<circle cx='376.69' cy='251.57' r='2.13' style='stroke-width: 0.00; stroke: #444444; stroke-opacity: 0.10; fill: #444444; fill-opacity: 0.10;' clip-path='url(#cpMjkwLjE0fDM4MS42NXwyOTguOTV8MjEuOTk=)' />
<circle cx='367.96' cy='255.06' r='2.13' style='stroke-width: 0.00; stroke: #444444; stroke-opacity: 0.10; fill: #444444; fill-opacity: 0.10;' clip-path='url(#cpMjkwLjE0fDM4MS42NXwyOTguOTV8MjEuOTk=)' />
<circle cx='376.05' cy='248.02' r='2.13' style='stroke-width: 0.00; stroke: #444444; stroke-opacity: 0.10; fill: #444444; fill-opacity: 0.10;' clip-path='url(#cpMjkwLjE0fDM4MS42NXwyOTguOTV8MjEuOTk=)' />
<circle cx='376.18' cy='253.11' r='2.13' style='stroke-width: 0.00; stroke: #444444; stroke-opacity: 0.10; fill: #444444; fill-opacity: 0.10;' clip-path='url(#cpMjkwLjE0fDM4MS42NXwyOTguOTV8MjEuOTk=)' />
<circle cx='300.68' cy='245.39' r='2.13' style='stroke-width: 0.00; stroke: #444444; stroke-opacity: 0.10; fill: #444444; fill-opacity: 0.10;' clip-path='url(#cpMjkwLjE0fDM4MS42NXwyOTguOTV8MjEuOTk=)' />
<circle cx='377.27' cy='246.68' r='2.13' style='stroke-width: 0.00; stroke: #444444; stroke-opacity: 0.10; fill: #444444; fill-opacity: 0.10;' clip-path='url(#cpMjkwLjE0fDM4MS42NXwyOTguOTV8MjEuOTk=)' />
<circle cx='364.57' cy='244.73' r='2.13' style='stroke-width: 0.00; stroke: #444444; stroke-opacity: 0.10; fill: #444444; fill-opacity: 0.10;' clip-path='url(#cpMjkwLjE0fDM4MS42NXwyOTguOTV8MjEuOTk=)' />
<circle cx='354.38' cy='259.66' r='2.13' style='stroke-width: 0.00; stroke: #444444; stroke-opacity: 0.10; fill: #444444; fill-opacity: 0.10;' clip-path='url(#cpMjkwLjE0fDM4MS42NXwyOTguOTV8MjEuOTk=)' />
<circle cx='375.59' cy='251.56' r='2.13' style='stroke-width: 0.00; stroke: #444444; stroke-opacity: 0.10; fill: #444444; fill-opacity: 0.10;' clip-path='url(#cpMjkwLjE0fDM4MS42NXwyOTguOTV8MjEuOTk=)' />
<circle cx='365.96' cy='249.98' r='2.13' style='stroke-width: 0.00; stroke: #444444; stroke-opacity: 0.10; fill: #444444; fill-opacity: 0.10;' clip-path='url(#cpMjkwLjE0fDM4MS42NXwyOTguOTV8MjEuOTk=)' />
<circle cx='366.15' cy='251.00' r='2.13' style='stroke-width: 0.00; stroke: #444444; stroke-opacity: 0.10; fill: #444444; fill-opacity: 0.10;' clip-path='url(#cpMjkwLjE0fDM4MS42NXwyOTguOTV8MjEuOTk=)' />
<circle cx='299.79' cy='257.68' r='2.13' style='stroke-width: 0.00; stroke: #444444; stroke-opacity: 0.10; fill: #444444; fill-opacity: 0.10;' clip-path='url(#cpMjkwLjE0fDM4MS42NXwyOTguOTV8MjEuOTk=)' />
<circle cx='317.60' cy='257.60' r='2.13' style='stroke-width: 0.00; stroke: #444444; stroke-opacity: 0.10; fill: #444444; fill-opacity: 0.10;' clip-path='url(#cpMjkwLjE0fDM4MS42NXwyOTguOTV8MjEuOTk=)' />
<circle cx='340.55' cy='245.30' r='2.13' style='stroke-width: 0.00; stroke: #444444; stroke-opacity: 0.10; fill: #444444; fill-opacity: 0.10;' clip-path='url(#cpMjkwLjE0fDM4MS42NXwyOTguOTV8MjEuOTk=)' />
<circle cx='360.80' cy='252.60' r='2.13' style='stroke-width: 0.00; stroke: #444444; stroke-opacity: 0.10; fill: #444444; fill-opacity: 0.10;' clip-path='url(#cpMjkwLjE0fDM4MS42NXwyOTguOTV8MjEuOTk=)' />
<circle cx='375.08' cy='252.11' r='2.13' style='stroke-width: 0.00; stroke: #444444; stroke-opacity: 0.10; fill: #444444; fill-opacity: 0.10;' clip-path='url(#cpMjkwLjE0fDM4MS42NXwyOTguOTV8MjEuOTk=)' />
<circle cx='374.94' cy='245.94' r='2.13' style='stroke-width: 0.00; stroke: #444444; stroke-opacity: 0.10; fill: #444444; fill-opacity: 0.10;' clip-path='url(#cpMjkwLjE0fDM4MS42NXwyOTguOTV8MjEuOTk=)' />
<circle cx='305.09' cy='257.05' r='2.13' style='stroke-width: 0.00; stroke: #444444; stroke-opacity: 0.10; fill: #444444; fill-opacity: 0.10;' clip-path='url(#cpMjkwLjE0fDM4MS42NXwyOTguOTV8MjEuOTk=)' />
<circle cx='307.66' cy='222.29' r='2.13' style='stroke-width: 0.00; stroke: #444444; stroke-opacity: 0.10; fill: #444444; fill-opacity: 0.10;' clip-path='url(#cpMjkwLjE0fDM4MS42NXwyOTguOTV8MjEuOTk=)' />
<circle cx='356.60' cy='222.55' r='2.13' style='stroke-width: 0.00; stroke: #444444; stroke-opacity: 0.10; fill: #444444; fill-opacity: 0.10;' clip-path='url(#cpMjkwLjE0fDM4MS42NXwyOTguOTV8MjEuOTk=)' />
<circle cx='301.78' cy='230.61' r='2.13' style='stroke-width: 0.00; stroke: #444444; stroke-opacity: 0.10; fill: #444444; fill-opacity: 0.10;' clip-path='url(#cpMjkwLjE0fDM4MS42NXwyOTguOTV8MjEuOTk=)' />
<circle cx='357.10' cy='223.43' r='2.13' style='stroke-width: 0.00; stroke: #444444; stroke-opacity: 0.10; fill: #444444; fill-opacity: 0.10;' clip-path='url(#cpMjkwLjE0fDM4MS42NXwyOTguOTV8MjEuOTk=)' />
<circle cx='347.04' cy='223.46' r='2.13' style='stroke-width: 0.00; stroke: #444444; stroke-opacity: 0.10; fill: #444444; fill-opacity: 0.10;' clip-path='url(#cpMjkwLjE0fDM4MS42NXwyOTguOTV8MjEuOTk=)' />
<circle cx='355.58' cy='224.54' r='2.13' style='stroke-width: 0.00; stroke: #444444; stroke-opacity: 0.10; fill: #444444; fill-opacity: 0.10;' clip-path='url(#cpMjkwLjE0fDM4MS42NXwyOTguOTV8MjEuOTk=)' />
<circle cx='366.70' cy='229.53' r='2.13' style='stroke-width: 0.00; stroke: #444444; stroke-opacity: 0.10; fill: #444444; fill-opacity: 0.10;' clip-path='url(#cpMjkwLjE0fDM4MS42NXwyOTguOTV8MjEuOTk=)' />
<circle cx='373.63' cy='231.82' r='2.13' style='stroke-width: 0.00; stroke: #444444; stroke-opacity: 0.10; fill: #444444; fill-opacity: 0.10;' clip-path='url(#cpMjkwLjE0fDM4MS42NXwyOTguOTV8MjEuOTk=)' />
<circle cx='311.21' cy='232.00' r='2.13' style='stroke-width: 0.00; stroke: #444444; stroke-opacity: 0.10; fill: #444444; fill-opacity: 0.10;' clip-path='url(#cpMjkwLjE0fDM4MS42NXwyOTguOTV8MjEuOTk=)' />
<circle cx='300.56' cy='229.72' r='2.13' style='stroke-width: 0.00; stroke: #444444; stroke-opacity: 0.10; fill: #444444; fill-opacity: 0.10;' clip-path='url(#cpMjkwLjE0fDM4MS42NXwyOTguOTV8MjEuOTk=)' />
<circle cx='317.99' cy='223.76' r='2.13' style='stroke-width: 0.00; stroke: #444444; stroke-opacity: 0.10; fill: #444444; fill-opacity: 0.10;' clip-path='url(#cpMjkwLjE0fDM4MS42NXwyOTguOTV8MjEuOTk=)' />
<circle cx='357.59' cy='232.29' r='2.13' style='stroke-width: 0.00; stroke: #444444; stroke-opacity: 0.10; fill: #444444; fill-opacity: 0.10;' clip-path='url(#cpMjkwLjE0fDM4MS42NXwyOTguOTV8MjEuOTk=)' />
<circle cx='375.94' cy='221.38' r='2.13' style='stroke-width: 0.00; stroke: #444444; stroke-opacity: 0.10; fill: #444444; fill-opacity: 0.10;' clip-path='url(#cpMjkwLjE0fDM4MS42NXwyOTguOTV8MjEuOTk=)' />
<circle cx='308.12' cy='223.90' r='2.13' style='stroke-width: 0.00; stroke: #444444; stroke-opacity: 0.10; fill: #444444; fill-opacity: 0.10;' clip-path='url(#cpMjkwLjE0fDM4MS42NXwyOTguOTV8MjEuOTk=)' />
<circle cx='366.56' cy='222.03' r='2.13' style='stroke-width: 0.00; stroke: #444444; stroke-opacity: 0.10; fill: #444444; fill-opacity: 0.10;' clip-path='url(#cpMjkwLjE0fDM4MS42NXwyOTguOTV8MjEuOTk=)' />
<circle cx='339.64' cy='229.43' r='2.13' style='stroke-width: 0.00; stroke: #444444; stroke-opacity: 0.10; fill: #444444; fill-opacity: 0.10;' clip-path='url(#cpMjkwLjE0fDM4MS42NXwyOTguOTV8MjEuOTk=)' />
<circle cx='339.19' cy='219.91' r='2.13' style='stroke-width: 0.00; stroke: #444444; stroke-opacity: 0.10; fill: #444444; fill-opacity: 0.10;' clip-path='url(#cpMjkwLjE0fDM4MS42NXwyOTguOTV8MjEuOTk=)' />
<circle cx='310.31' cy='224.49' r='2.13' style='stroke-width: 0.00; stroke: #444444; stroke-opacity: 0.10; fill: #444444; fill-opacity: 0.10;' clip-path='url(#cpMjkwLjE0fDM4MS42NXwyOTguOTV8MjEuOTk=)' />
<circle cx='368.95' cy='225.53' r='2.13' style='stroke-width: 0.00; stroke: #444444; stroke-opacity: 0.10; fill: #444444; fill-opacity: 0.10;' clip-path='url(#cpMjkwLjE0fDM4MS42NXwyOTguOTV8MjEuOTk=)' />
<circle cx='313.13' cy='224.23' r='2.13' style='stroke-width: 0.00; stroke: #444444; stroke-opacity: 0.10; fill: #444444; fill-opacity: 0.10;' clip-path='url(#cpMjkwLjE0fDM4MS42NXwyOTguOTV8MjEuOTk=)' />
<circle cx='370.63' cy='233.47' r='2.13' style='stroke-width: 0.00; stroke: #444444; stroke-opacity: 0.10; fill: #444444; fill-opacity: 0.10;' clip-path='url(#cpMjkwLjE0fDM4MS42NXwyOTguOTV8MjEuOTk=)' />
<circle cx='369.99' cy='207.49' r='2.13' style='stroke-width: 0.00; stroke: #444444; stroke-opacity: 0.10; fill: #444444; fill-opacity: 0.10;' clip-path='url(#cpMjkwLjE0fDM4MS42NXwyOTguOTV8MjEuOTk=)' />
<circle cx='375.81' cy='207.25' r='2.13' style='stroke-width: 0.00; stroke: #444444; stroke-opacity: 0.10; fill: #444444; fill-opacity: 0.10;' clip-path='url(#cpMjkwLjE0fDM4MS42NXwyOTguOTV8MjEuOTk=)' />
<circle cx='375.64' cy='194.56' r='2.13' style='stroke-width: 0.00; stroke: #444444; stroke-opacity: 0.10; fill: #444444; fill-opacity: 0.10;' clip-path='url(#cpMjkwLjE0fDM4MS42NXwyOTguOTV8MjEuOTk=)' />
<circle cx='373.33' cy='205.50' r='2.13' style='stroke-width: 0.00; stroke: #444444; stroke-opacity: 0.10; fill: #444444; fill-opacity: 0.10;' clip-path='url(#cpMjkwLjE0fDM4MS42NXwyOTguOTV8MjEuOTk=)' />
<circle cx='352.39' cy='207.27' r='2.13' style='stroke-width: 0.00; stroke: #444444; stroke-opacity: 0.10; fill: #444444; fill-opacity: 0.10;' clip-path='url(#cpMjkwLjE0fDM4MS42NXwyOTguOTV8MjEuOTk=)' />
<circle cx='369.70' cy='192.17' r='2.13' style='stroke-width: 0.00; stroke: #444444; stroke-opacity: 0.10; fill: #444444; fill-opacity: 0.10;' clip-path='url(#cpMjkwLjE0fDM4MS42NXwyOTguOTV8MjEuOTk=)' />
<circle cx='371.37' cy='195.44' r='2.13' style='stroke-width: 0.00; stroke: #444444; stroke-opacity: 0.10; fill: #444444; fill-opacity: 0.10;' clip-path='url(#cpMjkwLjE0fDM4MS42NXwyOTguOTV8MjEuOTk=)' />
<circle cx='368.96' cy='197.60' r='2.13' style='stroke-width: 0.00; stroke: #444444; stroke-opacity: 0.10; fill: #444444; fill-opacity: 0.10;' clip-path='url(#cpMjkwLjE0fDM4MS42NXwyOTguOTV8MjEuOTk=)' />
<circle cx='361.00' cy='202.53' r='2.13' style='stroke-width: 0.00; stroke: #444444; stroke-opacity: 0.10; fill: #444444; fill-opacity: 0.10;' clip-path='url(#cpMjkwLjE0fDM4MS42NXwyOTguOTV8MjEuOTk=)' />
<circle cx='371.91' cy='199.15' r='2.13' style='stroke-width: 0.00; stroke: #444444; stroke-opacity: 0.10; fill: #444444; fill-opacity: 0.10;' clip-path='url(#cpMjkwLjE0fDM4MS42NXwyOTguOTV8MjEuOTk=)' />
<circle cx='371.70' cy='193.79' r='2.13' style='stroke-width: 0.00; stroke: #444444; stroke-opacity: 0.10; fill: #444444; fill-opacity: 0.10;' clip-path='url(#cpMjkwLjE0fDM4MS42NXwyOTguOTV8MjEuOTk=)' />
<circle cx='375.40' cy='193.29' r='2.13' style='stroke-width: 0.00; stroke: #444444; stroke-opacity: 0.10; fill: #444444; fill-opacity: 0.10;' clip-path='url(#cpMjkwLjE0fDM4MS42NXwyOTguOTV8MjEuOTk=)' />
<circle cx='367.98' cy='192.72' r='2.13' style='stroke-width: 0.00; stroke: #444444; stroke-opacity: 0.10; fill: #444444; fill-opacity: 0.10;' clip-path='url(#cpMjkwLjE0fDM4MS42NXwyOTguOTV8MjEuOTk=)' />
<circle cx='371.13' cy='203.70' r='2.13' style='stroke-width: 0.00; stroke: #444444; stroke-opacity: 0.10; fill: #444444; fill-opacity: 0.10;' clip-path='url(#cpMjkwLjE0fDM4MS42NXwyOTguOTV8MjEuOTk=)' />
<circle cx='374.39' cy='202.09' r='2.13' style='stroke-width: 0.00; stroke: #444444; stroke-opacity: 0.10; fill: #444444; fill-opacity: 0.10;' clip-path='url(#cpMjkwLjE0fDM4MS42NXwyOTguOTV8MjEuOTk=)' />
<circle cx='371.72' cy='201.83' r='2.13' style='stroke-width: 0.00; stroke: #444444; stroke-opacity: 0.10; fill: #444444; fill-opacity: 0.10;' clip-path='url(#cpMjkwLjE0fDM4MS42NXwyOTguOTV8MjEuOTk=)' />
<circle cx='363.35' cy='200.22' r='2.13' style='stroke-width: 0.00; stroke: #444444; stroke-opacity: 0.10; fill: #444444; fill-opacity: 0.10;' clip-path='url(#cpMjkwLjE0fDM4MS42NXwyOTguOTV8MjEuOTk=)' />
<circle cx='354.81' cy='197.52' r='2.13' style='stroke-width: 0.00; stroke: #444444; stroke-opacity: 0.10; fill: #444444; fill-opacity: 0.10;' clip-path='url(#cpMjkwLjE0fDM4MS42NXwyOTguOTV8MjEuOTk=)' />
<circle cx='321.98' cy='197.14' r='2.13' style='stroke-width: 0.00; stroke: #444444; stroke-opacity: 0.10; fill: #444444; fill-opacity: 0.10;' clip-path='url(#cpMjkwLjE0fDM4MS42NXwyOTguOTV8MjEuOTk=)' />
<circle cx='369.58' cy='200.36' r='2.13' style='stroke-width: 0.00; stroke: #444444; stroke-opacity: 0.10; fill: #444444; fill-opacity: 0.10;' clip-path='url(#cpMjkwLjE0fDM4MS42NXwyOTguOTV8MjEuOTk=)' />
<circle cx='372.77' cy='192.49' r='2.13' style='stroke-width: 0.00; stroke: #444444; stroke-opacity: 0.10; fill: #444444; fill-opacity: 0.10;' clip-path='url(#cpMjkwLjE0fDM4MS42NXwyOTguOTV8MjEuOTk=)' />
<circle cx='349.41' cy='196.06' r='2.13' style='stroke-width: 0.00; stroke: #444444; stroke-opacity: 0.10; fill: #444444; fill-opacity: 0.10;' clip-path='url(#cpMjkwLjE0fDM4MS42NXwyOTguOTV8MjEuOTk=)' />
<circle cx='338.26' cy='194.64' r='2.13' style='stroke-width: 0.00; stroke: #444444; stroke-opacity: 0.10; fill: #444444; fill-opacity: 0.10;' clip-path='url(#cpMjkwLjE0fDM4MS42NXwyOTguOTV8MjEuOTk=)' />
<circle cx='365.13' cy='192.86' r='2.13' style='stroke-width: 0.00; stroke: #444444; stroke-opacity: 0.10; fill: #444444; fill-opacity: 0.10;' clip-path='url(#cpMjkwLjE0fDM4MS42NXwyOTguOTV8MjEuOTk=)' />
<circle cx='364.73' cy='202.67' r='2.13' style='stroke-width: 0.00; stroke: #444444; stroke-opacity: 0.10; fill: #444444; fill-opacity: 0.10;' clip-path='url(#cpMjkwLjE0fDM4MS42NXwyOTguOTV8MjEuOTk=)' />
<circle cx='364.75' cy='200.33' r='2.13' style='stroke-width: 0.00; stroke: #444444; stroke-opacity: 0.10; fill: #444444; fill-opacity: 0.10;' clip-path='url(#cpMjkwLjE0fDM4MS42NXwyOTguOTV8MjEuOTk=)' />
<circle cx='375.01' cy='202.48' r='2.13' style='stroke-width: 0.00; stroke: #444444; stroke-opacity: 0.10; fill: #444444; fill-opacity: 0.10;' clip-path='url(#cpMjkwLjE0fDM4MS42NXwyOTguOTV8MjEuOTk=)' />
<circle cx='372.14' cy='200.72' r='2.13' style='stroke-width: 0.00; stroke: #444444; stroke-opacity: 0.10; fill: #444444; fill-opacity: 0.10;' clip-path='url(#cpMjkwLjE0fDM4MS42NXwyOTguOTV8MjEuOTk=)' />
<circle cx='316.90' cy='175.37' r='2.13' style='stroke-width: 0.00; stroke: #444444; stroke-opacity: 0.10; fill: #444444; fill-opacity: 0.10;' clip-path='url(#cpMjkwLjE0fDM4MS42NXwyOTguOTV8MjEuOTk=)' />
<circle cx='301.24' cy='173.95' r='2.13' style='stroke-width: 0.00; stroke: #444444; stroke-opacity: 0.10; fill: #444444; fill-opacity: 0.10;' clip-path='url(#cpMjkwLjE0fDM4MS42NXwyOTguOTV8MjEuOTk=)' />
<circle cx='310.75' cy='175.57' r='2.13' style='stroke-width: 0.00; stroke: #444444; stroke-opacity: 0.10; fill: #444444; fill-opacity: 0.10;' clip-path='url(#cpMjkwLjE0fDM4MS42NXwyOTguOTV8MjEuOTk=)' />
<circle cx='334.60' cy='180.96' r='2.13' style='stroke-width: 0.00; stroke: #444444; stroke-opacity: 0.10; fill: #444444; fill-opacity: 0.10;' clip-path='url(#cpMjkwLjE0fDM4MS42NXwyOTguOTV8MjEuOTk=)' />
<circle cx='298.83' cy='179.70' r='2.13' style='stroke-width: 0.00; stroke: #444444; stroke-opacity: 0.10; fill: #444444; fill-opacity: 0.10;' clip-path='url(#cpMjkwLjE0fDM4MS42NXwyOTguOTV8MjEuOTk=)' />
<circle cx='305.40' cy='170.29' r='2.13' style='stroke-width: 0.00; stroke: #444444; stroke-opacity: 0.10; fill: #444444; fill-opacity: 0.10;' clip-path='url(#cpMjkwLjE0fDM4MS42NXwyOTguOTV8MjEuOTk=)' />
<circle cx='364.13' cy='176.73' r='2.13' style='stroke-width: 0.00; stroke: #444444; stroke-opacity: 0.10; fill: #444444; fill-opacity: 0.10;' clip-path='url(#cpMjkwLjE0fDM4MS42NXwyOTguOTV8MjEuOTk=)' />
<circle cx='303.37' cy='167.29' r='2.13' style='stroke-width: 0.00; stroke: #444444; stroke-opacity: 0.10; fill: #444444; fill-opacity: 0.10;' clip-path='url(#cpMjkwLjE0fDM4MS42NXwyOTguOTV8MjEuOTk=)' />
<circle cx='301.54' cy='180.49' r='2.13' style='stroke-width: 0.00; stroke: #444444; stroke-opacity: 0.10; fill: #444444; fill-opacity: 0.10;' clip-path='url(#cpMjkwLjE0fDM4MS42NXwyOTguOTV8MjEuOTk=)' />
<circle cx='303.72' cy='173.41' r='2.13' style='stroke-width: 0.00; stroke: #444444; stroke-opacity: 0.10; fill: #444444; fill-opacity: 0.10;' clip-path='url(#cpMjkwLjE0fDM4MS42NXwyOTguOTV8MjEuOTk=)' />
<circle cx='305.29' cy='170.09' r='2.13' style='stroke-width: 0.00; stroke: #444444; stroke-opacity: 0.10; fill: #444444; fill-opacity: 0.10;' clip-path='url(#cpMjkwLjE0fDM4MS42NXwyOTguOTV8MjEuOTk=)' />
<circle cx='375.86' cy='178.76' r='2.13' style='stroke-width: 0.00; stroke: #444444; stroke-opacity: 0.10; fill: #444444; fill-opacity: 0.10;' clip-path='url(#cpMjkwLjE0fDM4MS42NXwyOTguOTV8MjEuOTk=)' />
<circle cx='370.44' cy='179.03' r='2.13' style='stroke-width: 0.00; stroke: #444444; stroke-opacity: 0.10; fill: #444444; fill-opacity: 0.10;' clip-path='url(#cpMjkwLjE0fDM4MS42NXwyOTguOTV8MjEuOTk=)' />
<circle cx='308.27' cy='168.91' r='2.13' style='stroke-width: 0.00; stroke: #444444; stroke-opacity: 0.10; fill: #444444; fill-opacity: 0.10;' clip-path='url(#cpMjkwLjE0fDM4MS42NXwyOTguOTV8MjEuOTk=)' />
<circle cx='339.40' cy='172.46' r='2.13' style='stroke-width: 0.00; stroke: #444444; stroke-opacity: 0.10; fill: #444444; fill-opacity: 0.10;' clip-path='url(#cpMjkwLjE0fDM4MS42NXwyOTguOTV8MjEuOTk=)' />
<circle cx='326.76' cy='166.27' r='2.13' style='stroke-width: 0.00; stroke: #444444; stroke-opacity: 0.10; fill: #444444; fill-opacity: 0.10;' clip-path='url(#cpMjkwLjE0fDM4MS42NXwyOTguOTV8MjEuOTk=)' />
<circle cx='368.05' cy='173.87' r='2.13' style='stroke-width: 0.00; stroke: #444444; stroke-opacity: 0.10; fill: #444444; fill-opacity: 0.10;' clip-path='url(#cpMjkwLjE0fDM4MS42NXwyOTguOTV8MjEuOTk=)' />
<circle cx='301.65' cy='178.87' r='2.13' style='stroke-width: 0.00; stroke: #444444; stroke-opacity: 0.10; fill: #444444; fill-opacity: 0.10;' clip-path='url(#cpMjkwLjE0fDM4MS42NXwyOTguOTV8MjEuOTk=)' />
<circle cx='364.55' cy='175.73' r='2.13' style='stroke-width: 0.00; stroke: #444444; stroke-opacity: 0.10; fill: #444444; fill-opacity: 0.10;' clip-path='url(#cpMjkwLjE0fDM4MS42NXwyOTguOTV8MjEuOTk=)' />
<circle cx='358.10' cy='175.70' r='2.13' style='stroke-width: 0.00; stroke: #444444; stroke-opacity: 0.10; fill: #444444; fill-opacity: 0.10;' clip-path='url(#cpMjkwLjE0fDM4MS42NXwyOTguOTV8MjEuOTk=)' />
<circle cx='298.79' cy='181.14' r='2.13' style='stroke-width: 0.00; stroke: #444444; stroke-opacity: 0.10; fill: #444444; fill-opacity: 0.10;' clip-path='url(#cpMjkwLjE0fDM4MS42NXwyOTguOTV8MjEuOTk=)' />
<circle cx='306.95' cy='180.87' r='2.13' style='stroke-width: 0.00; stroke: #444444; stroke-opacity: 0.10; fill: #444444; fill-opacity: 0.10;' clip-path='url(#cpMjkwLjE0fDM4MS42NXwyOTguOTV8MjEuOTk=)' />
<circle cx='309.39' cy='174.89' r='2.13' style='stroke-width: 0.00; stroke: #444444; stroke-opacity: 0.10; fill: #444444; fill-opacity: 0.10;' clip-path='url(#cpMjkwLjE0fDM4MS42NXwyOTguOTV8MjEuOTk=)' />
<circle cx='306.80' cy='173.15' r='2.13' style='stroke-width: 0.00; stroke: #444444; stroke-opacity: 0.10; fill: #444444; fill-opacity: 0.10;' clip-path='url(#cpMjkwLjE0fDM4MS42NXwyOTguOTV8MjEuOTk=)' />
<circle cx='374.82' cy='176.76' r='2.13' style='stroke-width: 0.00; stroke: #444444; stroke-opacity: 0.10; fill: #444444; fill-opacity: 0.10;' clip-path='url(#cpMjkwLjE0fDM4MS42NXwyOTguOTV8MjEuOTk=)' />
<circle cx='327.19' cy='167.91' r='2.13' style='stroke-width: 0.00; stroke: #444444; stroke-opacity: 0.10; fill: #444444; fill-opacity: 0.10;' clip-path='url(#cpMjkwLjE0fDM4MS42NXwyOTguOTV8MjEuOTk=)' />
<circle cx='306.02' cy='168.86' r='2.13' style='stroke-width: 0.00; stroke: #444444; stroke-opacity: 0.10; fill: #444444; fill-opacity: 0.10;' clip-path='url(#cpMjkwLjE0fDM4MS42NXwyOTguOTV8MjEuOTk=)' />
<circle cx='372.16' cy='172.23' r='2.13' style='stroke-width: 0.00; stroke: #444444; stroke-opacity: 0.10; fill: #444444; fill-opacity: 0.10;' clip-path='url(#cpMjkwLjE0fDM4MS42NXwyOTguOTV8MjEuOTk=)' />
<circle cx='302.85' cy='175.41' r='2.13' style='stroke-width: 0.00; stroke: #444444; stroke-opacity: 0.10; fill: #444444; fill-opacity: 0.10;' clip-path='url(#cpMjkwLjE0fDM4MS42NXwyOTguOTV8MjEuOTk=)' />
<circle cx='304.32' cy='147.75' r='2.13' style='stroke-width: 0.00; stroke: #444444; stroke-opacity: 0.10; fill: #444444; fill-opacity: 0.10;' clip-path='url(#cpMjkwLjE0fDM4MS42NXwyOTguOTV8MjEuOTk=)' />
<circle cx='301.91' cy='150.18' r='2.13' style='stroke-width: 0.00; stroke: #444444; stroke-opacity: 0.10; fill: #444444; fill-opacity: 0.10;' clip-path='url(#cpMjkwLjE0fDM4MS42NXwyOTguOTV8MjEuOTk=)' />
<circle cx='351.45' cy='149.22' r='2.13' style='stroke-width: 0.00; stroke: #444444; stroke-opacity: 0.10; fill: #444444; fill-opacity: 0.10;' clip-path='url(#cpMjkwLjE0fDM4MS42NXwyOTguOTV8MjEuOTk=)' />
<circle cx='358.06' cy='140.56' r='2.13' style='stroke-width: 0.00; stroke: #444444; stroke-opacity: 0.10; fill: #444444; fill-opacity: 0.10;' clip-path='url(#cpMjkwLjE0fDM4MS42NXwyOTguOTV8MjEuOTk=)' />
<circle cx='343.35' cy='143.99' r='2.13' style='stroke-width: 0.00; stroke: #444444; stroke-opacity: 0.10; fill: #444444; fill-opacity: 0.10;' clip-path='url(#cpMjkwLjE0fDM4MS42NXwyOTguOTV8MjEuOTk=)' />
<circle cx='324.73' cy='140.96' r='2.13' style='stroke-width: 0.00; stroke: #444444; stroke-opacity: 0.10; fill: #444444; fill-opacity: 0.10;' clip-path='url(#cpMjkwLjE0fDM4MS42NXwyOTguOTV8MjEuOTk=)' />
<circle cx='327.49' cy='145.31' r='2.13' style='stroke-width: 0.00; stroke: #444444; stroke-opacity: 0.10; fill: #444444; fill-opacity: 0.10;' clip-path='url(#cpMjkwLjE0fDM4MS42NXwyOTguOTV8MjEuOTk=)' />
<circle cx='324.63' cy='146.17' r='2.13' style='stroke-width: 0.00; stroke: #444444; stroke-opacity: 0.10; fill: #444444; fill-opacity: 0.10;' clip-path='url(#cpMjkwLjE0fDM4MS42NXwyOTguOTV8MjEuOTk=)' />
<circle cx='369.62' cy='149.03' r='2.13' style='stroke-width: 0.00; stroke: #444444; stroke-opacity: 0.10; fill: #444444; fill-opacity: 0.10;' clip-path='url(#cpMjkwLjE0fDM4MS42NXwyOTguOTV8MjEuOTk=)' />
<circle cx='371.48' cy='149.57' r='2.13' style='stroke-width: 0.00; stroke: #444444; stroke-opacity: 0.10; fill: #444444; fill-opacity: 0.10;' clip-path='url(#cpMjkwLjE0fDM4MS42NXwyOTguOTV8MjEuOTk=)' />
<circle cx='310.15' cy='154.56' r='2.13' style='stroke-width: 0.00; stroke: #444444; stroke-opacity: 0.10; fill: #444444; fill-opacity: 0.10;' clip-path='url(#cpMjkwLjE0fDM4MS42NXwyOTguOTV8MjEuOTk=)' />
<circle cx='333.24' cy='143.15' r='2.13' style='stroke-width: 0.00; stroke: #444444; stroke-opacity: 0.10; fill: #444444; fill-opacity: 0.10;' clip-path='url(#cpMjkwLjE0fDM4MS42NXwyOTguOTV8MjEuOTk=)' />
<circle cx='336.38' cy='148.68' r='2.13' style='stroke-width: 0.00; stroke: #444444; stroke-opacity: 0.10; fill: #444444; fill-opacity: 0.10;' clip-path='url(#cpMjkwLjE0fDM4MS42NXwyOTguOTV8MjEuOTk=)' />
<circle cx='337.41' cy='144.72' r='2.13' style='stroke-width: 0.00; stroke: #444444; stroke-opacity: 0.10; fill: #444444; fill-opacity: 0.10;' clip-path='url(#cpMjkwLjE0fDM4MS42NXwyOTguOTV8MjEuOTk=)' />
<circle cx='363.15' cy='150.29' r='2.13' style='stroke-width: 0.00; stroke: #444444; stroke-opacity: 0.10; fill: #444444; fill-opacity: 0.10;' clip-path='url(#cpMjkwLjE0fDM4MS42NXwyOTguOTV8MjEuOTk=)' />
<circle cx='365.45' cy='153.18' r='2.13' style='stroke-width: 0.00; stroke: #444444; stroke-opacity: 0.10; fill: #444444; fill-opacity: 0.10;' clip-path='url(#cpMjkwLjE0fDM4MS42NXwyOTguOTV8MjEuOTk=)' />
<circle cx='313.05' cy='143.71' r='2.13' style='stroke-width: 0.00; stroke: #444444; stroke-opacity: 0.10; fill: #444444; fill-opacity: 0.10;' clip-path='url(#cpMjkwLjE0fDM4MS42NXwyOTguOTV8MjEuOTk=)' />
<circle cx='304.61' cy='143.17' r='2.13' style='stroke-width: 0.00; stroke: #444444; stroke-opacity: 0.10; fill: #444444; fill-opacity: 0.10;' clip-path='url(#cpMjkwLjE0fDM4MS42NXwyOTguOTV8MjEuOTk=)' />
<circle cx='366.03' cy='146.05' r='2.13' style='stroke-width: 0.00; stroke: #444444; stroke-opacity: 0.10; fill: #444444; fill-opacity: 0.10;' clip-path='url(#cpMjkwLjE0fDM4MS42NXwyOTguOTV8MjEuOTk=)' />
<circle cx='366.62' cy='152.81' r='2.13' style='stroke-width: 0.00; stroke: #444444; stroke-opacity: 0.10; fill: #444444; fill-opacity: 0.10;' clip-path='url(#cpMjkwLjE0fDM4MS42NXwyOTguOTV8MjEuOTk=)' />
<circle cx='304.69' cy='153.74' r='2.13' style='stroke-width: 0.00; stroke: #444444; stroke-opacity: 0.10; fill: #444444; fill-opacity: 0.10;' clip-path='url(#cpMjkwLjE0fDM4MS42NXwyOTguOTV8MjEuOTk=)' />
<circle cx='311.90' cy='149.40' r='2.13' style='stroke-width: 0.00; stroke: #444444; stroke-opacity: 0.10; fill: #444444; fill-opacity: 0.10;' clip-path='url(#cpMjkwLjE0fDM4MS42NXwyOTguOTV8MjEuOTk=)' />
<circle cx='366.92' cy='139.23' r='2.13' style='stroke-width: 0.00; stroke: #444444; stroke-opacity: 0.10; fill: #444444; fill-opacity: 0.10;' clip-path='url(#cpMjkwLjE0fDM4MS42NXwyOTguOTV8MjEuOTk=)' />
<circle cx='364.62' cy='153.63' r='2.13' style='stroke-width: 0.00; stroke: #444444; stroke-opacity: 0.10; fill: #444444; fill-opacity: 0.10;' clip-path='url(#cpMjkwLjE0fDM4MS42NXwyOTguOTV8MjEuOTk=)' />
<circle cx='366.14' cy='143.33' r='2.13' style='stroke-width: 0.00; stroke: #444444; stroke-opacity: 0.10; fill: #444444; fill-opacity: 0.10;' clip-path='url(#cpMjkwLjE0fDM4MS42NXwyOTguOTV8MjEuOTk=)' />
<circle cx='366.41' cy='149.44' r='2.13' style='stroke-width: 0.00; stroke: #444444; stroke-opacity: 0.10; fill: #444444; fill-opacity: 0.10;' clip-path='url(#cpMjkwLjE0fDM4MS42NXwyOTguOTV8MjEuOTk=)' />
<circle cx='307.30' cy='152.05' r='2.13' style='stroke-width: 0.00; stroke: #444444; stroke-opacity: 0.10; fill: #444444; fill-opacity: 0.10;' clip-path='url(#cpMjkwLjE0fDM4MS42NXwyOTguOTV8MjEuOTk=)' />
<circle cx='373.59' cy='143.31' r='2.13' style='stroke-width: 0.00; stroke: #444444; stroke-opacity: 0.10; fill: #444444; fill-opacity: 0.10;' clip-path='url(#cpMjkwLjE0fDM4MS42NXwyOTguOTV8MjEuOTk=)' />
<circle cx='352.90' cy='153.20' r='2.13' style='stroke-width: 0.00; stroke: #444444; stroke-opacity: 0.10; fill: #444444; fill-opacity: 0.10;' clip-path='url(#cpMjkwLjE0fDM4MS42NXwyOTguOTV8MjEuOTk=)' />
<circle cx='371.84' cy='116.09' r='2.13' style='stroke-width: 0.00; stroke: #444444; stroke-opacity: 0.10; fill: #444444; fill-opacity: 0.10;' clip-path='url(#cpMjkwLjE0fDM4MS42NXwyOTguOTV8MjEuOTk=)' />
<circle cx='356.91' cy='124.94' r='2.13' style='stroke-width: 0.00; stroke: #444444; stroke-opacity: 0.10; fill: #444444; fill-opacity: 0.10;' clip-path='url(#cpMjkwLjE0fDM4MS42NXwyOTguOTV8MjEuOTk=)' />
<circle cx='306.34' cy='117.66' r='2.13' style='stroke-width: 0.00; stroke: #444444; stroke-opacity: 0.10; fill: #444444; fill-opacity: 0.10;' clip-path='url(#cpMjkwLjE0fDM4MS42NXwyOTguOTV8MjEuOTk=)' />
<circle cx='377.30' cy='125.19' r='2.13' style='stroke-width: 0.00; stroke: #444444; stroke-opacity: 0.10; fill: #444444; fill-opacity: 0.10;' clip-path='url(#cpMjkwLjE0fDM4MS42NXwyOTguOTV8MjEuOTk=)' />
<circle cx='372.83' cy='118.60' r='2.13' style='stroke-width: 0.00; stroke: #444444; stroke-opacity: 0.10; fill: #444444; fill-opacity: 0.10;' clip-path='url(#cpMjkwLjE0fDM4MS42NXwyOTguOTV8MjEuOTk=)' />
<circle cx='370.25' cy='114.19' r='2.13' style='stroke-width: 0.00; stroke: #444444; stroke-opacity: 0.10; fill: #444444; fill-opacity: 0.10;' clip-path='url(#cpMjkwLjE0fDM4MS42NXwyOTguOTV8MjEuOTk=)' />
<circle cx='363.65' cy='121.57' r='2.13' style='stroke-width: 0.00; stroke: #444444; stroke-opacity: 0.10; fill: #444444; fill-opacity: 0.10;' clip-path='url(#cpMjkwLjE0fDM4MS42NXwyOTguOTV8MjEuOTk=)' />
<circle cx='364.78' cy='125.19' r='2.13' style='stroke-width: 0.00; stroke: #444444; stroke-opacity: 0.10; fill: #444444; fill-opacity: 0.10;' clip-path='url(#cpMjkwLjE0fDM4MS42NXwyOTguOTV8MjEuOTk=)' />
<circle cx='360.63' cy='122.39' r='2.13' style='stroke-width: 0.00; stroke: #444444; stroke-opacity: 0.10; fill: #444444; fill-opacity: 0.10;' clip-path='url(#cpMjkwLjE0fDM4MS42NXwyOTguOTV8MjEuOTk=)' />
<circle cx='366.77' cy='113.60' r='2.13' style='stroke-width: 0.00; stroke: #444444; stroke-opacity: 0.10; fill: #444444; fill-opacity: 0.10;' clip-path='url(#cpMjkwLjE0fDM4MS42NXwyOTguOTV8MjEuOTk=)' />
<circle cx='366.93' cy='123.09' r='2.13' style='stroke-width: 0.00; stroke: #444444; stroke-opacity: 0.10; fill: #444444; fill-opacity: 0.10;' clip-path='url(#cpMjkwLjE0fDM4MS42NXwyOTguOTV8MjEuOTk=)' />
<circle cx='365.73' cy='121.76' r='2.13' style='stroke-width: 0.00; stroke: #444444; stroke-opacity: 0.10; fill: #444444; fill-opacity: 0.10;' clip-path='url(#cpMjkwLjE0fDM4MS42NXwyOTguOTV8MjEuOTk=)' />
<circle cx='371.34' cy='124.83' r='2.13' style='stroke-width: 0.00; stroke: #444444; stroke-opacity: 0.10; fill: #444444; fill-opacity: 0.10;' clip-path='url(#cpMjkwLjE0fDM4MS42NXwyOTguOTV8MjEuOTk=)' />
<circle cx='306.33' cy='120.45' r='2.13' style='stroke-width: 0.00; stroke: #444444; stroke-opacity: 0.10; fill: #444444; fill-opacity: 0.10;' clip-path='url(#cpMjkwLjE0fDM4MS42NXwyOTguOTV8MjEuOTk=)' />
<circle cx='368.89' cy='121.06' r='2.13' style='stroke-width: 0.00; stroke: #444444; stroke-opacity: 0.10; fill: #444444; fill-opacity: 0.10;' clip-path='url(#cpMjkwLjE0fDM4MS42NXwyOTguOTV8MjEuOTk=)' />
<circle cx='303.23' cy='127.43' r='2.13' style='stroke-width: 0.00; stroke: #444444; stroke-opacity: 0.10; fill: #444444; fill-opacity: 0.10;' clip-path='url(#cpMjkwLjE0fDM4MS42NXwyOTguOTV8MjEuOTk=)' />
<circle cx='313.10' cy='115.70' r='2.13' style='stroke-width: 0.00; stroke: #444444; stroke-opacity: 0.10; fill: #444444; fill-opacity: 0.10;' clip-path='url(#cpMjkwLjE0fDM4MS42NXwyOTguOTV8MjEuOTk=)' />
<circle cx='370.41' cy='124.33' r='2.13' style='stroke-width: 0.00; stroke: #444444; stroke-opacity: 0.10; fill: #444444; fill-opacity: 0.10;' clip-path='url(#cpMjkwLjE0fDM4MS42NXwyOTguOTV8MjEuOTk=)' />
<circle cx='371.01' cy='120.25' r='2.13' style='stroke-width: 0.00; stroke: #444444; stroke-opacity: 0.10; fill: #444444; fill-opacity: 0.10;' clip-path='url(#cpMjkwLjE0fDM4MS42NXwyOTguOTV8MjEuOTk=)' />
<circle cx='375.88' cy='113.43' r='2.13' style='stroke-width: 0.00; stroke: #444444; stroke-opacity: 0.10; fill: #444444; fill-opacity: 0.10;' clip-path='url(#cpMjkwLjE0fDM4MS42NXwyOTguOTV8MjEuOTk=)' />
<circle cx='374.27' cy='115.92' r='2.13' style='stroke-width: 0.00; stroke: #444444; stroke-opacity: 0.10; fill: #444444; fill-opacity: 0.10;' clip-path='url(#cpMjkwLjE0fDM4MS42NXwyOTguOTV8MjEuOTk=)' />
<circle cx='374.02' cy='123.94' r='2.13' style='stroke-width: 0.00; stroke: #444444; stroke-opacity: 0.10; fill: #444444; fill-opacity: 0.10;' clip-path='url(#cpMjkwLjE0fDM4MS42NXwyOTguOTV8MjEuOTk=)' />
<circle cx='369.38' cy='114.86' r='2.13' style='stroke-width: 0.00; stroke: #444444; stroke-opacity: 0.10; fill: #444444; fill-opacity: 0.10;' clip-path='url(#cpMjkwLjE0fDM4MS42NXwyOTguOTV8MjEuOTk=)' />
<circle cx='301.54' cy='123.34' r='2.13' style='stroke-width: 0.00; stroke: #444444; stroke-opacity: 0.10; fill: #444444; fill-opacity: 0.10;' clip-path='url(#cpMjkwLjE0fDM4MS42NXwyOTguOTV8MjEuOTk=)' />
<circle cx='335.95' cy='127.58' r='2.13' style='stroke-width: 0.00; stroke: #444444; stroke-opacity: 0.10; fill: #444444; fill-opacity: 0.10;' clip-path='url(#cpMjkwLjE0fDM4MS42NXwyOTguOTV8MjEuOTk=)' />
<circle cx='305.77' cy='119.54' r='2.13' style='stroke-width: 0.00; stroke: #444444; stroke-opacity: 0.10; fill: #444444; fill-opacity: 0.10;' clip-path='url(#cpMjkwLjE0fDM4MS42NXwyOTguOTV8MjEuOTk=)' />
<circle cx='375.55' cy='122.31' r='2.13' style='stroke-width: 0.00; stroke: #444444; stroke-opacity: 0.10; fill: #444444; fill-opacity: 0.10;' clip-path='url(#cpMjkwLjE0fDM4MS42NXwyOTguOTV8MjEuOTk=)' />
<circle cx='377.09' cy='127.75' r='2.13' style='stroke-width: 0.00; stroke: #444444; stroke-opacity: 0.10; fill: #444444; fill-opacity: 0.10;' clip-path='url(#cpMjkwLjE0fDM4MS42NXwyOTguOTV8MjEuOTk=)' />
<circle cx='365.54' cy='113.01' r='2.13' style='stroke-width: 0.00; stroke: #444444; stroke-opacity: 0.10; fill: #444444; fill-opacity: 0.10;' clip-path='url(#cpMjkwLjE0fDM4MS42NXwyOTguOTV8MjEuOTk=)' />
<circle cx='353.17' cy='121.78' r='2.13' style='stroke-width: 0.00; stroke: #444444; stroke-opacity: 0.10; fill: #444444; fill-opacity: 0.10;' clip-path='url(#cpMjkwLjE0fDM4MS42NXwyOTguOTV8MjEuOTk=)' />
<circle cx='375.45' cy='121.74' r='2.13' style='stroke-width: 0.00; stroke: #444444; stroke-opacity: 0.10; fill: #444444; fill-opacity: 0.10;' clip-path='url(#cpMjkwLjE0fDM4MS42NXwyOTguOTV8MjEuOTk=)' />
<circle cx='304.44' cy='113.38' r='2.13' style='stroke-width: 0.00; stroke: #444444; stroke-opacity: 0.10; fill: #444444; fill-opacity: 0.10;' clip-path='url(#cpMjkwLjE0fDM4MS42NXwyOTguOTV8MjEuOTk=)' />
<circle cx='376.73' cy='112.97' r='2.13' style='stroke-width: 0.00; stroke: #444444; stroke-opacity: 0.10; fill: #444444; fill-opacity: 0.10;' clip-path='url(#cpMjkwLjE0fDM4MS42NXwyOTguOTV8MjEuOTk=)' />
<circle cx='323.68' cy='123.75' r='2.13' style='stroke-width: 0.00; stroke: #444444; stroke-opacity: 0.10; fill: #444444; fill-opacity: 0.10;' clip-path='url(#cpMjkwLjE0fDM4MS42NXwyOTguOTV8MjEuOTk=)' />
<circle cx='373.72' cy='118.55' r='2.13' style='stroke-width: 0.00; stroke: #444444; stroke-opacity: 0.10; fill: #444444; fill-opacity: 0.10;' clip-path='url(#cpMjkwLjE0fDM4MS42NXwyOTguOTV8MjEuOTk=)' />
<circle cx='365.47' cy='120.97' r='2.13' style='stroke-width: 0.00; stroke: #444444; stroke-opacity: 0.10; fill: #444444; fill-opacity: 0.10;' clip-path='url(#cpMjkwLjE0fDM4MS42NXwyOTguOTV8MjEuOTk=)' />
<circle cx='374.07' cy='126.36' r='2.13' style='stroke-width: 0.00; stroke: #444444; stroke-opacity: 0.10; fill: #444444; fill-opacity: 0.10;' clip-path='url(#cpMjkwLjE0fDM4MS42NXwyOTguOTV8MjEuOTk=)' />
<circle cx='321.91' cy='93.07' r='2.13' style='stroke-width: 0.00; stroke: #444444; stroke-opacity: 0.10; fill: #444444; fill-opacity: 0.10;' clip-path='url(#cpMjkwLjE0fDM4MS42NXwyOTguOTV8MjEuOTk=)' />
<circle cx='375.44' cy='93.91' r='2.13' style='stroke-width: 0.00; stroke: #444444; stroke-opacity: 0.10; fill: #444444; fill-opacity: 0.10;' clip-path='url(#cpMjkwLjE0fDM4MS42NXwyOTguOTV8MjEuOTk=)' />
<circle cx='332.37' cy='97.56' r='2.13' style='stroke-width: 0.00; stroke: #444444; stroke-opacity: 0.10; fill: #444444; fill-opacity: 0.10;' clip-path='url(#cpMjkwLjE0fDM4MS42NXwyOTguOTV8MjEuOTk=)' />
<circle cx='368.57' cy='98.62' r='2.13' style='stroke-width: 0.00; stroke: #444444; stroke-opacity: 0.10; fill: #444444; fill-opacity: 0.10;' clip-path='url(#cpMjkwLjE0fDM4MS42NXwyOTguOTV8MjEuOTk=)' />
<circle cx='360.75' cy='89.07' r='2.13' style='stroke-width: 0.00; stroke: #444444; stroke-opacity: 0.10; fill: #444444; fill-opacity: 0.10;' clip-path='url(#cpMjkwLjE0fDM4MS42NXwyOTguOTV8MjEuOTk=)' />
<circle cx='365.78' cy='95.39' r='2.13' style='stroke-width: 0.00; stroke: #444444; stroke-opacity: 0.10; fill: #444444; fill-opacity: 0.10;' clip-path='url(#cpMjkwLjE0fDM4MS42NXwyOTguOTV8MjEuOTk=)' />
<circle cx='303.04' cy='98.66' r='2.13' style='stroke-width: 0.00; stroke: #444444; stroke-opacity: 0.10; fill: #444444; fill-opacity: 0.10;' clip-path='url(#cpMjkwLjE0fDM4MS42NXwyOTguOTV8MjEuOTk=)' />
<circle cx='305.70' cy='100.58' r='2.13' style='stroke-width: 0.00; stroke: #444444; stroke-opacity: 0.10; fill: #444444; fill-opacity: 0.10;' clip-path='url(#cpMjkwLjE0fDM4MS42NXwyOTguOTV8MjEuOTk=)' />
<circle cx='307.46' cy='98.49' r='2.13' style='stroke-width: 0.00; stroke: #444444; stroke-opacity: 0.10; fill: #444444; fill-opacity: 0.10;' clip-path='url(#cpMjkwLjE0fDM4MS42NXwyOTguOTV8MjEuOTk=)' />
<circle cx='374.68' cy='88.60' r='2.13' style='stroke-width: 0.00; stroke: #444444; stroke-opacity: 0.10; fill: #444444; fill-opacity: 0.10;' clip-path='url(#cpMjkwLjE0fDM4MS42NXwyOTguOTV8MjEuOTk=)' />
<circle cx='344.38' cy='90.61' r='2.13' style='stroke-width: 0.00; stroke: #444444; stroke-opacity: 0.10; fill: #444444; fill-opacity: 0.10;' clip-path='url(#cpMjkwLjE0fDM4MS42NXwyOTguOTV8MjEuOTk=)' />
<circle cx='306.60' cy='101.32' r='2.13' style='stroke-width: 0.00; stroke: #444444; stroke-opacity: 0.10; fill: #444444; fill-opacity: 0.10;' clip-path='url(#cpMjkwLjE0fDM4MS42NXwyOTguOTV8MjEuOTk=)' />
<circle cx='339.37' cy='87.63' r='2.13' style='stroke-width: 0.00; stroke: #444444; stroke-opacity: 0.10; fill: #444444; fill-opacity: 0.10;' clip-path='url(#cpMjkwLjE0fDM4MS42NXwyOTguOTV8MjEuOTk=)' />
<circle cx='366.64' cy='90.63' r='2.13' style='stroke-width: 0.00; stroke: #444444; stroke-opacity: 0.10; fill: #444444; fill-opacity: 0.10;' clip-path='url(#cpMjkwLjE0fDM4MS42NXwyOTguOTV8MjEuOTk=)' />
<circle cx='320.31' cy='99.10' r='2.13' style='stroke-width: 0.00; stroke: #444444; stroke-opacity: 0.10; fill: #444444; fill-opacity: 0.10;' clip-path='url(#cpMjkwLjE0fDM4MS42NXwyOTguOTV8MjEuOTk=)' />
<circle cx='377.49' cy='89.55' r='2.13' style='stroke-width: 0.00; stroke: #444444; stroke-opacity: 0.10; fill: #444444; fill-opacity: 0.10;' clip-path='url(#cpMjkwLjE0fDM4MS42NXwyOTguOTV8MjEuOTk=)' />
<circle cx='366.77' cy='100.82' r='2.13' style='stroke-width: 0.00; stroke: #444444; stroke-opacity: 0.10; fill: #444444; fill-opacity: 0.10;' clip-path='url(#cpMjkwLjE0fDM4MS42NXwyOTguOTV8MjEuOTk=)' />
<circle cx='375.86' cy='101.64' r='2.13' style='stroke-width: 0.00; stroke: #444444; stroke-opacity: 0.10; fill: #444444; fill-opacity: 0.10;' clip-path='url(#cpMjkwLjE0fDM4MS42NXwyOTguOTV8MjEuOTk=)' />
<circle cx='371.10' cy='94.94' r='2.13' style='stroke-width: 0.00; stroke: #444444; stroke-opacity: 0.10; fill: #444444; fill-opacity: 0.10;' clip-path='url(#cpMjkwLjE0fDM4MS42NXwyOTguOTV8MjEuOTk=)' />
<circle cx='371.82' cy='99.38' r='2.13' style='stroke-width: 0.00; stroke: #444444; stroke-opacity: 0.10; fill: #444444; fill-opacity: 0.10;' clip-path='url(#cpMjkwLjE0fDM4MS42NXwyOTguOTV8MjEuOTk=)' />
<circle cx='372.58' cy='87.94' r='2.13' style='stroke-width: 0.00; stroke: #444444; stroke-opacity: 0.10; fill: #444444; fill-opacity: 0.10;' clip-path='url(#cpMjkwLjE0fDM4MS42NXwyOTguOTV8MjEuOTk=)' />
<circle cx='301.33' cy='89.41' r='2.13' style='stroke-width: 0.00; stroke: #444444; stroke-opacity: 0.10; fill: #444444; fill-opacity: 0.10;' clip-path='url(#cpMjkwLjE0fDM4MS42NXwyOTguOTV8MjEuOTk=)' />
<circle cx='339.97' cy='98.14' r='2.13' style='stroke-width: 0.00; stroke: #444444; stroke-opacity: 0.10; fill: #444444; fill-opacity: 0.10;' clip-path='url(#cpMjkwLjE0fDM4MS42NXwyOTguOTV8MjEuOTk=)' />
<circle cx='308.68' cy='75.20' r='2.13' style='stroke-width: 0.00; stroke: #444444; stroke-opacity: 0.10; fill: #444444; fill-opacity: 0.10;' clip-path='url(#cpMjkwLjE0fDM4MS42NXwyOTguOTV8MjEuOTk=)' />
<circle cx='351.82' cy='61.96' r='2.13' style='stroke-width: 0.00; stroke: #444444; stroke-opacity: 0.10; fill: #444444; fill-opacity: 0.10;' clip-path='url(#cpMjkwLjE0fDM4MS42NXwyOTguOTV8MjEuOTk=)' />
<circle cx='339.33' cy='63.93' r='2.13' style='stroke-width: 0.00; stroke: #444444; stroke-opacity: 0.10; fill: #444444; fill-opacity: 0.10;' clip-path='url(#cpMjkwLjE0fDM4MS42NXwyOTguOTV8MjEuOTk=)' />
<circle cx='310.76' cy='70.67' r='2.13' style='stroke-width: 0.00; stroke: #444444; stroke-opacity: 0.10; fill: #444444; fill-opacity: 0.10;' clip-path='url(#cpMjkwLjE0fDM4MS42NXwyOTguOTV8MjEuOTk=)' />
<circle cx='357.94' cy='67.47' r='2.13' style='stroke-width: 0.00; stroke: #444444; stroke-opacity: 0.10; fill: #444444; fill-opacity: 0.10;' clip-path='url(#cpMjkwLjE0fDM4MS42NXwyOTguOTV8MjEuOTk=)' />
<circle cx='371.67' cy='72.39' r='2.13' style='stroke-width: 0.00; stroke: #444444; stroke-opacity: 0.10; fill: #444444; fill-opacity: 0.10;' clip-path='url(#cpMjkwLjE0fDM4MS42NXwyOTguOTV8MjEuOTk=)' />
<circle cx='332.52' cy='64.72' r='2.13' style='stroke-width: 0.00; stroke: #444444; stroke-opacity: 0.10; fill: #444444; fill-opacity: 0.10;' clip-path='url(#cpMjkwLjE0fDM4MS42NXwyOTguOTV8MjEuOTk=)' />
<circle cx='376.05' cy='69.31' r='2.13' style='stroke-width: 0.00; stroke: #444444; stroke-opacity: 0.10; fill: #444444; fill-opacity: 0.10;' clip-path='url(#cpMjkwLjE0fDM4MS42NXwyOTguOTV8MjEuOTk=)' />
<circle cx='376.29' cy='68.37' r='2.13' style='stroke-width: 0.00; stroke: #444444; stroke-opacity: 0.10; fill: #444444; fill-opacity: 0.10;' clip-path='url(#cpMjkwLjE0fDM4MS42NXwyOTguOTV8MjEuOTk=)' />
<circle cx='370.27' cy='62.58' r='2.13' style='stroke-width: 0.00; stroke: #444444; stroke-opacity: 0.10; fill: #444444; fill-opacity: 0.10;' clip-path='url(#cpMjkwLjE0fDM4MS42NXwyOTguOTV8MjEuOTk=)' />
<circle cx='352.39' cy='64.09' r='2.13' style='stroke-width: 0.00; stroke: #444444; stroke-opacity: 0.10; fill: #444444; fill-opacity: 0.10;' clip-path='url(#cpMjkwLjE0fDM4MS42NXwyOTguOTV8MjEuOTk=)' />
<circle cx='376.01' cy='62.79' r='2.13' style='stroke-width: 0.00; stroke: #444444; stroke-opacity: 0.10; fill: #444444; fill-opacity: 0.10;' clip-path='url(#cpMjkwLjE0fDM4MS42NXwyOTguOTV8MjEuOTk=)' />
<circle cx='374.65' cy='67.32' r='2.13' style='stroke-width: 0.00; stroke: #444444; stroke-opacity: 0.10; fill: #444444; fill-opacity: 0.10;' clip-path='url(#cpMjkwLjE0fDM4MS42NXwyOTguOTV8MjEuOTk=)' />
<circle cx='373.71' cy='68.13' r='2.13' style='stroke-width: 0.00; stroke: #444444; stroke-opacity: 0.10; fill: #444444; fill-opacity: 0.10;' clip-path='url(#cpMjkwLjE0fDM4MS42NXwyOTguOTV8MjEuOTk=)' />
<circle cx='306.73' cy='73.84' r='2.13' style='stroke-width: 0.00; stroke: #444444; stroke-opacity: 0.10; fill: #444444; fill-opacity: 0.10;' clip-path='url(#cpMjkwLjE0fDM4MS42NXwyOTguOTV8MjEuOTk=)' />
<circle cx='377.28' cy='61.61' r='2.13' style='stroke-width: 0.00; stroke: #444444; stroke-opacity: 0.10; fill: #444444; fill-opacity: 0.10;' clip-path='url(#cpMjkwLjE0fDM4MS42NXwyOTguOTV8MjEuOTk=)' />
<circle cx='311.25' cy='61.40' r='2.13' style='stroke-width: 0.00; stroke: #444444; stroke-opacity: 0.10; fill: #444444; fill-opacity: 0.10;' clip-path='url(#cpMjkwLjE0fDM4MS42NXwyOTguOTV8MjEuOTk=)' />
<circle cx='356.73' cy='62.83' r='2.13' style='stroke-width: 0.00; stroke: #444444; stroke-opacity: 0.10; fill: #444444; fill-opacity: 0.10;' clip-path='url(#cpMjkwLjE0fDM4MS42NXwyOTguOTV8MjEuOTk=)' />
<circle cx='358.72' cy='60.61' r='2.13' style='stroke-width: 0.00; stroke: #444444; stroke-opacity: 0.10; fill: #444444; fill-opacity: 0.10;' clip-path='url(#cpMjkwLjE0fDM4MS42NXwyOTguOTV8MjEuOTk=)' />
<circle cx='364.41' cy='71.84' r='2.13' style='stroke-width: 0.00; stroke: #444444; stroke-opacity: 0.10; fill: #444444; fill-opacity: 0.10;' clip-path='url(#cpMjkwLjE0fDM4MS42NXwyOTguOTV8MjEuOTk=)' />
<circle cx='371.94' cy='67.43' r='2.13' style='stroke-width: 0.00; stroke: #444444; stroke-opacity: 0.10; fill: #444444; fill-opacity: 0.10;' clip-path='url(#cpMjkwLjE0fDM4MS42NXwyOTguOTV8MjEuOTk=)' />
<circle cx='371.43' cy='65.75' r='2.13' style='stroke-width: 0.00; stroke: #444444; stroke-opacity: 0.10; fill: #444444; fill-opacity: 0.10;' clip-path='url(#cpMjkwLjE0fDM4MS42NXwyOTguOTV8MjEuOTk=)' />
<circle cx='374.09' cy='66.77' r='2.13' style='stroke-width: 0.00; stroke: #444444; stroke-opacity: 0.10; fill: #444444; fill-opacity: 0.10;' clip-path='url(#cpMjkwLjE0fDM4MS42NXwyOTguOTV8MjEuOTk=)' />
<circle cx='364.18' cy='71.15' r='2.13' style='stroke-width: 0.00; stroke: #444444; stroke-opacity: 0.10; fill: #444444; fill-opacity: 0.10;' clip-path='url(#cpMjkwLjE0fDM4MS42NXwyOTguOTV8MjEuOTk=)' />
<circle cx='363.23' cy='65.76' r='2.13' style='stroke-width: 0.00; stroke: #444444; stroke-opacity: 0.10; fill: #444444; fill-opacity: 0.10;' clip-path='url(#cpMjkwLjE0fDM4MS42NXwyOTguOTV8MjEuOTk=)' />
<circle cx='369.23' cy='70.41' r='2.13' style='stroke-width: 0.00; stroke: #444444; stroke-opacity: 0.10; fill: #444444; fill-opacity: 0.10;' clip-path='url(#cpMjkwLjE0fDM4MS42NXwyOTguOTV8MjEuOTk=)' />
<circle cx='366.57' cy='72.80' r='2.13' style='stroke-width: 0.00; stroke: #444444; stroke-opacity: 0.10; fill: #444444; fill-opacity: 0.10;' clip-path='url(#cpMjkwLjE0fDM4MS42NXwyOTguOTV8MjEuOTk=)' />
<circle cx='299.66' cy='37.11' r='2.13' style='stroke-width: 0.00; stroke: #444444; stroke-opacity: 0.10; fill: #444444; fill-opacity: 0.10;' clip-path='url(#cpMjkwLjE0fDM4MS42NXwyOTguOTV8MjEuOTk=)' />
<circle cx='331.28' cy='41.22' r='2.13' style='stroke-width: 0.00; stroke: #444444; stroke-opacity: 0.10; fill: #444444; fill-opacity: 0.10;' clip-path='url(#cpMjkwLjE0fDM4MS42NXwyOTguOTV8MjEuOTk=)' />
<circle cx='339.25' cy='38.40' r='2.13' style='stroke-width: 0.00; stroke: #444444; stroke-opacity: 0.10; fill: #444444; fill-opacity: 0.10;' clip-path='url(#cpMjkwLjE0fDM4MS42NXwyOTguOTV8MjEuOTk=)' />
<circle cx='298.99' cy='35.26' r='2.13' style='stroke-width: 0.00; stroke: #444444; stroke-opacity: 0.10; fill: #444444; fill-opacity: 0.10;' clip-path='url(#cpMjkwLjE0fDM4MS42NXwyOTguOTV8MjEuOTk=)' />
<circle cx='310.17' cy='40.96' r='2.13' style='stroke-width: 0.00; stroke: #444444; stroke-opacity: 0.10; fill: #444444; fill-opacity: 0.10;' clip-path='url(#cpMjkwLjE0fDM4MS42NXwyOTguOTV8MjEuOTk=)' />
<circle cx='304.54' cy='36.75' r='2.13' style='stroke-width: 0.00; stroke: #444444; stroke-opacity: 0.10; fill: #444444; fill-opacity: 0.10;' clip-path='url(#cpMjkwLjE0fDM4MS42NXwyOTguOTV8MjEuOTk=)' />
<circle cx='366.45' cy='42.18' r='2.13' style='stroke-width: 0.00; stroke: #444444; stroke-opacity: 0.10; fill: #444444; fill-opacity: 0.10;' clip-path='url(#cpMjkwLjE0fDM4MS42NXwyOTguOTV8MjEuOTk=)' />
<circle cx='341.94' cy='45.47' r='2.13' style='stroke-width: 0.00; stroke: #444444; stroke-opacity: 0.10; fill: #444444; fill-opacity: 0.10;' clip-path='url(#cpMjkwLjE0fDM4MS42NXwyOTguOTV8MjEuOTk=)' />
<circle cx='356.71' cy='43.71' r='2.13' style='stroke-width: 0.00; stroke: #444444; stroke-opacity: 0.10; fill: #444444; fill-opacity: 0.10;' clip-path='url(#cpMjkwLjE0fDM4MS42NXwyOTguOTV8MjEuOTk=)' />
<circle cx='326.64' cy='42.83' r='2.13' style='stroke-width: 0.00; stroke: #444444; stroke-opacity: 0.10; fill: #444444; fill-opacity: 0.10;' clip-path='url(#cpMjkwLjE0fDM4MS42NXwyOTguOTV8MjEuOTk=)' />
<circle cx='363.83' cy='47.61' r='2.13' style='stroke-width: 0.00; stroke: #444444; stroke-opacity: 0.10; fill: #444444; fill-opacity: 0.10;' clip-path='url(#cpMjkwLjE0fDM4MS42NXwyOTguOTV8MjEuOTk=)' />
<circle cx='377.04' cy='37.61' r='2.13' style='stroke-width: 0.00; stroke: #444444; stroke-opacity: 0.10; fill: #444444; fill-opacity: 0.10;' clip-path='url(#cpMjkwLjE0fDM4MS42NXwyOTguOTV8MjEuOTk=)' />
<circle cx='310.86' cy='36.52' r='2.13' style='stroke-width: 0.00; stroke: #444444; stroke-opacity: 0.10; fill: #444444; fill-opacity: 0.10;' clip-path='url(#cpMjkwLjE0fDM4MS42NXwyOTguOTV8MjEuOTk=)' />
<circle cx='365.65' cy='38.60' r='2.13' style='stroke-width: 0.00; stroke: #444444; stroke-opacity: 0.10; fill: #444444; fill-opacity: 0.10;' clip-path='url(#cpMjkwLjE0fDM4MS42NXwyOTguOTV8MjEuOTk=)' />
<circle cx='331.32' cy='40.65' r='2.13' style='stroke-width: 0.00; stroke: #444444; stroke-opacity: 0.10; fill: #444444; fill-opacity: 0.10;' clip-path='url(#cpMjkwLjE0fDM4MS42NXwyOTguOTV8MjEuOTk=)' />
<circle cx='376.55' cy='44.91' r='2.13' style='stroke-width: 0.00; stroke: #444444; stroke-opacity: 0.10; fill: #444444; fill-opacity: 0.10;' clip-path='url(#cpMjkwLjE0fDM4MS42NXwyOTguOTV8MjEuOTk=)' />
<circle cx='372.83' cy='34.57' r='2.13' style='stroke-width: 0.00; stroke: #444444; stroke-opacity: 0.10; fill: #444444; fill-opacity: 0.10;' clip-path='url(#cpMjkwLjE0fDM4MS42NXwyOTguOTV8MjEuOTk=)' />
<circle cx='368.55' cy='36.21' r='2.13' style='stroke-width: 0.00; stroke: #444444; stroke-opacity: 0.10; fill: #444444; fill-opacity: 0.10;' clip-path='url(#cpMjkwLjE0fDM4MS42NXwyOTguOTV8MjEuOTk=)' />
<circle cx='363.62' cy='49.18' r='2.13' style='stroke-width: 0.00; stroke: #444444; stroke-opacity: 0.10; fill: #444444; fill-opacity: 0.10;' clip-path='url(#cpMjkwLjE0fDM4MS42NXwyOTguOTV8MjEuOTk=)' />
<circle cx='374.60' cy='49.11' r='2.13' style='stroke-width: 0.00; stroke: #444444; stroke-opacity: 0.10; fill: #444444; fill-opacity: 0.10;' clip-path='url(#cpMjkwLjE0fDM4MS42NXwyOTguOTV8MjEuOTk=)' />
<polygon points='294.30,278.92 326.05,282.88 357.80,278.92 326.05,274.96 294.30,278.92 ' style='stroke-width: 1.07; stroke: #513E55; fill: #513E55;' clip-path='url(#cpMjkwLjE0fDM4MS42NXwyOTguOTV8MjEuOTk=)' />
<polygon points='332.96,252.53 350.38,256.48 367.81,252.53 350.38,248.57 332.96,252.53 ' style='stroke-width: 1.07; stroke: #4B1F54; fill: #4B1F54;' clip-path='url(#cpMjkwLjE0fDM4MS42NXwyOTguOTV8MjEuOTk=)' />
<polygon points='310.78,226.13 339.64,230.09 368.50,226.13 339.64,222.17 310.78,226.13 ' style='stroke-width: 1.07; stroke: #4E2F55; fill: #4E2F55;' clip-path='url(#cpMjkwLjE0fDM4MS42NXwyOTguOTV8MjEuOTk=)' />
<polygon points='355.09,199.73 365.11,203.69 375.12,199.73 365.11,195.77 355.09,199.73 ' style='stroke-width: 1.07; stroke: #450954; fill: #450954;' clip-path='url(#cpMjkwLjE0fDM4MS42NXwyOTguOTV8MjEuOTk=)' />
<polygon points='303.84,173.34 327.02,177.30 350.20,173.34 327.02,169.38 303.84,173.34 ' style='stroke-width: 1.07; stroke: #513D55; fill: #513D55;' clip-path='url(#cpMjkwLjE0fDM4MS42NXwyOTguOTV8MjEuOTk=)' />
<polygon points='318.46,146.94 341.44,150.90 364.42,146.94 341.44,142.98 318.46,146.94 ' style='stroke-width: 1.07; stroke: #4E2C55; fill: #4E2C55;' clip-path='url(#cpMjkwLjE0fDM4MS42NXwyOTguOTV8MjEuOTk=)' />
<polygon points='336.05,120.55 354.63,124.51 373.21,120.55 354.63,116.59 336.05,120.55 ' style='stroke-width: 1.07; stroke: #491854; fill: #491854;' clip-path='url(#cpMjkwLjE0fDM4MS42NXwyOTguOTV8MjEuOTk=)' />
<polygon points='319.20,94.15 345.80,98.11 372.41,94.15 345.80,90.19 319.20,94.15 ' style='stroke-width: 1.07; stroke: #4C2554; fill: #4C2554;' clip-path='url(#cpMjkwLjE0fDM4MS42NXwyOTguOTV8MjEuOTk=)' />
<polygon points='334.95,67.76 355.38,71.71 375.81,67.76 355.38,63.80 334.95,67.76 ' style='stroke-width: 1.07; stroke: #491754; fill: #491754;' clip-path='url(#cpMjkwLjE0fDM4MS42NXwyOTguOTV8MjEuOTk=)' />
<polygon points='314.64,41.36 344.54,45.32 374.45,41.36 344.54,37.40 314.64,41.36 ' style='stroke-width: 1.07; stroke: #4D2754; fill: #4D2754;' clip-path='url(#cpMjkwLjE0fDM4MS42NXwyOTguOTV8MjEuOTk=)' />
<rect x='290.14' y='21.99' width='91.50' height='276.97' style='stroke-width: 0.78; stroke: #333333;' clip-path='url(#cpMjkwLjE0fDM4MS42NXwyOTguOTV8MjEuOTk=)' />
<defs>
  <clipPath id='cpMC4wMHw1MTAuMjR8MzIxLjQ1fDAuMDA='>
    <rect x='0.00' y='0.00' width='510.24' height='321.45' />
  </clipPath>
</defs>
<g clip-path='url(#cpMC4wMHw1MTAuMjR8MzIxLjQ1fDAuMDA=)'><text x='262.36' y='281.21' style='font-size: 6.40px; fill: #4D4D4D; font-family: Arial;' textLength='24.19px' lengthAdjust='spacingAndGlyphs'>not at all</text></g>
<g clip-path='url(#cpMC4wMHw1MTAuMjR8MzIxLjQ1fDAuMDA=)'><text x='262.36' y='254.82' style='font-size: 6.40px; fill: #4D4D4D; font-family: Arial;' textLength='24.19px' lengthAdjust='spacingAndGlyphs'>not at all</text></g>
<g clip-path='url(#cpMC4wMHw1MTAuMjR8MzIxLjQ1fDAuMDA=)'><text x='262.36' y='228.42' style='font-size: 6.40px; fill: #4D4D4D; font-family: Arial;' textLength='24.19px' lengthAdjust='spacingAndGlyphs'>not at all</text></g>
<g clip-path='url(#cpMC4wMHw1MTAuMjR8MzIxLjQ1fDAuMDA=)'><text x='262.36' y='202.02' style='font-size: 6.40px; fill: #4D4D4D; font-family: Arial;' textLength='24.19px' lengthAdjust='spacingAndGlyphs'>not at all</text></g>
<g clip-path='url(#cpMC4wMHw1MTAuMjR8MzIxLjQ1fDAuMDA=)'><text x='262.36' y='175.63' style='font-size: 6.40px; fill: #4D4D4D; font-family: Arial;' textLength='24.19px' lengthAdjust='spacingAndGlyphs'>not at all</text></g>
<g clip-path='url(#cpMC4wMHw1MTAuMjR8MzIxLjQ1fDAuMDA=)'><text x='262.36' y='149.23' style='font-size: 6.40px; fill: #4D4D4D; font-family: Arial;' textLength='24.19px' lengthAdjust='spacingAndGlyphs'>not at all</text></g>
<g clip-path='url(#cpMC4wMHw1MTAuMjR8MzIxLjQ1fDAuMDA=)'><text x='262.36' y='122.84' style='font-size: 6.40px; fill: #4D4D4D; font-family: Arial;' textLength='24.19px' lengthAdjust='spacingAndGlyphs'>not at all</text></g>
<g clip-path='url(#cpMC4wMHw1MTAuMjR8MzIxLjQ1fDAuMDA=)'><text x='262.36' y='96.44' style='font-size: 6.40px; fill: #4D4D4D; font-family: Arial;' textLength='24.19px' lengthAdjust='spacingAndGlyphs'>not at all</text></g>
<g clip-path='url(#cpMC4wMHw1MTAuMjR8MzIxLjQ1fDAuMDA=)'><text x='262.36' y='70.05' style='font-size: 6.40px; fill: #4D4D4D; font-family: Arial;' textLength='24.19px' lengthAdjust='spacingAndGlyphs'>not at all</text></g>
<g clip-path='url(#cpMC4wMHw1MTAuMjR8MzIxLjQ1fDAuMDA=)'><text x='262.36' y='43.65' style='font-size: 6.40px; fill: #4D4D4D; font-family: Arial;' textLength='24.19px' lengthAdjust='spacingAndGlyphs'>not at all</text></g>
<polyline points='288.15,278.92 290.14,278.92 ' style='stroke-width: 0.78; stroke: #333333; stroke-linecap: butt;' clip-path='url(#cpMC4wMHw1MTAuMjR8MzIxLjQ1fDAuMDA=)' />
<polyline points='288.15,252.53 290.14,252.53 ' style='stroke-width: 0.78; stroke: #333333; stroke-linecap: butt;' clip-path='url(#cpMC4wMHw1MTAuMjR8MzIxLjQ1fDAuMDA=)' />
<polyline points='288.15,226.13 290.14,226.13 ' style='stroke-width: 0.78; stroke: #333333; stroke-linecap: butt;' clip-path='url(#cpMC4wMHw1MTAuMjR8MzIxLjQ1fDAuMDA=)' />
<polyline points='288.15,199.73 290.14,199.73 ' style='stroke-width: 0.78; stroke: #333333; stroke-linecap: butt;' clip-path='url(#cpMC4wMHw1MTAuMjR8MzIxLjQ1fDAuMDA=)' />
<polyline points='288.15,173.34 290.14,173.34 ' style='stroke-width: 0.78; stroke: #333333; stroke-linecap: butt;' clip-path='url(#cpMC4wMHw1MTAuMjR8MzIxLjQ1fDAuMDA=)' />
<polyline points='288.15,146.94 290.14,146.94 ' style='stroke-width: 0.78; stroke: #333333; stroke-linecap: butt;' clip-path='url(#cpMC4wMHw1MTAuMjR8MzIxLjQ1fDAuMDA=)' />
<polyline points='288.15,120.55 290.14,120.55 ' style='stroke-width: 0.78; stroke: #333333; stroke-linecap: butt;' clip-path='url(#cpMC4wMHw1MTAuMjR8MzIxLjQ1fDAuMDA=)' />
<polyline points='288.15,94.15 290.14,94.15 ' style='stroke-width: 0.78; stroke: #333333; stroke-linecap: butt;' clip-path='url(#cpMC4wMHw1MTAuMjR8MzIxLjQ1fDAuMDA=)' />
<polyline points='288.15,67.76 290.14,67.76 ' style='stroke-width: 0.78; stroke: #333333; stroke-linecap: butt;' clip-path='url(#cpMC4wMHw1MTAuMjR8MzIxLjQ1fDAuMDA=)' />
<polyline points='288.15,41.36 290.14,41.36 ' style='stroke-width: 0.78; stroke: #333333; stroke-linecap: butt;' clip-path='url(#cpMC4wMHw1MTAuMjR8MzIxLjQ1fDAuMDA=)' />
<polyline points='381.65,278.99 383.64,278.99 ' style='stroke-width: 0.78; stroke: #333333; stroke-linecap: butt;' clip-path='url(#cpMC4wMHw1MTAuMjR8MzIxLjQ1fDAuMDA=)' />
<polyline points='381.65,252.65 383.64,252.65 ' style='stroke-width: 0.78; stroke: #333333; stroke-linecap: butt;' clip-path='url(#cpMC4wMHw1MTAuMjR8MzIxLjQ1fDAuMDA=)' />
<polyline points='381.65,226.04 383.64,226.04 ' style='stroke-width: 0.78; stroke: #333333; stroke-linecap: butt;' clip-path='url(#cpMC4wMHw1MTAuMjR8MzIxLjQ1fDAuMDA=)' />
<polyline points='381.65,199.70 383.64,199.70 ' style='stroke-width: 0.78; stroke: #333333; stroke-linecap: butt;' clip-path='url(#cpMC4wMHw1MTAuMjR8MzIxLjQ1fDAuMDA=)' />
<polyline points='381.65,173.36 383.64,173.36 ' style='stroke-width: 0.78; stroke: #333333; stroke-linecap: butt;' clip-path='url(#cpMC4wMHw1MTAuMjR8MzIxLjQ1fDAuMDA=)' />
<polyline points='381.65,147.02 383.64,147.02 ' style='stroke-width: 0.78; stroke: #333333; stroke-linecap: butt;' clip-path='url(#cpMC4wMHw1MTAuMjR8MzIxLjQ1fDAuMDA=)' />
<polyline points='381.65,120.68 383.64,120.68 ' style='stroke-width: 0.78; stroke: #333333; stroke-linecap: butt;' clip-path='url(#cpMC4wMHw1MTAuMjR8MzIxLjQ1fDAuMDA=)' />
<polyline points='381.65,94.07 383.64,94.07 ' style='stroke-width: 0.78; stroke: #333333; stroke-linecap: butt;' clip-path='url(#cpMC4wMHw1MTAuMjR8MzIxLjQ1fDAuMDA=)' />
<polyline points='381.65,67.73 383.64,67.73 ' style='stroke-width: 0.78; stroke: #333333; stroke-linecap: butt;' clip-path='url(#cpMC4wMHw1MTAuMjR8MzIxLjQ1fDAuMDA=)' />
<polyline points='381.65,41.39 383.64,41.39 ' style='stroke-width: 0.78; stroke: #333333; stroke-linecap: butt;' clip-path='url(#cpMC4wMHw1MTAuMjR8MzIxLjQ1fDAuMDA=)' />
<g clip-path='url(#cpMC4wMHw1MTAuMjR8MzIxLjQ1fDAuMDA=)'><text x='385.23' y='281.28' style='font-size: 6.40px; fill: #4D4D4D; font-family: Arial;' textLength='29.52px' lengthAdjust='spacingAndGlyphs'>very much</text></g>
<g clip-path='url(#cpMC4wMHw1MTAuMjR8MzIxLjQ1fDAuMDA=)'><text x='385.23' y='254.94' style='font-size: 6.40px; fill: #4D4D4D; font-family: Arial;' textLength='29.52px' lengthAdjust='spacingAndGlyphs'>very much</text></g>
<g clip-path='url(#cpMC4wMHw1MTAuMjR8MzIxLjQ1fDAuMDA=)'><text x='385.23' y='228.33' style='font-size: 6.40px; fill: #4D4D4D; font-family: Arial;' textLength='29.52px' lengthAdjust='spacingAndGlyphs'>very much</text></g>
<g clip-path='url(#cpMC4wMHw1MTAuMjR8MzIxLjQ1fDAuMDA=)'><text x='385.23' y='201.99' style='font-size: 6.40px; fill: #4D4D4D; font-family: Arial;' textLength='29.52px' lengthAdjust='spacingAndGlyphs'>very much</text></g>
<g clip-path='url(#cpMC4wMHw1MTAuMjR8MzIxLjQ1fDAuMDA=)'><text x='385.23' y='175.65' style='font-size: 6.40px; fill: #4D4D4D; font-family: Arial;' textLength='29.52px' lengthAdjust='spacingAndGlyphs'>very much</text></g>
<g clip-path='url(#cpMC4wMHw1MTAuMjR8MzIxLjQ1fDAuMDA=)'><text x='385.23' y='149.31' style='font-size: 6.40px; fill: #4D4D4D; font-family: Arial;' textLength='29.52px' lengthAdjust='spacingAndGlyphs'>very much</text></g>
<g clip-path='url(#cpMC4wMHw1MTAuMjR8MzIxLjQ1fDAuMDA=)'><text x='385.23' y='122.97' style='font-size: 6.40px; fill: #4D4D4D; font-family: Arial;' textLength='29.52px' lengthAdjust='spacingAndGlyphs'>very much</text></g>
<g clip-path='url(#cpMC4wMHw1MTAuMjR8MzIxLjQ1fDAuMDA=)'><text x='385.23' y='96.36' style='font-size: 6.40px; fill: #4D4D4D; font-family: Arial;' textLength='29.52px' lengthAdjust='spacingAndGlyphs'>very much</text></g>
<g clip-path='url(#cpMC4wMHw1MTAuMjR8MzIxLjQ1fDAuMDA=)'><text x='385.23' y='70.02' style='font-size: 6.40px; fill: #4D4D4D; font-family: Arial;' textLength='29.52px' lengthAdjust='spacingAndGlyphs'>very much</text></g>
<g clip-path='url(#cpMC4wMHw1MTAuMjR8MzIxLjQ1fDAuMDA=)'><text x='385.23' y='43.68' style='font-size: 6.40px; fill: #4D4D4D; font-family: Arial;' textLength='29.52px' lengthAdjust='spacingAndGlyphs'>very much</text></g>
<polyline points='305.95,300.94 305.95,298.95 ' style='stroke-width: 0.78; stroke: #333333; stroke-linecap: butt;' clip-path='url(#cpMC4wMHw1MTAuMjR8MzIxLjQ1fDAuMDA=)' />
<polyline points='322.03,300.94 322.03,298.95 ' style='stroke-width: 0.78; stroke: #333333; stroke-linecap: butt;' clip-path='url(#cpMC4wMHw1MTAuMjR8MzIxLjQ1fDAuMDA=)' />
<polyline points='338.11,300.94 338.11,298.95 ' style='stroke-width: 0.78; stroke: #333333; stroke-linecap: butt;' clip-path='url(#cpMC4wMHw1MTAuMjR8MzIxLjQ1fDAuMDA=)' />
<polyline points='354.19,300.94 354.19,298.95 ' style='stroke-width: 0.78; stroke: #333333; stroke-linecap: butt;' clip-path='url(#cpMC4wMHw1MTAuMjR8MzIxLjQ1fDAuMDA=)' />
<polyline points='370.27,300.94 370.27,298.95 ' style='stroke-width: 0.78; stroke: #333333; stroke-linecap: butt;' clip-path='url(#cpMC4wMHw1MTAuMjR8MzIxLjQ1fDAuMDA=)' />
<g clip-path='url(#cpMC4wMHw1MTAuMjR8MzIxLjQ1fDAuMDA=)'><text x='304.17' y='307.12' style='font-size: 6.40px; fill: #4D4D4D; font-family: Arial;' textLength='3.56px' lengthAdjust='spacingAndGlyphs'>1</text></g>
<g clip-path='url(#cpMC4wMHw1MTAuMjR8MzIxLjQ1fDAuMDA=)'><text x='320.25' y='307.12' style='font-size: 6.40px; fill: #4D4D4D; font-family: Arial;' textLength='3.56px' lengthAdjust='spacingAndGlyphs'>2</text></g>
<g clip-path='url(#cpMC4wMHw1MTAuMjR8MzIxLjQ1fDAuMDA=)'><text x='336.33' y='307.12' style='font-size: 6.40px; fill: #4D4D4D; font-family: Arial;' textLength='3.56px' lengthAdjust='spacingAndGlyphs'>3</text></g>
<g clip-path='url(#cpMC4wMHw1MTAuMjR8MzIxLjQ1fDAuMDA=)'><text x='352.41' y='307.12' style='font-size: 6.40px; fill: #4D4D4D; font-family: Arial;' textLength='3.56px' lengthAdjust='spacingAndGlyphs'>4</text></g>
<g clip-path='url(#cpMC4wMHw1MTAuMjR8MzIxLjQ1fDAuMDA=)'><text x='368.49' y='307.12' style='font-size: 6.40px; fill: #4D4D4D; font-family: Arial;' textLength='3.56px' lengthAdjust='spacingAndGlyphs'>5</text></g>
<g clip-path='url(#cpMC4wMHw1MTAuMjR8MzIxLjQ1fDAuMDA=)'><text x='293.87' y='315.96' style='font-size: 8.00px; font-family: Arial;' textLength='84.05px' lengthAdjust='spacingAndGlyphs'>Scores and 99.99% CIs</text></g>
<defs>
  <clipPath id='cpMC4wMHwyNTguMzh8Mjk4Ljk1fDIxLjk5'>
    <rect x='0.00' y='21.99' width='258.38' height='276.97' />
  </clipPath>
</defs>
<defs>
  <clipPath id='cpMC4wMHw1MTAuMjR8MzIxLjQ1fDAuMDA='>
    <rect x='0.00' y='0.00' width='510.24' height='321.45' />
  </clipPath>
</defs>
<g clip-path='url(#cpMC4wMHw1MTAuMjR8MzIxLjQ1fDAuMDA=)'><text x='3.59' y='273.77' style='font-size: 8.00px; font-family: Arial;' textLength='254.79px' lengthAdjust='spacingAndGlyphs'>When it comes to keeping at least {distRec} distance from others, I want</text></g>
<g clip-path='url(#cpMC4wMHw1MTAuMjR8MzIxLjQ1fDAuMDA=)'><text x='3.59' y='282.41' style='font-size: 8.00px; font-family: Arial;' textLength='138.74px' lengthAdjust='spacingAndGlyphs'>to do what my friends think I should do.</text></g>
<g clip-path='url(#cpMC4wMHw1MTAuMjR8MzIxLjQ1fDAuMDA=)'><text x='3.59' y='291.05' style='font-size: 8.00px; font-family: Arial;' textLength='87.14px' lengthAdjust='spacingAndGlyphs'>[NrmInMcFriends_clean]</text></g>
<g clip-path='url(#cpMC4wMHw1MTAuMjR8MzIxLjQ1fDAuMDA=)'><text x='3.59' y='247.43' style='font-size: 8.00px; font-family: Arial;' textLength='254.79px' lengthAdjust='spacingAndGlyphs'>When it comes to keeping at least {distRec} distance from others, I want</text></g>
<g clip-path='url(#cpMC4wMHw1MTAuMjR8MzIxLjQ1fDAuMDA=)'><text x='3.59' y='256.07' style='font-size: 8.00px; font-family: Arial;' textLength='186.35px' lengthAdjust='spacingAndGlyphs'>to do what people in my household think I should do.</text></g>
<g clip-path='url(#cpMC4wMHw1MTAuMjR8MzIxLjQ1fDAuMDA=)'><text x='3.59' y='264.71' style='font-size: 8.00px; font-family: Arial;' textLength='98.71px' lengthAdjust='spacingAndGlyphs'>[NrmInMcHousehold_clean]</text></g>
<g clip-path='url(#cpMC4wMHw1MTAuMjR8MzIxLjQ1fDAuMDA=)'><text x='3.59' y='221.09' style='font-size: 8.00px; font-family: Arial;' textLength='254.79px' lengthAdjust='spacingAndGlyphs'>When it comes to keeping at least {distRec} distance from others, I want</text></g>
<g clip-path='url(#cpMC4wMHw1MTAuMjR8MzIxLjQ1fDAuMDA=)'><text x='3.59' y='229.73' style='font-size: 8.00px; font-family: Arial;' textLength='135.63px' lengthAdjust='spacingAndGlyphs'>to do what my boss thinks I should do.</text></g>
<g clip-path='url(#cpMC4wMHw1MTAuMjR8MzIxLjQ1fDAuMDA=)'><text x='3.59' y='238.37' style='font-size: 8.00px; font-family: Arial;' textLength='78.25px' lengthAdjust='spacingAndGlyphs'>[NrmInMcBoss_clean]</text></g>
<g clip-path='url(#cpMC4wMHw1MTAuMjR8MzIxLjQ1fDAuMDA=)'><text x='3.59' y='194.75' style='font-size: 8.00px; font-family: Arial;' textLength='254.79px' lengthAdjust='spacingAndGlyphs'>When it comes to keeping at least {distRec} distance from others, I want</text></g>
<g clip-path='url(#cpMC4wMHw1MTAuMjR8MzIxLjQ1fDAuMDA=)'><text x='3.59' y='203.39' style='font-size: 8.00px; font-family: Arial;' textLength='140.96px' lengthAdjust='spacingAndGlyphs'>to do what my doctor thinks I should do.</text></g>
<g clip-path='url(#cpMC4wMHw1MTAuMjR8MzIxLjQ1fDAuMDA=)'><text x='3.59' y='212.03' style='font-size: 8.00px; font-family: Arial;' textLength='84.02px' lengthAdjust='spacingAndGlyphs'>[NrmInMcDoctor_clean]</text></g>
<g clip-path='url(#cpMC4wMHw1MTAuMjR8MzIxLjQ1fDAuMDA=)'><text x='3.59' y='168.42' style='font-size: 8.00px; font-family: Arial;' textLength='254.79px' lengthAdjust='spacingAndGlyphs'>When it comes to keeping at least {distRec} distance from others, I want</text></g>
<g clip-path='url(#cpMC4wMHw1MTAuMjR8MzIxLjQ1fDAuMDA=)'><text x='3.59' y='177.06' style='font-size: 8.00px; font-family: Arial;' textLength='152.98px' lengthAdjust='spacingAndGlyphs'>to do what my colleagues think I should do.</text></g>
<g clip-path='url(#cpMC4wMHw1MTAuMjR8MzIxLjQ1fDAuMDA=)'><text x='3.59' y='185.70' style='font-size: 8.00px; font-family: Arial;' textLength='100.49px' lengthAdjust='spacingAndGlyphs'>[NrmInMcColleagues_clean]</text></g>
<g clip-path='url(#cpMC4wMHw1MTAuMjR8MzIxLjQ1fDAuMDA=)'><text x='3.59' y='142.08' style='font-size: 8.00px; font-family: Arial;' textLength='254.79px' lengthAdjust='spacingAndGlyphs'>When it comes to keeping at least {distRec} distance from others, I want</text></g>
<g clip-path='url(#cpMC4wMHw1MTAuMjR8MzIxLjQ1fDAuMDA=)'><text x='3.59' y='150.72' style='font-size: 8.00px; font-family: Arial;' textLength='202.81px' lengthAdjust='spacingAndGlyphs'>to do what people in my neighbourhood think I should do.</text></g>
<g clip-path='url(#cpMC4wMHw1MTAuMjR8MzIxLjQ1fDAuMDA=)'><text x='3.59' y='159.36' style='font-size: 8.00px; font-family: Arial;' textLength='97.38px' lengthAdjust='spacingAndGlyphs'>[NrmInMcNeighbrhd_clean]</text></g>
<g clip-path='url(#cpMC4wMHw1MTAuMjR8MzIxLjQ1fDAuMDA=)'><text x='3.59' y='115.46' style='font-size: 8.00px; font-family: Arial;' textLength='254.79px' lengthAdjust='spacingAndGlyphs'>When it comes to keeping at least {distRec} distance from others, I want</text></g>
<g clip-path='url(#cpMC4wMHw1MTAuMjR8MzIxLjQ1fDAuMDA=)'><text x='3.59' y='124.10' style='font-size: 8.00px; font-family: Arial;' textLength='139.62px' lengthAdjust='spacingAndGlyphs'>to do what my family thinks I should do.</text></g>
<g clip-path='url(#cpMC4wMHw1MTAuMjR8MzIxLjQ1fDAuMDA=)'><text x='3.59' y='132.74' style='font-size: 8.00px; font-family: Arial;' textLength='84.02px' lengthAdjust='spacingAndGlyphs'>[NrmInMcFamily_clean]</text></g>
<g clip-path='url(#cpMC4wMHw1MTAuMjR8MzIxLjQ1fDAuMDA=)'><text x='3.59' y='89.12' style='font-size: 8.00px; font-family: Arial;' textLength='254.79px' lengthAdjust='spacingAndGlyphs'>When it comes to keeping at least {distRec} distance from others, I want</text></g>
<g clip-path='url(#cpMC4wMHw1MTAuMjR8MzIxLjQ1fDAuMDA=)'><text x='3.59' y='97.76' style='font-size: 8.00px; font-family: Arial;' textLength='163.23px' lengthAdjust='spacingAndGlyphs'>to do what people in general think I should do.</text></g>
<g clip-path='url(#cpMC4wMHw1MTAuMjR8MzIxLjQ1fDAuMDA=)'><text x='3.59' y='106.40' style='font-size: 8.00px; font-family: Arial;' textLength='88.92px' lengthAdjust='spacingAndGlyphs'>[NrmInMcGeneral_clean]</text></g>
<g clip-path='url(#cpMC4wMHw1MTAuMjR8MzIxLjQ1fDAuMDA=)'><text x='3.59' y='62.79' style='font-size: 8.00px; font-family: Arial;' textLength='254.79px' lengthAdjust='spacingAndGlyphs'>When it comes to keeping at least {distRec} distance from others, I want</text></g>
<g clip-path='url(#cpMC4wMHw1MTAuMjR8MzIxLjQ1fDAuMDA=)'><text x='3.59' y='71.43' style='font-size: 8.00px; font-family: Arial;' textLength='153.43px' lengthAdjust='spacingAndGlyphs'>to do what people like me think I should do.</text></g>
<g clip-path='url(#cpMC4wMHw1MTAuMjR8MzIxLjQ1fDAuMDA=)'><text x='3.59' y='80.07' style='font-size: 8.00px; font-family: Arial;' textLength='86.25px' lengthAdjust='spacingAndGlyphs'>[NrmInMcLikeMe_clean]</text></g>
<g clip-path='url(#cpMC4wMHw1MTAuMjR8MzIxLjQ1fDAuMDA=)'><text x='3.59' y='36.45' style='font-size: 8.00px; font-family: Arial;' textLength='254.79px' lengthAdjust='spacingAndGlyphs'>When it comes to keeping at least {distRec} distance from others, I want</text></g>
<g clip-path='url(#cpMC4wMHw1MTAuMjR8MzIxLjQ1fDAuMDA=)'><text x='3.59' y='45.09' style='font-size: 8.00px; font-family: Arial;' textLength='160.98px' lengthAdjust='spacingAndGlyphs'>to do what my government thinks I should do.</text></g>
<g clip-path='url(#cpMC4wMHw1MTAuMjR8MzIxLjQ1fDAuMDA=)'><text x='3.59' y='53.73' style='font-size: 8.00px; font-family: Arial;' textLength='104.48px' lengthAdjust='spacingAndGlyphs'>[NrmInMcGovernment_clean]</text></g>
<defs>
  <clipPath id='cpMC4wMHwyNTguMzh8Mjk4Ljk1fDIxLjk5'>
    <rect x='0.00' y='21.99' width='258.38' height='276.97' />
  </clipPath>
</defs>
<defs>
  <clipPath id='cpMC4wMHw1MTAuMjR8MzIxLjQ1fDAuMDA='>
    <rect x='0.00' y='0.00' width='510.24' height='321.45' />
  </clipPath>
</defs>
<defs>
  <clipPath id='cpNDE4Ljc0fDUxMC4yNHwzMjEuNDV8MTguMDA='>
    <rect x='418.74' y='18.00' width='91.50' height='303.45' />
  </clipPath>
</defs>
<rect x='418.74' y='18.00' width='91.50' height='303.45' style='stroke-width: 0.78; stroke: #FFFFFF; fill: #FFFFFF;' clip-path='url(#cpNDE4Ljc0fDUxMC4yNHwzMjEuNDV8MTguMDA=)' />
<defs>
  <clipPath id='cpNDIyLjcyfDUwNi4yNXwyOTguOTV8MjEuOTk='>
    <rect x='422.72' y='21.99' width='83.53' height='276.97' />
  </clipPath>
</defs>
<rect x='422.72' y='21.99' width='83.53' height='276.97' style='stroke-width: 0.78; stroke: none; fill: #FFFFFF;' clip-path='url(#cpNDIyLjcyfDUwNi4yNXwyOTguOTV8MjEuOTk=)' />
<polyline points='436.01,298.95 436.01,21.99 ' style='stroke-width: 0.39; stroke: #EBEBEB; stroke-linecap: butt;' clip-path='url(#cpNDIyLjcyfDUwNi4yNXwyOTguOTV8MjEuOTk=)' />
<polyline points='454.99,298.95 454.99,21.99 ' style='stroke-width: 0.39; stroke: #EBEBEB; stroke-linecap: butt;' clip-path='url(#cpNDIyLjcyfDUwNi4yNXwyOTguOTV8MjEuOTk=)' />
<polyline points='473.98,298.95 473.98,21.99 ' style='stroke-width: 0.39; stroke: #EBEBEB; stroke-linecap: butt;' clip-path='url(#cpNDIyLjcyfDUwNi4yNXwyOTguOTV8MjEuOTk=)' />
<polyline points='492.96,298.95 492.96,21.99 ' style='stroke-width: 0.39; stroke: #EBEBEB; stroke-linecap: butt;' clip-path='url(#cpNDIyLjcyfDUwNi4yNXwyOTguOTV8MjEuOTk=)' />
<polyline points='426.52,298.95 426.52,21.99 ' style='stroke-width: 0.78; stroke: #EBEBEB; stroke-linecap: butt;' clip-path='url(#cpNDIyLjcyfDUwNi4yNXwyOTguOTV8MjEuOTk=)' />
<polyline points='445.50,298.95 445.50,21.99 ' style='stroke-width: 0.78; stroke: #EBEBEB; stroke-linecap: butt;' clip-path='url(#cpNDIyLjcyfDUwNi4yNXwyOTguOTV8MjEuOTk=)' />
<polyline points='464.49,298.95 464.49,21.99 ' style='stroke-width: 0.78; stroke: #EBEBEB; stroke-linecap: butt;' clip-path='url(#cpNDIyLjcyfDUwNi4yNXwyOTguOTV8MjEuOTk=)' />
<polyline points='483.47,298.95 483.47,21.99 ' style='stroke-width: 0.78; stroke: #EBEBEB; stroke-linecap: butt;' clip-path='url(#cpNDIyLjcyfDUwNi4yNXwyOTguOTV8MjEuOTk=)' />
<polyline points='502.45,298.95 502.45,21.99 ' style='stroke-width: 0.78; stroke: #EBEBEB; stroke-linecap: butt;' clip-path='url(#cpNDIyLjcyfDUwNi4yNXwyOTguOTV8MjEuOTk=)' />
<line x1='445.50' y1='298.95' x2='445.50' y2='21.99' style='stroke-width: 1.07; stroke: #BEBEBE; stroke-linecap: butt;' clip-path='url(#cpNDIyLjcyfDUwNi4yNXwyOTguOTV8MjEuOTk=)' />
<line x1='464.49' y1='298.95' x2='464.49' y2='21.99' style='stroke-width: 1.07; stroke: #BEBEBE; stroke-linecap: butt;' clip-path='url(#cpNDIyLjcyfDUwNi4yNXwyOTguOTV8MjEuOTk=)' />
<line x1='483.47' y1='298.95' x2='483.47' y2='21.99' style='stroke-width: 1.07; stroke: #BEBEBE; stroke-linecap: butt;' clip-path='url(#cpNDIyLjcyfDUwNi4yNXwyOTguOTV8MjEuOTk=)' />
<polygon points='432.02,282.30 439.28,286.36 452.58,282.30 439.28,278.24 432.02,282.30 ' style='stroke-width: 2.13; fill: #327C79; fill-opacity: 0.50;' clip-path='url(#cpNDIyLjcyfDUwNi4yNXwyOTguOTV8MjEuOTk=)' />
<polygon points='450.43,255.23 462.31,259.29 474.63,255.23 462.31,251.17 450.43,255.23 ' style='stroke-width: 2.13; fill: #525858; fill-opacity: 0.50;' clip-path='url(#cpNDIyLjcyfDUwNi4yNXwyOTguOTV8MjEuOTk=)' />
<polygon points='446.71,228.15 462.75,232.21 479.43,228.15 462.75,224.09 446.71,228.15 ' style='stroke-width: 2.13; fill: #525757; fill-opacity: 0.50;' clip-path='url(#cpNDIyLjcyfDUwNi4yNXwyOTguOTV8MjEuOTk=)' />
<polygon points='452.42,201.08 466.87,205.14 480.65,201.08 466.87,197.02 452.42,201.08 ' style='stroke-width: 2.13; fill: #544F55; fill-opacity: 0.50;' clip-path='url(#cpNDIyLjcyfDUwNi4yNXwyOTguOTV8MjEuOTk=)' />
<polygon points='454.24,174.01 468.56,178.07 481.80,174.01 468.56,169.94 454.24,174.01 ' style='stroke-width: 2.13; fill: #534C55; fill-opacity: 0.50;' clip-path='url(#cpNDIyLjcyfDUwNi4yNXwyOTguOTV8MjEuOTk=)' />
<polygon points='458.09,146.93 472.50,150.99 484.84,146.93 472.50,142.87 458.09,146.93 ' style='stroke-width: 2.13; fill: #514354; fill-opacity: 0.50;' clip-path='url(#cpNDIyLjcyfDUwNi4yNXwyOTguOTV8MjEuOTk=)' />
<polygon points='462.50,119.86 475.35,123.92 485.95,119.86 475.35,115.80 462.50,119.86 ' style='stroke-width: 2.13; fill: #503D54; fill-opacity: 0.50;' clip-path='url(#cpNDIyLjcyfDUwNi4yNXwyOTguOTV8MjEuOTk=)' />
<polygon points='459.48,92.78 475.74,96.84 488.46,92.78 475.74,88.72 459.48,92.78 ' style='stroke-width: 2.13; fill: #503C54; fill-opacity: 0.50;' clip-path='url(#cpNDIyLjcyfDUwNi4yNXwyOTguOTV8MjEuOTk=)' />
<polygon points='461.08,65.71 475.89,69.77 487.68,65.71 475.89,61.65 461.08,65.71 ' style='stroke-width: 2.13; fill: #503C54; fill-opacity: 0.50;' clip-path='url(#cpNDIyLjcyfDUwNi4yNXwyOTguOTV8MjEuOTk=)' />
<polygon points='458.76,38.64 476.36,42.70 489.67,38.64 476.36,34.57 458.76,38.64 ' style='stroke-width: 2.13; fill: #4F3B54; fill-opacity: 0.50;' clip-path='url(#cpNDIyLjcyfDUwNi4yNXwyOTguOTV8MjEuOTk=)' />
<rect x='422.72' y='21.99' width='83.53' height='276.97' style='stroke-width: 0.78; stroke: #333333;' clip-path='url(#cpNDIyLjcyfDUwNi4yNXwyOTguOTV8MjEuOTk=)' />
<defs>
  <clipPath id='cpNDE4Ljc0fDUxMC4yNHwzMjEuNDV8MTguMDA='>
    <rect x='418.74' y='18.00' width='91.50' height='303.45' />
  </clipPath>
</defs>
<defs>
  <clipPath id='cpMC4wMHw1MTAuMjR8MzIxLjQ1fDAuMDA='>
    <rect x='0.00' y='0.00' width='510.24' height='321.45' />
  </clipPath>
</defs>
<defs>
  <clipPath id='cpNDE4Ljc0fDUxMC4yNHwzMjEuNDV8MTguMDA='>
    <rect x='418.74' y='18.00' width='91.50' height='303.45' />
  </clipPath>
</defs>
<defs>
  <clipPath id='cpMC4wMHw1MTAuMjR8MzIxLjQ1fDAuMDA='>
    <rect x='0.00' y='0.00' width='510.24' height='321.45' />
  </clipPath>
</defs>
<defs>
  <clipPath id='cpNDE4Ljc0fDUxMC4yNHwzMjEuNDV8MTguMDA='>
    <rect x='418.74' y='18.00' width='91.50' height='303.45' />
  </clipPath>
</defs>
<defs>
  <clipPath id='cpMC4wMHw1MTAuMjR8MzIxLjQ1fDAuMDA='>
    <rect x='0.00' y='0.00' width='510.24' height='321.45' />
  </clipPath>
</defs>
<defs>
  <clipPath id='cpNDE4Ljc0fDUxMC4yNHwzMjEuNDV8MTguMDA='>
    <rect x='418.74' y='18.00' width='91.50' height='303.45' />
  </clipPath>
</defs>
<defs>
  <clipPath id='cpMC4wMHw1MTAuMjR8MzIxLjQ1fDAuMDA='>
    <rect x='0.00' y='0.00' width='510.24' height='321.45' />
  </clipPath>
</defs>
<defs>
  <clipPath id='cpNDE4Ljc0fDUxMC4yNHwzMjEuNDV8MTguMDA='>
    <rect x='418.74' y='18.00' width='91.50' height='303.45' />
  </clipPath>
</defs>
<defs>
  <clipPath id='cpMC4wMHw1MTAuMjR8MzIxLjQ1fDAuMDA='>
    <rect x='0.00' y='0.00' width='510.24' height='321.45' />
  </clipPath>
</defs>
<defs>
  <clipPath id='cpNDE4Ljc0fDUxMC4yNHwzMjEuNDV8MTguMDA='>
    <rect x='418.74' y='18.00' width='91.50' height='303.45' />
  </clipPath>
</defs>
<defs>
  <clipPath id='cpMC4wMHw1MTAuMjR8MzIxLjQ1fDAuMDA='>
    <rect x='0.00' y='0.00' width='510.24' height='321.45' />
  </clipPath>
</defs>
<defs>
  <clipPath id='cpNDE4Ljc0fDUxMC4yNHwzMjEuNDV8MTguMDA='>
    <rect x='418.74' y='18.00' width='91.50' height='303.45' />
  </clipPath>
</defs>
<defs>
  <clipPath id='cpMC4wMHw1MTAuMjR8MzIxLjQ1fDAuMDA='>
    <rect x='0.00' y='0.00' width='510.24' height='321.45' />
  </clipPath>
</defs>
<defs>
  <clipPath id='cpNDE4Ljc0fDUxMC4yNHwzMjEuNDV8MTguMDA='>
    <rect x='418.74' y='18.00' width='91.50' height='303.45' />
  </clipPath>
</defs>
<defs>
  <clipPath id='cpMC4wMHw1MTAuMjR8MzIxLjQ1fDAuMDA='>
    <rect x='0.00' y='0.00' width='510.24' height='321.45' />
  </clipPath>
</defs>
<polyline points='426.52,300.94 426.52,298.95 ' style='stroke-width: 0.78; stroke: #333333; stroke-linecap: butt;' clip-path='url(#cpMC4wMHw1MTAuMjR8MzIxLjQ1fDAuMDA=)' />
<polyline points='445.50,300.94 445.50,298.95 ' style='stroke-width: 0.78; stroke: #333333; stroke-linecap: butt;' clip-path='url(#cpMC4wMHw1MTAuMjR8MzIxLjQ1fDAuMDA=)' />
<polyline points='464.49,300.94 464.49,298.95 ' style='stroke-width: 0.78; stroke: #333333; stroke-linecap: butt;' clip-path='url(#cpMC4wMHw1MTAuMjR8MzIxLjQ1fDAuMDA=)' />
<polyline points='483.47,300.94 483.47,298.95 ' style='stroke-width: 0.78; stroke: #333333; stroke-linecap: butt;' clip-path='url(#cpMC4wMHw1MTAuMjR8MzIxLjQ1fDAuMDA=)' />
<polyline points='502.45,300.94 502.45,298.95 ' style='stroke-width: 0.78; stroke: #333333; stroke-linecap: butt;' clip-path='url(#cpMC4wMHw1MTAuMjR8MzIxLjQ1fDAuMDA=)' />
<g clip-path='url(#cpMC4wMHw1MTAuMjR8MzIxLjQ1fDAuMDA=)'><text x='421.00' y='307.12' style='font-size: 6.40px; fill: #4D4D4D; font-family: Arial;' textLength='11.03px' lengthAdjust='spacingAndGlyphs'>-1.0</text></g>
<g clip-path='url(#cpMC4wMHw1MTAuMjR8MzIxLjQ1fDAuMDA=)'><text x='439.99' y='307.12' style='font-size: 6.40px; fill: #4D4D4D; font-family: Arial;' textLength='11.03px' lengthAdjust='spacingAndGlyphs'>-0.5</text></g>
<g clip-path='url(#cpMC4wMHw1MTAuMjR8MzIxLjQ1fDAuMDA=)'><text x='460.04' y='307.12' style='font-size: 6.40px; fill: #4D4D4D; font-family: Arial;' textLength='8.90px' lengthAdjust='spacingAndGlyphs'>0.0</text></g>
<g clip-path='url(#cpMC4wMHw1MTAuMjR8MzIxLjQ1fDAuMDA=)'><text x='479.02' y='307.12' style='font-size: 6.40px; fill: #4D4D4D; font-family: Arial;' textLength='8.90px' lengthAdjust='spacingAndGlyphs'>0.5</text></g>
<g clip-path='url(#cpMC4wMHw1MTAuMjR8MzIxLjQ1fDAuMDA=)'><text x='498.01' y='307.12' style='font-size: 6.40px; fill: #4D4D4D; font-family: Arial;' textLength='8.90px' lengthAdjust='spacingAndGlyphs'>1.0</text></g>
<defs>
  <clipPath id='cpNDE4Ljc0fDUxMC4yNHwzMjEuNDV8MTguMDA='>
    <rect x='418.74' y='18.00' width='91.50' height='303.45' />
  </clipPath>
</defs>
<defs>
  <clipPath id='cpMC4wMHw1MTAuMjR8MzIxLjQ1fDAuMDA='>
    <rect x='0.00' y='0.00' width='510.24' height='321.45' />
  </clipPath>
</defs>
<defs>
  <clipPath id='cpNDE4Ljc0fDUxMC4yNHwzMjEuNDV8MTguMDA='>
    <rect x='418.74' y='18.00' width='91.50' height='303.45' />
  </clipPath>
</defs>
<defs>
  <clipPath id='cpMC4wMHw1MTAuMjR8MzIxLjQ1fDAuMDA='>
    <rect x='0.00' y='0.00' width='510.24' height='321.45' />
  </clipPath>
</defs>
<g clip-path='url(#cpMC4wMHw1MTAuMjR8MzIxLjQ1fDAuMDA=)'><text x='421.80' y='315.96' style='font-size: 8.00px; font-family: Arial;' textLength='85.38px' lengthAdjust='spacingAndGlyphs'>95% CIs of associations</text></g>
<defs>
  <clipPath id='cpNDE4Ljc0fDUxMC4yNHwzMjEuNDV8MTguMDA='>
    <rect x='418.74' y='18.00' width='91.50' height='303.45' />
  </clipPath>
</defs>
<defs>
  <clipPath id='cpMC4wMHw1MTAuMjR8MzIxLjQ1fDAuMDA='>
    <rect x='0.00' y='0.00' width='510.24' height='321.45' />
  </clipPath>
</defs>
<defs>
  <clipPath id='cpNDE4Ljc0fDUxMC4yNHwzMjEuNDV8MTguMDA='>
    <rect x='418.74' y='18.00' width='91.50' height='303.45' />
  </clipPath>
</defs>
<defs>
  <clipPath id='cpMC4wMHw1MTAuMjR8MzIxLjQ1fDAuMDA='>
    <rect x='0.00' y='0.00' width='510.24' height='321.45' />
  </clipPath>
</defs>
<defs>
  <clipPath id='cpNDE4Ljc0fDUxMC4yNHwzMjEuNDV8MTguMDA='>
    <rect x='418.74' y='18.00' width='91.50' height='303.45' />
  </clipPath>
</defs>
<defs>
  <clipPath id='cpMC4wMHw1MTAuMjR8MzIxLjQ1fDAuMDA='>
    <rect x='0.00' y='0.00' width='510.24' height='321.45' />
  </clipPath>
</defs>
<defs>
  <clipPath id='cpNDE4Ljc0fDUxMC4yNHwzMjEuNDV8MTguMDA='>
    <rect x='418.74' y='18.00' width='91.50' height='303.45' />
  </clipPath>
</defs>
<defs>
  <clipPath id='cpMC4wMHw1MTAuMjR8MzIxLjQ1fDAuMDA='>
    <rect x='0.00' y='0.00' width='510.24' height='321.45' />
  </clipPath>
</defs>
<defs>
  <clipPath id='cpNDE4Ljc0fDUxMC4yNHwzMjEuNDV8MTguMDA='>
    <rect x='418.74' y='18.00' width='91.50' height='303.45' />
  </clipPath>
</defs>
<defs>
  <clipPath id='cpMC4wMHw1MTAuMjR8MzIxLjQ1fDAuMDA='>
    <rect x='0.00' y='0.00' width='510.24' height='321.45' />
  </clipPath>
</defs>
<defs>
  <clipPath id='cpNDE4Ljc0fDUxMC4yNHwzMjEuNDV8MTguMDA='>
    <rect x='418.74' y='18.00' width='91.50' height='303.45' />
  </clipPath>
</defs>
<defs>
  <clipPath id='cpMC4wMHw1MTAuMjR8MzIxLjQ1fDAuMDA='>
    <rect x='0.00' y='0.00' width='510.24' height='321.45' />
  </clipPath>
</defs>
<defs>
  <clipPath id='cpNDE4Ljc0fDUxMC4yNHwzMjEuNDV8MTguMDA='>
    <rect x='418.74' y='18.00' width='91.50' height='303.45' />
  </clipPath>
</defs>
<defs>
  <clipPath id='cpMC4wMHw1MTAuMjR8MzIxLjQ1fDAuMDA='>
    <rect x='0.00' y='0.00' width='510.24' height='321.45' />
  </clipPath>
</defs>
<g clip-path='url(#cpMC4wMHw1MTAuMjR8MzIxLjQ1fDAuMDA=)'><text x='2.30' y='8.78' style='font-size: 9.60px; font-weight: bold; font-family: Arial;' textLength='147.76px' lengthAdjust='spacingAndGlyphs'>Means and associations (r) with </text></g>
<g clip-path='url(#cpMC4wMHw1MTAuMjR8MzIxLjQ1fDAuMDA=)'><text x='150.07' y='8.78' style='font-size: 9.60px; font-weight: bold; font-family: Arial;' textLength='43.21px' lengthAdjust='spacingAndGlyphs'>proximity</text></g>
<g clip-path='url(#cpMC4wMHw1MTAuMjR8MzIxLjQ1fDAuMDA=)'><text x='193.28' y='8.78' style='font-size: 9.60px; font-weight: bold; font-family: Arial;' textLength='2.67px' lengthAdjust='spacingAndGlyphs'> </text></g>
</svg>
