<?xml version='1.0' encoding='UTF-8' ?>
<svg xmlns='http://www.w3.org/2000/svg' xmlns:xlink='http://www.w3.org/1999/xlink' viewBox='0 0 510.24 142.87'>
<defs>
  <style type='text/css'><![CDATA[
    line, polyline, polygon, path, rect, circle {
      fill: none;
      stroke: #000000;
      stroke-linecap: round;
      stroke-linejoin: round;
      stroke-miterlimit: 10.00;
    }
  ]]></style>
</defs>
<rect width='100%' height='100%' style='stroke: none; fill: none;'/>
<defs>
  <clipPath id='cpMTczLjkwfDQxMS4wMXwxNDIuODd8MTguMDA='>
    <rect x='173.90' y='18.00' width='237.11' height='124.87' />
  </clipPath>
</defs>
<rect x='173.90' y='18.00' width='237.11' height='124.87' style='stroke-width: 0.78; stroke: #FFFFFF; fill: #FFFFFF;' clip-path='url(#cpMTczLjkwfDQxMS4wMXwxNDIuODd8MTguMDA=)' />
<defs>
  <clipPath id='cpMC4wMHw1MTAuMjR8MTQyLjg3fDAuMDA='>
    <rect x='0.00' y='0.00' width='510.24' height='142.87' />
  </clipPath>
</defs>
<defs>
  <clipPath id='cpMjQxLjU5fDM0MC44MnwxMjAuMzd8MjEuOTk='>
    <rect x='241.59' y='21.99' width='99.23' height='98.38' />
  </clipPath>
</defs>
<rect x='241.59' y='21.99' width='99.23' height='98.38' style='stroke-width: 0.78; stroke: none; fill: #FFFFFF;' clip-path='url(#cpMjQxLjU5fDM0MC44MnwxMjAuMzd8MjEuOTk=)' />
<polyline points='247.83,120.37 247.83,21.99 ' style='stroke-width: 0.39; stroke: #EBEBEB; stroke-linecap: butt;' clip-path='url(#cpMjQxLjU5fDM0MC44MnwxMjAuMzd8MjEuOTk=)' />
<polyline points='265.72,120.37 265.72,21.99 ' style='stroke-width: 0.39; stroke: #EBEBEB; stroke-linecap: butt;' clip-path='url(#cpMjQxLjU5fDM0MC44MnwxMjAuMzd8MjEuOTk=)' />
<polyline points='283.60,120.37 283.60,21.99 ' style='stroke-width: 0.39; stroke: #EBEBEB; stroke-linecap: butt;' clip-path='url(#cpMjQxLjU5fDM0MC44MnwxMjAuMzd8MjEuOTk=)' />
<polyline points='301.48,120.37 301.48,21.99 ' style='stroke-width: 0.39; stroke: #EBEBEB; stroke-linecap: butt;' clip-path='url(#cpMjQxLjU5fDM0MC44MnwxMjAuMzd8MjEuOTk=)' />
<polyline points='319.37,120.37 319.37,21.99 ' style='stroke-width: 0.39; stroke: #EBEBEB; stroke-linecap: butt;' clip-path='url(#cpMjQxLjU5fDM0MC44MnwxMjAuMzd8MjEuOTk=)' />
<polyline points='337.25,120.37 337.25,21.99 ' style='stroke-width: 0.39; stroke: #EBEBEB; stroke-linecap: butt;' clip-path='url(#cpMjQxLjU5fDM0MC44MnwxMjAuMzd8MjEuOTk=)' />
<polyline points='241.59,109.44 340.82,109.44 ' style='stroke-width: 0.78; stroke: #EBEBEB; stroke-linecap: butt;' clip-path='url(#cpMjQxLjU5fDM0MC44MnwxMjAuMzd8MjEuOTk=)' />
<polyline points='241.59,83.75 340.82,83.75 ' style='stroke-width: 0.78; stroke: #EBEBEB; stroke-linecap: butt;' clip-path='url(#cpMjQxLjU5fDM0MC44MnwxMjAuMzd8MjEuOTk=)' />
<polyline points='241.59,58.05 340.82,58.05 ' style='stroke-width: 0.78; stroke: #EBEBEB; stroke-linecap: butt;' clip-path='url(#cpMjQxLjU5fDM0MC44MnwxMjAuMzd8MjEuOTk=)' />
<polyline points='241.59,32.36 340.82,32.36 ' style='stroke-width: 0.78; stroke: #EBEBEB; stroke-linecap: butt;' clip-path='url(#cpMjQxLjU5fDM0MC44MnwxMjAuMzd8MjEuOTk=)' />
<polyline points='256.77,120.37 256.77,21.99 ' style='stroke-width: 0.78; stroke: #EBEBEB; stroke-linecap: butt;' clip-path='url(#cpMjQxLjU5fDM0MC44MnwxMjAuMzd8MjEuOTk=)' />
<polyline points='274.66,120.37 274.66,21.99 ' style='stroke-width: 0.78; stroke: #EBEBEB; stroke-linecap: butt;' clip-path='url(#cpMjQxLjU5fDM0MC44MnwxMjAuMzd8MjEuOTk=)' />
<polyline points='292.54,120.37 292.54,21.99 ' style='stroke-width: 0.78; stroke: #EBEBEB; stroke-linecap: butt;' clip-path='url(#cpMjQxLjU5fDM0MC44MnwxMjAuMzd8MjEuOTk=)' />
<polyline points='310.43,120.37 310.43,21.99 ' style='stroke-width: 0.78; stroke: #EBEBEB; stroke-linecap: butt;' clip-path='url(#cpMjQxLjU5fDM0MC44MnwxMjAuMzd8MjEuOTk=)' />
<polyline points='328.31,120.37 328.31,21.99 ' style='stroke-width: 0.78; stroke: #EBEBEB; stroke-linecap: butt;' clip-path='url(#cpMjQxLjU5fDM0MC44MnwxMjAuMzd8MjEuOTk=)' />
<circle cx='263.66' cy='113.68' r='2.13' style='stroke-width: 0.00; stroke: #444444; stroke-opacity: 0.10; fill: #444444; fill-opacity: 0.10;' clip-path='url(#cpMjQxLjU5fDM0MC44MnwxMjAuMzd8MjEuOTk=)' />
<circle cx='250.58' cy='111.38' r='2.13' style='stroke-width: 0.00; stroke: #444444; stroke-opacity: 0.10; fill: #444444; fill-opacity: 0.10;' clip-path='url(#cpMjQxLjU5fDM0MC44MnwxMjAuMzd8MjEuOTk=)' />
<circle cx='264.68' cy='106.15' r='2.13' style='stroke-width: 0.00; stroke: #444444; stroke-opacity: 0.10; fill: #444444; fill-opacity: 0.10;' clip-path='url(#cpMjQxLjU5fDM0MC44MnwxMjAuMzd8MjEuOTk=)' />
<circle cx='310.30' cy='112.42' r='2.13' style='stroke-width: 0.00; stroke: #444444; stroke-opacity: 0.10; fill: #444444; fill-opacity: 0.10;' clip-path='url(#cpMjQxLjU5fDM0MC44MnwxMjAuMzd8MjEuOTk=)' />
<circle cx='290.28' cy='103.39' r='2.13' style='stroke-width: 0.00; stroke: #444444; stroke-opacity: 0.10; fill: #444444; fill-opacity: 0.10;' clip-path='url(#cpMjQxLjU5fDM0MC44MnwxMjAuMzd8MjEuOTk=)' />
<circle cx='294.39' cy='106.77' r='2.13' style='stroke-width: 0.00; stroke: #444444; stroke-opacity: 0.10; fill: #444444; fill-opacity: 0.10;' clip-path='url(#cpMjQxLjU5fDM0MC44MnwxMjAuMzd8MjEuOTk=)' />
<circle cx='258.29' cy='113.29' r='2.13' style='stroke-width: 0.00; stroke: #444444; stroke-opacity: 0.10; fill: #444444; fill-opacity: 0.10;' clip-path='url(#cpMjQxLjU5fDM0MC44MnwxMjAuMzd8MjEuOTk=)' />
<circle cx='255.89' cy='108.35' r='2.13' style='stroke-width: 0.00; stroke: #444444; stroke-opacity: 0.10; fill: #444444; fill-opacity: 0.10;' clip-path='url(#cpMjQxLjU5fDM0MC44MnwxMjAuMzd8MjEuOTk=)' />
<circle cx='273.92' cy='104.16' r='2.13' style='stroke-width: 0.00; stroke: #444444; stroke-opacity: 0.10; fill: #444444; fill-opacity: 0.10;' clip-path='url(#cpMjQxLjU5fDM0MC44MnwxMjAuMzd8MjEuOTk=)' />
<circle cx='289.64' cy='110.55' r='2.13' style='stroke-width: 0.00; stroke: #444444; stroke-opacity: 0.10; fill: #444444; fill-opacity: 0.10;' clip-path='url(#cpMjQxLjU5fDM0MC44MnwxMjAuMzd8MjEuOTk=)' />
<circle cx='287.54' cy='114.05' r='2.13' style='stroke-width: 0.00; stroke: #444444; stroke-opacity: 0.10; fill: #444444; fill-opacity: 0.10;' clip-path='url(#cpMjQxLjU5fDM0MC44MnwxMjAuMzd8MjEuOTk=)' />
<circle cx='269.13' cy='115.69' r='2.13' style='stroke-width: 0.00; stroke: #444444; stroke-opacity: 0.10; fill: #444444; fill-opacity: 0.10;' clip-path='url(#cpMjQxLjU5fDM0MC44MnwxMjAuMzd8MjEuOTk=)' />
<circle cx='253.21' cy='105.60' r='2.13' style='stroke-width: 0.00; stroke: #444444; stroke-opacity: 0.10; fill: #444444; fill-opacity: 0.10;' clip-path='url(#cpMjQxLjU5fDM0MC44MnwxMjAuMzd8MjEuOTk=)' />
<circle cx='263.13' cy='115.73' r='2.13' style='stroke-width: 0.00; stroke: #444444; stroke-opacity: 0.10; fill: #444444; fill-opacity: 0.10;' clip-path='url(#cpMjQxLjU5fDM0MC44MnwxMjAuMzd8MjEuOTk=)' />
<circle cx='254.25' cy='112.97' r='2.13' style='stroke-width: 0.00; stroke: #444444; stroke-opacity: 0.10; fill: #444444; fill-opacity: 0.10;' clip-path='url(#cpMjQxLjU5fDM0MC44MnwxMjAuMzd8MjEuOTk=)' />
<circle cx='285.63' cy='103.19' r='2.13' style='stroke-width: 0.00; stroke: #444444; stroke-opacity: 0.10; fill: #444444; fill-opacity: 0.10;' clip-path='url(#cpMjQxLjU5fDM0MC44MnwxMjAuMzd8MjEuOTk=)' />
<circle cx='280.21' cy='108.40' r='2.13' style='stroke-width: 0.00; stroke: #444444; stroke-opacity: 0.10; fill: #444444; fill-opacity: 0.10;' clip-path='url(#cpMjQxLjU5fDM0MC44MnwxMjAuMzd8MjEuOTk=)' />
<circle cx='260.56' cy='113.39' r='2.13' style='stroke-width: 0.00; stroke: #444444; stroke-opacity: 0.10; fill: #444444; fill-opacity: 0.10;' clip-path='url(#cpMjQxLjU5fDM0MC44MnwxMjAuMzd8MjEuOTk=)' />
<circle cx='258.25' cy='113.41' r='2.13' style='stroke-width: 0.00; stroke: #444444; stroke-opacity: 0.10; fill: #444444; fill-opacity: 0.10;' clip-path='url(#cpMjQxLjU5fDM0MC44MnwxMjAuMzd8MjEuOTk=)' />
<circle cx='259.87' cy='115.90' r='2.13' style='stroke-width: 0.00; stroke: #444444; stroke-opacity: 0.10; fill: #444444; fill-opacity: 0.10;' clip-path='url(#cpMjQxLjU5fDM0MC44MnwxMjAuMzd8MjEuOTk=)' />
<circle cx='264.65' cy='105.01' r='2.13' style='stroke-width: 0.00; stroke: #444444; stroke-opacity: 0.10; fill: #444444; fill-opacity: 0.10;' clip-path='url(#cpMjQxLjU5fDM0MC44MnwxMjAuMzd8MjEuOTk=)' />
<circle cx='251.42' cy='104.28' r='2.13' style='stroke-width: 0.00; stroke: #444444; stroke-opacity: 0.10; fill: #444444; fill-opacity: 0.10;' clip-path='url(#cpMjQxLjU5fDM0MC44MnwxMjAuMzd8MjEuOTk=)' />
<circle cx='336.31' cy='85.66' r='2.13' style='stroke-width: 0.00; stroke: #444444; stroke-opacity: 0.10; fill: #444444; fill-opacity: 0.10;' clip-path='url(#cpMjQxLjU5fDM0MC44MnwxMjAuMzd8MjEuOTk=)' />
<circle cx='326.82' cy='78.85' r='2.13' style='stroke-width: 0.00; stroke: #444444; stroke-opacity: 0.10; fill: #444444; fill-opacity: 0.10;' clip-path='url(#cpMjQxLjU5fDM0MC44MnwxMjAuMzd8MjEuOTk=)' />
<circle cx='272.55' cy='90.98' r='2.13' style='stroke-width: 0.00; stroke: #444444; stroke-opacity: 0.10; fill: #444444; fill-opacity: 0.10;' clip-path='url(#cpMjQxLjU5fDM0MC44MnwxMjAuMzd8MjEuOTk=)' />
<circle cx='325.46' cy='87.53' r='2.13' style='stroke-width: 0.00; stroke: #444444; stroke-opacity: 0.10; fill: #444444; fill-opacity: 0.10;' clip-path='url(#cpMjQxLjU5fDM0MC44MnwxMjAuMzd8MjEuOTk=)' />
<circle cx='324.93' cy='89.82' r='2.13' style='stroke-width: 0.00; stroke: #444444; stroke-opacity: 0.10; fill: #444444; fill-opacity: 0.10;' clip-path='url(#cpMjQxLjU5fDM0MC44MnwxMjAuMzd8MjEuOTk=)' />
<circle cx='332.13' cy='90.96' r='2.13' style='stroke-width: 0.00; stroke: #444444; stroke-opacity: 0.10; fill: #444444; fill-opacity: 0.10;' clip-path='url(#cpMjQxLjU5fDM0MC44MnwxMjAuMzd8MjEuOTk=)' />
<circle cx='307.82' cy='90.14' r='2.13' style='stroke-width: 0.00; stroke: #444444; stroke-opacity: 0.10; fill: #444444; fill-opacity: 0.10;' clip-path='url(#cpMjQxLjU5fDM0MC44MnwxMjAuMzd8MjEuOTk=)' />
<circle cx='330.57' cy='78.44' r='2.13' style='stroke-width: 0.00; stroke: #444444; stroke-opacity: 0.10; fill: #444444; fill-opacity: 0.10;' clip-path='url(#cpMjQxLjU5fDM0MC44MnwxMjAuMzd8MjEuOTk=)' />
<circle cx='322.70' cy='85.67' r='2.13' style='stroke-width: 0.00; stroke: #444444; stroke-opacity: 0.10; fill: #444444; fill-opacity: 0.10;' clip-path='url(#cpMjQxLjU5fDM0MC44MnwxMjAuMzd8MjEuOTk=)' />
<circle cx='320.47' cy='87.75' r='2.13' style='stroke-width: 0.00; stroke: #444444; stroke-opacity: 0.10; fill: #444444; fill-opacity: 0.10;' clip-path='url(#cpMjQxLjU5fDM0MC44MnwxMjAuMzd8MjEuOTk=)' />
<circle cx='332.05' cy='86.23' r='2.13' style='stroke-width: 0.00; stroke: #444444; stroke-opacity: 0.10; fill: #444444; fill-opacity: 0.10;' clip-path='url(#cpMjQxLjU5fDM0MC44MnwxMjAuMzd8MjEuOTk=)' />
<circle cx='331.81' cy='79.44' r='2.13' style='stroke-width: 0.00; stroke: #444444; stroke-opacity: 0.10; fill: #444444; fill-opacity: 0.10;' clip-path='url(#cpMjQxLjU5fDM0MC44MnwxMjAuMzd8MjEuOTk=)' />
<circle cx='324.97' cy='88.24' r='2.13' style='stroke-width: 0.00; stroke: #444444; stroke-opacity: 0.10; fill: #444444; fill-opacity: 0.10;' clip-path='url(#cpMjQxLjU5fDM0MC44MnwxMjAuMzd8MjEuOTk=)' />
<circle cx='328.45' cy='78.10' r='2.13' style='stroke-width: 0.00; stroke: #444444; stroke-opacity: 0.10; fill: #444444; fill-opacity: 0.10;' clip-path='url(#cpMjQxLjU5fDM0MC44MnwxMjAuMzd8MjEuOTk=)' />
<circle cx='332.43' cy='78.07' r='2.13' style='stroke-width: 0.00; stroke: #444444; stroke-opacity: 0.10; fill: #444444; fill-opacity: 0.10;' clip-path='url(#cpMjQxLjU5fDM0MC44MnwxMjAuMzd8MjEuOTk=)' />
<circle cx='330.41' cy='89.71' r='2.13' style='stroke-width: 0.00; stroke: #444444; stroke-opacity: 0.10; fill: #444444; fill-opacity: 0.10;' clip-path='url(#cpMjQxLjU5fDM0MC44MnwxMjAuMzd8MjEuOTk=)' />
<circle cx='334.99' cy='87.99' r='2.13' style='stroke-width: 0.00; stroke: #444444; stroke-opacity: 0.10; fill: #444444; fill-opacity: 0.10;' clip-path='url(#cpMjQxLjU5fDM0MC44MnwxMjAuMzd8MjEuOTk=)' />
<circle cx='336.03' cy='88.66' r='2.13' style='stroke-width: 0.00; stroke: #444444; stroke-opacity: 0.10; fill: #444444; fill-opacity: 0.10;' clip-path='url(#cpMjQxLjU5fDM0MC44MnwxMjAuMzd8MjEuOTk=)' />
<circle cx='332.45' cy='82.75' r='2.13' style='stroke-width: 0.00; stroke: #444444; stroke-opacity: 0.10; fill: #444444; fill-opacity: 0.10;' clip-path='url(#cpMjQxLjU5fDM0MC44MnwxMjAuMzd8MjEuOTk=)' />
<circle cx='321.64' cy='84.32' r='2.13' style='stroke-width: 0.00; stroke: #444444; stroke-opacity: 0.10; fill: #444444; fill-opacity: 0.10;' clip-path='url(#cpMjQxLjU5fDM0MC44MnwxMjAuMzd8MjEuOTk=)' />
<circle cx='334.88' cy='84.74' r='2.13' style='stroke-width: 0.00; stroke: #444444; stroke-opacity: 0.10; fill: #444444; fill-opacity: 0.10;' clip-path='url(#cpMjQxLjU5fDM0MC44MnwxMjAuMzd8MjEuOTk=)' />
<circle cx='306.71' cy='88.62' r='2.13' style='stroke-width: 0.00; stroke: #444444; stroke-opacity: 0.10; fill: #444444; fill-opacity: 0.10;' clip-path='url(#cpMjQxLjU5fDM0MC44MnwxMjAuMzd8MjEuOTk=)' />
<circle cx='335.01' cy='89.07' r='2.13' style='stroke-width: 0.00; stroke: #444444; stroke-opacity: 0.10; fill: #444444; fill-opacity: 0.10;' clip-path='url(#cpMjQxLjU5fDM0MC44MnwxMjAuMzd8MjEuOTk=)' />
<circle cx='330.16' cy='85.70' r='2.13' style='stroke-width: 0.00; stroke: #444444; stroke-opacity: 0.10; fill: #444444; fill-opacity: 0.10;' clip-path='url(#cpMjQxLjU5fDM0MC44MnwxMjAuMzd8MjEuOTk=)' />
<circle cx='317.67' cy='56.11' r='2.13' style='stroke-width: 0.00; stroke: #444444; stroke-opacity: 0.10; fill: #444444; fill-opacity: 0.10;' clip-path='url(#cpMjQxLjU5fDM0MC44MnwxMjAuMzd8MjEuOTk=)' />
<circle cx='331.55' cy='60.94' r='2.13' style='stroke-width: 0.00; stroke: #444444; stroke-opacity: 0.10; fill: #444444; fill-opacity: 0.10;' clip-path='url(#cpMjQxLjU5fDM0MC44MnwxMjAuMzd8MjEuOTk=)' />
<circle cx='331.48' cy='61.57' r='2.13' style='stroke-width: 0.00; stroke: #444444; stroke-opacity: 0.10; fill: #444444; fill-opacity: 0.10;' clip-path='url(#cpMjQxLjU5fDM0MC44MnwxMjAuMzd8MjEuOTk=)' />
<circle cx='314.17' cy='56.63' r='2.13' style='stroke-width: 0.00; stroke: #444444; stroke-opacity: 0.10; fill: #444444; fill-opacity: 0.10;' clip-path='url(#cpMjQxLjU5fDM0MC44MnwxMjAuMzd8MjEuOTk=)' />
<circle cx='295.75' cy='62.54' r='2.13' style='stroke-width: 0.00; stroke: #444444; stroke-opacity: 0.10; fill: #444444; fill-opacity: 0.10;' clip-path='url(#cpMjQxLjU5fDM0MC44MnwxMjAuMzd8MjEuOTk=)' />
<circle cx='334.40' cy='58.08' r='2.13' style='stroke-width: 0.00; stroke: #444444; stroke-opacity: 0.10; fill: #444444; fill-opacity: 0.10;' clip-path='url(#cpMjQxLjU5fDM0MC44MnwxMjAuMzd8MjEuOTk=)' />
<circle cx='314.08' cy='64.25' r='2.13' style='stroke-width: 0.00; stroke: #444444; stroke-opacity: 0.10; fill: #444444; fill-opacity: 0.10;' clip-path='url(#cpMjQxLjU5fDM0MC44MnwxMjAuMzd8MjEuOTk=)' />
<circle cx='322.90' cy='58.59' r='2.13' style='stroke-width: 0.00; stroke: #444444; stroke-opacity: 0.10; fill: #444444; fill-opacity: 0.10;' clip-path='url(#cpMjQxLjU5fDM0MC44MnwxMjAuMzd8MjEuOTk=)' />
<circle cx='299.08' cy='56.52' r='2.13' style='stroke-width: 0.00; stroke: #444444; stroke-opacity: 0.10; fill: #444444; fill-opacity: 0.10;' clip-path='url(#cpMjQxLjU5fDM0MC44MnwxMjAuMzd8MjEuOTk=)' />
<circle cx='331.47' cy='52.77' r='2.13' style='stroke-width: 0.00; stroke: #444444; stroke-opacity: 0.10; fill: #444444; fill-opacity: 0.10;' clip-path='url(#cpMjQxLjU5fDM0MC44MnwxMjAuMzd8MjEuOTk=)' />
<circle cx='297.50' cy='57.01' r='2.13' style='stroke-width: 0.00; stroke: #444444; stroke-opacity: 0.10; fill: #444444; fill-opacity: 0.10;' clip-path='url(#cpMjQxLjU5fDM0MC44MnwxMjAuMzd8MjEuOTk=)' />
<circle cx='325.20' cy='61.54' r='2.13' style='stroke-width: 0.00; stroke: #444444; stroke-opacity: 0.10; fill: #444444; fill-opacity: 0.10;' clip-path='url(#cpMjQxLjU5fDM0MC44MnwxMjAuMzd8MjEuOTk=)' />
<circle cx='326.68' cy='57.02' r='2.13' style='stroke-width: 0.00; stroke: #444444; stroke-opacity: 0.10; fill: #444444; fill-opacity: 0.10;' clip-path='url(#cpMjQxLjU5fDM0MC44MnwxMjAuMzd8MjEuOTk=)' />
<circle cx='291.71' cy='50.67' r='2.13' style='stroke-width: 0.00; stroke: #444444; stroke-opacity: 0.10; fill: #444444; fill-opacity: 0.10;' clip-path='url(#cpMjQxLjU5fDM0MC44MnwxMjAuMzd8MjEuOTk=)' />
<circle cx='300.31' cy='56.29' r='2.13' style='stroke-width: 0.00; stroke: #444444; stroke-opacity: 0.10; fill: #444444; fill-opacity: 0.10;' clip-path='url(#cpMjQxLjU5fDM0MC44MnwxMjAuMzd8MjEuOTk=)' />
<circle cx='333.96' cy='50.80' r='2.13' style='stroke-width: 0.00; stroke: #444444; stroke-opacity: 0.10; fill: #444444; fill-opacity: 0.10;' clip-path='url(#cpMjQxLjU5fDM0MC44MnwxMjAuMzd8MjEuOTk=)' />
<circle cx='316.08' cy='57.39' r='2.13' style='stroke-width: 0.00; stroke: #444444; stroke-opacity: 0.10; fill: #444444; fill-opacity: 0.10;' clip-path='url(#cpMjQxLjU5fDM0MC44MnwxMjAuMzd8MjEuOTk=)' />
<circle cx='325.62' cy='56.33' r='2.13' style='stroke-width: 0.00; stroke: #444444; stroke-opacity: 0.10; fill: #444444; fill-opacity: 0.10;' clip-path='url(#cpMjQxLjU5fDM0MC44MnwxMjAuMzd8MjEuOTk=)' />
<circle cx='324.04' cy='55.24' r='2.13' style='stroke-width: 0.00; stroke: #444444; stroke-opacity: 0.10; fill: #444444; fill-opacity: 0.10;' clip-path='url(#cpMjQxLjU5fDM0MC44MnwxMjAuMzd8MjEuOTk=)' />
<circle cx='288.47' cy='60.00' r='2.13' style='stroke-width: 0.00; stroke: #444444; stroke-opacity: 0.10; fill: #444444; fill-opacity: 0.10;' clip-path='url(#cpMjQxLjU5fDM0MC44MnwxMjAuMzd8MjEuOTk=)' />
<circle cx='295.65' cy='64.53' r='2.13' style='stroke-width: 0.00; stroke: #444444; stroke-opacity: 0.10; fill: #444444; fill-opacity: 0.10;' clip-path='url(#cpMjQxLjU5fDM0MC44MnwxMjAuMzd8MjEuOTk=)' />
<circle cx='311.62' cy='60.91' r='2.13' style='stroke-width: 0.00; stroke: #444444; stroke-opacity: 0.10; fill: #444444; fill-opacity: 0.10;' clip-path='url(#cpMjQxLjU5fDM0MC44MnwxMjAuMzd8MjEuOTk=)' />
<circle cx='261.34' cy='26.52' r='2.13' style='stroke-width: 0.00; stroke: #444444; stroke-opacity: 0.10; fill: #444444; fill-opacity: 0.10;' clip-path='url(#cpMjQxLjU5fDM0MC44MnwxMjAuMzd8MjEuOTk=)' />
<circle cx='253.78' cy='38.87' r='2.13' style='stroke-width: 0.00; stroke: #444444; stroke-opacity: 0.10; fill: #444444; fill-opacity: 0.10;' clip-path='url(#cpMjQxLjU5fDM0MC44MnwxMjAuMzd8MjEuOTk=)' />
<circle cx='306.21' cy='37.40' r='2.13' style='stroke-width: 0.00; stroke: #444444; stroke-opacity: 0.10; fill: #444444; fill-opacity: 0.10;' clip-path='url(#cpMjQxLjU5fDM0MC44MnwxMjAuMzd8MjEuOTk=)' />
<circle cx='254.21' cy='29.17' r='2.13' style='stroke-width: 0.00; stroke: #444444; stroke-opacity: 0.10; fill: #444444; fill-opacity: 0.10;' clip-path='url(#cpMjQxLjU5fDM0MC44MnwxMjAuMzd8MjEuOTk=)' />
<circle cx='254.90' cy='36.32' r='2.13' style='stroke-width: 0.00; stroke: #444444; stroke-opacity: 0.10; fill: #444444; fill-opacity: 0.10;' clip-path='url(#cpMjQxLjU5fDM0MC44MnwxMjAuMzd8MjEuOTk=)' />
<circle cx='280.30' cy='35.50' r='2.13' style='stroke-width: 0.00; stroke: #444444; stroke-opacity: 0.10; fill: #444444; fill-opacity: 0.10;' clip-path='url(#cpMjQxLjU5fDM0MC44MnwxMjAuMzd8MjEuOTk=)' />
<circle cx='317.31' cy='34.07' r='2.13' style='stroke-width: 0.00; stroke: #444444; stroke-opacity: 0.10; fill: #444444; fill-opacity: 0.10;' clip-path='url(#cpMjQxLjU5fDM0MC44MnwxMjAuMzd8MjEuOTk=)' />
<circle cx='295.30' cy='26.46' r='2.13' style='stroke-width: 0.00; stroke: #444444; stroke-opacity: 0.10; fill: #444444; fill-opacity: 0.10;' clip-path='url(#cpMjQxLjU5fDM0MC44MnwxMjAuMzd8MjEuOTk=)' />
<circle cx='308.98' cy='35.14' r='2.13' style='stroke-width: 0.00; stroke: #444444; stroke-opacity: 0.10; fill: #444444; fill-opacity: 0.10;' clip-path='url(#cpMjQxLjU5fDM0MC44MnwxMjAuMzd8MjEuOTk=)' />
<circle cx='253.36' cy='33.30' r='2.13' style='stroke-width: 0.00; stroke: #444444; stroke-opacity: 0.10; fill: #444444; fill-opacity: 0.10;' clip-path='url(#cpMjQxLjU5fDM0MC44MnwxMjAuMzd8MjEuOTk=)' />
<circle cx='253.25' cy='35.30' r='2.13' style='stroke-width: 0.00; stroke: #444444; stroke-opacity: 0.10; fill: #444444; fill-opacity: 0.10;' clip-path='url(#cpMjQxLjU5fDM0MC44MnwxMjAuMzd8MjEuOTk=)' />
<circle cx='252.07' cy='30.51' r='2.13' style='stroke-width: 0.00; stroke: #444444; stroke-opacity: 0.10; fill: #444444; fill-opacity: 0.10;' clip-path='url(#cpMjQxLjU5fDM0MC44MnwxMjAuMzd8MjEuOTk=)' />
<circle cx='262.72' cy='27.26' r='2.13' style='stroke-width: 0.00; stroke: #444444; stroke-opacity: 0.10; fill: #444444; fill-opacity: 0.10;' clip-path='url(#cpMjQxLjU5fDM0MC44MnwxMjAuMzd8MjEuOTk=)' />
<circle cx='260.98' cy='32.16' r='2.13' style='stroke-width: 0.00; stroke: #444444; stroke-opacity: 0.10; fill: #444444; fill-opacity: 0.10;' clip-path='url(#cpMjQxLjU5fDM0MC44MnwxMjAuMzd8MjEuOTk=)' />
<circle cx='273.81' cy='36.95' r='2.13' style='stroke-width: 0.00; stroke: #444444; stroke-opacity: 0.10; fill: #444444; fill-opacity: 0.10;' clip-path='url(#cpMjQxLjU5fDM0MC44MnwxMjAuMzd8MjEuOTk=)' />
<circle cx='251.89' cy='36.78' r='2.13' style='stroke-width: 0.00; stroke: #444444; stroke-opacity: 0.10; fill: #444444; fill-opacity: 0.10;' clip-path='url(#cpMjQxLjU5fDM0MC44MnwxMjAuMzd8MjEuOTk=)' />
<circle cx='330.77' cy='38.73' r='2.13' style='stroke-width: 0.00; stroke: #444444; stroke-opacity: 0.10; fill: #444444; fill-opacity: 0.10;' clip-path='url(#cpMjQxLjU5fDM0MC44MnwxMjAuMzd8MjEuOTk=)' />
<circle cx='329.66' cy='36.52' r='2.13' style='stroke-width: 0.00; stroke: #444444; stroke-opacity: 0.10; fill: #444444; fill-opacity: 0.10;' clip-path='url(#cpMjQxLjU5fDM0MC44MnwxMjAuMzd8MjEuOTk=)' />
<circle cx='260.83' cy='33.80' r='2.13' style='stroke-width: 0.00; stroke: #444444; stroke-opacity: 0.10; fill: #444444; fill-opacity: 0.10;' clip-path='url(#cpMjQxLjU5fDM0MC44MnwxMjAuMzd8MjEuOTk=)' />
<circle cx='258.95' cy='32.98' r='2.13' style='stroke-width: 0.00; stroke: #444444; stroke-opacity: 0.10; fill: #444444; fill-opacity: 0.10;' clip-path='url(#cpMjQxLjU5fDM0MC44MnwxMjAuMzd8MjEuOTk=)' />
<polygon points='251.82,109.44 269.78,113.29 287.74,109.44 269.78,105.59 251.82,109.44 ' style='stroke-width: 1.07; stroke: #524855; fill: #524855;' clip-path='url(#cpMjQxLjU5fDM0MC44MnwxMjAuMzd8MjEuOTk=)' />
<polygon points='313.31,83.75 324.58,87.60 335.86,83.75 324.58,79.89 313.31,83.75 ' style='stroke-width: 1.07; stroke: #450654; fill: #450654;' clip-path='url(#cpMjQxLjU5fDM0MC44MnwxMjAuMzd8MjEuOTk=)' />
<polygon points='296.65,58.05 312.86,61.91 329.08,58.05 312.86,54.20 296.65,58.05 ' style='stroke-width: 1.07; stroke: #481654; fill: #481654;' clip-path='url(#cpMjQxLjU5fDM0MC44MnwxMjAuMzd8MjEuOTk=)' />
<polygon points='246.11,32.36 275.55,36.21 305.00,32.36 275.55,28.51 246.11,32.36 ' style='stroke-width: 1.07; stroke: #524255; fill: #524255;' clip-path='url(#cpMjQxLjU5fDM0MC44MnwxMjAuMzd8MjEuOTk=)' />
<rect x='241.59' y='21.99' width='99.23' height='98.38' style='stroke-width: 0.78; stroke: #333333;' clip-path='url(#cpMjQxLjU5fDM0MC44MnwxMjAuMzd8MjEuOTk=)' />
<defs>
  <clipPath id='cpMC4wMHw1MTAuMjR8MTQyLjg3fDAuMDA='>
    <rect x='0.00' y='0.00' width='510.24' height='142.87' />
  </clipPath>
</defs>
<g clip-path='url(#cpMC4wMHw1MTAuMjR8MTQyLjg3fDAuMDA=)'><text x='177.88' y='111.73' style='font-size: 6.40px; fill: #4D4D4D; font-family: Arial;' textLength='60.13px' lengthAdjust='spacingAndGlyphs'>definitely not infected</text></g>
<g clip-path='url(#cpMC4wMHw1MTAuMjR8MTQyLjg3fDAuMDA=)'><text x='180.75' y='82.58' style='font-size: 6.40px; fill: #4D4D4D; font-family: Arial;' textLength='57.26px' lengthAdjust='spacingAndGlyphs'>infect my family with</text></g>
<g clip-path='url(#cpMC4wMHw1MTAuMjR8MTQyLjg3fDAuMDA=)'><text x='194.25' y='89.49' style='font-size: 6.40px; fill: #4D4D4D; font-family: Arial;' textLength='43.76px' lengthAdjust='spacingAndGlyphs'>the coronavirus</text></g>
<g clip-path='url(#cpMC4wMHw1MTAuMjR8MTQyLjg3fDAuMDA=)'><text x='178.95' y='60.34' style='font-size: 6.40px; fill: #4D4D4D; font-family: Arial;' textLength='59.06px' lengthAdjust='spacingAndGlyphs'>never be appropriate</text></g>
<g clip-path='url(#cpMC4wMHw1MTAuMjR8MTQyLjg3fDAuMDA=)'><text x='213.82' y='34.65' style='font-size: 6.40px; fill: #4D4D4D; font-family: Arial;' textLength='24.18px' lengthAdjust='spacingAndGlyphs'>normally</text></g>
<polyline points='239.60,109.44 241.59,109.44 ' style='stroke-width: 0.78; stroke: #333333; stroke-linecap: butt;' clip-path='url(#cpMC4wMHw1MTAuMjR8MTQyLjg3fDAuMDA=)' />
<polyline points='239.60,83.75 241.59,83.75 ' style='stroke-width: 0.78; stroke: #333333; stroke-linecap: butt;' clip-path='url(#cpMC4wMHw1MTAuMjR8MTQyLjg3fDAuMDA=)' />
<polyline points='239.60,58.05 241.59,58.05 ' style='stroke-width: 0.78; stroke: #333333; stroke-linecap: butt;' clip-path='url(#cpMC4wMHw1MTAuMjR8MTQyLjg3fDAuMDA=)' />
<polyline points='239.60,32.36 241.59,32.36 ' style='stroke-width: 0.78; stroke: #333333; stroke-linecap: butt;' clip-path='url(#cpMC4wMHw1MTAuMjR8MTQyLjg3fDAuMDA=)' />
<polyline points='340.82,109.44 342.81,109.44 ' style='stroke-width: 0.78; stroke: #333333; stroke-linecap: butt;' clip-path='url(#cpMC4wMHw1MTAuMjR8MTQyLjg3fDAuMDA=)' />
<polyline points='340.82,83.73 342.81,83.73 ' style='stroke-width: 0.78; stroke: #333333; stroke-linecap: butt;' clip-path='url(#cpMC4wMHw1MTAuMjR8MTQyLjg3fDAuMDA=)' />
<polyline points='340.82,58.03 342.81,58.03 ' style='stroke-width: 0.78; stroke: #333333; stroke-linecap: butt;' clip-path='url(#cpMC4wMHw1MTAuMjR8MTQyLjg3fDAuMDA=)' />
<polyline points='340.82,32.33 342.81,32.33 ' style='stroke-width: 0.78; stroke: #333333; stroke-linecap: butt;' clip-path='url(#cpMC4wMHw1MTAuMjR8MTQyLjg3fDAuMDA=)' />
<g clip-path='url(#cpMC4wMHw1MTAuMjR8MTQyLjg3fDAuMDA=)'><text x='344.41' y='111.73' style='font-size: 6.40px; fill: #4D4D4D; font-family: Arial;' textLength='49.45px' lengthAdjust='spacingAndGlyphs'>definitely infected</text></g>
<g clip-path='url(#cpMC4wMHw1MTAuMjR8MTQyLjg3fDAuMDA=)'><text x='344.41' y='79.11' style='font-size: 6.40px; fill: #4D4D4D; font-family: Arial;' textLength='51.23px' lengthAdjust='spacingAndGlyphs'>avoid infecting my</text></g>
<g clip-path='url(#cpMC4wMHw1MTAuMjR8MTQyLjg3fDAuMDA=)'><text x='344.41' y='86.02' style='font-size: 6.40px; fill: #4D4D4D; font-family: Arial;' textLength='40.55px' lengthAdjust='spacingAndGlyphs'>family with the</text></g>
<g clip-path='url(#cpMC4wMHw1MTAuMjR8MTQyLjg3fDAuMDA=)'><text x='344.41' y='92.94' style='font-size: 6.40px; fill: #4D4D4D; font-family: Arial;' textLength='33.08px' lengthAdjust='spacingAndGlyphs'>coronavirus</text></g>
<g clip-path='url(#cpMC4wMHw1MTAuMjR8MTQyLjg3fDAuMDA=)'><text x='344.41' y='60.32' style='font-size: 6.40px; fill: #4D4D4D; font-family: Arial;' textLength='62.62px' lengthAdjust='spacingAndGlyphs'>always be appropriate</text></g>
<g clip-path='url(#cpMC4wMHw1MTAuMjR8MTQyLjg3fDAuMDA=)'><text x='344.41' y='34.62' style='font-size: 6.40px; fill: #4D4D4D; font-family: Arial;' textLength='36.78px' lengthAdjust='spacingAndGlyphs'>like I'm crazy</text></g>
<polyline points='256.77,122.36 256.77,120.37 ' style='stroke-width: 0.78; stroke: #333333; stroke-linecap: butt;' clip-path='url(#cpMC4wMHw1MTAuMjR8MTQyLjg3fDAuMDA=)' />
<polyline points='274.66,122.36 274.66,120.37 ' style='stroke-width: 0.78; stroke: #333333; stroke-linecap: butt;' clip-path='url(#cpMC4wMHw1MTAuMjR8MTQyLjg3fDAuMDA=)' />
<polyline points='292.54,122.36 292.54,120.37 ' style='stroke-width: 0.78; stroke: #333333; stroke-linecap: butt;' clip-path='url(#cpMC4wMHw1MTAuMjR8MTQyLjg3fDAuMDA=)' />
<polyline points='310.43,122.36 310.43,120.37 ' style='stroke-width: 0.78; stroke: #333333; stroke-linecap: butt;' clip-path='url(#cpMC4wMHw1MTAuMjR8MTQyLjg3fDAuMDA=)' />
<polyline points='328.31,122.36 328.31,120.37 ' style='stroke-width: 0.78; stroke: #333333; stroke-linecap: butt;' clip-path='url(#cpMC4wMHw1MTAuMjR8MTQyLjg3fDAuMDA=)' />
<g clip-path='url(#cpMC4wMHw1MTAuMjR8MTQyLjg3fDAuMDA=)'><text x='254.99' y='128.54' style='font-size: 6.40px; fill: #4D4D4D; font-family: Arial;' textLength='3.56px' lengthAdjust='spacingAndGlyphs'>1</text></g>
<g clip-path='url(#cpMC4wMHw1MTAuMjR8MTQyLjg3fDAuMDA=)'><text x='272.88' y='128.54' style='font-size: 6.40px; fill: #4D4D4D; font-family: Arial;' textLength='3.56px' lengthAdjust='spacingAndGlyphs'>2</text></g>
<g clip-path='url(#cpMC4wMHw1MTAuMjR8MTQyLjg3fDAuMDA=)'><text x='290.76' y='128.54' style='font-size: 6.40px; fill: #4D4D4D; font-family: Arial;' textLength='3.56px' lengthAdjust='spacingAndGlyphs'>3</text></g>
<g clip-path='url(#cpMC4wMHw1MTAuMjR8MTQyLjg3fDAuMDA=)'><text x='308.65' y='128.54' style='font-size: 6.40px; fill: #4D4D4D; font-family: Arial;' textLength='3.56px' lengthAdjust='spacingAndGlyphs'>4</text></g>
<g clip-path='url(#cpMC4wMHw1MTAuMjR8MTQyLjg3fDAuMDA=)'><text x='326.53' y='128.54' style='font-size: 6.40px; fill: #4D4D4D; font-family: Arial;' textLength='3.56px' lengthAdjust='spacingAndGlyphs'>5</text></g>
<g clip-path='url(#cpMC4wMHw1MTAuMjR8MTQyLjg3fDAuMDA=)'><text x='249.18' y='137.38' style='font-size: 8.00px; font-family: Arial;' textLength='84.05px' lengthAdjust='spacingAndGlyphs'>Scores and 99.99% CIs</text></g>
<defs>
  <clipPath id='cpMC4wMHwxNzMuOTB8MTIwLjM3fDIxLjk5'>
    <rect x='0.00' y='21.99' width='173.90' height='98.38' />
  </clipPath>
</defs>
<defs>
  <clipPath id='cpMC4wMHw1MTAuMjR8MTQyLjg3fDAuMDA='>
    <rect x='0.00' y='0.00' width='510.24' height='142.87' />
  </clipPath>
</defs>
<g clip-path='url(#cpMC4wMHw1MTAuMjR8MTQyLjg3fDAuMDA=)'><text x='3.59' y='107.19' style='font-size: 8.00px; font-family: Arial;' textLength='146.74px' lengthAdjust='spacingAndGlyphs'>I prefer that other people will think I am ...</text></g>
<g clip-path='url(#cpMC4wMHw1MTAuMjR8MTQyLjg3fDAuMDA=)'><text x='3.59' y='115.83' style='font-size: 8.00px; font-family: Arial;' textLength='95.16px' lengthAdjust='spacingAndGlyphs'>[AttInEvOthThinkInf_clean]</text></g>
<g clip-path='url(#cpMC4wMHw1MTAuMjR8MTQyLjg3fDAuMDA=)'><text x='3.59' y='82.08' style='font-size: 8.00px; font-family: Arial;' textLength='43.13px' lengthAdjust='spacingAndGlyphs'>I prefer to ...</text></g>
<g clip-path='url(#cpMC4wMHw1MTAuMjR8MTQyLjg3fDAuMDA=)'><text x='3.59' y='90.72' style='font-size: 8.00px; font-family: Arial;' textLength='97.82px' lengthAdjust='spacingAndGlyphs'>[AttInEvInfFamShort_clean]</text></g>
<g clip-path='url(#cpMC4wMHw1MTAuMjR8MTQyLjg3fDAuMDA=)'><text x='3.59' y='56.87' style='font-size: 8.00px; font-family: Arial;' textLength='43.13px' lengthAdjust='spacingAndGlyphs'>I prefer to ...</text></g>
<g clip-path='url(#cpMC4wMHw1MTAuMjR8MTQyLjg3fDAuMDA=)'><text x='3.59' y='65.51' style='font-size: 8.00px; font-family: Arial;' textLength='79.61px' lengthAdjust='spacingAndGlyphs'>[AttInEvApprop_clean]</text></g>
<g clip-path='url(#cpMC4wMHw1MTAuMjR8MTQyLjg3fDAuMDA=)'><text x='3.59' y='31.76' style='font-size: 8.00px; font-family: Arial;' textLength='170.31px' lengthAdjust='spacingAndGlyphs'>I prefer that other people will think I am acting ...</text></g>
<g clip-path='url(#cpMC4wMHw1MTAuMjR8MTQyLjg3fDAuMDA=)'><text x='3.59' y='40.40' style='font-size: 8.00px; font-family: Arial;' textLength='87.59px' lengthAdjust='spacingAndGlyphs'>[AttInEvOthCrazy_clean]</text></g>
<defs>
  <clipPath id='cpMC4wMHwxNzMuOTB8MTIwLjM3fDIxLjk5'>
    <rect x='0.00' y='21.99' width='173.90' height='98.38' />
  </clipPath>
</defs>
<defs>
  <clipPath id='cpMC4wMHw1MTAuMjR8MTQyLjg3fDAuMDA='>
    <rect x='0.00' y='0.00' width='510.24' height='142.87' />
  </clipPath>
</defs>
<defs>
  <clipPath id='cpNDExLjAxfDUxMC4yNHwxNDIuODd8MTguMDA='>
    <rect x='411.01' y='18.00' width='99.23' height='124.87' />
  </clipPath>
</defs>
<rect x='411.01' y='18.00' width='99.23' height='124.87' style='stroke-width: 0.78; stroke: #FFFFFF; fill: #FFFFFF;' clip-path='url(#cpNDExLjAxfDUxMC4yNHwxNDIuODd8MTguMDA=)' />
<defs>
  <clipPath id='cpNDE0Ljk5fDUwNi4yNXwxMjAuMzd8MjEuOTk='>
    <rect x='414.99' y='21.99' width='91.26' height='98.38' />
  </clipPath>
</defs>
<rect x='414.99' y='21.99' width='91.26' height='98.38' style='stroke-width: 0.78; stroke: none; fill: #FFFFFF;' clip-path='url(#cpNDE0Ljk5fDUwNi4yNXwxMjAuMzd8MjEuOTk=)' />
<polyline points='429.51,120.37 429.51,21.99 ' style='stroke-width: 0.39; stroke: #EBEBEB; stroke-linecap: butt;' clip-path='url(#cpNDE0Ljk5fDUwNi4yNXwxMjAuMzd8MjEuOTk=)' />
<polyline points='450.25,120.37 450.25,21.99 ' style='stroke-width: 0.39; stroke: #EBEBEB; stroke-linecap: butt;' clip-path='url(#cpNDE0Ljk5fDUwNi4yNXwxMjAuMzd8MjEuOTk=)' />
<polyline points='470.99,120.37 470.99,21.99 ' style='stroke-width: 0.39; stroke: #EBEBEB; stroke-linecap: butt;' clip-path='url(#cpNDE0Ljk5fDUwNi4yNXwxMjAuMzd8MjEuOTk=)' />
<polyline points='491.73,120.37 491.73,21.99 ' style='stroke-width: 0.39; stroke: #EBEBEB; stroke-linecap: butt;' clip-path='url(#cpNDE0Ljk5fDUwNi4yNXwxMjAuMzd8MjEuOTk=)' />
<polyline points='419.14,120.37 419.14,21.99 ' style='stroke-width: 0.78; stroke: #EBEBEB; stroke-linecap: butt;' clip-path='url(#cpNDE0Ljk5fDUwNi4yNXwxMjAuMzd8MjEuOTk=)' />
<polyline points='439.88,120.37 439.88,21.99 ' style='stroke-width: 0.78; stroke: #EBEBEB; stroke-linecap: butt;' clip-path='url(#cpNDE0Ljk5fDUwNi4yNXwxMjAuMzd8MjEuOTk=)' />
<polyline points='460.62,120.37 460.62,21.99 ' style='stroke-width: 0.78; stroke: #EBEBEB; stroke-linecap: butt;' clip-path='url(#cpNDE0Ljk5fDUwNi4yNXwxMjAuMzd8MjEuOTk=)' />
<polyline points='481.36,120.37 481.36,21.99 ' style='stroke-width: 0.78; stroke: #EBEBEB; stroke-linecap: butt;' clip-path='url(#cpNDE0Ljk5fDUwNi4yNXwxMjAuMzd8MjEuOTk=)' />
<polyline points='502.10,120.37 502.10,21.99 ' style='stroke-width: 0.78; stroke: #EBEBEB; stroke-linecap: butt;' clip-path='url(#cpNDE0Ljk5fDUwNi4yNXwxMjAuMzd8MjEuOTk=)' />
<line x1='439.88' y1='120.37' x2='439.88' y2='21.99' style='stroke-width: 1.07; stroke: #BEBEBE; stroke-linecap: butt;' clip-path='url(#cpNDE0Ljk5fDUwNi4yNXwxMjAuMzd8MjEuOTk=)' />
<line x1='460.62' y1='120.37' x2='460.62' y2='21.99' style='stroke-width: 1.07; stroke: #BEBEBE; stroke-linecap: butt;' clip-path='url(#cpNDE0Ljk5fDUwNi4yNXwxMjAuMzd8MjEuOTk=)' />
<line x1='481.36' y1='120.37' x2='481.36' y2='21.99' style='stroke-width: 1.07; stroke: #BEBEBE; stroke-linecap: butt;' clip-path='url(#cpNDE0Ljk5fDUwNi4yNXwxMjAuMzd8MjEuOTk=)' />
<polygon points='449.79,111.83 468.10,115.90 483.83,111.83 468.10,107.77 449.79,111.83 ' style='stroke-width: 2.13; fill: #524654; fill-opacity: 0.50;' clip-path='url(#cpNDE0Ljk5fDUwNi4yNXwxMjAuMzd8MjEuOTk=)' />
<polygon points='451.86,84.73 469.33,88.79 484.08,84.73 469.33,80.66 451.86,84.73 ' style='stroke-width: 2.13; fill: #514354; fill-opacity: 0.50;' clip-path='url(#cpNDE0Ljk5fDUwNi4yNXwxMjAuMzd8MjEuOTk=)' />
<polygon points='452.57,57.63 470.90,61.69 485.76,57.63 470.90,53.56 452.57,57.63 ' style='stroke-width: 2.13; fill: #504054; fill-opacity: 0.50;' clip-path='url(#cpNDE0Ljk5fDUwNi4yNXwxMjAuMzd8MjEuOTk=)' />
<polygon points='456.67,30.52 475.66,34.59 489.40,30.52 475.66,26.46 456.67,30.52 ' style='stroke-width: 2.13; fill: #4F3654; fill-opacity: 0.50;' clip-path='url(#cpNDE0Ljk5fDUwNi4yNXwxMjAuMzd8MjEuOTk=)' />
<rect x='414.99' y='21.99' width='91.26' height='98.38' style='stroke-width: 0.78; stroke: #333333;' clip-path='url(#cpNDE0Ljk5fDUwNi4yNXwxMjAuMzd8MjEuOTk=)' />
<defs>
  <clipPath id='cpNDExLjAxfDUxMC4yNHwxNDIuODd8MTguMDA='>
    <rect x='411.01' y='18.00' width='99.23' height='124.87' />
  </clipPath>
</defs>
<defs>
  <clipPath id='cpMC4wMHw1MTAuMjR8MTQyLjg3fDAuMDA='>
    <rect x='0.00' y='0.00' width='510.24' height='142.87' />
  </clipPath>
</defs>
<defs>
  <clipPath id='cpNDExLjAxfDUxMC4yNHwxNDIuODd8MTguMDA='>
    <rect x='411.01' y='18.00' width='99.23' height='124.87' />
  </clipPath>
</defs>
<defs>
  <clipPath id='cpMC4wMHw1MTAuMjR8MTQyLjg3fDAuMDA='>
    <rect x='0.00' y='0.00' width='510.24' height='142.87' />
  </clipPath>
</defs>
<defs>
  <clipPath id='cpNDExLjAxfDUxMC4yNHwxNDIuODd8MTguMDA='>
    <rect x='411.01' y='18.00' width='99.23' height='124.87' />
  </clipPath>
</defs>
<defs>
  <clipPath id='cpMC4wMHw1MTAuMjR8MTQyLjg3fDAuMDA='>
    <rect x='0.00' y='0.00' width='510.24' height='142.87' />
  </clipPath>
</defs>
<defs>
  <clipPath id='cpNDExLjAxfDUxMC4yNHwxNDIuODd8MTguMDA='>
    <rect x='411.01' y='18.00' width='99.23' height='124.87' />
  </clipPath>
</defs>
<defs>
  <clipPath id='cpMC4wMHw1MTAuMjR8MTQyLjg3fDAuMDA='>
    <rect x='0.00' y='0.00' width='510.24' height='142.87' />
  </clipPath>
</defs>
<defs>
  <clipPath id='cpNDExLjAxfDUxMC4yNHwxNDIuODd8MTguMDA='>
    <rect x='411.01' y='18.00' width='99.23' height='124.87' />
  </clipPath>
</defs>
<defs>
  <clipPath id='cpMC4wMHw1MTAuMjR8MTQyLjg3fDAuMDA='>
    <rect x='0.00' y='0.00' width='510.24' height='142.87' />
  </clipPath>
</defs>
<defs>
  <clipPath id='cpNDExLjAxfDUxMC4yNHwxNDIuODd8MTguMDA='>
    <rect x='411.01' y='18.00' width='99.23' height='124.87' />
  </clipPath>
</defs>
<defs>
  <clipPath id='cpMC4wMHw1MTAuMjR8MTQyLjg3fDAuMDA='>
    <rect x='0.00' y='0.00' width='510.24' height='142.87' />
  </clipPath>
</defs>
<defs>
  <clipPath id='cpNDExLjAxfDUxMC4yNHwxNDIuODd8MTguMDA='>
    <rect x='411.01' y='18.00' width='99.23' height='124.87' />
  </clipPath>
</defs>
<defs>
  <clipPath id='cpMC4wMHw1MTAuMjR8MTQyLjg3fDAuMDA='>
    <rect x='0.00' y='0.00' width='510.24' height='142.87' />
  </clipPath>
</defs>
<defs>
  <clipPath id='cpNDExLjAxfDUxMC4yNHwxNDIuODd8MTguMDA='>
    <rect x='411.01' y='18.00' width='99.23' height='124.87' />
  </clipPath>
</defs>
<defs>
  <clipPath id='cpMC4wMHw1MTAuMjR8MTQyLjg3fDAuMDA='>
    <rect x='0.00' y='0.00' width='510.24' height='142.87' />
  </clipPath>
</defs>
<polyline points='419.14,122.36 419.14,120.37 ' style='stroke-width: 0.78; stroke: #333333; stroke-linecap: butt;' clip-path='url(#cpMC4wMHw1MTAuMjR8MTQyLjg3fDAuMDA=)' />
<polyline points='439.88,122.36 439.88,120.37 ' style='stroke-width: 0.78; stroke: #333333; stroke-linecap: butt;' clip-path='url(#cpMC4wMHw1MTAuMjR8MTQyLjg3fDAuMDA=)' />
<polyline points='460.62,122.36 460.62,120.37 ' style='stroke-width: 0.78; stroke: #333333; stroke-linecap: butt;' clip-path='url(#cpMC4wMHw1MTAuMjR8MTQyLjg3fDAuMDA=)' />
<polyline points='481.36,122.36 481.36,120.37 ' style='stroke-width: 0.78; stroke: #333333; stroke-linecap: butt;' clip-path='url(#cpMC4wMHw1MTAuMjR8MTQyLjg3fDAuMDA=)' />
<polyline points='502.10,122.36 502.10,120.37 ' style='stroke-width: 0.78; stroke: #333333; stroke-linecap: butt;' clip-path='url(#cpMC4wMHw1MTAuMjR8MTQyLjg3fDAuMDA=)' />
<g clip-path='url(#cpMC4wMHw1MTAuMjR8MTQyLjg3fDAuMDA=)'><text x='413.63' y='128.54' style='font-size: 6.40px; fill: #4D4D4D; font-family: Arial;' textLength='11.03px' lengthAdjust='spacingAndGlyphs'>-1.0</text></g>
<g clip-path='url(#cpMC4wMHw1MTAuMjR8MTQyLjg3fDAuMDA=)'><text x='434.37' y='128.54' style='font-size: 6.40px; fill: #4D4D4D; font-family: Arial;' textLength='11.03px' lengthAdjust='spacingAndGlyphs'>-0.5</text></g>
<g clip-path='url(#cpMC4wMHw1MTAuMjR8MTQyLjg3fDAuMDA=)'><text x='456.17' y='128.54' style='font-size: 6.40px; fill: #4D4D4D; font-family: Arial;' textLength='8.90px' lengthAdjust='spacingAndGlyphs'>0.0</text></g>
<g clip-path='url(#cpMC4wMHw1MTAuMjR8MTQyLjg3fDAuMDA=)'><text x='476.91' y='128.54' style='font-size: 6.40px; fill: #4D4D4D; font-family: Arial;' textLength='8.90px' lengthAdjust='spacingAndGlyphs'>0.5</text></g>
<g clip-path='url(#cpMC4wMHw1MTAuMjR8MTQyLjg3fDAuMDA=)'><text x='497.65' y='128.54' style='font-size: 6.40px; fill: #4D4D4D; font-family: Arial;' textLength='8.90px' lengthAdjust='spacingAndGlyphs'>1.0</text></g>
<defs>
  <clipPath id='cpNDExLjAxfDUxMC4yNHwxNDIuODd8MTguMDA='>
    <rect x='411.01' y='18.00' width='99.23' height='124.87' />
  </clipPath>
</defs>
<defs>
  <clipPath id='cpMC4wMHw1MTAuMjR8MTQyLjg3fDAuMDA='>
    <rect x='0.00' y='0.00' width='510.24' height='142.87' />
  </clipPath>
</defs>
<defs>
  <clipPath id='cpNDExLjAxfDUxMC4yNHwxNDIuODd8MTguMDA='>
    <rect x='411.01' y='18.00' width='99.23' height='124.87' />
  </clipPath>
</defs>
<defs>
  <clipPath id='cpMC4wMHw1MTAuMjR8MTQyLjg3fDAuMDA='>
    <rect x='0.00' y='0.00' width='510.24' height='142.87' />
  </clipPath>
</defs>
<g clip-path='url(#cpMC4wMHw1MTAuMjR8MTQyLjg3fDAuMDA=)'><text x='417.94' y='137.38' style='font-size: 8.00px; font-family: Arial;' textLength='85.38px' lengthAdjust='spacingAndGlyphs'>95% CIs of associations</text></g>
<defs>
  <clipPath id='cpNDExLjAxfDUxMC4yNHwxNDIuODd8MTguMDA='>
    <rect x='411.01' y='18.00' width='99.23' height='124.87' />
  </clipPath>
</defs>
<defs>
  <clipPath id='cpMC4wMHw1MTAuMjR8MTQyLjg3fDAuMDA='>
    <rect x='0.00' y='0.00' width='510.24' height='142.87' />
  </clipPath>
</defs>
<defs>
  <clipPath id='cpNDExLjAxfDUxMC4yNHwxNDIuODd8MTguMDA='>
    <rect x='411.01' y='18.00' width='99.23' height='124.87' />
  </clipPath>
</defs>
<defs>
  <clipPath id='cpMC4wMHw1MTAuMjR8MTQyLjg3fDAuMDA='>
    <rect x='0.00' y='0.00' width='510.24' height='142.87' />
  </clipPath>
</defs>
<defs>
  <clipPath id='cpNDExLjAxfDUxMC4yNHwxNDIuODd8MTguMDA='>
    <rect x='411.01' y='18.00' width='99.23' height='124.87' />
  </clipPath>
</defs>
<defs>
  <clipPath id='cpMC4wMHw1MTAuMjR8MTQyLjg3fDAuMDA='>
    <rect x='0.00' y='0.00' width='510.24' height='142.87' />
  </clipPath>
</defs>
<defs>
  <clipPath id='cpNDExLjAxfDUxMC4yNHwxNDIuODd8MTguMDA='>
    <rect x='411.01' y='18.00' width='99.23' height='124.87' />
  </clipPath>
</defs>
<defs>
  <clipPath id='cpMC4wMHw1MTAuMjR8MTQyLjg3fDAuMDA='>
    <rect x='0.00' y='0.00' width='510.24' height='142.87' />
  </clipPath>
</defs>
<defs>
  <clipPath id='cpNDExLjAxfDUxMC4yNHwxNDIuODd8MTguMDA='>
    <rect x='411.01' y='18.00' width='99.23' height='124.87' />
  </clipPath>
</defs>
<defs>
  <clipPath id='cpMC4wMHw1MTAuMjR8MTQyLjg3fDAuMDA='>
    <rect x='0.00' y='0.00' width='510.24' height='142.87' />
  </clipPath>
</defs>
<defs>
  <clipPath id='cpNDExLjAxfDUxMC4yNHwxNDIuODd8MTguMDA='>
    <rect x='411.01' y='18.00' width='99.23' height='124.87' />
  </clipPath>
</defs>
<defs>
  <clipPath id='cpMC4wMHw1MTAuMjR8MTQyLjg3fDAuMDA='>
    <rect x='0.00' y='0.00' width='510.24' height='142.87' />
  </clipPath>
</defs>
<defs>
  <clipPath id='cpNDExLjAxfDUxMC4yNHwxNDIuODd8MTguMDA='>
    <rect x='411.01' y='18.00' width='99.23' height='124.87' />
  </clipPath>
</defs>
<defs>
  <clipPath id='cpMC4wMHw1MTAuMjR8MTQyLjg3fDAuMDA='>
    <rect x='0.00' y='0.00' width='510.24' height='142.87' />
  </clipPath>
</defs>
<g clip-path='url(#cpMC4wMHw1MTAuMjR8MTQyLjg3fDAuMDA=)'><text x='2.30' y='8.78' style='font-size: 9.60px; font-weight: bold; font-family: Arial;' textLength='147.76px' lengthAdjust='spacingAndGlyphs'>Means and associations (r) with </text></g>
<g clip-path='url(#cpMC4wMHw1MTAuMjR8MTQyLjg3fDAuMDA=)'><text x='150.07' y='8.78' style='font-size: 9.60px; font-weight: bold; font-family: Arial;' textLength='43.21px' lengthAdjust='spacingAndGlyphs'>proximity</text></g>
<g clip-path='url(#cpMC4wMHw1MTAuMjR8MTQyLjg3fDAuMDA=)'><text x='193.28' y='8.78' style='font-size: 9.60px; font-weight: bold; font-family: Arial;' textLength='2.67px' lengthAdjust='spacingAndGlyphs'> </text></g>
</svg>
