<?xml version='1.0' encoding='UTF-8' ?>
<svg xmlns='http://www.w3.org/2000/svg' xmlns:xlink='http://www.w3.org/1999/xlink' viewBox='0 0 510.24 83.34'>
<defs>
  <style type='text/css'><![CDATA[
    line, polyline, polygon, path, rect, circle {
      fill: none;
      stroke: #000000;
      stroke-linecap: round;
      stroke-linejoin: round;
      stroke-miterlimit: 10.00;
    }
  ]]></style>
</defs>
<rect width='100%' height='100%' style='stroke: none; fill: none;'/>
<defs>
  <clipPath id='cpMjY5LjQ2fDQzOS41N3w4My4zNHwxOC4wMA=='>
    <rect x='269.46' y='18.00' width='170.12' height='65.34' />
  </clipPath>
</defs>
<rect x='269.46' y='18.00' width='170.12' height='65.34' style='stroke-width: 0.78; stroke: #FFFFFF; fill: #FFFFFF;' clip-path='url(#cpMjY5LjQ2fDQzOS41N3w4My4zNHwxOC4wMA==)' />
<defs>
  <clipPath id='cpMC4wMHw1MTAuMjR8ODMuMzR8MC4wMA=='>
    <rect x='0.00' y='0.00' width='510.24' height='83.34' />
  </clipPath>
</defs>
<defs>
  <clipPath id='cpMzIyLjU2fDM5My4yMnw2MC44NHwyMS45OQ=='>
    <rect x='322.56' y='21.99' width='70.66' height='38.86' />
  </clipPath>
</defs>
<rect x='322.56' y='21.99' width='70.66' height='38.86' style='stroke-width: 0.78; stroke: none; fill: #FFFFFF;' clip-path='url(#cpMzIyLjU2fDM5My4yMnw2MC44NHwyMS45OQ==)' />
<polyline points='329.44,60.84 329.44,21.99 ' style='stroke-width: 0.39; stroke: #EBEBEB; stroke-linecap: butt;' clip-path='url(#cpMzIyLjU2fDM5My4yMnw2MC44NHwyMS45OQ==)' />
<polyline points='337.13,60.84 337.13,21.99 ' style='stroke-width: 0.39; stroke: #EBEBEB; stroke-linecap: butt;' clip-path='url(#cpMzIyLjU2fDM5My4yMnw2MC44NHwyMS45OQ==)' />
<polyline points='344.82,60.84 344.82,21.99 ' style='stroke-width: 0.39; stroke: #EBEBEB; stroke-linecap: butt;' clip-path='url(#cpMzIyLjU2fDM5My4yMnw2MC44NHwyMS45OQ==)' />
<polyline points='352.51,60.84 352.51,21.99 ' style='stroke-width: 0.39; stroke: #EBEBEB; stroke-linecap: butt;' clip-path='url(#cpMzIyLjU2fDM5My4yMnw2MC44NHwyMS45OQ==)' />
<polyline points='360.20,60.84 360.20,21.99 ' style='stroke-width: 0.39; stroke: #EBEBEB; stroke-linecap: butt;' clip-path='url(#cpMzIyLjU2fDM5My4yMnw2MC44NHwyMS45OQ==)' />
<polyline points='367.89,60.84 367.89,21.99 ' style='stroke-width: 0.39; stroke: #EBEBEB; stroke-linecap: butt;' clip-path='url(#cpMzIyLjU2fDM5My4yMnw2MC44NHwyMS45OQ==)' />
<polyline points='375.59,60.84 375.59,21.99 ' style='stroke-width: 0.39; stroke: #EBEBEB; stroke-linecap: butt;' clip-path='url(#cpMzIyLjU2fDM5My4yMnw2MC44NHwyMS45OQ==)' />
<polyline points='383.28,60.84 383.28,21.99 ' style='stroke-width: 0.39; stroke: #EBEBEB; stroke-linecap: butt;' clip-path='url(#cpMzIyLjU2fDM5My4yMnw2MC44NHwyMS45OQ==)' />
<polyline points='390.97,60.84 390.97,21.99 ' style='stroke-width: 0.39; stroke: #EBEBEB; stroke-linecap: butt;' clip-path='url(#cpMzIyLjU2fDM5My4yMnw2MC44NHwyMS45OQ==)' />
<polyline points='322.56,52.61 393.22,52.61 ' style='stroke-width: 0.78; stroke: #EBEBEB; stroke-linecap: butt;' clip-path='url(#cpMzIyLjU2fDM5My4yMnw2MC44NHwyMS45OQ==)' />
<polyline points='322.56,30.33 393.22,30.33 ' style='stroke-width: 0.78; stroke: #EBEBEB; stroke-linecap: butt;' clip-path='url(#cpMzIyLjU2fDM5My4yMnw2MC44NHwyMS45OQ==)' />
<polyline points='325.59,60.84 325.59,21.99 ' style='stroke-width: 0.78; stroke: #EBEBEB; stroke-linecap: butt;' clip-path='url(#cpMzIyLjU2fDM5My4yMnw2MC44NHwyMS45OQ==)' />
<polyline points='333.28,60.84 333.28,21.99 ' style='stroke-width: 0.78; stroke: #EBEBEB; stroke-linecap: butt;' clip-path='url(#cpMzIyLjU2fDM5My4yMnw2MC44NHwyMS45OQ==)' />
<polyline points='340.97,60.84 340.97,21.99 ' style='stroke-width: 0.78; stroke: #EBEBEB; stroke-linecap: butt;' clip-path='url(#cpMzIyLjU2fDM5My4yMnw2MC44NHwyMS45OQ==)' />
<polyline points='348.66,60.84 348.66,21.99 ' style='stroke-width: 0.78; stroke: #EBEBEB; stroke-linecap: butt;' clip-path='url(#cpMzIyLjU2fDM5My4yMnw2MC44NHwyMS45OQ==)' />
<polyline points='356.36,60.84 356.36,21.99 ' style='stroke-width: 0.78; stroke: #EBEBEB; stroke-linecap: butt;' clip-path='url(#cpMzIyLjU2fDM5My4yMnw2MC44NHwyMS45OQ==)' />
<polyline points='364.05,60.84 364.05,21.99 ' style='stroke-width: 0.78; stroke: #EBEBEB; stroke-linecap: butt;' clip-path='url(#cpMzIyLjU2fDM5My4yMnw2MC44NHwyMS45OQ==)' />
<polyline points='371.74,60.84 371.74,21.99 ' style='stroke-width: 0.78; stroke: #EBEBEB; stroke-linecap: butt;' clip-path='url(#cpMzIyLjU2fDM5My4yMnw2MC44NHwyMS45OQ==)' />
<polyline points='379.43,60.84 379.43,21.99 ' style='stroke-width: 0.78; stroke: #EBEBEB; stroke-linecap: butt;' clip-path='url(#cpMzIyLjU2fDM5My4yMnw2MC44NHwyMS45OQ==)' />
<polyline points='387.12,60.84 387.12,21.99 ' style='stroke-width: 0.78; stroke: #EBEBEB; stroke-linecap: butt;' clip-path='url(#cpMzIyLjU2fDM5My4yMnw2MC44NHwyMS45OQ==)' />
<circle cx='354.10' cy='54.20' r='2.13' style='stroke-width: 0.00; stroke: #444444; stroke-opacity: 0.10; fill: #444444; fill-opacity: 0.10;' clip-path='url(#cpMzIyLjU2fDM5My4yMnw2MC44NHwyMS45OQ==)' />
<circle cx='371.44' cy='51.00' r='2.13' style='stroke-width: 0.00; stroke: #444444; stroke-opacity: 0.10; fill: #444444; fill-opacity: 0.10;' clip-path='url(#cpMzIyLjU2fDM5My4yMnw2MC44NHwyMS45OQ==)' />
<circle cx='370.93' cy='49.39' r='2.13' style='stroke-width: 0.00; stroke: #444444; stroke-opacity: 0.10; fill: #444444; fill-opacity: 0.10;' clip-path='url(#cpMzIyLjU2fDM5My4yMnw2MC44NHwyMS45OQ==)' />
<circle cx='384.82' cy='54.58' r='2.13' style='stroke-width: 0.00; stroke: #444444; stroke-opacity: 0.10; fill: #444444; fill-opacity: 0.10;' clip-path='url(#cpMzIyLjU2fDM5My4yMnw2MC44NHwyMS45OQ==)' />
<circle cx='340.86' cy='54.35' r='2.13' style='stroke-width: 0.00; stroke: #444444; stroke-opacity: 0.10; fill: #444444; fill-opacity: 0.10;' clip-path='url(#cpMzIyLjU2fDM5My4yMnw2MC44NHwyMS45OQ==)' />
<circle cx='342.47' cy='46.05' r='2.13' style='stroke-width: 0.00; stroke: #444444; stroke-opacity: 0.10; fill: #444444; fill-opacity: 0.10;' clip-path='url(#cpMzIyLjU2fDM5My4yMnw2MC44NHwyMS45OQ==)' />
<circle cx='390.01' cy='59.08' r='2.13' style='stroke-width: 0.00; stroke: #444444; stroke-opacity: 0.10; fill: #444444; fill-opacity: 0.10;' clip-path='url(#cpMzIyLjU2fDM5My4yMnw2MC44NHwyMS45OQ==)' />
<circle cx='346.21' cy='58.86' r='2.13' style='stroke-width: 0.00; stroke: #444444; stroke-opacity: 0.10; fill: #444444; fill-opacity: 0.10;' clip-path='url(#cpMzIyLjU2fDM5My4yMnw2MC44NHwyMS45OQ==)' />
<circle cx='374.52' cy='52.60' r='2.13' style='stroke-width: 0.00; stroke: #444444; stroke-opacity: 0.10; fill: #444444; fill-opacity: 0.10;' clip-path='url(#cpMzIyLjU2fDM5My4yMnw2MC44NHwyMS45OQ==)' />
<circle cx='349.66' cy='51.42' r='2.13' style='stroke-width: 0.00; stroke: #444444; stroke-opacity: 0.10; fill: #444444; fill-opacity: 0.10;' clip-path='url(#cpMzIyLjU2fDM5My4yMnw2MC44NHwyMS45OQ==)' />
<circle cx='387.07' cy='48.04' r='2.13' style='stroke-width: 0.00; stroke: #444444; stroke-opacity: 0.10; fill: #444444; fill-opacity: 0.10;' clip-path='url(#cpMzIyLjU2fDM5My4yMnw2MC44NHwyMS45OQ==)' />
<circle cx='349.18' cy='52.23' r='2.13' style='stroke-width: 0.00; stroke: #444444; stroke-opacity: 0.10; fill: #444444; fill-opacity: 0.10;' clip-path='url(#cpMzIyLjU2fDM5My4yMnw2MC44NHwyMS45OQ==)' />
<circle cx='384.36' cy='47.77' r='2.13' style='stroke-width: 0.00; stroke: #444444; stroke-opacity: 0.10; fill: #444444; fill-opacity: 0.10;' clip-path='url(#cpMzIyLjU2fDM5My4yMnw2MC44NHwyMS45OQ==)' />
<circle cx='354.61' cy='46.84' r='2.13' style='stroke-width: 0.00; stroke: #444444; stroke-opacity: 0.10; fill: #444444; fill-opacity: 0.10;' clip-path='url(#cpMzIyLjU2fDM5My4yMnw2MC44NHwyMS45OQ==)' />
<circle cx='342.01' cy='57.37' r='2.13' style='stroke-width: 0.00; stroke: #444444; stroke-opacity: 0.10; fill: #444444; fill-opacity: 0.10;' clip-path='url(#cpMzIyLjU2fDM5My4yMnw2MC44NHwyMS45OQ==)' />
<circle cx='342.52' cy='50.99' r='2.13' style='stroke-width: 0.00; stroke: #444444; stroke-opacity: 0.10; fill: #444444; fill-opacity: 0.10;' clip-path='url(#cpMzIyLjU2fDM5My4yMnw2MC44NHwyMS45OQ==)' />
<circle cx='325.77' cy='57.87' r='2.13' style='stroke-width: 0.00; stroke: #444444; stroke-opacity: 0.10; fill: #444444; fill-opacity: 0.10;' clip-path='url(#cpMzIyLjU2fDM5My4yMnw2MC44NHwyMS45OQ==)' />
<circle cx='353.76' cy='50.24' r='2.13' style='stroke-width: 0.00; stroke: #444444; stroke-opacity: 0.10; fill: #444444; fill-opacity: 0.10;' clip-path='url(#cpMzIyLjU2fDM5My4yMnw2MC44NHwyMS45OQ==)' />
<circle cx='350.69' cy='50.45' r='2.13' style='stroke-width: 0.00; stroke: #444444; stroke-opacity: 0.10; fill: #444444; fill-opacity: 0.10;' clip-path='url(#cpMzIyLjU2fDM5My4yMnw2MC44NHwyMS45OQ==)' />
<circle cx='385.59' cy='46.07' r='2.13' style='stroke-width: 0.00; stroke: #444444; stroke-opacity: 0.10; fill: #444444; fill-opacity: 0.10;' clip-path='url(#cpMzIyLjU2fDM5My4yMnw2MC44NHwyMS45OQ==)' />
<circle cx='372.05' cy='58.74' r='2.13' style='stroke-width: 0.00; stroke: #444444; stroke-opacity: 0.10; fill: #444444; fill-opacity: 0.10;' clip-path='url(#cpMzIyLjU2fDM5My4yMnw2MC44NHwyMS45OQ==)' />
<circle cx='355.64' cy='29.31' r='2.13' style='stroke-width: 0.00; stroke: #444444; stroke-opacity: 0.10; fill: #444444; fill-opacity: 0.10;' clip-path='url(#cpMzIyLjU2fDM5My4yMnw2MC44NHwyMS45OQ==)' />
<circle cx='387.28' cy='24.29' r='2.13' style='stroke-width: 0.00; stroke: #444444; stroke-opacity: 0.10; fill: #444444; fill-opacity: 0.10;' clip-path='url(#cpMzIyLjU2fDM5My4yMnw2MC44NHwyMS45OQ==)' />
<circle cx='335.69' cy='25.48' r='2.13' style='stroke-width: 0.00; stroke: #444444; stroke-opacity: 0.10; fill: #444444; fill-opacity: 0.10;' clip-path='url(#cpMzIyLjU2fDM5My4yMnw2MC44NHwyMS45OQ==)' />
<circle cx='360.71' cy='29.17' r='2.13' style='stroke-width: 0.00; stroke: #444444; stroke-opacity: 0.10; fill: #444444; fill-opacity: 0.10;' clip-path='url(#cpMzIyLjU2fDM5My4yMnw2MC44NHwyMS45OQ==)' />
<circle cx='361.06' cy='24.31' r='2.13' style='stroke-width: 0.00; stroke: #444444; stroke-opacity: 0.10; fill: #444444; fill-opacity: 0.10;' clip-path='url(#cpMzIyLjU2fDM5My4yMnw2MC44NHwyMS45OQ==)' />
<circle cx='341.18' cy='32.05' r='2.13' style='stroke-width: 0.00; stroke: #444444; stroke-opacity: 0.10; fill: #444444; fill-opacity: 0.10;' clip-path='url(#cpMzIyLjU2fDM5My4yMnw2MC44NHwyMS45OQ==)' />
<circle cx='376.01' cy='28.20' r='2.13' style='stroke-width: 0.00; stroke: #444444; stroke-opacity: 0.10; fill: #444444; fill-opacity: 0.10;' clip-path='url(#cpMzIyLjU2fDM5My4yMnw2MC44NHwyMS45OQ==)' />
<circle cx='338.27' cy='31.80' r='2.13' style='stroke-width: 0.00; stroke: #444444; stroke-opacity: 0.10; fill: #444444; fill-opacity: 0.10;' clip-path='url(#cpMzIyLjU2fDM5My4yMnw2MC44NHwyMS45OQ==)' />
<circle cx='343.71' cy='31.69' r='2.13' style='stroke-width: 0.00; stroke: #444444; stroke-opacity: 0.10; fill: #444444; fill-opacity: 0.10;' clip-path='url(#cpMzIyLjU2fDM5My4yMnw2MC44NHwyMS45OQ==)' />
<circle cx='347.96' cy='32.56' r='2.13' style='stroke-width: 0.00; stroke: #444444; stroke-opacity: 0.10; fill: #444444; fill-opacity: 0.10;' clip-path='url(#cpMzIyLjU2fDM5My4yMnw2MC44NHwyMS45OQ==)' />
<circle cx='339.38' cy='31.02' r='2.13' style='stroke-width: 0.00; stroke: #444444; stroke-opacity: 0.10; fill: #444444; fill-opacity: 0.10;' clip-path='url(#cpMzIyLjU2fDM5My4yMnw2MC44NHwyMS45OQ==)' />
<circle cx='355.60' cy='24.91' r='2.13' style='stroke-width: 0.00; stroke: #444444; stroke-opacity: 0.10; fill: #444444; fill-opacity: 0.10;' clip-path='url(#cpMzIyLjU2fDM5My4yMnw2MC44NHwyMS45OQ==)' />
<circle cx='346.44' cy='24.87' r='2.13' style='stroke-width: 0.00; stroke: #444444; stroke-opacity: 0.10; fill: #444444; fill-opacity: 0.10;' clip-path='url(#cpMzIyLjU2fDM5My4yMnw2MC44NHwyMS45OQ==)' />
<circle cx='346.43' cy='26.69' r='2.13' style='stroke-width: 0.00; stroke: #444444; stroke-opacity: 0.10; fill: #444444; fill-opacity: 0.10;' clip-path='url(#cpMzIyLjU2fDM5My4yMnw2MC44NHwyMS45OQ==)' />
<circle cx='369.48' cy='29.90' r='2.13' style='stroke-width: 0.00; stroke: #444444; stroke-opacity: 0.10; fill: #444444; fill-opacity: 0.10;' clip-path='url(#cpMzIyLjU2fDM5My4yMnw2MC44NHwyMS45OQ==)' />
<circle cx='360.24' cy='32.09' r='2.13' style='stroke-width: 0.00; stroke: #444444; stroke-opacity: 0.10; fill: #444444; fill-opacity: 0.10;' clip-path='url(#cpMzIyLjU2fDM5My4yMnw2MC44NHwyMS45OQ==)' />
<circle cx='351.14' cy='23.75' r='2.13' style='stroke-width: 0.00; stroke: #444444; stroke-opacity: 0.10; fill: #444444; fill-opacity: 0.10;' clip-path='url(#cpMzIyLjU2fDM5My4yMnw2MC44NHwyMS45OQ==)' />
<circle cx='370.37' cy='30.10' r='2.13' style='stroke-width: 0.00; stroke: #444444; stroke-opacity: 0.10; fill: #444444; fill-opacity: 0.10;' clip-path='url(#cpMzIyLjU2fDM5My4yMnw2MC44NHwyMS45OQ==)' />
<circle cx='349.21' cy='36.50' r='2.13' style='stroke-width: 0.00; stroke: #444444; stroke-opacity: 0.10; fill: #444444; fill-opacity: 0.10;' clip-path='url(#cpMzIyLjU2fDM5My4yMnw2MC44NHwyMS45OQ==)' />
<circle cx='337.72' cy='25.78' r='2.13' style='stroke-width: 0.00; stroke: #444444; stroke-opacity: 0.10; fill: #444444; fill-opacity: 0.10;' clip-path='url(#cpMzIyLjU2fDM5My4yMnw2MC44NHwyMS45OQ==)' />
<polygon points='339.85,52.61 360.51,55.95 381.16,52.61 360.51,49.26 339.85,52.61 ' style='stroke-width: 1.07; stroke: #4F3B54; fill: #4F3B54;' clip-path='url(#cpMzIyLjU2fDM5My4yMnw2MC44NHwyMS45OQ==)' />
<polygon points='339.22,30.33 354.43,33.67 369.65,30.33 354.43,26.99 339.22,30.33 ' style='stroke-width: 1.07; stroke: #524855; fill: #524855;' clip-path='url(#cpMzIyLjU2fDM5My4yMnw2MC44NHwyMS45OQ==)' />
<rect x='322.56' y='21.99' width='70.66' height='38.86' style='stroke-width: 0.78; stroke: #333333;' clip-path='url(#cpMzIyLjU2fDM5My4yMnw2MC44NHwyMS45OQ==)' />
<defs>
  <clipPath id='cpMC4wMHw1MTAuMjR8ODMuMzR8MC4wMA=='>
    <rect x='0.00' y='0.00' width='510.24' height='83.34' />
  </clipPath>
</defs>
<g clip-path='url(#cpMC4wMHw1MTAuMjR8ODMuMzR8MC4wMA==)'><text x='273.44' y='54.90' style='font-size: 6.40px; fill: #4D4D4D; font-family: Arial;' textLength='45.53px' lengthAdjust='spacingAndGlyphs'>very improbable</text></g>
<g clip-path='url(#cpMC4wMHw1MTAuMjR8ODMuMzR8MC4wMA==)'><text x='273.44' y='32.62' style='font-size: 6.40px; fill: #4D4D4D; font-family: Arial;' textLength='45.53px' lengthAdjust='spacingAndGlyphs'>very improbable</text></g>
<polyline points='320.57,52.61 322.56,52.61 ' style='stroke-width: 0.78; stroke: #333333; stroke-linecap: butt;' clip-path='url(#cpMC4wMHw1MTAuMjR8ODMuMzR8MC4wMA==)' />
<polyline points='320.57,30.33 322.56,30.33 ' style='stroke-width: 0.78; stroke: #333333; stroke-linecap: butt;' clip-path='url(#cpMC4wMHw1MTAuMjR8ODMuMzR8MC4wMA==)' />
<polyline points='393.22,52.60 395.22,52.60 ' style='stroke-width: 0.78; stroke: #333333; stroke-linecap: butt;' clip-path='url(#cpMC4wMHw1MTAuMjR8ODMuMzR8MC4wMA==)' />
<polyline points='393.22,30.35 395.22,30.35 ' style='stroke-width: 0.78; stroke: #333333; stroke-linecap: butt;' clip-path='url(#cpMC4wMHw1MTAuMjR8ODMuMzR8MC4wMA==)' />
<g clip-path='url(#cpMC4wMHw1MTAuMjR8ODMuMzR8MC4wMA==)'><text x='396.81' y='54.89' style='font-size: 6.40px; fill: #4D4D4D; font-family: Arial;' textLength='38.78px' lengthAdjust='spacingAndGlyphs'>very probable</text></g>
<g clip-path='url(#cpMC4wMHw1MTAuMjR8ODMuMzR8MC4wMA==)'><text x='396.81' y='32.64' style='font-size: 6.40px; fill: #4D4D4D; font-family: Arial;' textLength='38.78px' lengthAdjust='spacingAndGlyphs'>very probable</text></g>
<polyline points='325.59,62.83 325.59,60.84 ' style='stroke-width: 0.78; stroke: #333333; stroke-linecap: butt;' clip-path='url(#cpMC4wMHw1MTAuMjR8ODMuMzR8MC4wMA==)' />
<polyline points='333.28,62.83 333.28,60.84 ' style='stroke-width: 0.78; stroke: #333333; stroke-linecap: butt;' clip-path='url(#cpMC4wMHw1MTAuMjR8ODMuMzR8MC4wMA==)' />
<polyline points='340.97,62.83 340.97,60.84 ' style='stroke-width: 0.78; stroke: #333333; stroke-linecap: butt;' clip-path='url(#cpMC4wMHw1MTAuMjR8ODMuMzR8MC4wMA==)' />
<polyline points='348.66,62.83 348.66,60.84 ' style='stroke-width: 0.78; stroke: #333333; stroke-linecap: butt;' clip-path='url(#cpMC4wMHw1MTAuMjR8ODMuMzR8MC4wMA==)' />
<polyline points='356.36,62.83 356.36,60.84 ' style='stroke-width: 0.78; stroke: #333333; stroke-linecap: butt;' clip-path='url(#cpMC4wMHw1MTAuMjR8ODMuMzR8MC4wMA==)' />
<polyline points='364.05,62.83 364.05,60.84 ' style='stroke-width: 0.78; stroke: #333333; stroke-linecap: butt;' clip-path='url(#cpMC4wMHw1MTAuMjR8ODMuMzR8MC4wMA==)' />
<polyline points='371.74,62.83 371.74,60.84 ' style='stroke-width: 0.78; stroke: #333333; stroke-linecap: butt;' clip-path='url(#cpMC4wMHw1MTAuMjR8ODMuMzR8MC4wMA==)' />
<polyline points='379.43,62.83 379.43,60.84 ' style='stroke-width: 0.78; stroke: #333333; stroke-linecap: butt;' clip-path='url(#cpMC4wMHw1MTAuMjR8ODMuMzR8MC4wMA==)' />
<polyline points='387.12,62.83 387.12,60.84 ' style='stroke-width: 0.78; stroke: #333333; stroke-linecap: butt;' clip-path='url(#cpMC4wMHw1MTAuMjR8ODMuMzR8MC4wMA==)' />
<g clip-path='url(#cpMC4wMHw1MTAuMjR8ODMuMzR8MC4wMA==)'><text x='322.74' y='69.01' style='font-size: 6.40px; fill: #4D4D4D; font-family: Arial;' textLength='5.69px' lengthAdjust='spacingAndGlyphs'>-3</text></g>
<g clip-path='url(#cpMC4wMHw1MTAuMjR8ODMuMzR8MC4wMA==)'><text x='330.44' y='69.01' style='font-size: 6.40px; fill: #4D4D4D; font-family: Arial;' textLength='5.69px' lengthAdjust='spacingAndGlyphs'>-2</text></g>
<g clip-path='url(#cpMC4wMHw1MTAuMjR8ODMuMzR8MC4wMA==)'><text x='338.13' y='69.01' style='font-size: 6.40px; fill: #4D4D4D; font-family: Arial;' textLength='5.69px' lengthAdjust='spacingAndGlyphs'>-1</text></g>
<g clip-path='url(#cpMC4wMHw1MTAuMjR8ODMuMzR8MC4wMA==)'><text x='346.89' y='69.01' style='font-size: 6.40px; fill: #4D4D4D; font-family: Arial;' textLength='3.56px' lengthAdjust='spacingAndGlyphs'>0</text></g>
<g clip-path='url(#cpMC4wMHw1MTAuMjR8ODMuMzR8MC4wMA==)'><text x='354.58' y='69.01' style='font-size: 6.40px; fill: #4D4D4D; font-family: Arial;' textLength='3.56px' lengthAdjust='spacingAndGlyphs'>1</text></g>
<g clip-path='url(#cpMC4wMHw1MTAuMjR8ODMuMzR8MC4wMA==)'><text x='362.27' y='69.01' style='font-size: 6.40px; fill: #4D4D4D; font-family: Arial;' textLength='3.56px' lengthAdjust='spacingAndGlyphs'>2</text></g>
<g clip-path='url(#cpMC4wMHw1MTAuMjR8ODMuMzR8MC4wMA==)'><text x='369.96' y='69.01' style='font-size: 6.40px; fill: #4D4D4D; font-family: Arial;' textLength='3.56px' lengthAdjust='spacingAndGlyphs'>3</text></g>
<g clip-path='url(#cpMC4wMHw1MTAuMjR8ODMuMzR8MC4wMA==)'><text x='377.65' y='69.01' style='font-size: 6.40px; fill: #4D4D4D; font-family: Arial;' textLength='3.56px' lengthAdjust='spacingAndGlyphs'>4</text></g>
<g clip-path='url(#cpMC4wMHw1MTAuMjR8ODMuMzR8MC4wMA==)'><text x='385.34' y='69.01' style='font-size: 6.40px; fill: #4D4D4D; font-family: Arial;' textLength='3.56px' lengthAdjust='spacingAndGlyphs'>5</text></g>
<g clip-path='url(#cpMC4wMHw1MTAuMjR8ODMuMzR8MC4wMA==)'><text x='315.87' y='77.85' style='font-size: 8.00px; font-family: Arial;' textLength='84.05px' lengthAdjust='spacingAndGlyphs'>Scores and 99.99% CIs</text></g>
<defs>
  <clipPath id='cpMC4wMHwyNjkuNDZ8NjAuODR8MjEuOTk='>
    <rect x='0.00' y='21.99' width='269.46' height='38.86' />
  </clipPath>
</defs>
<defs>
  <clipPath id='cpMC4wMHw1MTAuMjR8ODMuMzR8MC4wMA=='>
    <rect x='0.00' y='0.00' width='510.24' height='83.34' />
  </clipPath>
</defs>
<g clip-path='url(#cpMC4wMHw1MTAuMjR8ODMuMzR8MC4wMA==)'><text x='3.59' y='46.86' style='font-size: 8.00px; font-family: Arial;' textLength='259.64px' lengthAdjust='spacingAndGlyphs'>NrmDeBehDoctor * NrmDeIdDoctor [How likely do you think it is that your</text></g>
<g clip-path='url(#cpMC4wMHw1MTAuMjR8ODMuMzR8MC4wMA==)'><text x='3.59' y='55.50' style='font-size: 8.00px; font-family: Arial;' textLength='189.43px' lengthAdjust='spacingAndGlyphs'>doctor keeps at least {distRec} distance from others?]</text></g>
<g clip-path='url(#cpMC4wMHw1MTAuMjR8ODMuMzR8MC4wMA==)'><text x='3.59' y='64.14' style='font-size: 8.00px; font-family: Arial;' textLength='57.79px' lengthAdjust='spacingAndGlyphs'>[NrmDe_Doctor]</text></g>
<g clip-path='url(#cpMC4wMHw1MTAuMjR8ODMuMzR8MC4wMA==)'><text x='3.59' y='24.38' style='font-size: 8.00px; font-family: Arial;' textLength='265.87px' lengthAdjust='spacingAndGlyphs'>NrmDeBehFriends * NrmDeIdFriends [How likely do you think it is that your</text></g>
<g clip-path='url(#cpMC4wMHw1MTAuMjR8ODMuMzR8MC4wMA==)'><text x='3.59' y='33.02' style='font-size: 8.00px; font-family: Arial;' textLength='187.21px' lengthAdjust='spacingAndGlyphs'>friends keep at least {distRec} distance from others?]</text></g>
<g clip-path='url(#cpMC4wMHw1MTAuMjR8ODMuMzR8MC4wMA==)'><text x='3.59' y='41.66' style='font-size: 8.00px; font-family: Arial;' textLength='60.90px' lengthAdjust='spacingAndGlyphs'>[NrmDe_Friends]</text></g>
<defs>
  <clipPath id='cpMC4wMHwyNjkuNDZ8NjAuODR8MjEuOTk='>
    <rect x='0.00' y='21.99' width='269.46' height='38.86' />
  </clipPath>
</defs>
<defs>
  <clipPath id='cpMC4wMHw1MTAuMjR8ODMuMzR8MC4wMA=='>
    <rect x='0.00' y='0.00' width='510.24' height='83.34' />
  </clipPath>
</defs>
<defs>
  <clipPath id='cpNDM5LjU3fDUxMC4yNHw4My4zNHwxOC4wMA=='>
    <rect x='439.57' y='18.00' width='70.66' height='65.34' />
  </clipPath>
</defs>
<rect x='439.57' y='18.00' width='70.66' height='65.34' style='stroke-width: 0.78; stroke: #FFFFFF; fill: #FFFFFF;' clip-path='url(#cpNDM5LjU3fDUxMC4yNHw4My4zNHwxOC4wMA==)' />
<defs>
  <clipPath id='cpNDQzLjU2fDUwNi4yNXw2MC44NHwyMS45OQ=='>
    <rect x='443.56' y='21.99' width='62.69' height='38.86' />
  </clipPath>
</defs>
<rect x='443.56' y='21.99' width='62.69' height='38.86' style='stroke-width: 0.78; stroke: none; fill: #FFFFFF;' clip-path='url(#cpNDQzLjU2fDUwNi4yNXw2MC44NHwyMS45OQ==)' />
<polyline points='453.53,60.84 453.53,21.99 ' style='stroke-width: 0.39; stroke: #EBEBEB; stroke-linecap: butt;' clip-path='url(#cpNDQzLjU2fDUwNi4yNXw2MC44NHwyMS45OQ==)' />
<polyline points='467.78,60.84 467.78,21.99 ' style='stroke-width: 0.39; stroke: #EBEBEB; stroke-linecap: butt;' clip-path='url(#cpNDQzLjU2fDUwNi4yNXw2MC44NHwyMS45OQ==)' />
<polyline points='482.03,60.84 482.03,21.99 ' style='stroke-width: 0.39; stroke: #EBEBEB; stroke-linecap: butt;' clip-path='url(#cpNDQzLjU2fDUwNi4yNXw2MC44NHwyMS45OQ==)' />
<polyline points='496.28,60.84 496.28,21.99 ' style='stroke-width: 0.39; stroke: #EBEBEB; stroke-linecap: butt;' clip-path='url(#cpNDQzLjU2fDUwNi4yNXw2MC44NHwyMS45OQ==)' />
<polyline points='446.41,60.84 446.41,21.99 ' style='stroke-width: 0.78; stroke: #EBEBEB; stroke-linecap: butt;' clip-path='url(#cpNDQzLjU2fDUwNi4yNXw2MC44NHwyMS45OQ==)' />
<polyline points='460.66,60.84 460.66,21.99 ' style='stroke-width: 0.78; stroke: #EBEBEB; stroke-linecap: butt;' clip-path='url(#cpNDQzLjU2fDUwNi4yNXw2MC44NHwyMS45OQ==)' />
<polyline points='474.90,60.84 474.90,21.99 ' style='stroke-width: 0.78; stroke: #EBEBEB; stroke-linecap: butt;' clip-path='url(#cpNDQzLjU2fDUwNi4yNXw2MC44NHwyMS45OQ==)' />
<polyline points='489.15,60.84 489.15,21.99 ' style='stroke-width: 0.78; stroke: #EBEBEB; stroke-linecap: butt;' clip-path='url(#cpNDQzLjU2fDUwNi4yNXw2MC44NHwyMS45OQ==)' />
<polyline points='503.40,60.84 503.40,21.99 ' style='stroke-width: 0.78; stroke: #EBEBEB; stroke-linecap: butt;' clip-path='url(#cpNDQzLjU2fDUwNi4yNXw2MC44NHwyMS45OQ==)' />
<line x1='460.66' y1='60.84' x2='460.66' y2='21.99' style='stroke-width: 1.07; stroke: #BEBEBE; stroke-linecap: butt;' clip-path='url(#cpNDQzLjU2fDUwNi4yNXw2MC44NHwyMS45OQ==)' />
<line x1='474.90' y1='60.84' x2='474.90' y2='21.99' style='stroke-width: 1.07; stroke: #BEBEBE; stroke-linecap: butt;' clip-path='url(#cpNDQzLjU2fDUwNi4yNXw2MC44NHwyMS45OQ==)' />
<line x1='489.15' y1='60.84' x2='489.15' y2='21.99' style='stroke-width: 1.07; stroke: #BEBEBE; stroke-linecap: butt;' clip-path='url(#cpNDQzLjU2fDUwNi4yNXw2MC44NHwyMS45OQ==)' />
<polygon points='464.19,55.00 476.80,59.08 488.71,55.00 476.80,50.92 464.19,55.00 ' style='stroke-width: 2.13; fill: #544F55; fill-opacity: 0.50;' clip-path='url(#cpNDQzLjU2fDUwNi4yNXw2MC44NHwyMS45OQ==)' />
<polygon points='464.51,27.83 477.55,31.90 489.56,27.83 477.55,23.75 464.51,27.83 ' style='stroke-width: 2.13; fill: #534D55; fill-opacity: 0.50;' clip-path='url(#cpNDQzLjU2fDUwNi4yNXw2MC44NHwyMS45OQ==)' />
<rect x='443.56' y='21.99' width='62.69' height='38.86' style='stroke-width: 0.78; stroke: #333333;' clip-path='url(#cpNDQzLjU2fDUwNi4yNXw2MC44NHwyMS45OQ==)' />
<defs>
  <clipPath id='cpNDM5LjU3fDUxMC4yNHw4My4zNHwxOC4wMA=='>
    <rect x='439.57' y='18.00' width='70.66' height='65.34' />
  </clipPath>
</defs>
<defs>
  <clipPath id='cpMC4wMHw1MTAuMjR8ODMuMzR8MC4wMA=='>
    <rect x='0.00' y='0.00' width='510.24' height='83.34' />
  </clipPath>
</defs>
<defs>
  <clipPath id='cpNDM5LjU3fDUxMC4yNHw4My4zNHwxOC4wMA=='>
    <rect x='439.57' y='18.00' width='70.66' height='65.34' />
  </clipPath>
</defs>
<defs>
  <clipPath id='cpMC4wMHw1MTAuMjR8ODMuMzR8MC4wMA=='>
    <rect x='0.00' y='0.00' width='510.24' height='83.34' />
  </clipPath>
</defs>
<defs>
  <clipPath id='cpNDM5LjU3fDUxMC4yNHw4My4zNHwxOC4wMA=='>
    <rect x='439.57' y='18.00' width='70.66' height='65.34' />
  </clipPath>
</defs>
<defs>
  <clipPath id='cpMC4wMHw1MTAuMjR8ODMuMzR8MC4wMA=='>
    <rect x='0.00' y='0.00' width='510.24' height='83.34' />
  </clipPath>
</defs>
<defs>
  <clipPath id='cpNDM5LjU3fDUxMC4yNHw4My4zNHwxOC4wMA=='>
    <rect x='439.57' y='18.00' width='70.66' height='65.34' />
  </clipPath>
</defs>
<defs>
  <clipPath id='cpMC4wMHw1MTAuMjR8ODMuMzR8MC4wMA=='>
    <rect x='0.00' y='0.00' width='510.24' height='83.34' />
  </clipPath>
</defs>
<defs>
  <clipPath id='cpNDM5LjU3fDUxMC4yNHw4My4zNHwxOC4wMA=='>
    <rect x='439.57' y='18.00' width='70.66' height='65.34' />
  </clipPath>
</defs>
<defs>
  <clipPath id='cpMC4wMHw1MTAuMjR8ODMuMzR8MC4wMA=='>
    <rect x='0.00' y='0.00' width='510.24' height='83.34' />
  </clipPath>
</defs>
<defs>
  <clipPath id='cpNDM5LjU3fDUxMC4yNHw4My4zNHwxOC4wMA=='>
    <rect x='439.57' y='18.00' width='70.66' height='65.34' />
  </clipPath>
</defs>
<defs>
  <clipPath id='cpMC4wMHw1MTAuMjR8ODMuMzR8MC4wMA=='>
    <rect x='0.00' y='0.00' width='510.24' height='83.34' />
  </clipPath>
</defs>
<defs>
  <clipPath id='cpNDM5LjU3fDUxMC4yNHw4My4zNHwxOC4wMA=='>
    <rect x='439.57' y='18.00' width='70.66' height='65.34' />
  </clipPath>
</defs>
<defs>
  <clipPath id='cpMC4wMHw1MTAuMjR8ODMuMzR8MC4wMA=='>
    <rect x='0.00' y='0.00' width='510.24' height='83.34' />
  </clipPath>
</defs>
<defs>
  <clipPath id='cpNDM5LjU3fDUxMC4yNHw4My4zNHwxOC4wMA=='>
    <rect x='439.57' y='18.00' width='70.66' height='65.34' />
  </clipPath>
</defs>
<defs>
  <clipPath id='cpMC4wMHw1MTAuMjR8ODMuMzR8MC4wMA=='>
    <rect x='0.00' y='0.00' width='510.24' height='83.34' />
  </clipPath>
</defs>
<polyline points='446.41,62.83 446.41,60.84 ' style='stroke-width: 0.78; stroke: #333333; stroke-linecap: butt;' clip-path='url(#cpMC4wMHw1MTAuMjR8ODMuMzR8MC4wMA==)' />
<polyline points='460.66,62.83 460.66,60.84 ' style='stroke-width: 0.78; stroke: #333333; stroke-linecap: butt;' clip-path='url(#cpMC4wMHw1MTAuMjR8ODMuMzR8MC4wMA==)' />
<polyline points='474.90,62.83 474.90,60.84 ' style='stroke-width: 0.78; stroke: #333333; stroke-linecap: butt;' clip-path='url(#cpMC4wMHw1MTAuMjR8ODMuMzR8MC4wMA==)' />
<polyline points='489.15,62.83 489.15,60.84 ' style='stroke-width: 0.78; stroke: #333333; stroke-linecap: butt;' clip-path='url(#cpMC4wMHw1MTAuMjR8ODMuMzR8MC4wMA==)' />
<polyline points='503.40,62.83 503.40,60.84 ' style='stroke-width: 0.78; stroke: #333333; stroke-linecap: butt;' clip-path='url(#cpMC4wMHw1MTAuMjR8ODMuMzR8MC4wMA==)' />
<g clip-path='url(#cpMC4wMHw1MTAuMjR8ODMuMzR8MC4wMA==)'><text x='440.89' y='69.01' style='font-size: 6.40px; fill: #4D4D4D; font-family: Arial;' textLength='11.03px' lengthAdjust='spacingAndGlyphs'>-1.0</text></g>
<g clip-path='url(#cpMC4wMHw1MTAuMjR8ODMuMzR8MC4wMA==)'><text x='455.14' y='69.01' style='font-size: 6.40px; fill: #4D4D4D; font-family: Arial;' textLength='11.03px' lengthAdjust='spacingAndGlyphs'>-0.5</text></g>
<g clip-path='url(#cpMC4wMHw1MTAuMjR8ODMuMzR8MC4wMA==)'><text x='470.46' y='69.01' style='font-size: 6.40px; fill: #4D4D4D; font-family: Arial;' textLength='8.90px' lengthAdjust='spacingAndGlyphs'>0.0</text></g>
<g clip-path='url(#cpMC4wMHw1MTAuMjR8ODMuMzR8MC4wMA==)'><text x='484.70' y='69.01' style='font-size: 6.40px; fill: #4D4D4D; font-family: Arial;' textLength='8.90px' lengthAdjust='spacingAndGlyphs'>0.5</text></g>
<g clip-path='url(#cpMC4wMHw1MTAuMjR8ODMuMzR8MC4wMA==)'><text x='498.95' y='69.01' style='font-size: 6.40px; fill: #4D4D4D; font-family: Arial;' textLength='8.90px' lengthAdjust='spacingAndGlyphs'>1.0</text></g>
<defs>
  <clipPath id='cpNDM5LjU3fDUxMC4yNHw4My4zNHwxOC4wMA=='>
    <rect x='439.57' y='18.00' width='70.66' height='65.34' />
  </clipPath>
</defs>
<defs>
  <clipPath id='cpMC4wMHw1MTAuMjR8ODMuMzR8MC4wMA=='>
    <rect x='0.00' y='0.00' width='510.24' height='83.34' />
  </clipPath>
</defs>
<defs>
  <clipPath id='cpNDM5LjU3fDUxMC4yNHw4My4zNHwxOC4wMA=='>
    <rect x='439.57' y='18.00' width='70.66' height='65.34' />
  </clipPath>
</defs>
<defs>
  <clipPath id='cpMC4wMHw1MTAuMjR8ODMuMzR8MC4wMA=='>
    <rect x='0.00' y='0.00' width='510.24' height='83.34' />
  </clipPath>
</defs>
<g clip-path='url(#cpMC4wMHw1MTAuMjR8ODMuMzR8MC4wMA==)'><text x='432.22' y='77.85' style='font-size: 8.00px; font-family: Arial;' textLength='85.38px' lengthAdjust='spacingAndGlyphs'>95% CIs of associations</text></g>
<defs>
  <clipPath id='cpNDM5LjU3fDUxMC4yNHw4My4zNHwxOC4wMA=='>
    <rect x='439.57' y='18.00' width='70.66' height='65.34' />
  </clipPath>
</defs>
<defs>
  <clipPath id='cpMC4wMHw1MTAuMjR8ODMuMzR8MC4wMA=='>
    <rect x='0.00' y='0.00' width='510.24' height='83.34' />
  </clipPath>
</defs>
<defs>
  <clipPath id='cpNDM5LjU3fDUxMC4yNHw4My4zNHwxOC4wMA=='>
    <rect x='439.57' y='18.00' width='70.66' height='65.34' />
  </clipPath>
</defs>
<defs>
  <clipPath id='cpMC4wMHw1MTAuMjR8ODMuMzR8MC4wMA=='>
    <rect x='0.00' y='0.00' width='510.24' height='83.34' />
  </clipPath>
</defs>
<defs>
  <clipPath id='cpNDM5LjU3fDUxMC4yNHw4My4zNHwxOC4wMA=='>
    <rect x='439.57' y='18.00' width='70.66' height='65.34' />
  </clipPath>
</defs>
<defs>
  <clipPath id='cpMC4wMHw1MTAuMjR8ODMuMzR8MC4wMA=='>
    <rect x='0.00' y='0.00' width='510.24' height='83.34' />
  </clipPath>
</defs>
<defs>
  <clipPath id='cpNDM5LjU3fDUxMC4yNHw4My4zNHwxOC4wMA=='>
    <rect x='439.57' y='18.00' width='70.66' height='65.34' />
  </clipPath>
</defs>
<defs>
  <clipPath id='cpMC4wMHw1MTAuMjR8ODMuMzR8MC4wMA=='>
    <rect x='0.00' y='0.00' width='510.24' height='83.34' />
  </clipPath>
</defs>
<defs>
  <clipPath id='cpNDM5LjU3fDUxMC4yNHw4My4zNHwxOC4wMA=='>
    <rect x='439.57' y='18.00' width='70.66' height='65.34' />
  </clipPath>
</defs>
<defs>
  <clipPath id='cpMC4wMHw1MTAuMjR8ODMuMzR8MC4wMA=='>
    <rect x='0.00' y='0.00' width='510.24' height='83.34' />
  </clipPath>
</defs>
<defs>
  <clipPath id='cpNDM5LjU3fDUxMC4yNHw4My4zNHwxOC4wMA=='>
    <rect x='439.57' y='18.00' width='70.66' height='65.34' />
  </clipPath>
</defs>
<defs>
  <clipPath id='cpMC4wMHw1MTAuMjR8ODMuMzR8MC4wMA=='>
    <rect x='0.00' y='0.00' width='510.24' height='83.34' />
  </clipPath>
</defs>
<defs>
  <clipPath id='cpNDM5LjU3fDUxMC4yNHw4My4zNHwxOC4wMA=='>
    <rect x='439.57' y='18.00' width='70.66' height='65.34' />
  </clipPath>
</defs>
<defs>
  <clipPath id='cpMC4wMHw1MTAuMjR8ODMuMzR8MC4wMA=='>
    <rect x='0.00' y='0.00' width='510.24' height='83.34' />
  </clipPath>
</defs>
<g clip-path='url(#cpMC4wMHw1MTAuMjR8ODMuMzR8MC4wMA==)'><text x='2.30' y='8.78' style='font-size: 9.60px; font-weight: bold; font-family: Arial;' textLength='147.76px' lengthAdjust='spacingAndGlyphs'>Means and associations (r) with </text></g>
<g clip-path='url(#cpMC4wMHw1MTAuMjR8ODMuMzR8MC4wMA==)'><text x='150.07' y='8.78' style='font-size: 9.60px; font-weight: bold; font-family: Arial;' textLength='43.21px' lengthAdjust='spacingAndGlyphs'>proximity</text></g>
<g clip-path='url(#cpMC4wMHw1MTAuMjR8ODMuMzR8MC4wMA==)'><text x='193.28' y='8.78' style='font-size: 9.60px; font-weight: bold; font-family: Arial;' textLength='2.67px' lengthAdjust='spacingAndGlyphs'> </text></g>
</svg>
