<?xml version='1.0' encoding='UTF-8' ?>
<svg xmlns='http://www.w3.org/2000/svg' xmlns:xlink='http://www.w3.org/1999/xlink' viewBox='0 0 510.24 83.34'>
<defs>
  <style type='text/css'><![CDATA[
    line, polyline, polygon, path, rect, circle {
      fill: none;
      stroke: #000000;
      stroke-linecap: round;
      stroke-linejoin: round;
      stroke-miterlimit: 10.00;
    }
  ]]></style>
</defs>
<rect width='100%' height='100%' style='stroke: none; fill: none;'/>
<defs>
  <clipPath id='cpMTQyLjc1fDQwMi41NHw4My4zNHwxOC4wMA=='>
    <rect x='142.75' y='18.00' width='259.79' height='65.34' />
  </clipPath>
</defs>
<rect x='142.75' y='18.00' width='259.79' height='65.34' style='stroke-width: 0.78; stroke: #FFFFFF; fill: #FFFFFF;' clip-path='url(#cpMTQyLjc1fDQwMi41NHw4My4zNHwxOC4wMA==)' />
<defs>
  <clipPath id='cpMC4wMHw1MTAuMjR8ODMuMzR8MC4wMA=='>
    <rect x='0.00' y='0.00' width='510.24' height='83.34' />
  </clipPath>
</defs>
<defs>
  <clipPath id='cpMjE3LjkyfDMyNS42MXw2MC44NHwyMS45OQ=='>
    <rect x='217.92' y='21.99' width='107.69' height='38.86' />
  </clipPath>
</defs>
<rect x='217.92' y='21.99' width='107.69' height='38.86' style='stroke-width: 0.78; stroke: none; fill: #FFFFFF;' clip-path='url(#cpMjE3LjkyfDMyNS42MXw2MC44NHwyMS45OQ==)' />
<polyline points='227.31,60.84 227.31,21.99 ' style='stroke-width: 0.39; stroke: #EBEBEB; stroke-linecap: butt;' clip-path='url(#cpMjE3LjkyfDMyNS42MXw2MC44NHwyMS45OQ==)' />
<polyline points='247.48,60.84 247.48,21.99 ' style='stroke-width: 0.39; stroke: #EBEBEB; stroke-linecap: butt;' clip-path='url(#cpMjE3LjkyfDMyNS42MXw2MC44NHwyMS45OQ==)' />
<polyline points='267.65,60.84 267.65,21.99 ' style='stroke-width: 0.39; stroke: #EBEBEB; stroke-linecap: butt;' clip-path='url(#cpMjE3LjkyfDMyNS42MXw2MC44NHwyMS45OQ==)' />
<polyline points='287.82,60.84 287.82,21.99 ' style='stroke-width: 0.39; stroke: #EBEBEB; stroke-linecap: butt;' clip-path='url(#cpMjE3LjkyfDMyNS42MXw2MC44NHwyMS45OQ==)' />
<polyline points='307.98,60.84 307.98,21.99 ' style='stroke-width: 0.39; stroke: #EBEBEB; stroke-linecap: butt;' clip-path='url(#cpMjE3LjkyfDMyNS42MXw2MC44NHwyMS45OQ==)' />
<polyline points='217.92,51.91 325.61,51.91 ' style='stroke-width: 0.78; stroke: #EBEBEB; stroke-linecap: butt;' clip-path='url(#cpMjE3LjkyfDMyNS42MXw2MC44NHwyMS45OQ==)' />
<polyline points='217.92,28.01 325.61,28.01 ' style='stroke-width: 0.78; stroke: #EBEBEB; stroke-linecap: butt;' clip-path='url(#cpMjE3LjkyfDMyNS42MXw2MC44NHwyMS45OQ==)' />
<polyline points='237.39,60.84 237.39,21.99 ' style='stroke-width: 0.78; stroke: #EBEBEB; stroke-linecap: butt;' clip-path='url(#cpMjE3LjkyfDMyNS42MXw2MC44NHwyMS45OQ==)' />
<polyline points='257.56,60.84 257.56,21.99 ' style='stroke-width: 0.78; stroke: #EBEBEB; stroke-linecap: butt;' clip-path='url(#cpMjE3LjkyfDMyNS42MXw2MC44NHwyMS45OQ==)' />
<polyline points='277.73,60.84 277.73,21.99 ' style='stroke-width: 0.78; stroke: #EBEBEB; stroke-linecap: butt;' clip-path='url(#cpMjE3LjkyfDMyNS42MXw2MC44NHwyMS45OQ==)' />
<polyline points='297.90,60.84 297.90,21.99 ' style='stroke-width: 0.78; stroke: #EBEBEB; stroke-linecap: butt;' clip-path='url(#cpMjE3LjkyfDMyNS42MXw2MC44NHwyMS45OQ==)' />
<polyline points='318.07,60.84 318.07,21.99 ' style='stroke-width: 0.78; stroke: #EBEBEB; stroke-linecap: butt;' clip-path='url(#cpMjE3LjkyfDMyNS42MXw2MC44NHwyMS45OQ==)' />
<circle cx='320.71' cy='52.62' r='2.13' style='stroke-width: 0.00; stroke: #444444; stroke-opacity: 0.10; fill: #444444; fill-opacity: 0.10;' clip-path='url(#cpMjE3LjkyfDMyNS42MXw2MC44NHwyMS45OQ==)' />
<circle cx='271.89' cy='49.37' r='2.13' style='stroke-width: 0.00; stroke: #444444; stroke-opacity: 0.10; fill: #444444; fill-opacity: 0.10;' clip-path='url(#cpMjE3LjkyfDMyNS42MXw2MC44NHwyMS45OQ==)' />
<circle cx='272.52' cy='52.07' r='2.13' style='stroke-width: 0.00; stroke: #444444; stroke-opacity: 0.10; fill: #444444; fill-opacity: 0.10;' clip-path='url(#cpMjE3LjkyfDMyNS42MXw2MC44NHwyMS45OQ==)' />
<circle cx='256.23' cy='50.30' r='2.13' style='stroke-width: 0.00; stroke: #444444; stroke-opacity: 0.10; fill: #444444; fill-opacity: 0.10;' clip-path='url(#cpMjE3LjkyfDMyNS42MXw2MC44NHwyMS45OQ==)' />
<circle cx='314.87' cy='50.92' r='2.13' style='stroke-width: 0.00; stroke: #444444; stroke-opacity: 0.10; fill: #444444; fill-opacity: 0.10;' clip-path='url(#cpMjE3LjkyfDMyNS42MXw2MC44NHwyMS45OQ==)' />
<circle cx='255.51' cy='48.21' r='2.13' style='stroke-width: 0.00; stroke: #444444; stroke-opacity: 0.10; fill: #444444; fill-opacity: 0.10;' clip-path='url(#cpMjE3LjkyfDMyNS42MXw2MC44NHwyMS45OQ==)' />
<circle cx='300.08' cy='53.95' r='2.13' style='stroke-width: 0.00; stroke: #444444; stroke-opacity: 0.10; fill: #444444; fill-opacity: 0.10;' clip-path='url(#cpMjE3LjkyfDMyNS42MXw2MC44NHwyMS45OQ==)' />
<circle cx='274.05' cy='51.27' r='2.13' style='stroke-width: 0.00; stroke: #444444; stroke-opacity: 0.10; fill: #444444; fill-opacity: 0.10;' clip-path='url(#cpMjE3LjkyfDMyNS42MXw2MC44NHwyMS45OQ==)' />
<circle cx='278.43' cy='52.13' r='2.13' style='stroke-width: 0.00; stroke: #444444; stroke-opacity: 0.10; fill: #444444; fill-opacity: 0.10;' clip-path='url(#cpMjE3LjkyfDMyNS42MXw2MC44NHwyMS45OQ==)' />
<circle cx='252.85' cy='49.69' r='2.13' style='stroke-width: 0.00; stroke: #444444; stroke-opacity: 0.10; fill: #444444; fill-opacity: 0.10;' clip-path='url(#cpMjE3LjkyfDMyNS42MXw2MC44NHwyMS45OQ==)' />
<circle cx='270.98' cy='57.54' r='2.13' style='stroke-width: 0.00; stroke: #444444; stroke-opacity: 0.10; fill: #444444; fill-opacity: 0.10;' clip-path='url(#cpMjE3LjkyfDMyNS42MXw2MC44NHwyMS45OQ==)' />
<circle cx='282.85' cy='45.56' r='2.13' style='stroke-width: 0.00; stroke: #444444; stroke-opacity: 0.10; fill: #444444; fill-opacity: 0.10;' clip-path='url(#cpMjE3LjkyfDMyNS42MXw2MC44NHwyMS45OQ==)' />
<circle cx='274.84' cy='46.13' r='2.13' style='stroke-width: 0.00; stroke: #444444; stroke-opacity: 0.10; fill: #444444; fill-opacity: 0.10;' clip-path='url(#cpMjE3LjkyfDMyNS42MXw2MC44NHwyMS45OQ==)' />
<circle cx='280.57' cy='52.78' r='2.13' style='stroke-width: 0.00; stroke: #444444; stroke-opacity: 0.10; fill: #444444; fill-opacity: 0.10;' clip-path='url(#cpMjE3LjkyfDMyNS42MXw2MC44NHwyMS45OQ==)' />
<circle cx='274.92' cy='46.21' r='2.13' style='stroke-width: 0.00; stroke: #444444; stroke-opacity: 0.10; fill: #444444; fill-opacity: 0.10;' clip-path='url(#cpMjE3LjkyfDMyNS42MXw2MC44NHwyMS45OQ==)' />
<circle cx='293.08' cy='46.99' r='2.13' style='stroke-width: 0.00; stroke: #444444; stroke-opacity: 0.10; fill: #444444; fill-opacity: 0.10;' clip-path='url(#cpMjE3LjkyfDMyNS42MXw2MC44NHwyMS45OQ==)' />
<circle cx='269.68' cy='50.89' r='2.13' style='stroke-width: 0.00; stroke: #444444; stroke-opacity: 0.10; fill: #444444; fill-opacity: 0.10;' clip-path='url(#cpMjE3LjkyfDMyNS42MXw2MC44NHwyMS45OQ==)' />
<circle cx='276.66' cy='57.78' r='2.13' style='stroke-width: 0.00; stroke: #444444; stroke-opacity: 0.10; fill: #444444; fill-opacity: 0.10;' clip-path='url(#cpMjE3LjkyfDMyNS42MXw2MC44NHwyMS45OQ==)' />
<circle cx='253.78' cy='45.94' r='2.13' style='stroke-width: 0.00; stroke: #444444; stroke-opacity: 0.10; fill: #444444; fill-opacity: 0.10;' clip-path='url(#cpMjE3LjkyfDMyNS42MXw2MC44NHwyMS45OQ==)' />
<circle cx='281.40' cy='53.47' r='2.13' style='stroke-width: 0.00; stroke: #444444; stroke-opacity: 0.10; fill: #444444; fill-opacity: 0.10;' clip-path='url(#cpMjE3LjkyfDMyNS42MXw2MC44NHwyMS45OQ==)' />
<circle cx='281.81' cy='59.08' r='2.13' style='stroke-width: 0.00; stroke: #444444; stroke-opacity: 0.10; fill: #444444; fill-opacity: 0.10;' clip-path='url(#cpMjE3LjkyfDMyNS42MXw2MC44NHwyMS45OQ==)' />
<circle cx='286.48' cy='51.12' r='2.13' style='stroke-width: 0.00; stroke: #444444; stroke-opacity: 0.10; fill: #444444; fill-opacity: 0.10;' clip-path='url(#cpMjE3LjkyfDMyNS42MXw2MC44NHwyMS45OQ==)' />
<circle cx='309.88' cy='56.27' r='2.13' style='stroke-width: 0.00; stroke: #444444; stroke-opacity: 0.10; fill: #444444; fill-opacity: 0.10;' clip-path='url(#cpMjE3LjkyfDMyNS42MXw2MC44NHwyMS45OQ==)' />
<circle cx='238.21' cy='27.61' r='2.13' style='stroke-width: 0.00; stroke: #444444; stroke-opacity: 0.10; fill: #444444; fill-opacity: 0.10;' clip-path='url(#cpMjE3LjkyfDMyNS42MXw2MC44NHwyMS45OQ==)' />
<circle cx='231.10' cy='30.12' r='2.13' style='stroke-width: 0.00; stroke: #444444; stroke-opacity: 0.10; fill: #444444; fill-opacity: 0.10;' clip-path='url(#cpMjE3LjkyfDMyNS42MXw2MC44NHwyMS45OQ==)' />
<circle cx='283.89' cy='29.09' r='2.13' style='stroke-width: 0.00; stroke: #444444; stroke-opacity: 0.10; fill: #444444; fill-opacity: 0.10;' clip-path='url(#cpMjE3LjkyfDMyNS42MXw2MC44NHwyMS45OQ==)' />
<circle cx='280.92' cy='26.78' r='2.13' style='stroke-width: 0.00; stroke: #444444; stroke-opacity: 0.10; fill: #444444; fill-opacity: 0.10;' clip-path='url(#cpMjE3LjkyfDMyNS42MXw2MC44NHwyMS45OQ==)' />
<circle cx='310.59' cy='27.44' r='2.13' style='stroke-width: 0.00; stroke: #444444; stroke-opacity: 0.10; fill: #444444; fill-opacity: 0.10;' clip-path='url(#cpMjE3LjkyfDMyNS42MXw2MC44NHwyMS45OQ==)' />
<circle cx='242.89' cy='29.84' r='2.13' style='stroke-width: 0.00; stroke: #444444; stroke-opacity: 0.10; fill: #444444; fill-opacity: 0.10;' clip-path='url(#cpMjE3LjkyfDMyNS42MXw2MC44NHwyMS45OQ==)' />
<circle cx='232.43' cy='29.59' r='2.13' style='stroke-width: 0.00; stroke: #444444; stroke-opacity: 0.10; fill: #444444; fill-opacity: 0.10;' clip-path='url(#cpMjE3LjkyfDMyNS42MXw2MC44NHwyMS45OQ==)' />
<circle cx='230.28' cy='24.43' r='2.13' style='stroke-width: 0.00; stroke: #444444; stroke-opacity: 0.10; fill: #444444; fill-opacity: 0.10;' clip-path='url(#cpMjE3LjkyfDMyNS42MXw2MC44NHwyMS45OQ==)' />
<circle cx='238.36' cy='27.34' r='2.13' style='stroke-width: 0.00; stroke: #444444; stroke-opacity: 0.10; fill: #444444; fill-opacity: 0.10;' clip-path='url(#cpMjE3LjkyfDMyNS42MXw2MC44NHwyMS45OQ==)' />
<circle cx='236.06' cy='30.11' r='2.13' style='stroke-width: 0.00; stroke: #444444; stroke-opacity: 0.10; fill: #444444; fill-opacity: 0.10;' clip-path='url(#cpMjE3LjkyfDMyNS42MXw2MC44NHwyMS45OQ==)' />
<circle cx='233.83' cy='23.90' r='2.13' style='stroke-width: 0.00; stroke: #444444; stroke-opacity: 0.10; fill: #444444; fill-opacity: 0.10;' clip-path='url(#cpMjE3LjkyfDMyNS42MXw2MC44NHwyMS45OQ==)' />
<circle cx='229.53' cy='26.57' r='2.13' style='stroke-width: 0.00; stroke: #444444; stroke-opacity: 0.10; fill: #444444; fill-opacity: 0.10;' clip-path='url(#cpMjE3LjkyfDMyNS42MXw2MC44NHwyMS45OQ==)' />
<circle cx='240.02' cy='25.63' r='2.13' style='stroke-width: 0.00; stroke: #444444; stroke-opacity: 0.10; fill: #444444; fill-opacity: 0.10;' clip-path='url(#cpMjE3LjkyfDMyNS42MXw2MC44NHwyMS45OQ==)' />
<circle cx='244.94' cy='31.90' r='2.13' style='stroke-width: 0.00; stroke: #444444; stroke-opacity: 0.10; fill: #444444; fill-opacity: 0.10;' clip-path='url(#cpMjE3LjkyfDMyNS42MXw2MC44NHwyMS45OQ==)' />
<circle cx='275.23' cy='27.28' r='2.13' style='stroke-width: 0.00; stroke: #444444; stroke-opacity: 0.10; fill: #444444; fill-opacity: 0.10;' clip-path='url(#cpMjE3LjkyfDMyNS42MXw2MC44NHwyMS45OQ==)' />
<circle cx='229.15' cy='32.15' r='2.13' style='stroke-width: 0.00; stroke: #444444; stroke-opacity: 0.10; fill: #444444; fill-opacity: 0.10;' clip-path='url(#cpMjE3LjkyfDMyNS42MXw2MC44NHwyMS45OQ==)' />
<circle cx='237.98' cy='23.75' r='2.13' style='stroke-width: 0.00; stroke: #444444; stroke-opacity: 0.10; fill: #444444; fill-opacity: 0.10;' clip-path='url(#cpMjE3LjkyfDMyNS42MXw2MC44NHwyMS45OQ==)' />
<circle cx='315.53' cy='24.08' r='2.13' style='stroke-width: 0.00; stroke: #444444; stroke-opacity: 0.10; fill: #444444; fill-opacity: 0.10;' clip-path='url(#cpMjE3LjkyfDMyNS42MXw2MC44NHwyMS45OQ==)' />
<circle cx='232.39' cy='27.17' r='2.13' style='stroke-width: 0.00; stroke: #444444; stroke-opacity: 0.10; fill: #444444; fill-opacity: 0.10;' clip-path='url(#cpMjE3LjkyfDMyNS42MXw2MC44NHwyMS45OQ==)' />
<circle cx='240.03' cy='27.18' r='2.13' style='stroke-width: 0.00; stroke: #444444; stroke-opacity: 0.10; fill: #444444; fill-opacity: 0.10;' clip-path='url(#cpMjE3LjkyfDMyNS42MXw2MC44NHwyMS45OQ==)' />
<circle cx='244.91' cy='27.39' r='2.13' style='stroke-width: 0.00; stroke: #444444; stroke-opacity: 0.10; fill: #444444; fill-opacity: 0.10;' clip-path='url(#cpMjE3LjkyfDMyNS42MXw2MC44NHwyMS45OQ==)' />
<polygon points='263.57,51.91 281.24,55.50 298.90,51.91 281.24,48.32 263.57,51.91 ' style='stroke-width: 1.07; stroke: #4E2D55; fill: #4E2D55;' clip-path='url(#cpMjE3LjkyfDMyNS42MXw2MC44NHwyMS45OQ==)' />
<polygon points='222.81,28.01 250.84,31.59 278.87,28.01 250.84,24.42 222.81,28.01 ' style='stroke-width: 1.07; stroke: #534955; fill: #534955;' clip-path='url(#cpMjE3LjkyfDMyNS42MXw2MC44NHwyMS45OQ==)' />
<rect x='217.92' y='21.99' width='107.69' height='38.86' style='stroke-width: 0.78; stroke: #333333;' clip-path='url(#cpMjE3LjkyfDMyNS42MXw2MC44NHwyMS45OQ==)' />
<defs>
  <clipPath id='cpMC4wMHw1MTAuMjR8ODMuMzR8MC4wMA=='>
    <rect x='0.00' y='0.00' width='510.24' height='83.34' />
  </clipPath>
</defs>
<g clip-path='url(#cpMC4wMHw1MTAuMjR8ODMuMzR8MC4wMA==)'><text x='178.75' y='54.20' style='font-size: 6.40px; fill: #4D4D4D; font-family: Arial;' textLength='35.58px' lengthAdjust='spacingAndGlyphs'>not up to me</text></g>
<g clip-path='url(#cpMC4wMHw1MTAuMjR8ODMuMzR8MC4wMA==)'><text x='158.82' y='23.38' style='font-size: 6.40px; fill: #4D4D4D; font-family: Arial;' textLength='55.51px' lengthAdjust='spacingAndGlyphs'>can happen without</text></g>
<g clip-path='url(#cpMC4wMHw1MTAuMjR8ODMuMzR8MC4wMA==)'><text x='146.74' y='30.30' style='font-size: 6.40px; fill: #4D4D4D; font-family: Arial;' textLength='67.59px' lengthAdjust='spacingAndGlyphs'>physical contact with an</text></g>
<g clip-path='url(#cpMC4wMHw1MTAuMjR8ODMuMzR8MC4wMA==)'><text x='170.57' y='37.21' style='font-size: 6.40px; fill: #4D4D4D; font-family: Arial;' textLength='43.76px' lengthAdjust='spacingAndGlyphs'>infected person</text></g>
<polyline points='215.92,51.91 217.92,51.91 ' style='stroke-width: 0.78; stroke: #333333; stroke-linecap: butt;' clip-path='url(#cpMC4wMHw1MTAuMjR8ODMuMzR8MC4wMA==)' />
<polyline points='215.92,28.01 217.92,28.01 ' style='stroke-width: 0.78; stroke: #333333; stroke-linecap: butt;' clip-path='url(#cpMC4wMHw1MTAuMjR8ODMuMzR8MC4wMA==)' />
<polyline points='325.61,51.90 327.60,51.90 ' style='stroke-width: 0.78; stroke: #333333; stroke-linecap: butt;' clip-path='url(#cpMC4wMHw1MTAuMjR8ODMuMzR8MC4wMA==)' />
<polyline points='325.61,28.01 327.60,28.01 ' style='stroke-width: 0.78; stroke: #333333; stroke-linecap: butt;' clip-path='url(#cpMC4wMHw1MTAuMjR8ODMuMzR8MC4wMA==)' />
<g clip-path='url(#cpMC4wMHw1MTAuMjR8ODMuMzR8MC4wMA==)'><text x='329.20' y='54.19' style='font-size: 6.40px; fill: #4D4D4D; font-family: Arial;' textLength='57.27px' lengthAdjust='spacingAndGlyphs'>completely up to me</text></g>
<g clip-path='url(#cpMC4wMHw1MTAuMjR8ODMuMzR8MC4wMA==)'><text x='329.20' y='23.39' style='font-size: 6.40px; fill: #4D4D4D; font-family: Arial;' textLength='69.36px' lengthAdjust='spacingAndGlyphs'>always requires physical</text></g>
<g clip-path='url(#cpMC4wMHw1MTAuMjR8ODMuMzR8MC4wMA==)'><text x='329.20' y='30.30' style='font-size: 6.40px; fill: #4D4D4D; font-family: Arial;' textLength='66.88px' lengthAdjust='spacingAndGlyphs'>contact with an infected</text></g>
<g clip-path='url(#cpMC4wMHw1MTAuMjR8ODMuMzR8MC4wMA==)'><text x='329.20' y='37.22' style='font-size: 6.40px; fill: #4D4D4D; font-family: Arial;' textLength='19.57px' lengthAdjust='spacingAndGlyphs'>person</text></g>
<polyline points='237.39,62.83 237.39,60.84 ' style='stroke-width: 0.78; stroke: #333333; stroke-linecap: butt;' clip-path='url(#cpMC4wMHw1MTAuMjR8ODMuMzR8MC4wMA==)' />
<polyline points='257.56,62.83 257.56,60.84 ' style='stroke-width: 0.78; stroke: #333333; stroke-linecap: butt;' clip-path='url(#cpMC4wMHw1MTAuMjR8ODMuMzR8MC4wMA==)' />
<polyline points='277.73,62.83 277.73,60.84 ' style='stroke-width: 0.78; stroke: #333333; stroke-linecap: butt;' clip-path='url(#cpMC4wMHw1MTAuMjR8ODMuMzR8MC4wMA==)' />
<polyline points='297.90,62.83 297.90,60.84 ' style='stroke-width: 0.78; stroke: #333333; stroke-linecap: butt;' clip-path='url(#cpMC4wMHw1MTAuMjR8ODMuMzR8MC4wMA==)' />
<polyline points='318.07,62.83 318.07,60.84 ' style='stroke-width: 0.78; stroke: #333333; stroke-linecap: butt;' clip-path='url(#cpMC4wMHw1MTAuMjR8ODMuMzR8MC4wMA==)' />
<g clip-path='url(#cpMC4wMHw1MTAuMjR8ODMuMzR8MC4wMA==)'><text x='235.62' y='69.01' style='font-size: 6.40px; fill: #4D4D4D; font-family: Arial;' textLength='3.56px' lengthAdjust='spacingAndGlyphs'>1</text></g>
<g clip-path='url(#cpMC4wMHw1MTAuMjR8ODMuMzR8MC4wMA==)'><text x='255.78' y='69.01' style='font-size: 6.40px; fill: #4D4D4D; font-family: Arial;' textLength='3.56px' lengthAdjust='spacingAndGlyphs'>2</text></g>
<g clip-path='url(#cpMC4wMHw1MTAuMjR8ODMuMzR8MC4wMA==)'><text x='275.95' y='69.01' style='font-size: 6.40px; fill: #4D4D4D; font-family: Arial;' textLength='3.56px' lengthAdjust='spacingAndGlyphs'>3</text></g>
<g clip-path='url(#cpMC4wMHw1MTAuMjR8ODMuMzR8MC4wMA==)'><text x='296.12' y='69.01' style='font-size: 6.40px; fill: #4D4D4D; font-family: Arial;' textLength='3.56px' lengthAdjust='spacingAndGlyphs'>4</text></g>
<g clip-path='url(#cpMC4wMHw1MTAuMjR8ODMuMzR8MC4wMA==)'><text x='316.29' y='69.01' style='font-size: 6.40px; fill: #4D4D4D; font-family: Arial;' textLength='3.56px' lengthAdjust='spacingAndGlyphs'>5</text></g>
<g clip-path='url(#cpMC4wMHw1MTAuMjR8ODMuMzR8MC4wMA==)'><text x='229.74' y='77.85' style='font-size: 8.00px; font-family: Arial;' textLength='84.05px' lengthAdjust='spacingAndGlyphs'>Scores and 99.99% CIs</text></g>
<defs>
  <clipPath id='cpMC4wMHwxNDIuNzV8NjAuODR8MjEuOTk='>
    <rect x='0.00' y='21.99' width='142.75' height='38.86' />
  </clipPath>
</defs>
<defs>
  <clipPath id='cpMC4wMHw1MTAuMjR8ODMuMzR8MC4wMA=='>
    <rect x='0.00' y='0.00' width='510.24' height='83.34' />
  </clipPath>
</defs>
<g clip-path='url(#cpMC4wMHw1MTAuMjR8ODMuMzR8MC4wMA==)'><text x='3.59' y='51.06' style='font-size: 8.00px; font-family: Arial;' textLength='139.17px' lengthAdjust='spacingAndGlyphs'>Whether I contract the coronavirus is ...</text></g>
<g clip-path='url(#cpMC4wMHw1MTAuMjR8ODMuMzR8MC4wMA==)'><text x='3.59' y='59.70' style='font-size: 8.00px; font-family: Arial;' textLength='71.60px' lengthAdjust='spacingAndGlyphs'>[genContract_clean]</text></g>
<g clip-path='url(#cpMC4wMHw1MTAuMjR8ODMuMzR8MC4wMA==)'><text x='3.59' y='28.89' style='font-size: 8.00px; font-family: Arial;' textLength='132.52px' lengthAdjust='spacingAndGlyphs'>Getting infected by the coronavirus ...</text></g>
<g clip-path='url(#cpMC4wMHw1MTAuMjR8ODMuMzR8MC4wMA==)'><text x='3.59' y='37.53' style='font-size: 8.00px; font-family: Arial;' textLength='93.39px' lengthAdjust='spacingAndGlyphs'>[genInfctReqTouch_clean]</text></g>
<defs>
  <clipPath id='cpMC4wMHwxNDIuNzV8NjAuODR8MjEuOTk='>
    <rect x='0.00' y='21.99' width='142.75' height='38.86' />
  </clipPath>
</defs>
<defs>
  <clipPath id='cpMC4wMHw1MTAuMjR8ODMuMzR8MC4wMA=='>
    <rect x='0.00' y='0.00' width='510.24' height='83.34' />
  </clipPath>
</defs>
<defs>
  <clipPath id='cpNDAyLjU0fDUxMC4yNHw4My4zNHwxOC4wMA=='>
    <rect x='402.54' y='18.00' width='107.69' height='65.34' />
  </clipPath>
</defs>
<rect x='402.54' y='18.00' width='107.69' height='65.34' style='stroke-width: 0.78; stroke: #FFFFFF; fill: #FFFFFF;' clip-path='url(#cpNDAyLjU0fDUxMC4yNHw4My4zNHwxOC4wMA==)' />
<defs>
  <clipPath id='cpNDA2LjUzfDUwNi4yNXw2MC44NHwyMS45OQ=='>
    <rect x='406.53' y='21.99' width='99.72' height='38.86' />
  </clipPath>
</defs>
<rect x='406.53' y='21.99' width='99.72' height='38.86' style='stroke-width: 0.78; stroke: none; fill: #FFFFFF;' clip-path='url(#cpNDA2LjUzfDUwNi4yNXw2MC44NHwyMS45OQ==)' />
<polyline points='422.39,60.84 422.39,21.99 ' style='stroke-width: 0.39; stroke: #EBEBEB; stroke-linecap: butt;' clip-path='url(#cpNDA2LjUzfDUwNi4yNXw2MC44NHwyMS45OQ==)' />
<polyline points='445.06,60.84 445.06,21.99 ' style='stroke-width: 0.39; stroke: #EBEBEB; stroke-linecap: butt;' clip-path='url(#cpNDA2LjUzfDUwNi4yNXw2MC44NHwyMS45OQ==)' />
<polyline points='467.72,60.84 467.72,21.99 ' style='stroke-width: 0.39; stroke: #EBEBEB; stroke-linecap: butt;' clip-path='url(#cpNDA2LjUzfDUwNi4yNXw2MC44NHwyMS45OQ==)' />
<polyline points='490.39,60.84 490.39,21.99 ' style='stroke-width: 0.39; stroke: #EBEBEB; stroke-linecap: butt;' clip-path='url(#cpNDA2LjUzfDUwNi4yNXw2MC44NHwyMS45OQ==)' />
<polyline points='411.06,60.84 411.06,21.99 ' style='stroke-width: 0.78; stroke: #EBEBEB; stroke-linecap: butt;' clip-path='url(#cpNDA2LjUzfDUwNi4yNXw2MC44NHwyMS45OQ==)' />
<polyline points='433.73,60.84 433.73,21.99 ' style='stroke-width: 0.78; stroke: #EBEBEB; stroke-linecap: butt;' clip-path='url(#cpNDA2LjUzfDUwNi4yNXw2MC44NHwyMS45OQ==)' />
<polyline points='456.39,60.84 456.39,21.99 ' style='stroke-width: 0.78; stroke: #EBEBEB; stroke-linecap: butt;' clip-path='url(#cpNDA2LjUzfDUwNi4yNXw2MC44NHwyMS45OQ==)' />
<polyline points='479.05,60.84 479.05,21.99 ' style='stroke-width: 0.78; stroke: #EBEBEB; stroke-linecap: butt;' clip-path='url(#cpNDA2LjUzfDUwNi4yNXw2MC44NHwyMS45OQ==)' />
<polyline points='501.72,60.84 501.72,21.99 ' style='stroke-width: 0.78; stroke: #EBEBEB; stroke-linecap: butt;' clip-path='url(#cpNDA2LjUzfDUwNi4yNXw2MC44NHwyMS45OQ==)' />
<line x1='433.73' y1='60.84' x2='433.73' y2='21.99' style='stroke-width: 1.07; stroke: #BEBEBE; stroke-linecap: butt;' clip-path='url(#cpNDA2LjUzfDUwNi4yNXw2MC44NHwyMS45OQ==)' />
<line x1='456.39' y1='60.84' x2='456.39' y2='21.99' style='stroke-width: 1.07; stroke: #BEBEBE; stroke-linecap: butt;' clip-path='url(#cpNDA2LjUzfDUwNi4yNXw2MC44NHwyMS45OQ==)' />
<line x1='479.05' y1='60.84' x2='479.05' y2='21.99' style='stroke-width: 1.07; stroke: #BEBEBE; stroke-linecap: butt;' clip-path='url(#cpNDA2LjUzfDUwNi4yNXw2MC44NHwyMS45OQ==)' />
<polygon points='438.22,55.00 457.00,59.08 475.58,55.00 457.00,50.92 438.22,55.00 ' style='stroke-width: 2.13; fill: #545455; fill-opacity: 0.50;' clip-path='url(#cpNDA2LjUzfDUwNi4yNXw2MC44NHwyMS45OQ==)' />
<polygon points='449.18,27.83 469.66,31.90 485.55,27.83 469.66,23.75 449.18,27.83 ' style='stroke-width: 2.13; fill: #503C54; fill-opacity: 0.50;' clip-path='url(#cpNDA2LjUzfDUwNi4yNXw2MC44NHwyMS45OQ==)' />
<rect x='406.53' y='21.99' width='99.72' height='38.86' style='stroke-width: 0.78; stroke: #333333;' clip-path='url(#cpNDA2LjUzfDUwNi4yNXw2MC44NHwyMS45OQ==)' />
<defs>
  <clipPath id='cpNDAyLjU0fDUxMC4yNHw4My4zNHwxOC4wMA=='>
    <rect x='402.54' y='18.00' width='107.69' height='65.34' />
  </clipPath>
</defs>
<defs>
  <clipPath id='cpMC4wMHw1MTAuMjR8ODMuMzR8MC4wMA=='>
    <rect x='0.00' y='0.00' width='510.24' height='83.34' />
  </clipPath>
</defs>
<defs>
  <clipPath id='cpNDAyLjU0fDUxMC4yNHw4My4zNHwxOC4wMA=='>
    <rect x='402.54' y='18.00' width='107.69' height='65.34' />
  </clipPath>
</defs>
<defs>
  <clipPath id='cpMC4wMHw1MTAuMjR8ODMuMzR8MC4wMA=='>
    <rect x='0.00' y='0.00' width='510.24' height='83.34' />
  </clipPath>
</defs>
<defs>
  <clipPath id='cpNDAyLjU0fDUxMC4yNHw4My4zNHwxOC4wMA=='>
    <rect x='402.54' y='18.00' width='107.69' height='65.34' />
  </clipPath>
</defs>
<defs>
  <clipPath id='cpMC4wMHw1MTAuMjR8ODMuMzR8MC4wMA=='>
    <rect x='0.00' y='0.00' width='510.24' height='83.34' />
  </clipPath>
</defs>
<defs>
  <clipPath id='cpNDAyLjU0fDUxMC4yNHw4My4zNHwxOC4wMA=='>
    <rect x='402.54' y='18.00' width='107.69' height='65.34' />
  </clipPath>
</defs>
<defs>
  <clipPath id='cpMC4wMHw1MTAuMjR8ODMuMzR8MC4wMA=='>
    <rect x='0.00' y='0.00' width='510.24' height='83.34' />
  </clipPath>
</defs>
<defs>
  <clipPath id='cpNDAyLjU0fDUxMC4yNHw4My4zNHwxOC4wMA=='>
    <rect x='402.54' y='18.00' width='107.69' height='65.34' />
  </clipPath>
</defs>
<defs>
  <clipPath id='cpMC4wMHw1MTAuMjR8ODMuMzR8MC4wMA=='>
    <rect x='0.00' y='0.00' width='510.24' height='83.34' />
  </clipPath>
</defs>
<defs>
  <clipPath id='cpNDAyLjU0fDUxMC4yNHw4My4zNHwxOC4wMA=='>
    <rect x='402.54' y='18.00' width='107.69' height='65.34' />
  </clipPath>
</defs>
<defs>
  <clipPath id='cpMC4wMHw1MTAuMjR8ODMuMzR8MC4wMA=='>
    <rect x='0.00' y='0.00' width='510.24' height='83.34' />
  </clipPath>
</defs>
<defs>
  <clipPath id='cpNDAyLjU0fDUxMC4yNHw4My4zNHwxOC4wMA=='>
    <rect x='402.54' y='18.00' width='107.69' height='65.34' />
  </clipPath>
</defs>
<defs>
  <clipPath id='cpMC4wMHw1MTAuMjR8ODMuMzR8MC4wMA=='>
    <rect x='0.00' y='0.00' width='510.24' height='83.34' />
  </clipPath>
</defs>
<defs>
  <clipPath id='cpNDAyLjU0fDUxMC4yNHw4My4zNHwxOC4wMA=='>
    <rect x='402.54' y='18.00' width='107.69' height='65.34' />
  </clipPath>
</defs>
<defs>
  <clipPath id='cpMC4wMHw1MTAuMjR8ODMuMzR8MC4wMA=='>
    <rect x='0.00' y='0.00' width='510.24' height='83.34' />
  </clipPath>
</defs>
<polyline points='411.06,62.83 411.06,60.84 ' style='stroke-width: 0.78; stroke: #333333; stroke-linecap: butt;' clip-path='url(#cpMC4wMHw1MTAuMjR8ODMuMzR8MC4wMA==)' />
<polyline points='433.73,62.83 433.73,60.84 ' style='stroke-width: 0.78; stroke: #333333; stroke-linecap: butt;' clip-path='url(#cpMC4wMHw1MTAuMjR8ODMuMzR8MC4wMA==)' />
<polyline points='456.39,62.83 456.39,60.84 ' style='stroke-width: 0.78; stroke: #333333; stroke-linecap: butt;' clip-path='url(#cpMC4wMHw1MTAuMjR8ODMuMzR8MC4wMA==)' />
<polyline points='479.05,62.83 479.05,60.84 ' style='stroke-width: 0.78; stroke: #333333; stroke-linecap: butt;' clip-path='url(#cpMC4wMHw1MTAuMjR8ODMuMzR8MC4wMA==)' />
<polyline points='501.72,62.83 501.72,60.84 ' style='stroke-width: 0.78; stroke: #333333; stroke-linecap: butt;' clip-path='url(#cpMC4wMHw1MTAuMjR8ODMuMzR8MC4wMA==)' />
<g clip-path='url(#cpMC4wMHw1MTAuMjR8ODMuMzR8MC4wMA==)'><text x='405.55' y='69.01' style='font-size: 6.40px; fill: #4D4D4D; font-family: Arial;' textLength='11.03px' lengthAdjust='spacingAndGlyphs'>-1.0</text></g>
<g clip-path='url(#cpMC4wMHw1MTAuMjR8ODMuMzR8MC4wMA==)'><text x='428.21' y='69.01' style='font-size: 6.40px; fill: #4D4D4D; font-family: Arial;' textLength='11.03px' lengthAdjust='spacingAndGlyphs'>-0.5</text></g>
<g clip-path='url(#cpMC4wMHw1MTAuMjR8ODMuMzR8MC4wMA==)'><text x='451.94' y='69.01' style='font-size: 6.40px; fill: #4D4D4D; font-family: Arial;' textLength='8.90px' lengthAdjust='spacingAndGlyphs'>0.0</text></g>
<g clip-path='url(#cpMC4wMHw1MTAuMjR8ODMuMzR8MC4wMA==)'><text x='474.61' y='69.01' style='font-size: 6.40px; fill: #4D4D4D; font-family: Arial;' textLength='8.90px' lengthAdjust='spacingAndGlyphs'>0.5</text></g>
<g clip-path='url(#cpMC4wMHw1MTAuMjR8ODMuMzR8MC4wMA==)'><text x='497.27' y='69.01' style='font-size: 6.40px; fill: #4D4D4D; font-family: Arial;' textLength='8.90px' lengthAdjust='spacingAndGlyphs'>1.0</text></g>
<defs>
  <clipPath id='cpNDAyLjU0fDUxMC4yNHw4My4zNHwxOC4wMA=='>
    <rect x='402.54' y='18.00' width='107.69' height='65.34' />
  </clipPath>
</defs>
<defs>
  <clipPath id='cpMC4wMHw1MTAuMjR8ODMuMzR8MC4wMA=='>
    <rect x='0.00' y='0.00' width='510.24' height='83.34' />
  </clipPath>
</defs>
<defs>
  <clipPath id='cpNDAyLjU0fDUxMC4yNHw4My4zNHwxOC4wMA=='>
    <rect x='402.54' y='18.00' width='107.69' height='65.34' />
  </clipPath>
</defs>
<defs>
  <clipPath id='cpMC4wMHw1MTAuMjR8ODMuMzR8MC4wMA=='>
    <rect x='0.00' y='0.00' width='510.24' height='83.34' />
  </clipPath>
</defs>
<g clip-path='url(#cpMC4wMHw1MTAuMjR8ODMuMzR8MC4wMA==)'><text x='413.70' y='77.85' style='font-size: 8.00px; font-family: Arial;' textLength='85.38px' lengthAdjust='spacingAndGlyphs'>95% CIs of associations</text></g>
<defs>
  <clipPath id='cpNDAyLjU0fDUxMC4yNHw4My4zNHwxOC4wMA=='>
    <rect x='402.54' y='18.00' width='107.69' height='65.34' />
  </clipPath>
</defs>
<defs>
  <clipPath id='cpMC4wMHw1MTAuMjR8ODMuMzR8MC4wMA=='>
    <rect x='0.00' y='0.00' width='510.24' height='83.34' />
  </clipPath>
</defs>
<defs>
  <clipPath id='cpNDAyLjU0fDUxMC4yNHw4My4zNHwxOC4wMA=='>
    <rect x='402.54' y='18.00' width='107.69' height='65.34' />
  </clipPath>
</defs>
<defs>
  <clipPath id='cpMC4wMHw1MTAuMjR8ODMuMzR8MC4wMA=='>
    <rect x='0.00' y='0.00' width='510.24' height='83.34' />
  </clipPath>
</defs>
<defs>
  <clipPath id='cpNDAyLjU0fDUxMC4yNHw4My4zNHwxOC4wMA=='>
    <rect x='402.54' y='18.00' width='107.69' height='65.34' />
  </clipPath>
</defs>
<defs>
  <clipPath id='cpMC4wMHw1MTAuMjR8ODMuMzR8MC4wMA=='>
    <rect x='0.00' y='0.00' width='510.24' height='83.34' />
  </clipPath>
</defs>
<defs>
  <clipPath id='cpNDAyLjU0fDUxMC4yNHw4My4zNHwxOC4wMA=='>
    <rect x='402.54' y='18.00' width='107.69' height='65.34' />
  </clipPath>
</defs>
<defs>
  <clipPath id='cpMC4wMHw1MTAuMjR8ODMuMzR8MC4wMA=='>
    <rect x='0.00' y='0.00' width='510.24' height='83.34' />
  </clipPath>
</defs>
<defs>
  <clipPath id='cpNDAyLjU0fDUxMC4yNHw4My4zNHwxOC4wMA=='>
    <rect x='402.54' y='18.00' width='107.69' height='65.34' />
  </clipPath>
</defs>
<defs>
  <clipPath id='cpMC4wMHw1MTAuMjR8ODMuMzR8MC4wMA=='>
    <rect x='0.00' y='0.00' width='510.24' height='83.34' />
  </clipPath>
</defs>
<defs>
  <clipPath id='cpNDAyLjU0fDUxMC4yNHw4My4zNHwxOC4wMA=='>
    <rect x='402.54' y='18.00' width='107.69' height='65.34' />
  </clipPath>
</defs>
<defs>
  <clipPath id='cpMC4wMHw1MTAuMjR8ODMuMzR8MC4wMA=='>
    <rect x='0.00' y='0.00' width='510.24' height='83.34' />
  </clipPath>
</defs>
<defs>
  <clipPath id='cpNDAyLjU0fDUxMC4yNHw4My4zNHwxOC4wMA=='>
    <rect x='402.54' y='18.00' width='107.69' height='65.34' />
  </clipPath>
</defs>
<defs>
  <clipPath id='cpMC4wMHw1MTAuMjR8ODMuMzR8MC4wMA=='>
    <rect x='0.00' y='0.00' width='510.24' height='83.34' />
  </clipPath>
</defs>
<g clip-path='url(#cpMC4wMHw1MTAuMjR8ODMuMzR8MC4wMA==)'><text x='2.30' y='8.78' style='font-size: 9.60px; font-weight: bold; font-family: Arial;' textLength='147.76px' lengthAdjust='spacingAndGlyphs'>Means and associations (r) with </text></g>
<g clip-path='url(#cpMC4wMHw1MTAuMjR8ODMuMzR8MC4wMA==)'><text x='150.07' y='8.78' style='font-size: 9.60px; font-weight: bold; font-family: Arial;' textLength='43.21px' lengthAdjust='spacingAndGlyphs'>proximity</text></g>
<g clip-path='url(#cpMC4wMHw1MTAuMjR8ODMuMzR8MC4wMA==)'><text x='193.28' y='8.78' style='font-size: 9.60px; font-weight: bold; font-family: Arial;' textLength='2.67px' lengthAdjust='spacingAndGlyphs'> </text></g>
</svg>
