<?xml version='1.0' encoding='UTF-8' ?>
<svg xmlns='http://www.w3.org/2000/svg' xmlns:xlink='http://www.w3.org/1999/xlink' viewBox='0 0 510.24 202.39'>
<defs>
  <style type='text/css'><![CDATA[
    line, polyline, polygon, path, rect, circle {
      fill: none;
      stroke: #000000;
      stroke-linecap: round;
      stroke-linejoin: round;
      stroke-miterlimit: 10.00;
    }
  ]]></style>
</defs>
<rect width='100%' height='100%' style='stroke: none; fill: none;'/>
<defs>
  <clipPath id='cpMjA4LjU5fDQzNy43OHwyMDIuMzl8MTguMDA='>
    <rect x='208.59' y='18.00' width='229.19' height='184.39' />
  </clipPath>
</defs>
<rect x='208.59' y='18.00' width='229.19' height='184.39' style='stroke-width: 0.78; stroke: #FFFFFF; fill: #FFFFFF;' clip-path='url(#cpMjA4LjU5fDQzNy43OHwyMDIuMzl8MTguMDA=)' />
<defs>
  <clipPath id='cpMC4wMHw1MTAuMjR8MjAyLjM5fDAuMDA='>
    <rect x='0.00' y='0.00' width='510.24' height='202.39' />
  </clipPath>
</defs>
<defs>
  <clipPath id='cpMjg4LjM5fDM2MC44NXwxNzkuOTB8MjEuOTk='>
    <rect x='288.39' y='21.99' width='72.46' height='157.91' />
  </clipPath>
</defs>
<rect x='288.39' y='21.99' width='72.46' height='157.91' style='stroke-width: 0.78; stroke: none; fill: #FFFFFF;' clip-path='url(#cpMjg4LjM5fDM2MC44NXwxNzkuOTB8MjEuOTk=)' />
<polyline points='290.99,179.90 290.99,21.99 ' style='stroke-width: 0.39; stroke: #EBEBEB; stroke-linecap: butt;' clip-path='url(#cpMjg4LjM5fDM2MC44NXwxNzkuOTB8MjEuOTk=)' />
<polyline points='304.48,179.90 304.48,21.99 ' style='stroke-width: 0.39; stroke: #EBEBEB; stroke-linecap: butt;' clip-path='url(#cpMjg4LjM5fDM2MC44NXwxNzkuOTB8MjEuOTk=)' />
<polyline points='317.98,179.90 317.98,21.99 ' style='stroke-width: 0.39; stroke: #EBEBEB; stroke-linecap: butt;' clip-path='url(#cpMjg4LjM5fDM2MC44NXwxNzkuOTB8MjEuOTk=)' />
<polyline points='331.47,179.90 331.47,21.99 ' style='stroke-width: 0.39; stroke: #EBEBEB; stroke-linecap: butt;' clip-path='url(#cpMjg4LjM5fDM2MC44NXwxNzkuOTB8MjEuOTk=)' />
<polyline points='344.96,179.90 344.96,21.99 ' style='stroke-width: 0.39; stroke: #EBEBEB; stroke-linecap: butt;' clip-path='url(#cpMjg4LjM5fDM2MC44NXwxNzkuOTB8MjEuOTk=)' />
<polyline points='358.45,179.90 358.45,21.99 ' style='stroke-width: 0.39; stroke: #EBEBEB; stroke-linecap: butt;' clip-path='url(#cpMjg4LjM5fDM2MC44NXwxNzkuOTB8MjEuOTk=)' />
<polyline points='288.39,165.44 360.85,165.44 ' style='stroke-width: 0.78; stroke: #EBEBEB; stroke-linecap: butt;' clip-path='url(#cpMjg4LjM5fDM2MC44NXwxNzkuOTB8MjEuOTk=)' />
<polyline points='288.39,139.63 360.85,139.63 ' style='stroke-width: 0.78; stroke: #EBEBEB; stroke-linecap: butt;' clip-path='url(#cpMjg4LjM5fDM2MC44NXwxNzkuOTB8MjEuOTk=)' />
<polyline points='288.39,113.83 360.85,113.83 ' style='stroke-width: 0.78; stroke: #EBEBEB; stroke-linecap: butt;' clip-path='url(#cpMjg4LjM5fDM2MC44NXwxNzkuOTB8MjEuOTk=)' />
<polyline points='288.39,88.02 360.85,88.02 ' style='stroke-width: 0.78; stroke: #EBEBEB; stroke-linecap: butt;' clip-path='url(#cpMjg4LjM5fDM2MC44NXwxNzkuOTB8MjEuOTk=)' />
<polyline points='288.39,62.21 360.85,62.21 ' style='stroke-width: 0.78; stroke: #EBEBEB; stroke-linecap: butt;' clip-path='url(#cpMjg4LjM5fDM2MC44NXwxNzkuOTB8MjEuOTk=)' />
<polyline points='288.39,36.40 360.85,36.40 ' style='stroke-width: 0.78; stroke: #EBEBEB; stroke-linecap: butt;' clip-path='url(#cpMjg4LjM5fDM2MC44NXwxNzkuOTB8MjEuOTk=)' />
<polyline points='297.74,179.90 297.74,21.99 ' style='stroke-width: 0.78; stroke: #EBEBEB; stroke-linecap: butt;' clip-path='url(#cpMjg4LjM5fDM2MC44NXwxNzkuOTB8MjEuOTk=)' />
<polyline points='311.23,179.90 311.23,21.99 ' style='stroke-width: 0.78; stroke: #EBEBEB; stroke-linecap: butt;' clip-path='url(#cpMjg4LjM5fDM2MC44NXwxNzkuOTB8MjEuOTk=)' />
<polyline points='324.72,179.90 324.72,21.99 ' style='stroke-width: 0.78; stroke: #EBEBEB; stroke-linecap: butt;' clip-path='url(#cpMjg4LjM5fDM2MC44NXwxNzkuOTB8MjEuOTk=)' />
<polyline points='338.21,179.90 338.21,21.99 ' style='stroke-width: 0.78; stroke: #EBEBEB; stroke-linecap: butt;' clip-path='url(#cpMjg4LjM5fDM2MC44NXwxNzkuOTB8MjEuOTk=)' />
<polyline points='351.71,179.90 351.71,21.99 ' style='stroke-width: 0.78; stroke: #EBEBEB; stroke-linecap: butt;' clip-path='url(#cpMjg4LjM5fDM2MC44NXwxNzkuOTB8MjEuOTk=)' />
<circle cx='306.87' cy='165.46' r='2.13' style='stroke-width: 0.00; stroke: #444444; stroke-opacity: 0.10; fill: #444444; fill-opacity: 0.10;' clip-path='url(#cpMjg4LjM5fDM2MC44NXwxNzkuOTB8MjEuOTk=)' />
<circle cx='311.47' cy='164.40' r='2.13' style='stroke-width: 0.00; stroke: #444444; stroke-opacity: 0.10; fill: #444444; fill-opacity: 0.10;' clip-path='url(#cpMjg4LjM5fDM2MC44NXwxNzkuOTB8MjEuOTk=)' />
<circle cx='298.96' cy='172.72' r='2.13' style='stroke-width: 0.00; stroke: #444444; stroke-opacity: 0.10; fill: #444444; fill-opacity: 0.10;' clip-path='url(#cpMjg4LjM5fDM2MC44NXwxNzkuOTB8MjEuOTk=)' />
<circle cx='343.54' cy='163.32' r='2.13' style='stroke-width: 0.00; stroke: #444444; stroke-opacity: 0.10; fill: #444444; fill-opacity: 0.10;' clip-path='url(#cpMjg4LjM5fDM2MC44NXwxNzkuOTB8MjEuOTk=)' />
<circle cx='295.17' cy='170.25' r='2.13' style='stroke-width: 0.00; stroke: #444444; stroke-opacity: 0.10; fill: #444444; fill-opacity: 0.10;' clip-path='url(#cpMjg4LjM5fDM2MC44NXwxNzkuOTB8MjEuOTk=)' />
<circle cx='297.57' cy='158.40' r='2.13' style='stroke-width: 0.00; stroke: #444444; stroke-opacity: 0.10; fill: #444444; fill-opacity: 0.10;' clip-path='url(#cpMjg4LjM5fDM2MC44NXwxNzkuOTB8MjEuOTk=)' />
<circle cx='294.98' cy='157.97' r='2.13' style='stroke-width: 0.00; stroke: #444444; stroke-opacity: 0.10; fill: #444444; fill-opacity: 0.10;' clip-path='url(#cpMjg4LjM5fDM2MC44NXwxNzkuOTB8MjEuOTk=)' />
<circle cx='292.02' cy='162.17' r='2.13' style='stroke-width: 0.00; stroke: #444444; stroke-opacity: 0.10; fill: #444444; fill-opacity: 0.10;' clip-path='url(#cpMjg4LjM5fDM2MC44NXwxNzkuOTB8MjEuOTk=)' />
<circle cx='314.51' cy='159.60' r='2.13' style='stroke-width: 0.00; stroke: #444444; stroke-opacity: 0.10; fill: #444444; fill-opacity: 0.10;' clip-path='url(#cpMjg4LjM5fDM2MC44NXwxNzkuOTB8MjEuOTk=)' />
<circle cx='308.35' cy='167.39' r='2.13' style='stroke-width: 0.00; stroke: #444444; stroke-opacity: 0.10; fill: #444444; fill-opacity: 0.10;' clip-path='url(#cpMjg4LjM5fDM2MC44NXwxNzkuOTB8MjEuOTk=)' />
<circle cx='302.88' cy='168.00' r='2.13' style='stroke-width: 0.00; stroke: #444444; stroke-opacity: 0.10; fill: #444444; fill-opacity: 0.10;' clip-path='url(#cpMjg4LjM5fDM2MC44NXwxNzkuOTB8MjEuOTk=)' />
<circle cx='291.68' cy='158.14' r='2.13' style='stroke-width: 0.00; stroke: #444444; stroke-opacity: 0.10; fill: #444444; fill-opacity: 0.10;' clip-path='url(#cpMjg4LjM5fDM2MC44NXwxNzkuOTB8MjEuOTk=)' />
<circle cx='310.27' cy='165.79' r='2.13' style='stroke-width: 0.00; stroke: #444444; stroke-opacity: 0.10; fill: #444444; fill-opacity: 0.10;' clip-path='url(#cpMjg4LjM5fDM2MC44NXwxNzkuOTB8MjEuOTk=)' />
<circle cx='292.40' cy='165.53' r='2.13' style='stroke-width: 0.00; stroke: #444444; stroke-opacity: 0.10; fill: #444444; fill-opacity: 0.10;' clip-path='url(#cpMjg4LjM5fDM2MC44NXwxNzkuOTB8MjEuOTk=)' />
<circle cx='310.76' cy='158.00' r='2.13' style='stroke-width: 0.00; stroke: #444444; stroke-opacity: 0.10; fill: #444444; fill-opacity: 0.10;' clip-path='url(#cpMjg4LjM5fDM2MC44NXwxNzkuOTB8MjEuOTk=)' />
<circle cx='316.99' cy='165.95' r='2.13' style='stroke-width: 0.00; stroke: #444444; stroke-opacity: 0.10; fill: #444444; fill-opacity: 0.10;' clip-path='url(#cpMjg4LjM5fDM2MC44NXwxNzkuOTB8MjEuOTk=)' />
<circle cx='313.55' cy='163.62' r='2.13' style='stroke-width: 0.00; stroke: #444444; stroke-opacity: 0.10; fill: #444444; fill-opacity: 0.10;' clip-path='url(#cpMjg4LjM5fDM2MC44NXwxNzkuOTB8MjEuOTk=)' />
<circle cx='313.70' cy='170.66' r='2.13' style='stroke-width: 0.00; stroke: #444444; stroke-opacity: 0.10; fill: #444444; fill-opacity: 0.10;' clip-path='url(#cpMjg4LjM5fDM2MC44NXwxNzkuOTB8MjEuOTk=)' />
<circle cx='295.43' cy='164.07' r='2.13' style='stroke-width: 0.00; stroke: #444444; stroke-opacity: 0.10; fill: #444444; fill-opacity: 0.10;' clip-path='url(#cpMjg4LjM5fDM2MC44NXwxNzkuOTB8MjEuOTk=)' />
<circle cx='309.38' cy='170.20' r='2.13' style='stroke-width: 0.00; stroke: #444444; stroke-opacity: 0.10; fill: #444444; fill-opacity: 0.10;' clip-path='url(#cpMjg4LjM5fDM2MC44NXwxNzkuOTB8MjEuOTk=)' />
<circle cx='340.61' cy='172.58' r='2.13' style='stroke-width: 0.00; stroke: #444444; stroke-opacity: 0.10; fill: #444444; fill-opacity: 0.10;' clip-path='url(#cpMjg4LjM5fDM2MC44NXwxNzkuOTB8MjEuOTk=)' />
<circle cx='320.27' cy='163.62' r='2.13' style='stroke-width: 0.00; stroke: #444444; stroke-opacity: 0.10; fill: #444444; fill-opacity: 0.10;' clip-path='url(#cpMjg4LjM5fDM2MC44NXwxNzkuOTB8MjEuOTk=)' />
<circle cx='352.32' cy='132.35' r='2.13' style='stroke-width: 0.00; stroke: #444444; stroke-opacity: 0.10; fill: #444444; fill-opacity: 0.10;' clip-path='url(#cpMjg4LjM5fDM2MC44NXwxNzkuOTB8MjEuOTk=)' />
<circle cx='329.29' cy='138.67' r='2.13' style='stroke-width: 0.00; stroke: #444444; stroke-opacity: 0.10; fill: #444444; fill-opacity: 0.10;' clip-path='url(#cpMjg4LjM5fDM2MC44NXwxNzkuOTB8MjEuOTk=)' />
<circle cx='354.35' cy='141.49' r='2.13' style='stroke-width: 0.00; stroke: #444444; stroke-opacity: 0.10; fill: #444444; fill-opacity: 0.10;' clip-path='url(#cpMjg4LjM5fDM2MC44NXwxNzkuOTB8MjEuOTk=)' />
<circle cx='352.05' cy='140.33' r='2.13' style='stroke-width: 0.00; stroke: #444444; stroke-opacity: 0.10; fill: #444444; fill-opacity: 0.10;' clip-path='url(#cpMjg4LjM5fDM2MC44NXwxNzkuOTB8MjEuOTk=)' />
<circle cx='300.31' cy='132.09' r='2.13' style='stroke-width: 0.00; stroke: #444444; stroke-opacity: 0.10; fill: #444444; fill-opacity: 0.10;' clip-path='url(#cpMjg4LjM5fDM2MC44NXwxNzkuOTB8MjEuOTk=)' />
<circle cx='340.02' cy='136.17' r='2.13' style='stroke-width: 0.00; stroke: #444444; stroke-opacity: 0.10; fill: #444444; fill-opacity: 0.10;' clip-path='url(#cpMjg4LjM5fDM2MC44NXwxNzkuOTB8MjEuOTk=)' />
<circle cx='302.36' cy='144.59' r='2.13' style='stroke-width: 0.00; stroke: #444444; stroke-opacity: 0.10; fill: #444444; fill-opacity: 0.10;' clip-path='url(#cpMjg4LjM5fDM2MC44NXwxNzkuOTB8MjEuOTk=)' />
<circle cx='301.98' cy='147.05' r='2.13' style='stroke-width: 0.00; stroke: #444444; stroke-opacity: 0.10; fill: #444444; fill-opacity: 0.10;' clip-path='url(#cpMjg4LjM5fDM2MC44NXwxNzkuOTB8MjEuOTk=)' />
<circle cx='294.03' cy='146.69' r='2.13' style='stroke-width: 0.00; stroke: #444444; stroke-opacity: 0.10; fill: #444444; fill-opacity: 0.10;' clip-path='url(#cpMjg4LjM5fDM2MC44NXwxNzkuOTB8MjEuOTk=)' />
<circle cx='324.92' cy='138.59' r='2.13' style='stroke-width: 0.00; stroke: #444444; stroke-opacity: 0.10; fill: #444444; fill-opacity: 0.10;' clip-path='url(#cpMjg4LjM5fDM2MC44NXwxNzkuOTB8MjEuOTk=)' />
<circle cx='355.28' cy='146.52' r='2.13' style='stroke-width: 0.00; stroke: #444444; stroke-opacity: 0.10; fill: #444444; fill-opacity: 0.10;' clip-path='url(#cpMjg4LjM5fDM2MC44NXwxNzkuOTB8MjEuOTk=)' />
<circle cx='338.73' cy='140.00' r='2.13' style='stroke-width: 0.00; stroke: #444444; stroke-opacity: 0.10; fill: #444444; fill-opacity: 0.10;' clip-path='url(#cpMjg4LjM5fDM2MC44NXwxNzkuOTB8MjEuOTk=)' />
<circle cx='356.66' cy='143.17' r='2.13' style='stroke-width: 0.00; stroke: #444444; stroke-opacity: 0.10; fill: #444444; fill-opacity: 0.10;' clip-path='url(#cpMjg4LjM5fDM2MC44NXwxNzkuOTB8MjEuOTk=)' />
<circle cx='352.13' cy='143.46' r='2.13' style='stroke-width: 0.00; stroke: #444444; stroke-opacity: 0.10; fill: #444444; fill-opacity: 0.10;' clip-path='url(#cpMjg4LjM5fDM2MC44NXwxNzkuOTB8MjEuOTk=)' />
<circle cx='292.49' cy='134.88' r='2.13' style='stroke-width: 0.00; stroke: #444444; stroke-opacity: 0.10; fill: #444444; fill-opacity: 0.10;' clip-path='url(#cpMjg4LjM5fDM2MC44NXwxNzkuOTB8MjEuOTk=)' />
<circle cx='353.79' cy='144.56' r='2.13' style='stroke-width: 0.00; stroke: #444444; stroke-opacity: 0.10; fill: #444444; fill-opacity: 0.10;' clip-path='url(#cpMjg4LjM5fDM2MC44NXwxNzkuOTB8MjEuOTk=)' />
<circle cx='310.24' cy='133.44' r='2.13' style='stroke-width: 0.00; stroke: #444444; stroke-opacity: 0.10; fill: #444444; fill-opacity: 0.10;' clip-path='url(#cpMjg4LjM5fDM2MC44NXwxNzkuOTB8MjEuOTk=)' />
<circle cx='348.34' cy='134.61' r='2.13' style='stroke-width: 0.00; stroke: #444444; stroke-opacity: 0.10; fill: #444444; fill-opacity: 0.10;' clip-path='url(#cpMjg4LjM5fDM2MC44NXwxNzkuOTB8MjEuOTk=)' />
<circle cx='343.47' cy='145.55' r='2.13' style='stroke-width: 0.00; stroke: #444444; stroke-opacity: 0.10; fill: #444444; fill-opacity: 0.10;' clip-path='url(#cpMjg4LjM5fDM2MC44NXwxNzkuOTB8MjEuOTk=)' />
<circle cx='297.15' cy='138.87' r='2.13' style='stroke-width: 0.00; stroke: #444444; stroke-opacity: 0.10; fill: #444444; fill-opacity: 0.10;' clip-path='url(#cpMjg4LjM5fDM2MC44NXwxNzkuOTB8MjEuOTk=)' />
<circle cx='301.16' cy='137.15' r='2.13' style='stroke-width: 0.00; stroke: #444444; stroke-opacity: 0.10; fill: #444444; fill-opacity: 0.10;' clip-path='url(#cpMjg4LjM5fDM2MC44NXwxNzkuOTB8MjEuOTk=)' />
<circle cx='354.53' cy='137.55' r='2.13' style='stroke-width: 0.00; stroke: #444444; stroke-opacity: 0.10; fill: #444444; fill-opacity: 0.10;' clip-path='url(#cpMjg4LjM5fDM2MC44NXwxNzkuOTB8MjEuOTk=)' />
<circle cx='338.14' cy='144.62' r='2.13' style='stroke-width: 0.00; stroke: #444444; stroke-opacity: 0.10; fill: #444444; fill-opacity: 0.10;' clip-path='url(#cpMjg4LjM5fDM2MC44NXwxNzkuOTB8MjEuOTk=)' />
<circle cx='345.90' cy='134.27' r='2.13' style='stroke-width: 0.00; stroke: #444444; stroke-opacity: 0.10; fill: #444444; fill-opacity: 0.10;' clip-path='url(#cpMjg4LjM5fDM2MC44NXwxNzkuOTB8MjEuOTk=)' />
<circle cx='300.16' cy='141.88' r='2.13' style='stroke-width: 0.00; stroke: #444444; stroke-opacity: 0.10; fill: #444444; fill-opacity: 0.10;' clip-path='url(#cpMjg4LjM5fDM2MC44NXwxNzkuOTB8MjEuOTk=)' />
<circle cx='347.24' cy='139.67' r='2.13' style='stroke-width: 0.00; stroke: #444444; stroke-opacity: 0.10; fill: #444444; fill-opacity: 0.10;' clip-path='url(#cpMjg4LjM5fDM2MC44NXwxNzkuOTB8MjEuOTk=)' />
<circle cx='347.52' cy='145.95' r='2.13' style='stroke-width: 0.00; stroke: #444444; stroke-opacity: 0.10; fill: #444444; fill-opacity: 0.10;' clip-path='url(#cpMjg4LjM5fDM2MC44NXwxNzkuOTB8MjEuOTk=)' />
<circle cx='292.53' cy='106.29' r='2.13' style='stroke-width: 0.00; stroke: #444444; stroke-opacity: 0.10; fill: #444444; fill-opacity: 0.10;' clip-path='url(#cpMjg4LjM5fDM2MC44NXwxNzkuOTB8MjEuOTk=)' />
<circle cx='297.03' cy='114.53' r='2.13' style='stroke-width: 0.00; stroke: #444444; stroke-opacity: 0.10; fill: #444444; fill-opacity: 0.10;' clip-path='url(#cpMjg4LjM5fDM2MC44NXwxNzkuOTB8MjEuOTk=)' />
<circle cx='355.62' cy='114.44' r='2.13' style='stroke-width: 0.00; stroke: #444444; stroke-opacity: 0.10; fill: #444444; fill-opacity: 0.10;' clip-path='url(#cpMjg4LjM5fDM2MC44NXwxNzkuOTB8MjEuOTk=)' />
<circle cx='326.14' cy='107.17' r='2.13' style='stroke-width: 0.00; stroke: #444444; stroke-opacity: 0.10; fill: #444444; fill-opacity: 0.10;' clip-path='url(#cpMjg4LjM5fDM2MC44NXwxNzkuOTB8MjEuOTk=)' />
<circle cx='295.67' cy='108.58' r='2.13' style='stroke-width: 0.00; stroke: #444444; stroke-opacity: 0.10; fill: #444444; fill-opacity: 0.10;' clip-path='url(#cpMjg4LjM5fDM2MC44NXwxNzkuOTB8MjEuOTk=)' />
<circle cx='300.62' cy='109.12' r='2.13' style='stroke-width: 0.00; stroke: #444444; stroke-opacity: 0.10; fill: #444444; fill-opacity: 0.10;' clip-path='url(#cpMjg4LjM5fDM2MC44NXwxNzkuOTB8MjEuOTk=)' />
<circle cx='296.48' cy='115.83' r='2.13' style='stroke-width: 0.00; stroke: #444444; stroke-opacity: 0.10; fill: #444444; fill-opacity: 0.10;' clip-path='url(#cpMjg4LjM5fDM2MC44NXwxNzkuOTB8MjEuOTk=)' />
<circle cx='324.13' cy='106.78' r='2.13' style='stroke-width: 0.00; stroke: #444444; stroke-opacity: 0.10; fill: #444444; fill-opacity: 0.10;' clip-path='url(#cpMjg4LjM5fDM2MC44NXwxNzkuOTB8MjEuOTk=)' />
<circle cx='307.85' cy='110.72' r='2.13' style='stroke-width: 0.00; stroke: #444444; stroke-opacity: 0.10; fill: #444444; fill-opacity: 0.10;' clip-path='url(#cpMjg4LjM5fDM2MC44NXwxNzkuOTB8MjEuOTk=)' />
<circle cx='320.40' cy='110.15' r='2.13' style='stroke-width: 0.00; stroke: #444444; stroke-opacity: 0.10; fill: #444444; fill-opacity: 0.10;' clip-path='url(#cpMjg4LjM5fDM2MC44NXwxNzkuOTB8MjEuOTk=)' />
<circle cx='301.22' cy='111.56' r='2.13' style='stroke-width: 0.00; stroke: #444444; stroke-opacity: 0.10; fill: #444444; fill-opacity: 0.10;' clip-path='url(#cpMjg4LjM5fDM2MC44NXwxNzkuOTB8MjEuOTk=)' />
<circle cx='320.23' cy='113.23' r='2.13' style='stroke-width: 0.00; stroke: #444444; stroke-opacity: 0.10; fill: #444444; fill-opacity: 0.10;' clip-path='url(#cpMjg4LjM5fDM2MC44NXwxNzkuOTB8MjEuOTk=)' />
<circle cx='301.31' cy='114.96' r='2.13' style='stroke-width: 0.00; stroke: #444444; stroke-opacity: 0.10; fill: #444444; fill-opacity: 0.10;' clip-path='url(#cpMjg4LjM5fDM2MC44NXwxNzkuOTB8MjEuOTk=)' />
<circle cx='292.85' cy='114.93' r='2.13' style='stroke-width: 0.00; stroke: #444444; stroke-opacity: 0.10; fill: #444444; fill-opacity: 0.10;' clip-path='url(#cpMjg4LjM5fDM2MC44NXwxNzkuOTB8MjEuOTk=)' />
<circle cx='301.12' cy='110.84' r='2.13' style='stroke-width: 0.00; stroke: #444444; stroke-opacity: 0.10; fill: #444444; fill-opacity: 0.10;' clip-path='url(#cpMjg4LjM5fDM2MC44NXwxNzkuOTB8MjEuOTk=)' />
<circle cx='313.45' cy='111.51' r='2.13' style='stroke-width: 0.00; stroke: #444444; stroke-opacity: 0.10; fill: #444444; fill-opacity: 0.10;' clip-path='url(#cpMjg4LjM5fDM2MC44NXwxNzkuOTB8MjEuOTk=)' />
<circle cx='294.24' cy='119.32' r='2.13' style='stroke-width: 0.00; stroke: #444444; stroke-opacity: 0.10; fill: #444444; fill-opacity: 0.10;' clip-path='url(#cpMjg4LjM5fDM2MC44NXwxNzkuOTB8MjEuOTk=)' />
<circle cx='292.46' cy='106.93' r='2.13' style='stroke-width: 0.00; stroke: #444444; stroke-opacity: 0.10; fill: #444444; fill-opacity: 0.10;' clip-path='url(#cpMjg4LjM5fDM2MC44NXwxNzkuOTB8MjEuOTk=)' />
<circle cx='297.85' cy='106.53' r='2.13' style='stroke-width: 0.00; stroke: #444444; stroke-opacity: 0.10; fill: #444444; fill-opacity: 0.10;' clip-path='url(#cpMjg4LjM5fDM2MC44NXwxNzkuOTB8MjEuOTk=)' />
<circle cx='301.91' cy='116.06' r='2.13' style='stroke-width: 0.00; stroke: #444444; stroke-opacity: 0.10; fill: #444444; fill-opacity: 0.10;' clip-path='url(#cpMjg4LjM5fDM2MC44NXwxNzkuOTB8MjEuOTk=)' />
<circle cx='292.76' cy='119.97' r='2.13' style='stroke-width: 0.00; stroke: #444444; stroke-opacity: 0.10; fill: #444444; fill-opacity: 0.10;' clip-path='url(#cpMjg4LjM5fDM2MC44NXwxNzkuOTB8MjEuOTk=)' />
<circle cx='301.56' cy='110.70' r='2.13' style='stroke-width: 0.00; stroke: #444444; stroke-opacity: 0.10; fill: #444444; fill-opacity: 0.10;' clip-path='url(#cpMjg4LjM5fDM2MC44NXwxNzkuOTB8MjEuOTk=)' />
<circle cx='298.17' cy='114.52' r='2.13' style='stroke-width: 0.00; stroke: #444444; stroke-opacity: 0.10; fill: #444444; fill-opacity: 0.10;' clip-path='url(#cpMjg4LjM5fDM2MC44NXwxNzkuOTB8MjEuOTk=)' />
<circle cx='330.73' cy='110.21' r='2.13' style='stroke-width: 0.00; stroke: #444444; stroke-opacity: 0.10; fill: #444444; fill-opacity: 0.10;' clip-path='url(#cpMjg4LjM5fDM2MC44NXwxNzkuOTB8MjEuOTk=)' />
<circle cx='296.16' cy='116.91' r='2.13' style='stroke-width: 0.00; stroke: #444444; stroke-opacity: 0.10; fill: #444444; fill-opacity: 0.10;' clip-path='url(#cpMjg4LjM5fDM2MC44NXwxNzkuOTB8MjEuOTk=)' />
<circle cx='300.96' cy='86.46' r='2.13' style='stroke-width: 0.00; stroke: #444444; stroke-opacity: 0.10; fill: #444444; fill-opacity: 0.10;' clip-path='url(#cpMjg4LjM5fDM2MC44NXwxNzkuOTB8MjEuOTk=)' />
<circle cx='297.56' cy='89.20' r='2.13' style='stroke-width: 0.00; stroke: #444444; stroke-opacity: 0.10; fill: #444444; fill-opacity: 0.10;' clip-path='url(#cpMjg4LjM5fDM2MC44NXwxNzkuOTB8MjEuOTk=)' />
<circle cx='322.86' cy='86.68' r='2.13' style='stroke-width: 0.00; stroke: #444444; stroke-opacity: 0.10; fill: #444444; fill-opacity: 0.10;' clip-path='url(#cpMjg4LjM5fDM2MC44NXwxNzkuOTB8MjEuOTk=)' />
<circle cx='345.97' cy='89.51' r='2.13' style='stroke-width: 0.00; stroke: #444444; stroke-opacity: 0.10; fill: #444444; fill-opacity: 0.10;' clip-path='url(#cpMjg4LjM5fDM2MC44NXwxNzkuOTB8MjEuOTk=)' />
<circle cx='355.99' cy='88.10' r='2.13' style='stroke-width: 0.00; stroke: #444444; stroke-opacity: 0.10; fill: #444444; fill-opacity: 0.10;' clip-path='url(#cpMjg4LjM5fDM2MC44NXwxNzkuOTB8MjEuOTk=)' />
<circle cx='294.98' cy='82.43' r='2.13' style='stroke-width: 0.00; stroke: #444444; stroke-opacity: 0.10; fill: #444444; fill-opacity: 0.10;' clip-path='url(#cpMjg4LjM5fDM2MC44NXwxNzkuOTB8MjEuOTk=)' />
<circle cx='294.39' cy='89.75' r='2.13' style='stroke-width: 0.00; stroke: #444444; stroke-opacity: 0.10; fill: #444444; fill-opacity: 0.10;' clip-path='url(#cpMjg4LjM5fDM2MC44NXwxNzkuOTB8MjEuOTk=)' />
<circle cx='348.89' cy='91.26' r='2.13' style='stroke-width: 0.00; stroke: #444444; stroke-opacity: 0.10; fill: #444444; fill-opacity: 0.10;' clip-path='url(#cpMjg4LjM5fDM2MC44NXwxNzkuOTB8MjEuOTk=)' />
<circle cx='303.10' cy='92.61' r='2.13' style='stroke-width: 0.00; stroke: #444444; stroke-opacity: 0.10; fill: #444444; fill-opacity: 0.10;' clip-path='url(#cpMjg4LjM5fDM2MC44NXwxNzkuOTB8MjEuOTk=)' />
<circle cx='300.44' cy='95.50' r='2.13' style='stroke-width: 0.00; stroke: #444444; stroke-opacity: 0.10; fill: #444444; fill-opacity: 0.10;' clip-path='url(#cpMjg4LjM5fDM2MC44NXwxNzkuOTB8MjEuOTk=)' />
<circle cx='292.93' cy='83.37' r='2.13' style='stroke-width: 0.00; stroke: #444444; stroke-opacity: 0.10; fill: #444444; fill-opacity: 0.10;' clip-path='url(#cpMjg4LjM5fDM2MC44NXwxNzkuOTB8MjEuOTk=)' />
<circle cx='309.62' cy='85.29' r='2.13' style='stroke-width: 0.00; stroke: #444444; stroke-opacity: 0.10; fill: #444444; fill-opacity: 0.10;' clip-path='url(#cpMjg4LjM5fDM2MC44NXwxNzkuOTB8MjEuOTk=)' />
<circle cx='355.45' cy='87.83' r='2.13' style='stroke-width: 0.00; stroke: #444444; stroke-opacity: 0.10; fill: #444444; fill-opacity: 0.10;' clip-path='url(#cpMjg4LjM5fDM2MC44NXwxNzkuOTB8MjEuOTk=)' />
<circle cx='294.99' cy='86.36' r='2.13' style='stroke-width: 0.00; stroke: #444444; stroke-opacity: 0.10; fill: #444444; fill-opacity: 0.10;' clip-path='url(#cpMjg4LjM5fDM2MC44NXwxNzkuOTB8MjEuOTk=)' />
<circle cx='345.80' cy='88.03' r='2.13' style='stroke-width: 0.00; stroke: #444444; stroke-opacity: 0.10; fill: #444444; fill-opacity: 0.10;' clip-path='url(#cpMjg4LjM5fDM2MC44NXwxNzkuOTB8MjEuOTk=)' />
<circle cx='296.85' cy='84.97' r='2.13' style='stroke-width: 0.00; stroke: #444444; stroke-opacity: 0.10; fill: #444444; fill-opacity: 0.10;' clip-path='url(#cpMjg4LjM5fDM2MC44NXwxNzkuOTB8MjEuOTk=)' />
<circle cx='348.49' cy='84.21' r='2.13' style='stroke-width: 0.00; stroke: #444444; stroke-opacity: 0.10; fill: #444444; fill-opacity: 0.10;' clip-path='url(#cpMjg4LjM5fDM2MC44NXwxNzkuOTB8MjEuOTk=)' />
<circle cx='303.27' cy='91.28' r='2.13' style='stroke-width: 0.00; stroke: #444444; stroke-opacity: 0.10; fill: #444444; fill-opacity: 0.10;' clip-path='url(#cpMjg4LjM5fDM2MC44NXwxNzkuOTB8MjEuOTk=)' />
<circle cx='298.33' cy='87.56' r='2.13' style='stroke-width: 0.00; stroke: #444444; stroke-opacity: 0.10; fill: #444444; fill-opacity: 0.10;' clip-path='url(#cpMjg4LjM5fDM2MC44NXwxNzkuOTB8MjEuOTk=)' />
<circle cx='298.23' cy='90.87' r='2.13' style='stroke-width: 0.00; stroke: #444444; stroke-opacity: 0.10; fill: #444444; fill-opacity: 0.10;' clip-path='url(#cpMjg4LjM5fDM2MC44NXwxNzkuOTB8MjEuOTk=)' />
<circle cx='301.94' cy='83.80' r='2.13' style='stroke-width: 0.00; stroke: #444444; stroke-opacity: 0.10; fill: #444444; fill-opacity: 0.10;' clip-path='url(#cpMjg4LjM5fDM2MC44NXwxNzkuOTB8MjEuOTk=)' />
<circle cx='292.47' cy='81.46' r='2.13' style='stroke-width: 0.00; stroke: #444444; stroke-opacity: 0.10; fill: #444444; fill-opacity: 0.10;' clip-path='url(#cpMjg4LjM5fDM2MC44NXwxNzkuOTB8MjEuOTk=)' />
<circle cx='356.16' cy='90.93' r='2.13' style='stroke-width: 0.00; stroke: #444444; stroke-opacity: 0.10; fill: #444444; fill-opacity: 0.10;' clip-path='url(#cpMjg4LjM5fDM2MC44NXwxNzkuOTB8MjEuOTk=)' />
<circle cx='301.66' cy='84.63' r='2.13' style='stroke-width: 0.00; stroke: #444444; stroke-opacity: 0.10; fill: #444444; fill-opacity: 0.10;' clip-path='url(#cpMjg4LjM5fDM2MC44NXwxNzkuOTB8MjEuOTk=)' />
<circle cx='356.80' cy='82.97' r='2.13' style='stroke-width: 0.00; stroke: #444444; stroke-opacity: 0.10; fill: #444444; fill-opacity: 0.10;' clip-path='url(#cpMjg4LjM5fDM2MC44NXwxNzkuOTB8MjEuOTk=)' />
<circle cx='300.54' cy='85.85' r='2.13' style='stroke-width: 0.00; stroke: #444444; stroke-opacity: 0.10; fill: #444444; fill-opacity: 0.10;' clip-path='url(#cpMjg4LjM5fDM2MC44NXwxNzkuOTB8MjEuOTk=)' />
<circle cx='299.62' cy='94.34' r='2.13' style='stroke-width: 0.00; stroke: #444444; stroke-opacity: 0.10; fill: #444444; fill-opacity: 0.10;' clip-path='url(#cpMjg4LjM5fDM2MC44NXwxNzkuOTB8MjEuOTk=)' />
<circle cx='298.41' cy='85.40' r='2.13' style='stroke-width: 0.00; stroke: #444444; stroke-opacity: 0.10; fill: #444444; fill-opacity: 0.10;' clip-path='url(#cpMjg4LjM5fDM2MC44NXwxNzkuOTB8MjEuOTk=)' />
<circle cx='301.10' cy='94.77' r='2.13' style='stroke-width: 0.00; stroke: #444444; stroke-opacity: 0.10; fill: #444444; fill-opacity: 0.10;' clip-path='url(#cpMjg4LjM5fDM2MC44NXwxNzkuOTB8MjEuOTk=)' />
<circle cx='301.89' cy='94.99' r='2.13' style='stroke-width: 0.00; stroke: #444444; stroke-opacity: 0.10; fill: #444444; fill-opacity: 0.10;' clip-path='url(#cpMjg4LjM5fDM2MC44NXwxNzkuOTB8MjEuOTk=)' />
<circle cx='293.40' cy='85.27' r='2.13' style='stroke-width: 0.00; stroke: #444444; stroke-opacity: 0.10; fill: #444444; fill-opacity: 0.10;' clip-path='url(#cpMjg4LjM5fDM2MC44NXwxNzkuOTB8MjEuOTk=)' />
<circle cx='322.29' cy='69.74' r='2.13' style='stroke-width: 0.00; stroke: #444444; stroke-opacity: 0.10; fill: #444444; fill-opacity: 0.10;' clip-path='url(#cpMjg4LjM5fDM2MC44NXwxNzkuOTB8MjEuOTk=)' />
<circle cx='294.90' cy='59.36' r='2.13' style='stroke-width: 0.00; stroke: #444444; stroke-opacity: 0.10; fill: #444444; fill-opacity: 0.10;' clip-path='url(#cpMjg4LjM5fDM2MC44NXwxNzkuOTB8MjEuOTk=)' />
<circle cx='322.45' cy='66.53' r='2.13' style='stroke-width: 0.00; stroke: #444444; stroke-opacity: 0.10; fill: #444444; fill-opacity: 0.10;' clip-path='url(#cpMjg4LjM5fDM2MC44NXwxNzkuOTB8MjEuOTk=)' />
<circle cx='356.02' cy='60.09' r='2.13' style='stroke-width: 0.00; stroke: #444444; stroke-opacity: 0.10; fill: #444444; fill-opacity: 0.10;' clip-path='url(#cpMjg4LjM5fDM2MC44NXwxNzkuOTB8MjEuOTk=)' />
<circle cx='307.22' cy='69.16' r='2.13' style='stroke-width: 0.00; stroke: #444444; stroke-opacity: 0.10; fill: #444444; fill-opacity: 0.10;' clip-path='url(#cpMjg4LjM5fDM2MC44NXwxNzkuOTB8MjEuOTk=)' />
<circle cx='355.56' cy='57.30' r='2.13' style='stroke-width: 0.00; stroke: #444444; stroke-opacity: 0.10; fill: #444444; fill-opacity: 0.10;' clip-path='url(#cpMjg4LjM5fDM2MC44NXwxNzkuOTB8MjEuOTk=)' />
<circle cx='320.54' cy='62.17' r='2.13' style='stroke-width: 0.00; stroke: #444444; stroke-opacity: 0.10; fill: #444444; fill-opacity: 0.10;' clip-path='url(#cpMjg4LjM5fDM2MC44NXwxNzkuOTB8MjEuOTk=)' />
<circle cx='315.07' cy='69.82' r='2.13' style='stroke-width: 0.00; stroke: #444444; stroke-opacity: 0.10; fill: #444444; fill-opacity: 0.10;' clip-path='url(#cpMjg4LjM5fDM2MC44NXwxNzkuOTB8MjEuOTk=)' />
<circle cx='327.46' cy='55.14' r='2.13' style='stroke-width: 0.00; stroke: #444444; stroke-opacity: 0.10; fill: #444444; fill-opacity: 0.10;' clip-path='url(#cpMjg4LjM5fDM2MC44NXwxNzkuOTB8MjEuOTk=)' />
<circle cx='319.91' cy='63.06' r='2.13' style='stroke-width: 0.00; stroke: #444444; stroke-opacity: 0.10; fill: #444444; fill-opacity: 0.10;' clip-path='url(#cpMjg4LjM5fDM2MC44NXwxNzkuOTB8MjEuOTk=)' />
<circle cx='327.49' cy='66.80' r='2.13' style='stroke-width: 0.00; stroke: #444444; stroke-opacity: 0.10; fill: #444444; fill-opacity: 0.10;' clip-path='url(#cpMjg4LjM5fDM2MC44NXwxNzkuOTB8MjEuOTk=)' />
<circle cx='328.23' cy='57.64' r='2.13' style='stroke-width: 0.00; stroke: #444444; stroke-opacity: 0.10; fill: #444444; fill-opacity: 0.10;' clip-path='url(#cpMjg4LjM5fDM2MC44NXwxNzkuOTB8MjEuOTk=)' />
<circle cx='342.82' cy='59.91' r='2.13' style='stroke-width: 0.00; stroke: #444444; stroke-opacity: 0.10; fill: #444444; fill-opacity: 0.10;' clip-path='url(#cpMjg4LjM5fDM2MC44NXwxNzkuOTB8MjEuOTk=)' />
<circle cx='309.58' cy='55.68' r='2.13' style='stroke-width: 0.00; stroke: #444444; stroke-opacity: 0.10; fill: #444444; fill-opacity: 0.10;' clip-path='url(#cpMjg4LjM5fDM2MC44NXwxNzkuOTB8MjEuOTk=)' />
<circle cx='324.03' cy='57.99' r='2.13' style='stroke-width: 0.00; stroke: #444444; stroke-opacity: 0.10; fill: #444444; fill-opacity: 0.10;' clip-path='url(#cpMjg4LjM5fDM2MC44NXwxNzkuOTB8MjEuOTk=)' />
<circle cx='330.77' cy='67.21' r='2.13' style='stroke-width: 0.00; stroke: #444444; stroke-opacity: 0.10; fill: #444444; fill-opacity: 0.10;' clip-path='url(#cpMjg4LjM5fDM2MC44NXwxNzkuOTB8MjEuOTk=)' />
<circle cx='320.33' cy='65.33' r='2.13' style='stroke-width: 0.00; stroke: #444444; stroke-opacity: 0.10; fill: #444444; fill-opacity: 0.10;' clip-path='url(#cpMjg4LjM5fDM2MC44NXwxNzkuOTB8MjEuOTk=)' />
<circle cx='326.99' cy='67.98' r='2.13' style='stroke-width: 0.00; stroke: #444444; stroke-opacity: 0.10; fill: #444444; fill-opacity: 0.10;' clip-path='url(#cpMjg4LjM5fDM2MC44NXwxNzkuOTB8MjEuOTk=)' />
<circle cx='336.10' cy='68.09' r='2.13' style='stroke-width: 0.00; stroke: #444444; stroke-opacity: 0.10; fill: #444444; fill-opacity: 0.10;' clip-path='url(#cpMjg4LjM5fDM2MC44NXwxNzkuOTB8MjEuOTk=)' />
<circle cx='328.09' cy='66.19' r='2.13' style='stroke-width: 0.00; stroke: #444444; stroke-opacity: 0.10; fill: #444444; fill-opacity: 0.10;' clip-path='url(#cpMjg4LjM5fDM2MC44NXwxNzkuOTB8MjEuOTk=)' />
<circle cx='326.98' cy='60.22' r='2.13' style='stroke-width: 0.00; stroke: #444444; stroke-opacity: 0.10; fill: #444444; fill-opacity: 0.10;' clip-path='url(#cpMjg4LjM5fDM2MC44NXwxNzkuOTB8MjEuOTk=)' />
<circle cx='342.92' cy='58.09' r='2.13' style='stroke-width: 0.00; stroke: #444444; stroke-opacity: 0.10; fill: #444444; fill-opacity: 0.10;' clip-path='url(#cpMjg4LjM5fDM2MC44NXwxNzkuOTB8MjEuOTk=)' />
<circle cx='357.55' cy='63.04' r='2.13' style='stroke-width: 0.00; stroke: #444444; stroke-opacity: 0.10; fill: #444444; fill-opacity: 0.10;' clip-path='url(#cpMjg4LjM5fDM2MC44NXwxNzkuOTB8MjEuOTk=)' />
<circle cx='342.60' cy='65.57' r='2.13' style='stroke-width: 0.00; stroke: #444444; stroke-opacity: 0.10; fill: #444444; fill-opacity: 0.10;' clip-path='url(#cpMjg4LjM5fDM2MC44NXwxNzkuOTB8MjEuOTk=)' />
<circle cx='332.38' cy='55.73' r='2.13' style='stroke-width: 0.00; stroke: #444444; stroke-opacity: 0.10; fill: #444444; fill-opacity: 0.10;' clip-path='url(#cpMjg4LjM5fDM2MC44NXwxNzkuOTB8MjEuOTk=)' />
<circle cx='322.56' cy='35.03' r='2.13' style='stroke-width: 0.00; stroke: #444444; stroke-opacity: 0.10; fill: #444444; fill-opacity: 0.10;' clip-path='url(#cpMjg4LjM5fDM2MC44NXwxNzkuOTB8MjEuOTk=)' />
<circle cx='311.13' cy='37.88' r='2.13' style='stroke-width: 0.00; stroke: #444444; stroke-opacity: 0.10; fill: #444444; fill-opacity: 0.10;' clip-path='url(#cpMjg4LjM5fDM2MC44NXwxNzkuOTB8MjEuOTk=)' />
<circle cx='291.83' cy='31.53' r='2.13' style='stroke-width: 0.00; stroke: #444444; stroke-opacity: 0.10; fill: #444444; fill-opacity: 0.10;' clip-path='url(#cpMjg4LjM5fDM2MC44NXwxNzkuOTB8MjEuOTk=)' />
<circle cx='339.89' cy='37.39' r='2.13' style='stroke-width: 0.00; stroke: #444444; stroke-opacity: 0.10; fill: #444444; fill-opacity: 0.10;' clip-path='url(#cpMjg4LjM5fDM2MC44NXwxNzkuOTB8MjEuOTk=)' />
<circle cx='311.69' cy='31.35' r='2.13' style='stroke-width: 0.00; stroke: #444444; stroke-opacity: 0.10; fill: #444444; fill-opacity: 0.10;' clip-path='url(#cpMjg4LjM5fDM2MC44NXwxNzkuOTB8MjEuOTk=)' />
<circle cx='353.69' cy='37.74' r='2.13' style='stroke-width: 0.00; stroke: #444444; stroke-opacity: 0.10; fill: #444444; fill-opacity: 0.10;' clip-path='url(#cpMjg4LjM5fDM2MC44NXwxNzkuOTB8MjEuOTk=)' />
<circle cx='329.45' cy='41.64' r='2.13' style='stroke-width: 0.00; stroke: #444444; stroke-opacity: 0.10; fill: #444444; fill-opacity: 0.10;' clip-path='url(#cpMjg4LjM5fDM2MC44NXwxNzkuOTB8MjEuOTk=)' />
<circle cx='308.26' cy='35.32' r='2.13' style='stroke-width: 0.00; stroke: #444444; stroke-opacity: 0.10; fill: #444444; fill-opacity: 0.10;' clip-path='url(#cpMjg4LjM5fDM2MC44NXwxNzkuOTB8MjEuOTk=)' />
<circle cx='340.71' cy='36.10' r='2.13' style='stroke-width: 0.00; stroke: #444444; stroke-opacity: 0.10; fill: #444444; fill-opacity: 0.10;' clip-path='url(#cpMjg4LjM5fDM2MC44NXwxNzkuOTB8MjEuOTk=)' />
<circle cx='320.86' cy='29.16' r='2.13' style='stroke-width: 0.00; stroke: #444444; stroke-opacity: 0.10; fill: #444444; fill-opacity: 0.10;' clip-path='url(#cpMjg4LjM5fDM2MC44NXwxNzkuOTB8MjEuOTk=)' />
<circle cx='328.45' cy='34.49' r='2.13' style='stroke-width: 0.00; stroke: #444444; stroke-opacity: 0.10; fill: #444444; fill-opacity: 0.10;' clip-path='url(#cpMjg4LjM5fDM2MC44NXwxNzkuOTB8MjEuOTk=)' />
<circle cx='337.11' cy='36.15' r='2.13' style='stroke-width: 0.00; stroke: #444444; stroke-opacity: 0.10; fill: #444444; fill-opacity: 0.10;' clip-path='url(#cpMjg4LjM5fDM2MC44NXwxNzkuOTB8MjEuOTk=)' />
<circle cx='302.32' cy='33.41' r='2.13' style='stroke-width: 0.00; stroke: #444444; stroke-opacity: 0.10; fill: #444444; fill-opacity: 0.10;' clip-path='url(#cpMjg4LjM5fDM2MC44NXwxNzkuOTB8MjEuOTk=)' />
<circle cx='321.51' cy='37.43' r='2.13' style='stroke-width: 0.00; stroke: #444444; stroke-opacity: 0.10; fill: #444444; fill-opacity: 0.10;' clip-path='url(#cpMjg4LjM5fDM2MC44NXwxNzkuOTB8MjEuOTk=)' />
<circle cx='311.25' cy='42.43' r='2.13' style='stroke-width: 0.00; stroke: #444444; stroke-opacity: 0.10; fill: #444444; fill-opacity: 0.10;' clip-path='url(#cpMjg4LjM5fDM2MC44NXwxNzkuOTB8MjEuOTk=)' />
<circle cx='316.69' cy='42.93' r='2.13' style='stroke-width: 0.00; stroke: #444444; stroke-opacity: 0.10; fill: #444444; fill-opacity: 0.10;' clip-path='url(#cpMjg4LjM5fDM2MC44NXwxNzkuOTB8MjEuOTk=)' />
<circle cx='328.35' cy='31.78' r='2.13' style='stroke-width: 0.00; stroke: #444444; stroke-opacity: 0.10; fill: #444444; fill-opacity: 0.10;' clip-path='url(#cpMjg4LjM5fDM2MC44NXwxNzkuOTB8MjEuOTk=)' />
<circle cx='306.87' cy='30.62' r='2.13' style='stroke-width: 0.00; stroke: #444444; stroke-opacity: 0.10; fill: #444444; fill-opacity: 0.10;' clip-path='url(#cpMjg4LjM5fDM2MC44NXwxNzkuOTB8MjEuOTk=)' />
<circle cx='321.97' cy='41.02' r='2.13' style='stroke-width: 0.00; stroke: #444444; stroke-opacity: 0.10; fill: #444444; fill-opacity: 0.10;' clip-path='url(#cpMjg4LjM5fDM2MC44NXwxNzkuOTB8MjEuOTk=)' />
<circle cx='298.01' cy='30.68' r='2.13' style='stroke-width: 0.00; stroke: #444444; stroke-opacity: 0.10; fill: #444444; fill-opacity: 0.10;' clip-path='url(#cpMjg4LjM5fDM2MC44NXwxNzkuOTB8MjEuOTk=)' />
<circle cx='350.77' cy='29.81' r='2.13' style='stroke-width: 0.00; stroke: #444444; stroke-opacity: 0.10; fill: #444444; fill-opacity: 0.10;' clip-path='url(#cpMjg4LjM5fDM2MC44NXwxNzkuOTB8MjEuOTk=)' />
<circle cx='324.56' cy='38.20' r='2.13' style='stroke-width: 0.00; stroke: #444444; stroke-opacity: 0.10; fill: #444444; fill-opacity: 0.10;' clip-path='url(#cpMjg4LjM5fDM2MC44NXwxNzkuOTB8MjEuOTk=)' />
<circle cx='339.71' cy='34.59' r='2.13' style='stroke-width: 0.00; stroke: #444444; stroke-opacity: 0.10; fill: #444444; fill-opacity: 0.10;' clip-path='url(#cpMjg4LjM5fDM2MC44NXwxNzkuOTB8MjEuOTk=)' />
<circle cx='327.47' cy='42.95' r='2.13' style='stroke-width: 0.00; stroke: #444444; stroke-opacity: 0.10; fill: #444444; fill-opacity: 0.10;' clip-path='url(#cpMjg4LjM5fDM2MC44NXwxNzkuOTB8MjEuOTk=)' />
<circle cx='318.85' cy='35.65' r='2.13' style='stroke-width: 0.00; stroke: #444444; stroke-opacity: 0.10; fill: #444444; fill-opacity: 0.10;' clip-path='url(#cpMjg4LjM5fDM2MC44NXwxNzkuOTB8MjEuOTk=)' />
<circle cx='342.37' cy='31.07' r='2.13' style='stroke-width: 0.00; stroke: #444444; stroke-opacity: 0.10; fill: #444444; fill-opacity: 0.10;' clip-path='url(#cpMjg4LjM5fDM2MC44NXwxNzkuOTB8MjEuOTk=)' />
<circle cx='300.92' cy='37.19' r='2.13' style='stroke-width: 0.00; stroke: #444444; stroke-opacity: 0.10; fill: #444444; fill-opacity: 0.10;' clip-path='url(#cpMjg4LjM5fDM2MC44NXwxNzkuOTB8MjEuOTk=)' />
<circle cx='324.32' cy='34.61' r='2.13' style='stroke-width: 0.00; stroke: #444444; stroke-opacity: 0.10; fill: #444444; fill-opacity: 0.10;' clip-path='url(#cpMjg4LjM5fDM2MC44NXwxNzkuOTB8MjEuOTk=)' />
<polygon points='296.30,165.44 308.78,169.31 321.26,165.44 308.78,161.57 296.30,165.44 ' style='stroke-width: 1.07; stroke: #524655; fill: #524655;' clip-path='url(#cpMjg4LjM5fDM2MC44NXwxNzkuOTB8MjEuOTk=)' />
<polygon points='309.26,139.63 330.22,143.50 351.18,139.63 330.22,135.76 309.26,139.63 ' style='stroke-width: 1.07; stroke: #4C2754; fill: #4C2754;' clip-path='url(#cpMjg4LjM5fDM2MC44NXwxNzkuOTB8MjEuOTk=)' />
<polygon points='292.86,113.83 306.37,117.70 319.88,113.83 306.37,109.95 292.86,113.83 ' style='stroke-width: 1.07; stroke: #534955; fill: #534955;' clip-path='url(#cpMjg4LjM5fDM2MC44NXwxNzkuOTB8MjEuOTk=)' />
<polygon points='293.80,88.02 312.97,91.89 332.14,88.02 312.97,84.15 293.80,88.02 ' style='stroke-width: 1.07; stroke: #514055; fill: #514055;' clip-path='url(#cpMjg4LjM5fDM2MC44NXwxNzkuOTB8MjEuOTk=)' />
<polygon points='315.78,62.21 327.96,66.08 340.14,62.21 327.96,58.34 315.78,62.21 ' style='stroke-width: 1.07; stroke: #4D2B55; fill: #4D2B55;' clip-path='url(#cpMjg4LjM5fDM2MC44NXwxNzkuOTB8MjEuOTk=)' />
<polygon points='309.25,36.40 322.31,40.27 335.37,36.40 322.31,32.53 309.25,36.40 ' style='stroke-width: 1.07; stroke: #4F3455; fill: #4F3455;' clip-path='url(#cpMjg4LjM5fDM2MC44NXwxNzkuOTB8MjEuOTk=)' />
<rect x='288.39' y='21.99' width='72.46' height='157.91' style='stroke-width: 0.78; stroke: #333333;' clip-path='url(#cpMjg4LjM5fDM2MC44NXwxNzkuOTB8MjEuOTk=)' />
<defs>
  <clipPath id='cpMC4wMHw1MTAuMjR8MjAyLjM5fDAuMDA='>
    <rect x='0.00' y='0.00' width='510.24' height='202.39' />
  </clipPath>
</defs>
<g clip-path='url(#cpMC4wMHw1MTAuMjR8MjAyLjM5fDAuMDA=)'><text x='239.98' y='167.73' style='font-size: 6.40px; fill: #4D4D4D; font-family: Arial;' textLength='44.83px' lengthAdjust='spacingAndGlyphs'>certainly not die</text></g>
<g clip-path='url(#cpMC4wMHw1MTAuMjR8MjAyLjM5fDAuMDA=)'><text x='243.18' y='138.47' style='font-size: 6.40px; fill: #4D4D4D; font-family: Arial;' textLength='41.62px' lengthAdjust='spacingAndGlyphs'>not particularly</text></g>
<g clip-path='url(#cpMC4wMHw1MTAuMjR8MjAyLjM5fDAuMDA=)'><text x='258.83' y='145.38' style='font-size: 6.40px; fill: #4D4D4D; font-family: Arial;' textLength='25.97px' lengthAdjust='spacingAndGlyphs'>desirable</text></g>
<g clip-path='url(#cpMC4wMHw1MTAuMjR8MjAyLjM5fDAuMDA=)'><text x='229.29' y='109.20' style='font-size: 6.40px; fill: #4D4D4D; font-family: Arial;' textLength='55.51px' lengthAdjust='spacingAndGlyphs'>can happen without</text></g>
<g clip-path='url(#cpMC4wMHw1MTAuMjR8MjAyLjM5fDAuMDA=)'><text x='217.21' y='116.12' style='font-size: 6.40px; fill: #4D4D4D; font-family: Arial;' textLength='67.59px' lengthAdjust='spacingAndGlyphs'>physical contact with an</text></g>
<g clip-path='url(#cpMC4wMHw1MTAuMjR8MjAyLjM5fDAuMDA=)'><text x='241.04' y='123.03' style='font-size: 6.40px; fill: #4D4D4D; font-family: Arial;' textLength='43.76px' lengthAdjust='spacingAndGlyphs'>infected person</text></g>
<g clip-path='url(#cpMC4wMHw1MTAuMjR8MjAyLjM5fDAuMDA=)'><text x='212.58' y='83.40' style='font-size: 6.40px; fill: #4D4D4D; font-family: Arial;' textLength='72.23px' lengthAdjust='spacingAndGlyphs'>can happen regardless of</text></g>
<g clip-path='url(#cpMC4wMHw1MTAuMjR8MjAyLjM5fDAuMDA=)'><text x='216.14' y='90.31' style='font-size: 6.40px; fill: #4D4D4D; font-family: Arial;' textLength='68.67px' lengthAdjust='spacingAndGlyphs'>whether that person has</text></g>
<g clip-path='url(#cpMC4wMHw1MTAuMjR8MjAyLjM5fDAuMDA=)'><text x='255.64' y='97.22' style='font-size: 6.40px; fill: #4D4D4D; font-family: Arial;' textLength='29.16px' lengthAdjust='spacingAndGlyphs'>symptoms</text></g>
<g clip-path='url(#cpMC4wMHw1MTAuMjR8MjAyLjM5fDAuMDA=)'><text x='249.23' y='64.50' style='font-size: 6.40px; fill: #4D4D4D; font-family: Arial;' textLength='35.58px' lengthAdjust='spacingAndGlyphs'>not up to me</text></g>
<g clip-path='url(#cpMC4wMHw1MTAuMjR8MjAyLjM5fDAuMDA=)'><text x='222.18' y='35.24' style='font-size: 6.40px; fill: #4D4D4D; font-family: Arial;' textLength='62.62px' lengthAdjust='spacingAndGlyphs'>certainly not end up in</text></g>
<g clip-path='url(#cpMC4wMHw1MTAuMjR8MjAyLjM5fDAuMDA=)'><text x='257.41' y='42.15' style='font-size: 6.40px; fill: #4D4D4D; font-family: Arial;' textLength='27.40px' lengthAdjust='spacingAndGlyphs'>a hospital</text></g>
<polyline points='286.40,165.44 288.39,165.44 ' style='stroke-width: 0.78; stroke: #333333; stroke-linecap: butt;' clip-path='url(#cpMC4wMHw1MTAuMjR8MjAyLjM5fDAuMDA=)' />
<polyline points='286.40,139.63 288.39,139.63 ' style='stroke-width: 0.78; stroke: #333333; stroke-linecap: butt;' clip-path='url(#cpMC4wMHw1MTAuMjR8MjAyLjM5fDAuMDA=)' />
<polyline points='286.40,113.83 288.39,113.83 ' style='stroke-width: 0.78; stroke: #333333; stroke-linecap: butt;' clip-path='url(#cpMC4wMHw1MTAuMjR8MjAyLjM5fDAuMDA=)' />
<polyline points='286.40,88.02 288.39,88.02 ' style='stroke-width: 0.78; stroke: #333333; stroke-linecap: butt;' clip-path='url(#cpMC4wMHw1MTAuMjR8MjAyLjM5fDAuMDA=)' />
<polyline points='286.40,62.21 288.39,62.21 ' style='stroke-width: 0.78; stroke: #333333; stroke-linecap: butt;' clip-path='url(#cpMC4wMHw1MTAuMjR8MjAyLjM5fDAuMDA=)' />
<polyline points='286.40,36.40 288.39,36.40 ' style='stroke-width: 0.78; stroke: #333333; stroke-linecap: butt;' clip-path='url(#cpMC4wMHw1MTAuMjR8MjAyLjM5fDAuMDA=)' />
<polyline points='360.85,165.51 362.84,165.51 ' style='stroke-width: 0.78; stroke: #333333; stroke-linecap: butt;' clip-path='url(#cpMC4wMHw1MTAuMjR8MjAyLjM5fDAuMDA=)' />
<polyline points='360.85,139.59 362.84,139.59 ' style='stroke-width: 0.78; stroke: #333333; stroke-linecap: butt;' clip-path='url(#cpMC4wMHw1MTAuMjR8MjAyLjM5fDAuMDA=)' />
<polyline points='360.85,113.82 362.84,113.82 ' style='stroke-width: 0.78; stroke: #333333; stroke-linecap: butt;' clip-path='url(#cpMC4wMHw1MTAuMjR8MjAyLjM5fDAuMDA=)' />
<polyline points='360.85,88.06 362.84,88.06 ' style='stroke-width: 0.78; stroke: #333333; stroke-linecap: butt;' clip-path='url(#cpMC4wMHw1MTAuMjR8MjAyLjM5fDAuMDA=)' />
<polyline points='360.85,62.13 362.84,62.13 ' style='stroke-width: 0.78; stroke: #333333; stroke-linecap: butt;' clip-path='url(#cpMC4wMHw1MTAuMjR8MjAyLjM5fDAuMDA=)' />
<polyline points='360.85,36.37 362.84,36.37 ' style='stroke-width: 0.78; stroke: #333333; stroke-linecap: butt;' clip-path='url(#cpMC4wMHw1MTAuMjR8MjAyLjM5fDAuMDA=)' />
<g clip-path='url(#cpMC4wMHw1MTAuMjR8MjAyLjM5fDAuMDA=)'><text x='364.43' y='167.80' style='font-size: 6.40px; fill: #4D4D4D; font-family: Arial;' textLength='34.15px' lengthAdjust='spacingAndGlyphs'>certainly die</text></g>
<g clip-path='url(#cpMC4wMHw1MTAuMjR8MjAyLjM5fDAuMDA=)'><text x='364.43' y='141.88' style='font-size: 6.40px; fill: #4D4D4D; font-family: Arial;' textLength='55.49px' lengthAdjust='spacingAndGlyphs'>extremely desirable</text></g>
<g clip-path='url(#cpMC4wMHw1MTAuMjR8MjAyLjM5fDAuMDA=)'><text x='364.43' y='109.20' style='font-size: 6.40px; fill: #4D4D4D; font-family: Arial;' textLength='69.36px' lengthAdjust='spacingAndGlyphs'>always requires physical</text></g>
<g clip-path='url(#cpMC4wMHw1MTAuMjR8MjAyLjM5fDAuMDA=)'><text x='364.43' y='116.11' style='font-size: 6.40px; fill: #4D4D4D; font-family: Arial;' textLength='66.88px' lengthAdjust='spacingAndGlyphs'>contact with an infected</text></g>
<g clip-path='url(#cpMC4wMHw1MTAuMjR8MjAyLjM5fDAuMDA=)'><text x='364.43' y='123.03' style='font-size: 6.40px; fill: #4D4D4D; font-family: Arial;' textLength='19.57px' lengthAdjust='spacingAndGlyphs'>person</text></g>
<g clip-path='url(#cpMC4wMHw1MTAuMjR8MjAyLjM5fDAuMDA=)'><text x='364.43' y='86.89' style='font-size: 6.40px; fill: #4D4D4D; font-family: Arial;' textLength='60.83px' lengthAdjust='spacingAndGlyphs'>is only possible if that</text></g>
<g clip-path='url(#cpMC4wMHw1MTAuMjR8MjAyLjM5fDAuMDA=)'><text x='364.43' y='93.80' style='font-size: 6.40px; fill: #4D4D4D; font-family: Arial;' textLength='62.60px' lengthAdjust='spacingAndGlyphs'>person has symptoms</text></g>
<g clip-path='url(#cpMC4wMHw1MTAuMjR8MjAyLjM5fDAuMDA=)'><text x='364.43' y='64.43' style='font-size: 6.40px; fill: #4D4D4D; font-family: Arial;' textLength='57.27px' lengthAdjust='spacingAndGlyphs'>completely up to me</text></g>
<g clip-path='url(#cpMC4wMHw1MTAuMjR8MjAyLjM5fDAuMDA=)'><text x='364.43' y='35.20' style='font-size: 6.40px; fill: #4D4D4D; font-family: Arial;' textLength='57.28px' lengthAdjust='spacingAndGlyphs'>certainly end up in a</text></g>
<g clip-path='url(#cpMC4wMHw1MTAuMjR8MjAyLjM5fDAuMDA=)'><text x='364.43' y='42.12' style='font-size: 6.40px; fill: #4D4D4D; font-family: Arial;' textLength='22.06px' lengthAdjust='spacingAndGlyphs'>hospital</text></g>
<polyline points='297.74,181.89 297.74,179.90 ' style='stroke-width: 0.78; stroke: #333333; stroke-linecap: butt;' clip-path='url(#cpMC4wMHw1MTAuMjR8MjAyLjM5fDAuMDA=)' />
<polyline points='311.23,181.89 311.23,179.90 ' style='stroke-width: 0.78; stroke: #333333; stroke-linecap: butt;' clip-path='url(#cpMC4wMHw1MTAuMjR8MjAyLjM5fDAuMDA=)' />
<polyline points='324.72,181.89 324.72,179.90 ' style='stroke-width: 0.78; stroke: #333333; stroke-linecap: butt;' clip-path='url(#cpMC4wMHw1MTAuMjR8MjAyLjM5fDAuMDA=)' />
<polyline points='338.21,181.89 338.21,179.90 ' style='stroke-width: 0.78; stroke: #333333; stroke-linecap: butt;' clip-path='url(#cpMC4wMHw1MTAuMjR8MjAyLjM5fDAuMDA=)' />
<polyline points='351.71,181.89 351.71,179.90 ' style='stroke-width: 0.78; stroke: #333333; stroke-linecap: butt;' clip-path='url(#cpMC4wMHw1MTAuMjR8MjAyLjM5fDAuMDA=)' />
<g clip-path='url(#cpMC4wMHw1MTAuMjR8MjAyLjM5fDAuMDA=)'><text x='295.96' y='188.06' style='font-size: 6.40px; fill: #4D4D4D; font-family: Arial;' textLength='3.56px' lengthAdjust='spacingAndGlyphs'>1</text></g>
<g clip-path='url(#cpMC4wMHw1MTAuMjR8MjAyLjM5fDAuMDA=)'><text x='309.45' y='188.06' style='font-size: 6.40px; fill: #4D4D4D; font-family: Arial;' textLength='3.56px' lengthAdjust='spacingAndGlyphs'>2</text></g>
<g clip-path='url(#cpMC4wMHw1MTAuMjR8MjAyLjM5fDAuMDA=)'><text x='322.94' y='188.06' style='font-size: 6.40px; fill: #4D4D4D; font-family: Arial;' textLength='3.56px' lengthAdjust='spacingAndGlyphs'>3</text></g>
<g clip-path='url(#cpMC4wMHw1MTAuMjR8MjAyLjM5fDAuMDA=)'><text x='336.43' y='188.06' style='font-size: 6.40px; fill: #4D4D4D; font-family: Arial;' textLength='3.56px' lengthAdjust='spacingAndGlyphs'>4</text></g>
<g clip-path='url(#cpMC4wMHw1MTAuMjR8MjAyLjM5fDAuMDA=)'><text x='349.93' y='188.06' style='font-size: 6.40px; fill: #4D4D4D; font-family: Arial;' textLength='3.56px' lengthAdjust='spacingAndGlyphs'>5</text></g>
<g clip-path='url(#cpMC4wMHw1MTAuMjR8MjAyLjM5fDAuMDA=)'><text x='282.59' y='196.91' style='font-size: 8.00px; font-family: Arial;' textLength='84.05px' lengthAdjust='spacingAndGlyphs'>Scores and 99.99% CIs</text></g>
<defs>
  <clipPath id='cpMC4wMHwyMDguNTl8MTc5LjkwfDIxLjk5'>
    <rect x='0.00' y='21.99' width='208.59' height='157.91' />
  </clipPath>
</defs>
<defs>
  <clipPath id='cpMC4wMHw1MTAuMjR8MjAyLjM5fDAuMDA='>
    <rect x='0.00' y='0.00' width='510.24' height='202.39' />
  </clipPath>
</defs>
<g clip-path='url(#cpMC4wMHw1MTAuMjR8MjAyLjM5fDAuMDA=)'><text x='3.59' y='164.21' style='font-size: 8.00px; font-family: Arial;' textLength='154.73px' lengthAdjust='spacingAndGlyphs'>If I get infected with the coronavirus, I will ...</text></g>
<g clip-path='url(#cpMC4wMHw1MTAuMjR8MjAyLjM5fDAuMDA=)'><text x='3.59' y='172.85' style='font-size: 8.00px; font-family: Arial;' textLength='64.48px' lengthAdjust='spacingAndGlyphs'>[GenExDie_clean]</text></g>
<g clip-path='url(#cpMC4wMHw1MTAuMjR8MjAyLjM5fDAuMDA=)'><text x='3.59' y='138.29' style='font-size: 8.00px; font-family: Arial;' textLength='174.77px' lengthAdjust='spacingAndGlyphs'>For me, avoiding that I end up in the hospital is ...</text></g>
<g clip-path='url(#cpMC4wMHw1MTAuMjR8MjAyLjM5fDAuMDA=)'><text x='3.59' y='146.93' style='font-size: 8.00px; font-family: Arial;' textLength='85.83px' lengthAdjust='spacingAndGlyphs'>[GenEvHospital2_clean]</text></g>
<g clip-path='url(#cpMC4wMHw1MTAuMjR8MjAyLjM5fDAuMDA=)'><text x='3.59' y='112.52' style='font-size: 8.00px; font-family: Arial;' textLength='132.52px' lengthAdjust='spacingAndGlyphs'>Getting infected by the coronavirus ...</text></g>
<g clip-path='url(#cpMC4wMHw1MTAuMjR8MjAyLjM5fDAuMDA=)'><text x='3.59' y='121.16' style='font-size: 8.00px; font-family: Arial;' textLength='93.39px' lengthAdjust='spacingAndGlyphs'>[genInfctReqTouch_clean]</text></g>
<g clip-path='url(#cpMC4wMHw1MTAuMjR8MjAyLjM5fDAuMDA=)'><text x='3.59' y='86.76' style='font-size: 8.00px; font-family: Arial;' textLength='205.00px' lengthAdjust='spacingAndGlyphs'>Getting infected with the coronavirus by another person ...</text></g>
<g clip-path='url(#cpMC4wMHw1MTAuMjR8MjAyLjM5fDAuMDA=)'><text x='3.59' y='95.40' style='font-size: 8.00px; font-family: Arial;' textLength='93.83px' lengthAdjust='spacingAndGlyphs'>[genInfctReqSympt_clean]</text></g>
<g clip-path='url(#cpMC4wMHw1MTAuMjR8MjAyLjM5fDAuMDA=)'><text x='3.59' y='60.84' style='font-size: 8.00px; font-family: Arial;' textLength='139.17px' lengthAdjust='spacingAndGlyphs'>Whether I contract the coronavirus is ...</text></g>
<g clip-path='url(#cpMC4wMHw1MTAuMjR8MjAyLjM5fDAuMDA=)'><text x='3.59' y='69.48' style='font-size: 8.00px; font-family: Arial;' textLength='71.60px' lengthAdjust='spacingAndGlyphs'>[genContract_clean]</text></g>
<g clip-path='url(#cpMC4wMHw1MTAuMjR8MjAyLjM5fDAuMDA=)'><text x='3.59' y='35.07' style='font-size: 8.00px; font-family: Arial;' textLength='154.73px' lengthAdjust='spacingAndGlyphs'>If I get infected with the coronavirus, I will ...</text></g>
<g clip-path='url(#cpMC4wMHw1MTAuMjR8MjAyLjM5fDAuMDA=)'><text x='3.59' y='43.71' style='font-size: 8.00px; font-family: Arial;' textLength='81.38px' lengthAdjust='spacingAndGlyphs'>[GenExHospital_clean]</text></g>
<defs>
  <clipPath id='cpMC4wMHwyMDguNTl8MTc5LjkwfDIxLjk5'>
    <rect x='0.00' y='21.99' width='208.59' height='157.91' />
  </clipPath>
</defs>
<defs>
  <clipPath id='cpMC4wMHw1MTAuMjR8MjAyLjM5fDAuMDA='>
    <rect x='0.00' y='0.00' width='510.24' height='202.39' />
  </clipPath>
</defs>
<defs>
  <clipPath id='cpNDM3Ljc4fDUxMC4yNHwyMDIuMzl8MTguMDA='>
    <rect x='437.78' y='18.00' width='72.46' height='184.39' />
  </clipPath>
</defs>
<rect x='437.78' y='18.00' width='72.46' height='184.39' style='stroke-width: 0.78; stroke: #FFFFFF; fill: #FFFFFF;' clip-path='url(#cpNDM3Ljc4fDUxMC4yNHwyMDIuMzl8MTguMDA=)' />
<defs>
  <clipPath id='cpNDQxLjc3fDUwNi4yNXwxNzkuOTB8MjEuOTk='>
    <rect x='441.77' y='21.99' width='64.49' height='157.91' />
  </clipPath>
</defs>
<rect x='441.77' y='21.99' width='64.49' height='157.91' style='stroke-width: 0.78; stroke: none; fill: #FFFFFF;' clip-path='url(#cpNDQxLjc3fDUwNi4yNXwxNzkuOTB8MjEuOTk=)' />
<polyline points='452.02,179.90 452.02,21.99 ' style='stroke-width: 0.39; stroke: #EBEBEB; stroke-linecap: butt;' clip-path='url(#cpNDQxLjc3fDUwNi4yNXwxNzkuOTB8MjEuOTk=)' />
<polyline points='466.68,179.90 466.68,21.99 ' style='stroke-width: 0.39; stroke: #EBEBEB; stroke-linecap: butt;' clip-path='url(#cpNDQxLjc3fDUwNi4yNXwxNzkuOTB8MjEuOTk=)' />
<polyline points='481.34,179.90 481.34,21.99 ' style='stroke-width: 0.39; stroke: #EBEBEB; stroke-linecap: butt;' clip-path='url(#cpNDQxLjc3fDUwNi4yNXwxNzkuOTB8MjEuOTk=)' />
<polyline points='495.99,179.90 495.99,21.99 ' style='stroke-width: 0.39; stroke: #EBEBEB; stroke-linecap: butt;' clip-path='url(#cpNDQxLjc3fDUwNi4yNXwxNzkuOTB8MjEuOTk=)' />
<polyline points='444.70,179.90 444.70,21.99 ' style='stroke-width: 0.78; stroke: #EBEBEB; stroke-linecap: butt;' clip-path='url(#cpNDQxLjc3fDUwNi4yNXwxNzkuOTB8MjEuOTk=)' />
<polyline points='459.35,179.90 459.35,21.99 ' style='stroke-width: 0.78; stroke: #EBEBEB; stroke-linecap: butt;' clip-path='url(#cpNDQxLjc3fDUwNi4yNXwxNzkuOTB8MjEuOTk=)' />
<polyline points='474.01,179.90 474.01,21.99 ' style='stroke-width: 0.78; stroke: #EBEBEB; stroke-linecap: butt;' clip-path='url(#cpNDQxLjc3fDUwNi4yNXwxNzkuOTB8MjEuOTk=)' />
<polyline points='488.66,179.90 488.66,21.99 ' style='stroke-width: 0.78; stroke: #EBEBEB; stroke-linecap: butt;' clip-path='url(#cpNDQxLjc3fDUwNi4yNXwxNzkuOTB8MjEuOTk=)' />
<polyline points='503.32,179.90 503.32,21.99 ' style='stroke-width: 0.78; stroke: #EBEBEB; stroke-linecap: butt;' clip-path='url(#cpNDQxLjc3fDUwNi4yNXwxNzkuOTB8MjEuOTk=)' />
<line x1='459.35' y1='179.90' x2='459.35' y2='21.99' style='stroke-width: 1.07; stroke: #BEBEBE; stroke-linecap: butt;' clip-path='url(#cpNDQxLjc3fDUwNi4yNXwxNzkuOTB8MjEuOTk=)' />
<line x1='474.01' y1='179.90' x2='474.01' y2='21.99' style='stroke-width: 1.07; stroke: #BEBEBE; stroke-linecap: butt;' clip-path='url(#cpNDQxLjc3fDUwNi4yNXwxNzkuOTB8MjEuOTk=)' />
<line x1='488.66' y1='179.90' x2='488.66' y2='21.99' style='stroke-width: 1.07; stroke: #BEBEBE; stroke-linecap: butt;' clip-path='url(#cpNDQxLjc3fDUwNi4yNXwxNzkuOTB8MjEuOTk=)' />
<polygon points='456.63,168.66 467.31,172.72 480.27,168.66 467.31,164.59 456.63,168.66 ' style='stroke-width: 2.13; fill: #496261; fill-opacity: 0.50;' clip-path='url(#cpNDQxLjc3fDUwNi4yNXwxNzkuOTB8MjEuOTk=)' />
<polygon points='461.44,141.57 472.30,145.63 483.65,141.57 472.30,137.51 461.44,141.57 ' style='stroke-width: 2.13; fill: #525858; fill-opacity: 0.50;' clip-path='url(#cpNDQxLjc3fDUwNi4yNXwxNzkuOTB8MjEuOTk=)' />
<polygon points='465.00,114.48 476.94,118.55 487.97,114.48 476.94,110.42 465.00,114.48 ' style='stroke-width: 2.13; fill: #534C55; fill-opacity: 0.50;' clip-path='url(#cpNDQxLjc3fDUwNi4yNXwxNzkuOTB8MjEuOTk=)' />
<polygon points='468.62,87.40 479.35,91.46 488.79,87.40 479.35,83.33 468.62,87.40 ' style='stroke-width: 2.13; fill: #524554; fill-opacity: 0.50;' clip-path='url(#cpNDQxLjc3fDUwNi4yNXwxNzkuOTB8MjEuOTk=)' />
<polygon points='469.55,60.31 481.58,64.37 491.39,60.31 481.58,56.25 469.55,60.31 ' style='stroke-width: 2.13; fill: #503F54; fill-opacity: 0.50;' clip-path='url(#cpNDQxLjc3fDUwNi4yNXwxNzkuOTB8MjEuOTk=)' />
<polygon points='471.38,33.23 482.61,37.29 491.62,33.23 482.61,29.16 471.38,33.23 ' style='stroke-width: 2.13; fill: #503C54; fill-opacity: 0.50;' clip-path='url(#cpNDQxLjc3fDUwNi4yNXwxNzkuOTB8MjEuOTk=)' />
<rect x='441.77' y='21.99' width='64.49' height='157.91' style='stroke-width: 0.78; stroke: #333333;' clip-path='url(#cpNDQxLjc3fDUwNi4yNXwxNzkuOTB8MjEuOTk=)' />
<defs>
  <clipPath id='cpNDM3Ljc4fDUxMC4yNHwyMDIuMzl8MTguMDA='>
    <rect x='437.78' y='18.00' width='72.46' height='184.39' />
  </clipPath>
</defs>
<defs>
  <clipPath id='cpMC4wMHw1MTAuMjR8MjAyLjM5fDAuMDA='>
    <rect x='0.00' y='0.00' width='510.24' height='202.39' />
  </clipPath>
</defs>
<defs>
  <clipPath id='cpNDM3Ljc4fDUxMC4yNHwyMDIuMzl8MTguMDA='>
    <rect x='437.78' y='18.00' width='72.46' height='184.39' />
  </clipPath>
</defs>
<defs>
  <clipPath id='cpMC4wMHw1MTAuMjR8MjAyLjM5fDAuMDA='>
    <rect x='0.00' y='0.00' width='510.24' height='202.39' />
  </clipPath>
</defs>
<defs>
  <clipPath id='cpNDM3Ljc4fDUxMC4yNHwyMDIuMzl8MTguMDA='>
    <rect x='437.78' y='18.00' width='72.46' height='184.39' />
  </clipPath>
</defs>
<defs>
  <clipPath id='cpMC4wMHw1MTAuMjR8MjAyLjM5fDAuMDA='>
    <rect x='0.00' y='0.00' width='510.24' height='202.39' />
  </clipPath>
</defs>
<defs>
  <clipPath id='cpNDM3Ljc4fDUxMC4yNHwyMDIuMzl8MTguMDA='>
    <rect x='437.78' y='18.00' width='72.46' height='184.39' />
  </clipPath>
</defs>
<defs>
  <clipPath id='cpMC4wMHw1MTAuMjR8MjAyLjM5fDAuMDA='>
    <rect x='0.00' y='0.00' width='510.24' height='202.39' />
  </clipPath>
</defs>
<defs>
  <clipPath id='cpNDM3Ljc4fDUxMC4yNHwyMDIuMzl8MTguMDA='>
    <rect x='437.78' y='18.00' width='72.46' height='184.39' />
  </clipPath>
</defs>
<defs>
  <clipPath id='cpMC4wMHw1MTAuMjR8MjAyLjM5fDAuMDA='>
    <rect x='0.00' y='0.00' width='510.24' height='202.39' />
  </clipPath>
</defs>
<defs>
  <clipPath id='cpNDM3Ljc4fDUxMC4yNHwyMDIuMzl8MTguMDA='>
    <rect x='437.78' y='18.00' width='72.46' height='184.39' />
  </clipPath>
</defs>
<defs>
  <clipPath id='cpMC4wMHw1MTAuMjR8MjAyLjM5fDAuMDA='>
    <rect x='0.00' y='0.00' width='510.24' height='202.39' />
  </clipPath>
</defs>
<defs>
  <clipPath id='cpNDM3Ljc4fDUxMC4yNHwyMDIuMzl8MTguMDA='>
    <rect x='437.78' y='18.00' width='72.46' height='184.39' />
  </clipPath>
</defs>
<defs>
  <clipPath id='cpMC4wMHw1MTAuMjR8MjAyLjM5fDAuMDA='>
    <rect x='0.00' y='0.00' width='510.24' height='202.39' />
  </clipPath>
</defs>
<defs>
  <clipPath id='cpNDM3Ljc4fDUxMC4yNHwyMDIuMzl8MTguMDA='>
    <rect x='437.78' y='18.00' width='72.46' height='184.39' />
  </clipPath>
</defs>
<defs>
  <clipPath id='cpMC4wMHw1MTAuMjR8MjAyLjM5fDAuMDA='>
    <rect x='0.00' y='0.00' width='510.24' height='202.39' />
  </clipPath>
</defs>
<polyline points='444.70,181.89 444.70,179.90 ' style='stroke-width: 0.78; stroke: #333333; stroke-linecap: butt;' clip-path='url(#cpMC4wMHw1MTAuMjR8MjAyLjM5fDAuMDA=)' />
<polyline points='459.35,181.89 459.35,179.90 ' style='stroke-width: 0.78; stroke: #333333; stroke-linecap: butt;' clip-path='url(#cpMC4wMHw1MTAuMjR8MjAyLjM5fDAuMDA=)' />
<polyline points='474.01,181.89 474.01,179.90 ' style='stroke-width: 0.78; stroke: #333333; stroke-linecap: butt;' clip-path='url(#cpMC4wMHw1MTAuMjR8MjAyLjM5fDAuMDA=)' />
<polyline points='488.66,181.89 488.66,179.90 ' style='stroke-width: 0.78; stroke: #333333; stroke-linecap: butt;' clip-path='url(#cpMC4wMHw1MTAuMjR8MjAyLjM5fDAuMDA=)' />
<polyline points='503.32,181.89 503.32,179.90 ' style='stroke-width: 0.78; stroke: #333333; stroke-linecap: butt;' clip-path='url(#cpMC4wMHw1MTAuMjR8MjAyLjM5fDAuMDA=)' />
<g clip-path='url(#cpMC4wMHw1MTAuMjR8MjAyLjM5fDAuMDA=)'><text x='439.18' y='188.06' style='font-size: 6.40px; fill: #4D4D4D; font-family: Arial;' textLength='11.03px' lengthAdjust='spacingAndGlyphs'>-1.0</text></g>
<g clip-path='url(#cpMC4wMHw1MTAuMjR8MjAyLjM5fDAuMDA=)'><text x='453.84' y='188.06' style='font-size: 6.40px; fill: #4D4D4D; font-family: Arial;' textLength='11.03px' lengthAdjust='spacingAndGlyphs'>-0.5</text></g>
<g clip-path='url(#cpMC4wMHw1MTAuMjR8MjAyLjM5fDAuMDA=)'><text x='469.56' y='188.06' style='font-size: 6.40px; fill: #4D4D4D; font-family: Arial;' textLength='8.90px' lengthAdjust='spacingAndGlyphs'>0.0</text></g>
<g clip-path='url(#cpMC4wMHw1MTAuMjR8MjAyLjM5fDAuMDA=)'><text x='484.22' y='188.06' style='font-size: 6.40px; fill: #4D4D4D; font-family: Arial;' textLength='8.90px' lengthAdjust='spacingAndGlyphs'>0.5</text></g>
<g clip-path='url(#cpMC4wMHw1MTAuMjR8MjAyLjM5fDAuMDA=)'><text x='498.87' y='188.06' style='font-size: 6.40px; fill: #4D4D4D; font-family: Arial;' textLength='8.90px' lengthAdjust='spacingAndGlyphs'>1.0</text></g>
<defs>
  <clipPath id='cpNDM3Ljc4fDUxMC4yNHwyMDIuMzl8MTguMDA='>
    <rect x='437.78' y='18.00' width='72.46' height='184.39' />
  </clipPath>
</defs>
<defs>
  <clipPath id='cpMC4wMHw1MTAuMjR8MjAyLjM5fDAuMDA='>
    <rect x='0.00' y='0.00' width='510.24' height='202.39' />
  </clipPath>
</defs>
<defs>
  <clipPath id='cpNDM3Ljc4fDUxMC4yNHwyMDIuMzl8MTguMDA='>
    <rect x='437.78' y='18.00' width='72.46' height='184.39' />
  </clipPath>
</defs>
<defs>
  <clipPath id='cpMC4wMHw1MTAuMjR8MjAyLjM5fDAuMDA='>
    <rect x='0.00' y='0.00' width='510.24' height='202.39' />
  </clipPath>
</defs>
<g clip-path='url(#cpMC4wMHw1MTAuMjR8MjAyLjM5fDAuMDA=)'><text x='431.32' y='196.91' style='font-size: 8.00px; font-family: Arial;' textLength='85.38px' lengthAdjust='spacingAndGlyphs'>95% CIs of associations</text></g>
<defs>
  <clipPath id='cpNDM3Ljc4fDUxMC4yNHwyMDIuMzl8MTguMDA='>
    <rect x='437.78' y='18.00' width='72.46' height='184.39' />
  </clipPath>
</defs>
<defs>
  <clipPath id='cpMC4wMHw1MTAuMjR8MjAyLjM5fDAuMDA='>
    <rect x='0.00' y='0.00' width='510.24' height='202.39' />
  </clipPath>
</defs>
<defs>
  <clipPath id='cpNDM3Ljc4fDUxMC4yNHwyMDIuMzl8MTguMDA='>
    <rect x='437.78' y='18.00' width='72.46' height='184.39' />
  </clipPath>
</defs>
<defs>
  <clipPath id='cpMC4wMHw1MTAuMjR8MjAyLjM5fDAuMDA='>
    <rect x='0.00' y='0.00' width='510.24' height='202.39' />
  </clipPath>
</defs>
<defs>
  <clipPath id='cpNDM3Ljc4fDUxMC4yNHwyMDIuMzl8MTguMDA='>
    <rect x='437.78' y='18.00' width='72.46' height='184.39' />
  </clipPath>
</defs>
<defs>
  <clipPath id='cpMC4wMHw1MTAuMjR8MjAyLjM5fDAuMDA='>
    <rect x='0.00' y='0.00' width='510.24' height='202.39' />
  </clipPath>
</defs>
<defs>
  <clipPath id='cpNDM3Ljc4fDUxMC4yNHwyMDIuMzl8MTguMDA='>
    <rect x='437.78' y='18.00' width='72.46' height='184.39' />
  </clipPath>
</defs>
<defs>
  <clipPath id='cpMC4wMHw1MTAuMjR8MjAyLjM5fDAuMDA='>
    <rect x='0.00' y='0.00' width='510.24' height='202.39' />
  </clipPath>
</defs>
<defs>
  <clipPath id='cpNDM3Ljc4fDUxMC4yNHwyMDIuMzl8MTguMDA='>
    <rect x='437.78' y='18.00' width='72.46' height='184.39' />
  </clipPath>
</defs>
<defs>
  <clipPath id='cpMC4wMHw1MTAuMjR8MjAyLjM5fDAuMDA='>
    <rect x='0.00' y='0.00' width='510.24' height='202.39' />
  </clipPath>
</defs>
<defs>
  <clipPath id='cpNDM3Ljc4fDUxMC4yNHwyMDIuMzl8MTguMDA='>
    <rect x='437.78' y='18.00' width='72.46' height='184.39' />
  </clipPath>
</defs>
<defs>
  <clipPath id='cpMC4wMHw1MTAuMjR8MjAyLjM5fDAuMDA='>
    <rect x='0.00' y='0.00' width='510.24' height='202.39' />
  </clipPath>
</defs>
<defs>
  <clipPath id='cpNDM3Ljc4fDUxMC4yNHwyMDIuMzl8MTguMDA='>
    <rect x='437.78' y='18.00' width='72.46' height='184.39' />
  </clipPath>
</defs>
<defs>
  <clipPath id='cpMC4wMHw1MTAuMjR8MjAyLjM5fDAuMDA='>
    <rect x='0.00' y='0.00' width='510.24' height='202.39' />
  </clipPath>
</defs>
<g clip-path='url(#cpMC4wMHw1MTAuMjR8MjAyLjM5fDAuMDA=)'><text x='2.30' y='8.78' style='font-size: 9.60px; font-weight: bold; font-family: Arial;' textLength='147.76px' lengthAdjust='spacingAndGlyphs'>Means and associations (r) with </text></g>
<g clip-path='url(#cpMC4wMHw1MTAuMjR8MjAyLjM5fDAuMDA=)'><text x='150.07' y='8.78' style='font-size: 9.60px; font-weight: bold; font-family: Arial;' textLength='43.21px' lengthAdjust='spacingAndGlyphs'>proximity</text></g>
<g clip-path='url(#cpMC4wMHw1MTAuMjR8MjAyLjM5fDAuMDA=)'><text x='193.28' y='8.78' style='font-size: 9.60px; font-weight: bold; font-family: Arial;' textLength='2.67px' lengthAdjust='spacingAndGlyphs'> </text></g>
</svg>
