<?xml version='1.0' encoding='UTF-8' ?>
<svg xmlns='http://www.w3.org/2000/svg' xmlns:xlink='http://www.w3.org/1999/xlink' viewBox='0 0 510.24 172.63'>
<defs>
  <style type='text/css'><![CDATA[
    line, polyline, polygon, path, rect, circle {
      fill: none;
      stroke: #000000;
      stroke-linecap: round;
      stroke-linejoin: round;
      stroke-miterlimit: 10.00;
    }
  ]]></style>
</defs>
<rect width='100%' height='100%' style='stroke: none; fill: none;'/>
<defs>
  <clipPath id='cpMjY0LjU5fDQ0OS43OHwxNzIuNjN8MTguMDA='>
    <rect x='264.59' y='18.00' width='185.18' height='154.63' />
  </clipPath>
</defs>
<rect x='264.59' y='18.00' width='185.18' height='154.63' style='stroke-width: 0.78; stroke: #FFFFFF; fill: #FFFFFF;' clip-path='url(#cpMjY0LjU5fDQ0OS43OHwxNzIuNjN8MTguMDA=)' />
<defs>
  <clipPath id='cpMC4wMHw1MTAuMjR8MTcyLjYzfDAuMDA='>
    <rect x='0.00' y='0.00' width='510.24' height='172.63' />
  </clipPath>
</defs>
<defs>
  <clipPath id='cpMzMyLjI5fDM5Mi43NXwxNTAuMTN8MjEuOTk='>
    <rect x='332.29' y='21.99' width='60.46' height='128.15' />
  </clipPath>
</defs>
<rect x='332.29' y='21.99' width='60.46' height='128.15' style='stroke-width: 0.78; stroke: none; fill: #FFFFFF;' clip-path='url(#cpMzMyLjI5fDM5Mi43NXwxNTAuMTN8MjEuOTk=)' />
<polyline points='333.87,150.13 333.87,21.99 ' style='stroke-width: 0.39; stroke: #EBEBEB; stroke-linecap: butt;' clip-path='url(#cpMzMyLjI5fDM5Mi43NXwxNTAuMTN8MjEuOTk=)' />
<polyline points='345.26,150.13 345.26,21.99 ' style='stroke-width: 0.39; stroke: #EBEBEB; stroke-linecap: butt;' clip-path='url(#cpMzMyLjI5fDM5Mi43NXwxNTAuMTN8MjEuOTk=)' />
<polyline points='356.66,150.13 356.66,21.99 ' style='stroke-width: 0.39; stroke: #EBEBEB; stroke-linecap: butt;' clip-path='url(#cpMzMyLjI5fDM5Mi43NXwxNTAuMTN8MjEuOTk=)' />
<polyline points='368.06,150.13 368.06,21.99 ' style='stroke-width: 0.39; stroke: #EBEBEB; stroke-linecap: butt;' clip-path='url(#cpMzMyLjI5fDM5Mi43NXwxNTAuMTN8MjEuOTk=)' />
<polyline points='379.45,150.13 379.45,21.99 ' style='stroke-width: 0.39; stroke: #EBEBEB; stroke-linecap: butt;' clip-path='url(#cpMzMyLjI5fDM5Mi43NXwxNTAuMTN8MjEuOTk=)' />
<polyline points='390.85,150.13 390.85,21.99 ' style='stroke-width: 0.39; stroke: #EBEBEB; stroke-linecap: butt;' clip-path='url(#cpMzMyLjI5fDM5Mi43NXwxNTAuMTN8MjEuOTk=)' />
<polyline points='332.29,137.23 392.75,137.23 ' style='stroke-width: 0.78; stroke: #EBEBEB; stroke-linecap: butt;' clip-path='url(#cpMzMyLjI5fDM5Mi43NXwxNTAuMTN8MjEuOTk=)' />
<polyline points='332.29,111.68 392.75,111.68 ' style='stroke-width: 0.78; stroke: #EBEBEB; stroke-linecap: butt;' clip-path='url(#cpMzMyLjI5fDM5Mi43NXwxNTAuMTN8MjEuOTk=)' />
<polyline points='332.29,86.13 392.75,86.13 ' style='stroke-width: 0.78; stroke: #EBEBEB; stroke-linecap: butt;' clip-path='url(#cpMzMyLjI5fDM5Mi43NXwxNTAuMTN8MjEuOTk=)' />
<polyline points='332.29,60.59 392.75,60.59 ' style='stroke-width: 0.78; stroke: #EBEBEB; stroke-linecap: butt;' clip-path='url(#cpMzMyLjI5fDM5Mi43NXwxNTAuMTN8MjEuOTk=)' />
<polyline points='332.29,35.04 392.75,35.04 ' style='stroke-width: 0.78; stroke: #EBEBEB; stroke-linecap: butt;' clip-path='url(#cpMzMyLjI5fDM5Mi43NXwxNTAuMTN8MjEuOTk=)' />
<polyline points='339.57,150.13 339.57,21.99 ' style='stroke-width: 0.78; stroke: #EBEBEB; stroke-linecap: butt;' clip-path='url(#cpMzMyLjI5fDM5Mi43NXwxNTAuMTN8MjEuOTk=)' />
<polyline points='350.96,150.13 350.96,21.99 ' style='stroke-width: 0.78; stroke: #EBEBEB; stroke-linecap: butt;' clip-path='url(#cpMzMyLjI5fDM5Mi43NXwxNTAuMTN8MjEuOTk=)' />
<polyline points='362.36,150.13 362.36,21.99 ' style='stroke-width: 0.78; stroke: #EBEBEB; stroke-linecap: butt;' clip-path='url(#cpMzMyLjI5fDM5Mi43NXwxNTAuMTN8MjEuOTk=)' />
<polyline points='373.76,150.13 373.76,21.99 ' style='stroke-width: 0.78; stroke: #EBEBEB; stroke-linecap: butt;' clip-path='url(#cpMzMyLjI5fDM5Mi43NXwxNTAuMTN8MjEuOTk=)' />
<polyline points='385.15,150.13 385.15,21.99 ' style='stroke-width: 0.78; stroke: #EBEBEB; stroke-linecap: butt;' clip-path='url(#cpMzMyLjI5fDM5Mi43NXwxNTAuMTN8MjEuOTk=)' />
<circle cx='363.80' cy='129.96' r='2.13' style='stroke-width: 0.00; stroke: #444444; stroke-opacity: 0.10; fill: #444444; fill-opacity: 0.10;' clip-path='url(#cpMzMyLjI5fDM5Mi43NXwxNTAuMTN8MjEuOTk=)' />
<circle cx='346.13' cy='129.92' r='2.13' style='stroke-width: 0.00; stroke: #444444; stroke-opacity: 0.10; fill: #444444; fill-opacity: 0.10;' clip-path='url(#cpMzMyLjI5fDM5Mi43NXwxNTAuMTN8MjEuOTk=)' />
<circle cx='351.20' cy='131.67' r='2.13' style='stroke-width: 0.00; stroke: #444444; stroke-opacity: 0.10; fill: #444444; fill-opacity: 0.10;' clip-path='url(#cpMzMyLjI5fDM5Mi43NXwxNTAuMTN8MjEuOTk=)' />
<circle cx='353.05' cy='134.13' r='2.13' style='stroke-width: 0.00; stroke: #444444; stroke-opacity: 0.10; fill: #444444; fill-opacity: 0.10;' clip-path='url(#cpMzMyLjI5fDM5Mi43NXwxNTAuMTN8MjEuOTk=)' />
<circle cx='341.28' cy='139.03' r='2.13' style='stroke-width: 0.00; stroke: #444444; stroke-opacity: 0.10; fill: #444444; fill-opacity: 0.10;' clip-path='url(#cpMzMyLjI5fDM5Mi43NXwxNTAuMTN8MjEuOTk=)' />
<circle cx='350.58' cy='142.20' r='2.13' style='stroke-width: 0.00; stroke: #444444; stroke-opacity: 0.10; fill: #444444; fill-opacity: 0.10;' clip-path='url(#cpMzMyLjI5fDM5Mi43NXwxNTAuMTN8MjEuOTk=)' />
<circle cx='364.65' cy='140.71' r='2.13' style='stroke-width: 0.00; stroke: #444444; stroke-opacity: 0.10; fill: #444444; fill-opacity: 0.10;' clip-path='url(#cpMzMyLjI5fDM5Mi43NXwxNTAuMTN8MjEuOTk=)' />
<circle cx='361.73' cy='133.65' r='2.13' style='stroke-width: 0.00; stroke: #444444; stroke-opacity: 0.10; fill: #444444; fill-opacity: 0.10;' clip-path='url(#cpMzMyLjI5fDM5Mi43NXwxNTAuMTN8MjEuOTk=)' />
<circle cx='357.27' cy='135.03' r='2.13' style='stroke-width: 0.00; stroke: #444444; stroke-opacity: 0.10; fill: #444444; fill-opacity: 0.10;' clip-path='url(#cpMzMyLjI5fDM5Mi43NXwxNTAuMTN8MjEuOTk=)' />
<circle cx='338.28' cy='144.31' r='2.13' style='stroke-width: 0.00; stroke: #444444; stroke-opacity: 0.10; fill: #444444; fill-opacity: 0.10;' clip-path='url(#cpMzMyLjI5fDM5Mi43NXwxNTAuMTN8MjEuOTk=)' />
<circle cx='351.17' cy='139.63' r='2.13' style='stroke-width: 0.00; stroke: #444444; stroke-opacity: 0.10; fill: #444444; fill-opacity: 0.10;' clip-path='url(#cpMzMyLjI5fDM5Mi43NXwxNTAuMTN8MjEuOTk=)' />
<circle cx='376.56' cy='131.88' r='2.13' style='stroke-width: 0.00; stroke: #444444; stroke-opacity: 0.10; fill: #444444; fill-opacity: 0.10;' clip-path='url(#cpMzMyLjI5fDM5Mi43NXwxNTAuMTN8MjEuOTk=)' />
<circle cx='346.16' cy='140.58' r='2.13' style='stroke-width: 0.00; stroke: #444444; stroke-opacity: 0.10; fill: #444444; fill-opacity: 0.10;' clip-path='url(#cpMzMyLjI5fDM5Mi43NXwxNTAuMTN8MjEuOTk=)' />
<circle cx='340.02' cy='141.32' r='2.13' style='stroke-width: 0.00; stroke: #444444; stroke-opacity: 0.10; fill: #444444; fill-opacity: 0.10;' clip-path='url(#cpMzMyLjI5fDM5Mi43NXwxNTAuMTN8MjEuOTk=)' />
<circle cx='337.21' cy='131.37' r='2.13' style='stroke-width: 0.00; stroke: #444444; stroke-opacity: 0.10; fill: #444444; fill-opacity: 0.10;' clip-path='url(#cpMzMyLjI5fDM5Mi43NXwxNTAuMTN8MjEuOTk=)' />
<circle cx='338.45' cy='141.75' r='2.13' style='stroke-width: 0.00; stroke: #444444; stroke-opacity: 0.10; fill: #444444; fill-opacity: 0.10;' clip-path='url(#cpMzMyLjI5fDM5Mi43NXwxNTAuMTN8MjEuOTk=)' />
<circle cx='340.51' cy='140.59' r='2.13' style='stroke-width: 0.00; stroke: #444444; stroke-opacity: 0.10; fill: #444444; fill-opacity: 0.10;' clip-path='url(#cpMzMyLjI5fDM5Mi43NXwxNTAuMTN8MjEuOTk=)' />
<circle cx='345.21' cy='132.37' r='2.13' style='stroke-width: 0.00; stroke: #444444; stroke-opacity: 0.10; fill: #444444; fill-opacity: 0.10;' clip-path='url(#cpMzMyLjI5fDM5Mi43NXwxNTAuMTN8MjEuOTk=)' />
<circle cx='370.70' cy='136.34' r='2.13' style='stroke-width: 0.00; stroke: #444444; stroke-opacity: 0.10; fill: #444444; fill-opacity: 0.10;' clip-path='url(#cpMzMyLjI5fDM5Mi43NXwxNTAuMTN8MjEuOTk=)' />
<circle cx='356.88' cy='130.99' r='2.13' style='stroke-width: 0.00; stroke: #444444; stroke-opacity: 0.10; fill: #444444; fill-opacity: 0.10;' clip-path='url(#cpMzMyLjI5fDM5Mi43NXwxNTAuMTN8MjEuOTk=)' />
<circle cx='357.08' cy='134.56' r='2.13' style='stroke-width: 0.00; stroke: #444444; stroke-opacity: 0.10; fill: #444444; fill-opacity: 0.10;' clip-path='url(#cpMzMyLjI5fDM5Mi43NXwxNTAuMTN8MjEuOTk=)' />
<circle cx='344.27' cy='143.78' r='2.13' style='stroke-width: 0.00; stroke: #444444; stroke-opacity: 0.10; fill: #444444; fill-opacity: 0.10;' clip-path='url(#cpMzMyLjI5fDM5Mi43NXwxNTAuMTN8MjEuOTk=)' />
<circle cx='344.00' cy='106.13' r='2.13' style='stroke-width: 0.00; stroke: #444444; stroke-opacity: 0.10; fill: #444444; fill-opacity: 0.10;' clip-path='url(#cpMzMyLjI5fDM5Mi43NXwxNTAuMTN8MjEuOTk=)' />
<circle cx='378.55' cy='111.86' r='2.13' style='stroke-width: 0.00; stroke: #444444; stroke-opacity: 0.10; fill: #444444; fill-opacity: 0.10;' clip-path='url(#cpMzMyLjI5fDM5Mi43NXwxNTAuMTN8MjEuOTk=)' />
<circle cx='343.44' cy='118.46' r='2.13' style='stroke-width: 0.00; stroke: #444444; stroke-opacity: 0.10; fill: #444444; fill-opacity: 0.10;' clip-path='url(#cpMzMyLjI5fDM5Mi43NXwxNTAuMTN8MjEuOTk=)' />
<circle cx='363.31' cy='105.99' r='2.13' style='stroke-width: 0.00; stroke: #444444; stroke-opacity: 0.10; fill: #444444; fill-opacity: 0.10;' clip-path='url(#cpMzMyLjI5fDM5Mi43NXwxNTAuMTN8MjEuOTk=)' />
<circle cx='366.06' cy='118.97' r='2.13' style='stroke-width: 0.00; stroke: #444444; stroke-opacity: 0.10; fill: #444444; fill-opacity: 0.10;' clip-path='url(#cpMzMyLjI5fDM5Mi43NXwxNTAuMTN8MjEuOTk=)' />
<circle cx='380.19' cy='111.71' r='2.13' style='stroke-width: 0.00; stroke: #444444; stroke-opacity: 0.10; fill: #444444; fill-opacity: 0.10;' clip-path='url(#cpMzMyLjI5fDM5Mi43NXwxNTAuMTN8MjEuOTk=)' />
<circle cx='357.86' cy='113.55' r='2.13' style='stroke-width: 0.00; stroke: #444444; stroke-opacity: 0.10; fill: #444444; fill-opacity: 0.10;' clip-path='url(#cpMzMyLjI5fDM5Mi43NXwxNTAuMTN8MjEuOTk=)' />
<circle cx='376.38' cy='105.44' r='2.13' style='stroke-width: 0.00; stroke: #444444; stroke-opacity: 0.10; fill: #444444; fill-opacity: 0.10;' clip-path='url(#cpMzMyLjI5fDM5Mi43NXwxNTAuMTN8MjEuOTk=)' />
<circle cx='342.24' cy='110.60' r='2.13' style='stroke-width: 0.00; stroke: #444444; stroke-opacity: 0.10; fill: #444444; fill-opacity: 0.10;' clip-path='url(#cpMzMyLjI5fDM5Mi43NXwxNTAuMTN8MjEuOTk=)' />
<circle cx='387.61' cy='113.59' r='2.13' style='stroke-width: 0.00; stroke: #444444; stroke-opacity: 0.10; fill: #444444; fill-opacity: 0.10;' clip-path='url(#cpMzMyLjI5fDM5Mi43NXwxNTAuMTN8MjEuOTk=)' />
<circle cx='373.24' cy='118.57' r='2.13' style='stroke-width: 0.00; stroke: #444444; stroke-opacity: 0.10; fill: #444444; fill-opacity: 0.10;' clip-path='url(#cpMzMyLjI5fDM5Mi43NXwxNTAuMTN8MjEuOTk=)' />
<circle cx='349.34' cy='115.06' r='2.13' style='stroke-width: 0.00; stroke: #444444; stroke-opacity: 0.10; fill: #444444; fill-opacity: 0.10;' clip-path='url(#cpMzMyLjI5fDM5Mi43NXwxNTAuMTN8MjEuOTk=)' />
<circle cx='389.23' cy='110.27' r='2.13' style='stroke-width: 0.00; stroke: #444444; stroke-opacity: 0.10; fill: #444444; fill-opacity: 0.10;' clip-path='url(#cpMzMyLjI5fDM5Mi43NXwxNTAuMTN8MjEuOTk=)' />
<circle cx='390.00' cy='109.10' r='2.13' style='stroke-width: 0.00; stroke: #444444; stroke-opacity: 0.10; fill: #444444; fill-opacity: 0.10;' clip-path='url(#cpMzMyLjI5fDM5Mi43NXwxNTAuMTN8MjEuOTk=)' />
<circle cx='377.82' cy='107.10' r='2.13' style='stroke-width: 0.00; stroke: #444444; stroke-opacity: 0.10; fill: #444444; fill-opacity: 0.10;' clip-path='url(#cpMzMyLjI5fDM5Mi43NXwxNTAuMTN8MjEuOTk=)' />
<circle cx='379.30' cy='112.95' r='2.13' style='stroke-width: 0.00; stroke: #444444; stroke-opacity: 0.10; fill: #444444; fill-opacity: 0.10;' clip-path='url(#cpMzMyLjI5fDM5Mi43NXwxNTAuMTN8MjEuOTk=)' />
<circle cx='370.52' cy='107.80' r='2.13' style='stroke-width: 0.00; stroke: #444444; stroke-opacity: 0.10; fill: #444444; fill-opacity: 0.10;' clip-path='url(#cpMzMyLjI5fDM5Mi43NXwxNTAuMTN8MjEuOTk=)' />
<circle cx='349.02' cy='113.92' r='2.13' style='stroke-width: 0.00; stroke: #444444; stroke-opacity: 0.10; fill: #444444; fill-opacity: 0.10;' clip-path='url(#cpMzMyLjI5fDM5Mi43NXwxNTAuMTN8MjEuOTk=)' />
<circle cx='353.33' cy='111.83' r='2.13' style='stroke-width: 0.00; stroke: #444444; stroke-opacity: 0.10; fill: #444444; fill-opacity: 0.10;' clip-path='url(#cpMzMyLjI5fDM5Mi43NXwxNTAuMTN8MjEuOTk=)' />
<circle cx='370.95' cy='107.19' r='2.13' style='stroke-width: 0.00; stroke: #444444; stroke-opacity: 0.10; fill: #444444; fill-opacity: 0.10;' clip-path='url(#cpMzMyLjI5fDM5Mi43NXwxNTAuMTN8MjEuOTk=)' />
<circle cx='357.89' cy='104.42' r='2.13' style='stroke-width: 0.00; stroke: #444444; stroke-opacity: 0.10; fill: #444444; fill-opacity: 0.10;' clip-path='url(#cpMzMyLjI5fDM5Mi43NXwxNTAuMTN8MjEuOTk=)' />
<circle cx='358.26' cy='104.52' r='2.13' style='stroke-width: 0.00; stroke: #444444; stroke-opacity: 0.10; fill: #444444; fill-opacity: 0.10;' clip-path='url(#cpMzMyLjI5fDM5Mi43NXwxNTAuMTN8MjEuOTk=)' />
<circle cx='381.90' cy='116.25' r='2.13' style='stroke-width: 0.00; stroke: #444444; stroke-opacity: 0.10; fill: #444444; fill-opacity: 0.10;' clip-path='url(#cpMzMyLjI5fDM5Mi43NXwxNTAuMTN8MjEuOTk=)' />
<circle cx='356.00' cy='116.21' r='2.13' style='stroke-width: 0.00; stroke: #444444; stroke-opacity: 0.10; fill: #444444; fill-opacity: 0.10;' clip-path='url(#cpMzMyLjI5fDM5Mi43NXwxNTAuMTN8MjEuOTk=)' />
<circle cx='342.94' cy='107.79' r='2.13' style='stroke-width: 0.00; stroke: #444444; stroke-opacity: 0.10; fill: #444444; fill-opacity: 0.10;' clip-path='url(#cpMzMyLjI5fDM5Mi43NXwxNTAuMTN8MjEuOTk=)' />
<circle cx='351.81' cy='116.56' r='2.13' style='stroke-width: 0.00; stroke: #444444; stroke-opacity: 0.10; fill: #444444; fill-opacity: 0.10;' clip-path='url(#cpMzMyLjI5fDM5Mi43NXwxNTAuMTN8MjEuOTk=)' />
<circle cx='337.11' cy='89.56' r='2.13' style='stroke-width: 0.00; stroke: #444444; stroke-opacity: 0.10; fill: #444444; fill-opacity: 0.10;' clip-path='url(#cpMzMyLjI5fDM5Mi43NXwxNTAuMTN8MjEuOTk=)' />
<circle cx='338.32' cy='80.16' r='2.13' style='stroke-width: 0.00; stroke: #444444; stroke-opacity: 0.10; fill: #444444; fill-opacity: 0.10;' clip-path='url(#cpMzMyLjI5fDM5Mi43NXwxNTAuMTN8MjEuOTk=)' />
<circle cx='344.79' cy='84.03' r='2.13' style='stroke-width: 0.00; stroke: #444444; stroke-opacity: 0.10; fill: #444444; fill-opacity: 0.10;' clip-path='url(#cpMzMyLjI5fDM5Mi43NXwxNTAuMTN8MjEuOTk=)' />
<circle cx='345.44' cy='88.77' r='2.13' style='stroke-width: 0.00; stroke: #444444; stroke-opacity: 0.10; fill: #444444; fill-opacity: 0.10;' clip-path='url(#cpMzMyLjI5fDM5Mi43NXwxNTAuMTN8MjEuOTk=)' />
<circle cx='335.04' cy='83.75' r='2.13' style='stroke-width: 0.00; stroke: #444444; stroke-opacity: 0.10; fill: #444444; fill-opacity: 0.10;' clip-path='url(#cpMzMyLjI5fDM5Mi43NXwxNTAuMTN8MjEuOTk=)' />
<circle cx='337.73' cy='92.97' r='2.13' style='stroke-width: 0.00; stroke: #444444; stroke-opacity: 0.10; fill: #444444; fill-opacity: 0.10;' clip-path='url(#cpMzMyLjI5fDM5Mi43NXwxNTAuMTN8MjEuOTk=)' />
<circle cx='345.44' cy='90.11' r='2.13' style='stroke-width: 0.00; stroke: #444444; stroke-opacity: 0.10; fill: #444444; fill-opacity: 0.10;' clip-path='url(#cpMzMyLjI5fDM5Mi43NXwxNTAuMTN8MjEuOTk=)' />
<circle cx='347.09' cy='79.38' r='2.13' style='stroke-width: 0.00; stroke: #444444; stroke-opacity: 0.10; fill: #444444; fill-opacity: 0.10;' clip-path='url(#cpMzMyLjI5fDM5Mi43NXwxNTAuMTN8MjEuOTk=)' />
<circle cx='348.00' cy='86.04' r='2.13' style='stroke-width: 0.00; stroke: #444444; stroke-opacity: 0.10; fill: #444444; fill-opacity: 0.10;' clip-path='url(#cpMzMyLjI5fDM5Mi43NXwxNTAuMTN8MjEuOTk=)' />
<circle cx='341.90' cy='89.92' r='2.13' style='stroke-width: 0.00; stroke: #444444; stroke-opacity: 0.10; fill: #444444; fill-opacity: 0.10;' clip-path='url(#cpMzMyLjI5fDM5Mi43NXwxNTAuMTN8MjEuOTk=)' />
<circle cx='344.48' cy='80.73' r='2.13' style='stroke-width: 0.00; stroke: #444444; stroke-opacity: 0.10; fill: #444444; fill-opacity: 0.10;' clip-path='url(#cpMzMyLjI5fDM5Mi43NXwxNTAuMTN8MjEuOTk=)' />
<circle cx='342.28' cy='79.19' r='2.13' style='stroke-width: 0.00; stroke: #444444; stroke-opacity: 0.10; fill: #444444; fill-opacity: 0.10;' clip-path='url(#cpMzMyLjI5fDM5Mi43NXwxNTAuMTN8MjEuOTk=)' />
<circle cx='338.47' cy='86.06' r='2.13' style='stroke-width: 0.00; stroke: #444444; stroke-opacity: 0.10; fill: #444444; fill-opacity: 0.10;' clip-path='url(#cpMzMyLjI5fDM5Mi43NXwxNTAuMTN8MjEuOTk=)' />
<circle cx='335.55' cy='79.15' r='2.13' style='stroke-width: 0.00; stroke: #444444; stroke-opacity: 0.10; fill: #444444; fill-opacity: 0.10;' clip-path='url(#cpMzMyLjI5fDM5Mi43NXwxNTAuMTN8MjEuOTk=)' />
<circle cx='342.03' cy='93.37' r='2.13' style='stroke-width: 0.00; stroke: #444444; stroke-opacity: 0.10; fill: #444444; fill-opacity: 0.10;' clip-path='url(#cpMzMyLjI5fDM5Mi43NXwxNTAuMTN8MjEuOTk=)' />
<circle cx='337.93' cy='90.89' r='2.13' style='stroke-width: 0.00; stroke: #444444; stroke-opacity: 0.10; fill: #444444; fill-opacity: 0.10;' clip-path='url(#cpMzMyLjI5fDM5Mi43NXwxNTAuMTN8MjEuOTk=)' />
<circle cx='339.90' cy='84.51' r='2.13' style='stroke-width: 0.00; stroke: #444444; stroke-opacity: 0.10; fill: #444444; fill-opacity: 0.10;' clip-path='url(#cpMzMyLjI5fDM5Mi43NXwxNTAuMTN8MjEuOTk=)' />
<circle cx='351.15' cy='88.03' r='2.13' style='stroke-width: 0.00; stroke: #444444; stroke-opacity: 0.10; fill: #444444; fill-opacity: 0.10;' clip-path='url(#cpMzMyLjI5fDM5Mi43NXwxNTAuMTN8MjEuOTk=)' />
<circle cx='342.33' cy='78.61' r='2.13' style='stroke-width: 0.00; stroke: #444444; stroke-opacity: 0.10; fill: #444444; fill-opacity: 0.10;' clip-path='url(#cpMzMyLjI5fDM5Mi43NXwxNTAuMTN8MjEuOTk=)' />
<circle cx='341.42' cy='81.31' r='2.13' style='stroke-width: 0.00; stroke: #444444; stroke-opacity: 0.10; fill: #444444; fill-opacity: 0.10;' clip-path='url(#cpMzMyLjI5fDM5Mi43NXwxNTAuMTN8MjEuOTk=)' />
<circle cx='338.29' cy='89.27' r='2.13' style='stroke-width: 0.00; stroke: #444444; stroke-opacity: 0.10; fill: #444444; fill-opacity: 0.10;' clip-path='url(#cpMzMyLjI5fDM5Mi43NXwxNTAuMTN8MjEuOTk=)' />
<circle cx='336.58' cy='80.88' r='2.13' style='stroke-width: 0.00; stroke: #444444; stroke-opacity: 0.10; fill: #444444; fill-opacity: 0.10;' clip-path='url(#cpMzMyLjI5fDM5Mi43NXwxNTAuMTN8MjEuOTk=)' />
<circle cx='336.43' cy='83.34' r='2.13' style='stroke-width: 0.00; stroke: #444444; stroke-opacity: 0.10; fill: #444444; fill-opacity: 0.10;' clip-path='url(#cpMzMyLjI5fDM5Mi43NXwxNTAuMTN8MjEuOTk=)' />
<circle cx='359.01' cy='86.28' r='2.13' style='stroke-width: 0.00; stroke: #444444; stroke-opacity: 0.10; fill: #444444; fill-opacity: 0.10;' clip-path='url(#cpMzMyLjI5fDM5Mi43NXwxNTAuMTN8MjEuOTk=)' />
<circle cx='343.91' cy='55.87' r='2.13' style='stroke-width: 0.00; stroke: #444444; stroke-opacity: 0.10; fill: #444444; fill-opacity: 0.10;' clip-path='url(#cpMzMyLjI5fDM5Mi43NXwxNTAuMTN8MjEuOTk=)' />
<circle cx='343.67' cy='54.50' r='2.13' style='stroke-width: 0.00; stroke: #444444; stroke-opacity: 0.10; fill: #444444; fill-opacity: 0.10;' clip-path='url(#cpMzMyLjI5fDM5Mi43NXwxNTAuMTN8MjEuOTk=)' />
<circle cx='363.77' cy='64.32' r='2.13' style='stroke-width: 0.00; stroke: #444444; stroke-opacity: 0.10; fill: #444444; fill-opacity: 0.10;' clip-path='url(#cpMzMyLjI5fDM5Mi43NXwxNTAuMTN8MjEuOTk=)' />
<circle cx='342.34' cy='67.88' r='2.13' style='stroke-width: 0.00; stroke: #444444; stroke-opacity: 0.10; fill: #444444; fill-opacity: 0.10;' clip-path='url(#cpMzMyLjI5fDM5Mi43NXwxNTAuMTN8MjEuOTk=)' />
<circle cx='335.27' cy='54.00' r='2.13' style='stroke-width: 0.00; stroke: #444444; stroke-opacity: 0.10; fill: #444444; fill-opacity: 0.10;' clip-path='url(#cpMzMyLjI5fDM5Mi43NXwxNTAuMTN8MjEuOTk=)' />
<circle cx='343.60' cy='64.49' r='2.13' style='stroke-width: 0.00; stroke: #444444; stroke-opacity: 0.10; fill: #444444; fill-opacity: 0.10;' clip-path='url(#cpMzMyLjI5fDM5Mi43NXwxNTAuMTN8MjEuOTk=)' />
<circle cx='350.75' cy='54.58' r='2.13' style='stroke-width: 0.00; stroke: #444444; stroke-opacity: 0.10; fill: #444444; fill-opacity: 0.10;' clip-path='url(#cpMzMyLjI5fDM5Mi43NXwxNTAuMTN8MjEuOTk=)' />
<circle cx='340.09' cy='59.90' r='2.13' style='stroke-width: 0.00; stroke: #444444; stroke-opacity: 0.10; fill: #444444; fill-opacity: 0.10;' clip-path='url(#cpMzMyLjI5fDM5Mi43NXwxNTAuMTN8MjEuOTk=)' />
<circle cx='344.84' cy='61.62' r='2.13' style='stroke-width: 0.00; stroke: #444444; stroke-opacity: 0.10; fill: #444444; fill-opacity: 0.10;' clip-path='url(#cpMzMyLjI5fDM5Mi43NXwxNTAuMTN8MjEuOTk=)' />
<circle cx='341.91' cy='62.26' r='2.13' style='stroke-width: 0.00; stroke: #444444; stroke-opacity: 0.10; fill: #444444; fill-opacity: 0.10;' clip-path='url(#cpMzMyLjI5fDM5Mi43NXwxNTAuMTN8MjEuOTk=)' />
<circle cx='351.03' cy='67.00' r='2.13' style='stroke-width: 0.00; stroke: #444444; stroke-opacity: 0.10; fill: #444444; fill-opacity: 0.10;' clip-path='url(#cpMzMyLjI5fDM5Mi43NXwxNTAuMTN8MjEuOTk=)' />
<circle cx='341.46' cy='66.90' r='2.13' style='stroke-width: 0.00; stroke: #444444; stroke-opacity: 0.10; fill: #444444; fill-opacity: 0.10;' clip-path='url(#cpMzMyLjI5fDM5Mi43NXwxNTAuMTN8MjEuOTk=)' />
<circle cx='337.06' cy='57.89' r='2.13' style='stroke-width: 0.00; stroke: #444444; stroke-opacity: 0.10; fill: #444444; fill-opacity: 0.10;' clip-path='url(#cpMzMyLjI5fDM5Mi43NXwxNTAuMTN8MjEuOTk=)' />
<circle cx='342.85' cy='55.98' r='2.13' style='stroke-width: 0.00; stroke: #444444; stroke-opacity: 0.10; fill: #444444; fill-opacity: 0.10;' clip-path='url(#cpMzMyLjI5fDM5Mi43NXwxNTAuMTN8MjEuOTk=)' />
<circle cx='335.69' cy='60.31' r='2.13' style='stroke-width: 0.00; stroke: #444444; stroke-opacity: 0.10; fill: #444444; fill-opacity: 0.10;' clip-path='url(#cpMzMyLjI5fDM5Mi43NXwxNTAuMTN8MjEuOTk=)' />
<circle cx='347.12' cy='56.82' r='2.13' style='stroke-width: 0.00; stroke: #444444; stroke-opacity: 0.10; fill: #444444; fill-opacity: 0.10;' clip-path='url(#cpMzMyLjI5fDM5Mi43NXwxNTAuMTN8MjEuOTk=)' />
<circle cx='341.10' cy='57.97' r='2.13' style='stroke-width: 0.00; stroke: #444444; stroke-opacity: 0.10; fill: #444444; fill-opacity: 0.10;' clip-path='url(#cpMzMyLjI5fDM5Mi43NXwxNTAuMTN8MjEuOTk=)' />
<circle cx='352.91' cy='58.73' r='2.13' style='stroke-width: 0.00; stroke: #444444; stroke-opacity: 0.10; fill: #444444; fill-opacity: 0.10;' clip-path='url(#cpMzMyLjI5fDM5Mi43NXwxNTAuMTN8MjEuOTk=)' />
<circle cx='350.31' cy='65.65' r='2.13' style='stroke-width: 0.00; stroke: #444444; stroke-opacity: 0.10; fill: #444444; fill-opacity: 0.10;' clip-path='url(#cpMzMyLjI5fDM5Mi43NXwxNTAuMTN8MjEuOTk=)' />
<circle cx='352.85' cy='66.01' r='2.13' style='stroke-width: 0.00; stroke: #444444; stroke-opacity: 0.10; fill: #444444; fill-opacity: 0.10;' clip-path='url(#cpMzMyLjI5fDM5Mi43NXwxNTAuMTN8MjEuOTk=)' />
<circle cx='339.44' cy='61.43' r='2.13' style='stroke-width: 0.00; stroke: #444444; stroke-opacity: 0.10; fill: #444444; fill-opacity: 0.10;' clip-path='url(#cpMzMyLjI5fDM5Mi43NXwxNTAuMTN8MjEuOTk=)' />
<circle cx='346.60' cy='65.13' r='2.13' style='stroke-width: 0.00; stroke: #444444; stroke-opacity: 0.10; fill: #444444; fill-opacity: 0.10;' clip-path='url(#cpMzMyLjI5fDM5Mi43NXwxNTAuMTN8MjEuOTk=)' />
<circle cx='346.23' cy='27.81' r='2.13' style='stroke-width: 0.00; stroke: #444444; stroke-opacity: 0.10; fill: #444444; fill-opacity: 0.10;' clip-path='url(#cpMzMyLjI5fDM5Mi43NXwxNTAuMTN8MjEuOTk=)' />
<circle cx='336.68' cy='33.46' r='2.13' style='stroke-width: 0.00; stroke: #444444; stroke-opacity: 0.10; fill: #444444; fill-opacity: 0.10;' clip-path='url(#cpMzMyLjI5fDM5Mi43NXwxNTAuMTN8MjEuOTk=)' />
<circle cx='363.65' cy='38.00' r='2.13' style='stroke-width: 0.00; stroke: #444444; stroke-opacity: 0.10; fill: #444444; fill-opacity: 0.10;' clip-path='url(#cpMzMyLjI5fDM5Mi43NXwxNTAuMTN8MjEuOTk=)' />
<circle cx='344.42' cy='30.41' r='2.13' style='stroke-width: 0.00; stroke: #444444; stroke-opacity: 0.10; fill: #444444; fill-opacity: 0.10;' clip-path='url(#cpMzMyLjI5fDM5Mi43NXwxNTAuMTN8MjEuOTk=)' />
<circle cx='335.19' cy='39.90' r='2.13' style='stroke-width: 0.00; stroke: #444444; stroke-opacity: 0.10; fill: #444444; fill-opacity: 0.10;' clip-path='url(#cpMzMyLjI5fDM5Mi43NXwxNTAuMTN8MjEuOTk=)' />
<circle cx='346.43' cy='28.07' r='2.13' style='stroke-width: 0.00; stroke: #444444; stroke-opacity: 0.10; fill: #444444; fill-opacity: 0.10;' clip-path='url(#cpMzMyLjI5fDM5Mi43NXwxNTAuMTN8MjEuOTk=)' />
<circle cx='344.80' cy='41.73' r='2.13' style='stroke-width: 0.00; stroke: #444444; stroke-opacity: 0.10; fill: #444444; fill-opacity: 0.10;' clip-path='url(#cpMzMyLjI5fDM5Mi43NXwxNTAuMTN8MjEuOTk=)' />
<circle cx='347.67' cy='30.24' r='2.13' style='stroke-width: 0.00; stroke: #444444; stroke-opacity: 0.10; fill: #444444; fill-opacity: 0.10;' clip-path='url(#cpMzMyLjI5fDM5Mi43NXwxNTAuMTN8MjEuOTk=)' />
<circle cx='340.19' cy='32.49' r='2.13' style='stroke-width: 0.00; stroke: #444444; stroke-opacity: 0.10; fill: #444444; fill-opacity: 0.10;' clip-path='url(#cpMzMyLjI5fDM5Mi43NXwxNTAuMTN8MjEuOTk=)' />
<circle cx='337.84' cy='40.87' r='2.13' style='stroke-width: 0.00; stroke: #444444; stroke-opacity: 0.10; fill: #444444; fill-opacity: 0.10;' clip-path='url(#cpMzMyLjI5fDM5Mi43NXwxNTAuMTN8MjEuOTk=)' />
<circle cx='357.09' cy='33.84' r='2.13' style='stroke-width: 0.00; stroke: #444444; stroke-opacity: 0.10; fill: #444444; fill-opacity: 0.10;' clip-path='url(#cpMzMyLjI5fDM5Mi43NXwxNTAuMTN8MjEuOTk=)' />
<circle cx='335.54' cy='32.23' r='2.13' style='stroke-width: 0.00; stroke: #444444; stroke-opacity: 0.10; fill: #444444; fill-opacity: 0.10;' clip-path='url(#cpMzMyLjI5fDM5Mi43NXwxNTAuMTN8MjEuOTk=)' />
<circle cx='338.70' cy='36.67' r='2.13' style='stroke-width: 0.00; stroke: #444444; stroke-opacity: 0.10; fill: #444444; fill-opacity: 0.10;' clip-path='url(#cpMzMyLjI5fDM5Mi43NXwxNTAuMTN8MjEuOTk=)' />
<circle cx='340.36' cy='33.36' r='2.13' style='stroke-width: 0.00; stroke: #444444; stroke-opacity: 0.10; fill: #444444; fill-opacity: 0.10;' clip-path='url(#cpMzMyLjI5fDM5Mi43NXwxNTAuMTN8MjEuOTk=)' />
<circle cx='336.05' cy='38.03' r='2.13' style='stroke-width: 0.00; stroke: #444444; stroke-opacity: 0.10; fill: #444444; fill-opacity: 0.10;' clip-path='url(#cpMzMyLjI5fDM5Mi43NXwxNTAuMTN8MjEuOTk=)' />
<circle cx='343.70' cy='27.83' r='2.13' style='stroke-width: 0.00; stroke: #444444; stroke-opacity: 0.10; fill: #444444; fill-opacity: 0.10;' clip-path='url(#cpMzMyLjI5fDM5Mi43NXwxNTAuMTN8MjEuOTk=)' />
<circle cx='346.06' cy='39.84' r='2.13' style='stroke-width: 0.00; stroke: #444444; stroke-opacity: 0.10; fill: #444444; fill-opacity: 0.10;' clip-path='url(#cpMzMyLjI5fDM5Mi43NXwxNTAuMTN8MjEuOTk=)' />
<circle cx='350.60' cy='42.49' r='2.13' style='stroke-width: 0.00; stroke: #444444; stroke-opacity: 0.10; fill: #444444; fill-opacity: 0.10;' clip-path='url(#cpMzMyLjI5fDM5Mi43NXwxNTAuMTN8MjEuOTk=)' />
<circle cx='353.42' cy='41.02' r='2.13' style='stroke-width: 0.00; stroke: #444444; stroke-opacity: 0.10; fill: #444444; fill-opacity: 0.10;' clip-path='url(#cpMzMyLjI5fDM5Mi43NXwxNTAuMTN8MjEuOTk=)' />
<circle cx='353.59' cy='37.09' r='2.13' style='stroke-width: 0.00; stroke: #444444; stroke-opacity: 0.10; fill: #444444; fill-opacity: 0.10;' clip-path='url(#cpMzMyLjI5fDM5Mi43NXwxNTAuMTN8MjEuOTk=)' />
<circle cx='344.27' cy='28.91' r='2.13' style='stroke-width: 0.00; stroke: #444444; stroke-opacity: 0.10; fill: #444444; fill-opacity: 0.10;' clip-path='url(#cpMzMyLjI5fDM5Mi43NXwxNTAuMTN8MjEuOTk=)' />
<circle cx='343.68' cy='29.53' r='2.13' style='stroke-width: 0.00; stroke: #444444; stroke-opacity: 0.10; fill: #444444; fill-opacity: 0.10;' clip-path='url(#cpMzMyLjI5fDM5Mi43NXwxNTAuMTN8MjEuOTk=)' />
<polygon points='341.48,137.23 352.17,141.06 362.86,137.23 352.17,133.40 341.48,137.23 ' style='stroke-width: 1.07; stroke: #514155; fill: #514155;' clip-path='url(#cpMzMyLjI5fDM5Mi43NXwxNTAuMTN8MjEuOTk=)' />
<polygon points='351.47,111.68 364.84,115.51 378.21,111.68 364.84,107.85 351.47,111.68 ' style='stroke-width: 1.07; stroke: #4D2C55; fill: #4D2C55;' clip-path='url(#cpMzMyLjI5fDM5Mi43NXwxNTAuMTN8MjEuOTk=)' />
<polygon points='338.06,86.13 342.42,89.97 346.77,86.13 342.42,82.30 338.06,86.13 ' style='stroke-width: 1.07; stroke: #545055; fill: #545055;' clip-path='url(#cpMzMyLjI5fDM5Mi43NXwxNTAuMTN8MjEuOTk=)' />
<polygon points='337.74,60.59 344.75,64.42 351.75,60.59 344.75,56.75 337.74,60.59 ' style='stroke-width: 1.07; stroke: #534D55; fill: #534D55;' clip-path='url(#cpMzMyLjI5fDM5Mi43NXwxNTAuMTN8MjEuOTk=)' />
<polygon points='337.74,35.04 344.75,38.87 351.75,35.04 344.75,31.21 337.74,35.04 ' style='stroke-width: 1.07; stroke: #534D55; fill: #534D55;' clip-path='url(#cpMzMyLjI5fDM5Mi43NXwxNTAuMTN8MjEuOTk=)' />
<rect x='332.29' y='21.99' width='60.46' height='128.15' style='stroke-width: 0.78; stroke: #333333;' clip-path='url(#cpMzMyLjI5fDM5Mi43NXwxNTAuMTN8MjEuOTk=)' />
<defs>
  <clipPath id='cpMC4wMHw1MTAuMjR8MTcyLjYzfDAuMDA='>
    <rect x='0.00' y='0.00' width='510.24' height='172.63' />
  </clipPath>
</defs>
<g clip-path='url(#cpMC4wMHw1MTAuMjR8MTcyLjYzfDAuMDA=)'><text x='268.58' y='139.52' style='font-size: 6.40px; fill: #4D4D4D; font-family: Arial;' textLength='60.13px' lengthAdjust='spacingAndGlyphs'>definitely not infected</text></g>
<g clip-path='url(#cpMC4wMHw1MTAuMjR8MTcyLjYzfDAuMDA=)'><text x='276.05' y='113.97' style='font-size: 6.40px; fill: #4D4D4D; font-family: Arial;' textLength='52.66px' lengthAdjust='spacingAndGlyphs'>very unreasonable</text></g>
<g clip-path='url(#cpMC4wMHw1MTAuMjR8MTcyLjYzfDAuMDA=)'><text x='269.30' y='84.97' style='font-size: 6.40px; fill: #4D4D4D; font-family: Arial;' textLength='59.40px' lengthAdjust='spacingAndGlyphs'>I will certainly not get</text></g>
<g clip-path='url(#cpMC4wMHw1MTAuMjR8MTcyLjYzfDAuMDA=)'><text x='314.83' y='91.88' style='font-size: 6.40px; fill: #4D4D4D; font-family: Arial;' textLength='13.88px' lengthAdjust='spacingAndGlyphs'>fined</text></g>
<g clip-path='url(#cpMC4wMHw1MTAuMjR8MTcyLjYzfDAuMDA=)'><text x='293.50' y='62.88' style='font-size: 6.40px; fill: #4D4D4D; font-family: Arial;' textLength='35.21px' lengthAdjust='spacingAndGlyphs'>very unlikely</text></g>
<g clip-path='url(#cpMC4wMHw1MTAuMjR8MTcyLjYzfDAuMDA=)'><text x='293.50' y='37.33' style='font-size: 6.40px; fill: #4D4D4D; font-family: Arial;' textLength='35.21px' lengthAdjust='spacingAndGlyphs'>very unlikely</text></g>
<polyline points='330.30,137.23 332.29,137.23 ' style='stroke-width: 0.78; stroke: #333333; stroke-linecap: butt;' clip-path='url(#cpMC4wMHw1MTAuMjR8MTcyLjYzfDAuMDA=)' />
<polyline points='330.30,111.68 332.29,111.68 ' style='stroke-width: 0.78; stroke: #333333; stroke-linecap: butt;' clip-path='url(#cpMC4wMHw1MTAuMjR8MTcyLjYzfDAuMDA=)' />
<polyline points='330.30,86.13 332.29,86.13 ' style='stroke-width: 0.78; stroke: #333333; stroke-linecap: butt;' clip-path='url(#cpMC4wMHw1MTAuMjR8MTcyLjYzfDAuMDA=)' />
<polyline points='330.30,60.59 332.29,60.59 ' style='stroke-width: 0.78; stroke: #333333; stroke-linecap: butt;' clip-path='url(#cpMC4wMHw1MTAuMjR8MTcyLjYzfDAuMDA=)' />
<polyline points='330.30,35.04 332.29,35.04 ' style='stroke-width: 0.78; stroke: #333333; stroke-linecap: butt;' clip-path='url(#cpMC4wMHw1MTAuMjR8MTcyLjYzfDAuMDA=)' />
<polyline points='392.75,137.18 394.75,137.18 ' style='stroke-width: 0.78; stroke: #333333; stroke-linecap: butt;' clip-path='url(#cpMC4wMHw1MTAuMjR8MTcyLjYzfDAuMDA=)' />
<polyline points='392.75,111.65 394.75,111.65 ' style='stroke-width: 0.78; stroke: #333333; stroke-linecap: butt;' clip-path='url(#cpMC4wMHw1MTAuMjR8MTcyLjYzfDAuMDA=)' />
<polyline points='392.75,86.12 394.75,86.12 ' style='stroke-width: 0.78; stroke: #333333; stroke-linecap: butt;' clip-path='url(#cpMC4wMHw1MTAuMjR8MTcyLjYzfDAuMDA=)' />
<polyline points='392.75,60.60 394.75,60.60 ' style='stroke-width: 0.78; stroke: #333333; stroke-linecap: butt;' clip-path='url(#cpMC4wMHw1MTAuMjR8MTcyLjYzfDAuMDA=)' />
<polyline points='392.75,35.07 394.75,35.07 ' style='stroke-width: 0.78; stroke: #333333; stroke-linecap: butt;' clip-path='url(#cpMC4wMHw1MTAuMjR8MTcyLjYzfDAuMDA=)' />
<g clip-path='url(#cpMC4wMHw1MTAuMjR8MTcyLjYzfDAuMDA=)'><text x='396.34' y='139.47' style='font-size: 6.40px; fill: #4D4D4D; font-family: Arial;' textLength='49.45px' lengthAdjust='spacingAndGlyphs'>definitely infected</text></g>
<g clip-path='url(#cpMC4wMHw1MTAuMjR8MTcyLjYzfDAuMDA=)'><text x='396.34' y='113.94' style='font-size: 6.40px; fill: #4D4D4D; font-family: Arial;' textLength='45.54px' lengthAdjust='spacingAndGlyphs'>very reasonable</text></g>
<g clip-path='url(#cpMC4wMHw1MTAuMjR8MTcyLjYzfDAuMDA=)'><text x='396.34' y='84.96' style='font-size: 6.40px; fill: #4D4D4D; font-family: Arial;' textLength='48.73px' lengthAdjust='spacingAndGlyphs'>I will certainly get</text></g>
<g clip-path='url(#cpMC4wMHw1MTAuMjR8MTcyLjYzfDAuMDA=)'><text x='396.34' y='91.87' style='font-size: 6.40px; fill: #4D4D4D; font-family: Arial;' textLength='13.88px' lengthAdjust='spacingAndGlyphs'>fined</text></g>
<g clip-path='url(#cpMC4wMHw1MTAuMjR8MTcyLjYzfDAuMDA=)'><text x='396.34' y='62.89' style='font-size: 6.40px; fill: #4D4D4D; font-family: Arial;' textLength='28.09px' lengthAdjust='spacingAndGlyphs'>very likely</text></g>
<g clip-path='url(#cpMC4wMHw1MTAuMjR8MTcyLjYzfDAuMDA=)'><text x='396.34' y='37.36' style='font-size: 6.40px; fill: #4D4D4D; font-family: Arial;' textLength='28.09px' lengthAdjust='spacingAndGlyphs'>very likely</text></g>
<polyline points='339.57,152.13 339.57,150.13 ' style='stroke-width: 0.78; stroke: #333333; stroke-linecap: butt;' clip-path='url(#cpMC4wMHw1MTAuMjR8MTcyLjYzfDAuMDA=)' />
<polyline points='350.96,152.13 350.96,150.13 ' style='stroke-width: 0.78; stroke: #333333; stroke-linecap: butt;' clip-path='url(#cpMC4wMHw1MTAuMjR8MTcyLjYzfDAuMDA=)' />
<polyline points='362.36,152.13 362.36,150.13 ' style='stroke-width: 0.78; stroke: #333333; stroke-linecap: butt;' clip-path='url(#cpMC4wMHw1MTAuMjR8MTcyLjYzfDAuMDA=)' />
<polyline points='373.76,152.13 373.76,150.13 ' style='stroke-width: 0.78; stroke: #333333; stroke-linecap: butt;' clip-path='url(#cpMC4wMHw1MTAuMjR8MTcyLjYzfDAuMDA=)' />
<polyline points='385.15,152.13 385.15,150.13 ' style='stroke-width: 0.78; stroke: #333333; stroke-linecap: butt;' clip-path='url(#cpMC4wMHw1MTAuMjR8MTcyLjYzfDAuMDA=)' />
<g clip-path='url(#cpMC4wMHw1MTAuMjR8MTcyLjYzfDAuMDA=)'><text x='337.79' y='158.30' style='font-size: 6.40px; fill: #4D4D4D; font-family: Arial;' textLength='3.56px' lengthAdjust='spacingAndGlyphs'>1</text></g>
<g clip-path='url(#cpMC4wMHw1MTAuMjR8MTcyLjYzfDAuMDA=)'><text x='349.18' y='158.30' style='font-size: 6.40px; fill: #4D4D4D; font-family: Arial;' textLength='3.56px' lengthAdjust='spacingAndGlyphs'>2</text></g>
<g clip-path='url(#cpMC4wMHw1MTAuMjR8MTcyLjYzfDAuMDA=)'><text x='360.58' y='158.30' style='font-size: 6.40px; fill: #4D4D4D; font-family: Arial;' textLength='3.56px' lengthAdjust='spacingAndGlyphs'>3</text></g>
<g clip-path='url(#cpMC4wMHw1MTAuMjR8MTcyLjYzfDAuMDA=)'><text x='371.98' y='158.30' style='font-size: 6.40px; fill: #4D4D4D; font-family: Arial;' textLength='3.56px' lengthAdjust='spacingAndGlyphs'>4</text></g>
<g clip-path='url(#cpMC4wMHw1MTAuMjR8MTcyLjYzfDAuMDA=)'><text x='383.37' y='158.30' style='font-size: 6.40px; fill: #4D4D4D; font-family: Arial;' textLength='3.56px' lengthAdjust='spacingAndGlyphs'>5</text></g>
<g clip-path='url(#cpMC4wMHw1MTAuMjR8MTcyLjYzfDAuMDA=)'><text x='320.50' y='167.14' style='font-size: 8.00px; font-family: Arial;' textLength='84.05px' lengthAdjust='spacingAndGlyphs'>Scores and 99.99% CIs</text></g>
<defs>
  <clipPath id='cpMC4wMHwyNjQuNTl8MTUwLjEzfDIxLjk5'>
    <rect x='0.00' y='21.99' width='264.59' height='128.15' />
  </clipPath>
</defs>
<defs>
  <clipPath id='cpMC4wMHw1MTAuMjR8MTcyLjYzfDAuMDA='>
    <rect x='0.00' y='0.00' width='510.24' height='172.63' />
  </clipPath>
</defs>
<g clip-path='url(#cpMC4wMHw1MTAuMjR8MTcyLjYzfDAuMDA=)'><text x='3.59' y='131.91' style='font-size: 8.00px; font-family: Arial;' textLength='237.00px' lengthAdjust='spacingAndGlyphs'>AttInExOthThinkInf * AttInEvOthThinkInf [If I keep at least {distRec}</text></g>
<g clip-path='url(#cpMC4wMHw1MTAuMjR8MTcyLjYzfDAuMDA=)'><text x='3.59' y='140.55' style='font-size: 8.00px; font-family: Arial;' textLength='182.75px' lengthAdjust='spacingAndGlyphs'>distance from others, other people will think I am ...]</text></g>
<g clip-path='url(#cpMC4wMHw1MTAuMjR8MTcyLjYzfDAuMDA=)'><text x='3.59' y='149.19' style='font-size: 8.00px; font-family: Arial;' textLength='66.70px' lengthAdjust='spacingAndGlyphs'>[AttIn_OthThinkInf]</text></g>
<g clip-path='url(#cpMC4wMHw1MTAuMjR8MTcyLjYzfDAuMDA=)'><text x='3.59' y='106.13' style='font-size: 8.00px; font-family: Arial;' textLength='261.01px' lengthAdjust='spacingAndGlyphs'>AttInExReasUniFl * AttInEvReasUniFl [If I keep at least {distRec} distance</text></g>
<g clip-path='url(#cpMC4wMHw1MTAuMjR8MTcyLjYzfDAuMDA=)'><text x='3.59' y='114.77' style='font-size: 8.00px; font-family: Arial;' textLength='144.05px' lengthAdjust='spacingAndGlyphs'>from others, others will think that I am ...]</text></g>
<g clip-path='url(#cpMC4wMHw1MTAuMjR8MTcyLjYzfDAuMDA=)'><text x='3.59' y='123.41' style='font-size: 8.00px; font-family: Arial;' textLength='62.69px' lengthAdjust='spacingAndGlyphs'>[AttIn_ReasUniFl]</text></g>
<g clip-path='url(#cpMC4wMHw1MTAuMjR8MTcyLjYzfDAuMDA=)'><text x='3.59' y='80.35' style='font-size: 8.00px; font-family: Arial;' textLength='244.57px' lengthAdjust='spacingAndGlyphs'>AttInExFined * AttInEvFined [If I keep at least {distRec} distance from</text></g>
<g clip-path='url(#cpMC4wMHw1MTAuMjR8MTcyLjYzfDAuMDA=)'><text x='3.59' y='88.99' style='font-size: 8.00px; font-family: Arial;' textLength='35.57px' lengthAdjust='spacingAndGlyphs'>others, ...]</text></g>
<g clip-path='url(#cpMC4wMHw1MTAuMjR8MTcyLjYzfDAuMDA=)'><text x='3.59' y='97.63' style='font-size: 8.00px; font-family: Arial;' textLength='45.36px' lengthAdjust='spacingAndGlyphs'>[AttIn_Fined]</text></g>
<g clip-path='url(#cpMC4wMHw1MTAuMjR8MTcyLjYzfDAuMDA=)'><text x='3.59' y='54.56' style='font-size: 8.00px; font-family: Arial;' textLength='243.23px' lengthAdjust='spacingAndGlyphs'>AttInExTradUni * AttInEvTradUni [If I keep at least {distRec} distance</text></g>
<g clip-path='url(#cpMC4wMHw1MTAuMjR8MTcyLjYzfDAuMDA=)'><text x='3.59' y='63.20' style='font-size: 8.00px; font-family: Arial;' textLength='191.64px' lengthAdjust='spacingAndGlyphs'>from others, getting infected with the coronavirus is ...]</text></g>
<g clip-path='url(#cpMC4wMHw1MTAuMjR8MTcyLjYzfDAuMDA=)'><text x='3.59' y='71.84' style='font-size: 8.00px; font-family: Arial;' textLength='53.80px' lengthAdjust='spacingAndGlyphs'>[AttIn_TradUni]</text></g>
<g clip-path='url(#cpMC4wMHw1MTAuMjR8MTcyLjYzfDAuMDA=)'><text x='3.59' y='28.78' style='font-size: 8.00px; font-family: Arial;' textLength='243.23px' lengthAdjust='spacingAndGlyphs'>AttInExTradUni * AttInEvTradUni [If I keep at least {distRec} distance</text></g>
<g clip-path='url(#cpMC4wMHw1MTAuMjR8MTcyLjYzfDAuMDA=)'><text x='3.59' y='37.42' style='font-size: 8.00px; font-family: Arial;' textLength='191.64px' lengthAdjust='spacingAndGlyphs'>from others, getting infected with the coronavirus is ...]</text></g>
<g clip-path='url(#cpMC4wMHw1MTAuMjR8MTcyLjYzfDAuMDA=)'><text x='3.59' y='46.06' style='font-size: 8.00px; font-family: Arial;' textLength='53.80px' lengthAdjust='spacingAndGlyphs'>[AttIn_TradUni]</text></g>
<defs>
  <clipPath id='cpMC4wMHwyNjQuNTl8MTUwLjEzfDIxLjk5'>
    <rect x='0.00' y='21.99' width='264.59' height='128.15' />
  </clipPath>
</defs>
<defs>
  <clipPath id='cpMC4wMHw1MTAuMjR8MTcyLjYzfDAuMDA='>
    <rect x='0.00' y='0.00' width='510.24' height='172.63' />
  </clipPath>
</defs>
<defs>
  <clipPath id='cpNDQ5Ljc4fDUxMC4yNHwxNzIuNjN8MTguMDA='>
    <rect x='449.78' y='18.00' width='60.46' height='154.63' />
  </clipPath>
</defs>
<rect x='449.78' y='18.00' width='60.46' height='154.63' style='stroke-width: 0.78; stroke: #FFFFFF; fill: #FFFFFF;' clip-path='url(#cpNDQ5Ljc4fDUxMC4yNHwxNzIuNjN8MTguMDA=)' />
<defs>
  <clipPath id='cpNDUzLjc2fDUwNi4yNXwxNTAuMTN8MjEuOTk='>
    <rect x='453.76' y='21.99' width='52.49' height='128.15' />
  </clipPath>
</defs>
<rect x='453.76' y='21.99' width='52.49' height='128.15' style='stroke-width: 0.78; stroke: none; fill: #FFFFFF;' clip-path='url(#cpNDUzLjc2fDUwNi4yNXwxNTAuMTN8MjEuOTk=)' />
<polyline points='462.11,150.13 462.11,21.99 ' style='stroke-width: 0.39; stroke: #EBEBEB; stroke-linecap: butt;' clip-path='url(#cpNDUzLjc2fDUwNi4yNXwxNTAuMTN8MjEuOTk=)' />
<polyline points='474.04,150.13 474.04,21.99 ' style='stroke-width: 0.39; stroke: #EBEBEB; stroke-linecap: butt;' clip-path='url(#cpNDUzLjc2fDUwNi4yNXwxNTAuMTN8MjEuOTk=)' />
<polyline points='485.97,150.13 485.97,21.99 ' style='stroke-width: 0.39; stroke: #EBEBEB; stroke-linecap: butt;' clip-path='url(#cpNDUzLjc2fDUwNi4yNXwxNTAuMTN8MjEuOTk=)' />
<polyline points='497.90,150.13 497.90,21.99 ' style='stroke-width: 0.39; stroke: #EBEBEB; stroke-linecap: butt;' clip-path='url(#cpNDUzLjc2fDUwNi4yNXwxNTAuMTN8MjEuOTk=)' />
<polyline points='456.15,150.13 456.15,21.99 ' style='stroke-width: 0.78; stroke: #EBEBEB; stroke-linecap: butt;' clip-path='url(#cpNDUzLjc2fDUwNi4yNXwxNTAuMTN8MjEuOTk=)' />
<polyline points='468.08,150.13 468.08,21.99 ' style='stroke-width: 0.78; stroke: #EBEBEB; stroke-linecap: butt;' clip-path='url(#cpNDUzLjc2fDUwNi4yNXwxNTAuMTN8MjEuOTk=)' />
<polyline points='480.01,150.13 480.01,21.99 ' style='stroke-width: 0.78; stroke: #EBEBEB; stroke-linecap: butt;' clip-path='url(#cpNDUzLjc2fDUwNi4yNXwxNTAuMTN8MjEuOTk=)' />
<polyline points='491.94,150.13 491.94,21.99 ' style='stroke-width: 0.78; stroke: #EBEBEB; stroke-linecap: butt;' clip-path='url(#cpNDUzLjc2fDUwNi4yNXwxNTAuMTN8MjEuOTk=)' />
<polyline points='503.87,150.13 503.87,21.99 ' style='stroke-width: 0.78; stroke: #EBEBEB; stroke-linecap: butt;' clip-path='url(#cpNDUzLjc2fDUwNi4yNXwxNTAuMTN8MjEuOTk=)' />
<line x1='468.08' y1='150.13' x2='468.08' y2='21.99' style='stroke-width: 1.07; stroke: #BEBEBE; stroke-linecap: butt;' clip-path='url(#cpNDUzLjc2fDUwNi4yNXwxNTAuMTN8MjEuOTk=)' />
<line x1='480.01' y1='150.13' x2='480.01' y2='21.99' style='stroke-width: 1.07; stroke: #BEBEBE; stroke-linecap: butt;' clip-path='url(#cpNDUzLjc2fDUwNi4yNXwxNTAuMTN8MjEuOTk=)' />
<line x1='491.94' y1='150.13' x2='491.94' y2='21.99' style='stroke-width: 1.07; stroke: #BEBEBE; stroke-linecap: butt;' clip-path='url(#cpNDUzLjc2fDUwNi4yNXwxNTAuMTN8MjEuOTk=)' />
<polygon points='469.82,140.24 479.85,144.31 489.94,140.24 479.85,136.18 469.82,140.24 ' style='stroke-width: 2.13; fill: #545555; fill-opacity: 0.50;' clip-path='url(#cpNDUzLjc2fDUwNi4yNXwxNTAuMTN8MjEuOTk=)' />
<polygon points='471.33,113.15 480.67,117.22 489.80,113.15 480.67,109.09 471.33,113.15 ' style='stroke-width: 2.13; fill: #545255; fill-opacity: 0.50;' clip-path='url(#cpNDUzLjc2fDUwNi4yNXwxNTAuMTN8MjEuOTk=)' />
<polygon points='473.35,86.06 483.35,90.12 492.28,86.06 483.35,82.00 473.35,86.06 ' style='stroke-width: 2.13; fill: #524955; fill-opacity: 0.50;' clip-path='url(#cpNDUzLjc2fDUwNi4yNXwxNTAuMTN8MjEuOTk=)' />
<polygon points='474.78,58.97 485.33,63.03 494.07,58.97 485.33,54.90 474.78,58.97 ' style='stroke-width: 2.13; fill: #514254; fill-opacity: 0.50;' clip-path='url(#cpNDUzLjc2fDUwNi4yNXwxNTAuMTN8MjEuOTk=)' />
<polygon points='474.78,31.87 485.33,35.94 494.07,31.87 485.33,27.81 474.78,31.87 ' style='stroke-width: 2.13; fill: #514254; fill-opacity: 0.50;' clip-path='url(#cpNDUzLjc2fDUwNi4yNXwxNTAuMTN8MjEuOTk=)' />
<rect x='453.76' y='21.99' width='52.49' height='128.15' style='stroke-width: 0.78; stroke: #333333;' clip-path='url(#cpNDUzLjc2fDUwNi4yNXwxNTAuMTN8MjEuOTk=)' />
<defs>
  <clipPath id='cpNDQ5Ljc4fDUxMC4yNHwxNzIuNjN8MTguMDA='>
    <rect x='449.78' y='18.00' width='60.46' height='154.63' />
  </clipPath>
</defs>
<defs>
  <clipPath id='cpMC4wMHw1MTAuMjR8MTcyLjYzfDAuMDA='>
    <rect x='0.00' y='0.00' width='510.24' height='172.63' />
  </clipPath>
</defs>
<defs>
  <clipPath id='cpNDQ5Ljc4fDUxMC4yNHwxNzIuNjN8MTguMDA='>
    <rect x='449.78' y='18.00' width='60.46' height='154.63' />
  </clipPath>
</defs>
<defs>
  <clipPath id='cpMC4wMHw1MTAuMjR8MTcyLjYzfDAuMDA='>
    <rect x='0.00' y='0.00' width='510.24' height='172.63' />
  </clipPath>
</defs>
<defs>
  <clipPath id='cpNDQ5Ljc4fDUxMC4yNHwxNzIuNjN8MTguMDA='>
    <rect x='449.78' y='18.00' width='60.46' height='154.63' />
  </clipPath>
</defs>
<defs>
  <clipPath id='cpMC4wMHw1MTAuMjR8MTcyLjYzfDAuMDA='>
    <rect x='0.00' y='0.00' width='510.24' height='172.63' />
  </clipPath>
</defs>
<defs>
  <clipPath id='cpNDQ5Ljc4fDUxMC4yNHwxNzIuNjN8MTguMDA='>
    <rect x='449.78' y='18.00' width='60.46' height='154.63' />
  </clipPath>
</defs>
<defs>
  <clipPath id='cpMC4wMHw1MTAuMjR8MTcyLjYzfDAuMDA='>
    <rect x='0.00' y='0.00' width='510.24' height='172.63' />
  </clipPath>
</defs>
<defs>
  <clipPath id='cpNDQ5Ljc4fDUxMC4yNHwxNzIuNjN8MTguMDA='>
    <rect x='449.78' y='18.00' width='60.46' height='154.63' />
  </clipPath>
</defs>
<defs>
  <clipPath id='cpMC4wMHw1MTAuMjR8MTcyLjYzfDAuMDA='>
    <rect x='0.00' y='0.00' width='510.24' height='172.63' />
  </clipPath>
</defs>
<defs>
  <clipPath id='cpNDQ5Ljc4fDUxMC4yNHwxNzIuNjN8MTguMDA='>
    <rect x='449.78' y='18.00' width='60.46' height='154.63' />
  </clipPath>
</defs>
<defs>
  <clipPath id='cpMC4wMHw1MTAuMjR8MTcyLjYzfDAuMDA='>
    <rect x='0.00' y='0.00' width='510.24' height='172.63' />
  </clipPath>
</defs>
<defs>
  <clipPath id='cpNDQ5Ljc4fDUxMC4yNHwxNzIuNjN8MTguMDA='>
    <rect x='449.78' y='18.00' width='60.46' height='154.63' />
  </clipPath>
</defs>
<defs>
  <clipPath id='cpMC4wMHw1MTAuMjR8MTcyLjYzfDAuMDA='>
    <rect x='0.00' y='0.00' width='510.24' height='172.63' />
  </clipPath>
</defs>
<defs>
  <clipPath id='cpNDQ5Ljc4fDUxMC4yNHwxNzIuNjN8MTguMDA='>
    <rect x='449.78' y='18.00' width='60.46' height='154.63' />
  </clipPath>
</defs>
<defs>
  <clipPath id='cpMC4wMHw1MTAuMjR8MTcyLjYzfDAuMDA='>
    <rect x='0.00' y='0.00' width='510.24' height='172.63' />
  </clipPath>
</defs>
<polyline points='456.15,152.13 456.15,150.13 ' style='stroke-width: 0.78; stroke: #333333; stroke-linecap: butt;' clip-path='url(#cpMC4wMHw1MTAuMjR8MTcyLjYzfDAuMDA=)' />
<polyline points='468.08,152.13 468.08,150.13 ' style='stroke-width: 0.78; stroke: #333333; stroke-linecap: butt;' clip-path='url(#cpMC4wMHw1MTAuMjR8MTcyLjYzfDAuMDA=)' />
<polyline points='480.01,152.13 480.01,150.13 ' style='stroke-width: 0.78; stroke: #333333; stroke-linecap: butt;' clip-path='url(#cpMC4wMHw1MTAuMjR8MTcyLjYzfDAuMDA=)' />
<polyline points='491.94,152.13 491.94,150.13 ' style='stroke-width: 0.78; stroke: #333333; stroke-linecap: butt;' clip-path='url(#cpMC4wMHw1MTAuMjR8MTcyLjYzfDAuMDA=)' />
<polyline points='503.87,152.13 503.87,150.13 ' style='stroke-width: 0.78; stroke: #333333; stroke-linecap: butt;' clip-path='url(#cpMC4wMHw1MTAuMjR8MTcyLjYzfDAuMDA=)' />
<g clip-path='url(#cpMC4wMHw1MTAuMjR8MTcyLjYzfDAuMDA=)'><text x='450.63' y='158.30' style='font-size: 6.40px; fill: #4D4D4D; font-family: Arial;' textLength='11.03px' lengthAdjust='spacingAndGlyphs'>-1.0</text></g>
<g clip-path='url(#cpMC4wMHw1MTAuMjR8MTcyLjYzfDAuMDA=)'><text x='462.56' y='158.30' style='font-size: 6.40px; fill: #4D4D4D; font-family: Arial;' textLength='11.03px' lengthAdjust='spacingAndGlyphs'>-0.5</text></g>
<g clip-path='url(#cpMC4wMHw1MTAuMjR8MTcyLjYzfDAuMDA=)'><text x='475.56' y='158.30' style='font-size: 6.40px; fill: #4D4D4D; font-family: Arial;' textLength='8.90px' lengthAdjust='spacingAndGlyphs'>0.0</text></g>
<g clip-path='url(#cpMC4wMHw1MTAuMjR8MTcyLjYzfDAuMDA=)'><text x='487.49' y='158.30' style='font-size: 6.40px; fill: #4D4D4D; font-family: Arial;' textLength='8.90px' lengthAdjust='spacingAndGlyphs'>0.5</text></g>
<g clip-path='url(#cpMC4wMHw1MTAuMjR8MTcyLjYzfDAuMDA=)'><text x='499.42' y='158.30' style='font-size: 6.40px; fill: #4D4D4D; font-family: Arial;' textLength='8.90px' lengthAdjust='spacingAndGlyphs'>1.0</text></g>
<defs>
  <clipPath id='cpNDQ5Ljc4fDUxMC4yNHwxNzIuNjN8MTguMDA='>
    <rect x='449.78' y='18.00' width='60.46' height='154.63' />
  </clipPath>
</defs>
<defs>
  <clipPath id='cpMC4wMHw1MTAuMjR8MTcyLjYzfDAuMDA='>
    <rect x='0.00' y='0.00' width='510.24' height='172.63' />
  </clipPath>
</defs>
<defs>
  <clipPath id='cpNDQ5Ljc4fDUxMC4yNHwxNzIuNjN8MTguMDA='>
    <rect x='449.78' y='18.00' width='60.46' height='154.63' />
  </clipPath>
</defs>
<defs>
  <clipPath id='cpMC4wMHw1MTAuMjR8MTcyLjYzfDAuMDA='>
    <rect x='0.00' y='0.00' width='510.24' height='172.63' />
  </clipPath>
</defs>
<g clip-path='url(#cpMC4wMHw1MTAuMjR8MTcyLjYzfDAuMDA=)'><text x='437.32' y='167.14' style='font-size: 8.00px; font-family: Arial;' textLength='85.38px' lengthAdjust='spacingAndGlyphs'>95% CIs of associations</text></g>
<defs>
  <clipPath id='cpNDQ5Ljc4fDUxMC4yNHwxNzIuNjN8MTguMDA='>
    <rect x='449.78' y='18.00' width='60.46' height='154.63' />
  </clipPath>
</defs>
<defs>
  <clipPath id='cpMC4wMHw1MTAuMjR8MTcyLjYzfDAuMDA='>
    <rect x='0.00' y='0.00' width='510.24' height='172.63' />
  </clipPath>
</defs>
<defs>
  <clipPath id='cpNDQ5Ljc4fDUxMC4yNHwxNzIuNjN8MTguMDA='>
    <rect x='449.78' y='18.00' width='60.46' height='154.63' />
  </clipPath>
</defs>
<defs>
  <clipPath id='cpMC4wMHw1MTAuMjR8MTcyLjYzfDAuMDA='>
    <rect x='0.00' y='0.00' width='510.24' height='172.63' />
  </clipPath>
</defs>
<defs>
  <clipPath id='cpNDQ5Ljc4fDUxMC4yNHwxNzIuNjN8MTguMDA='>
    <rect x='449.78' y='18.00' width='60.46' height='154.63' />
  </clipPath>
</defs>
<defs>
  <clipPath id='cpMC4wMHw1MTAuMjR8MTcyLjYzfDAuMDA='>
    <rect x='0.00' y='0.00' width='510.24' height='172.63' />
  </clipPath>
</defs>
<defs>
  <clipPath id='cpNDQ5Ljc4fDUxMC4yNHwxNzIuNjN8MTguMDA='>
    <rect x='449.78' y='18.00' width='60.46' height='154.63' />
  </clipPath>
</defs>
<defs>
  <clipPath id='cpMC4wMHw1MTAuMjR8MTcyLjYzfDAuMDA='>
    <rect x='0.00' y='0.00' width='510.24' height='172.63' />
  </clipPath>
</defs>
<defs>
  <clipPath id='cpNDQ5Ljc4fDUxMC4yNHwxNzIuNjN8MTguMDA='>
    <rect x='449.78' y='18.00' width='60.46' height='154.63' />
  </clipPath>
</defs>
<defs>
  <clipPath id='cpMC4wMHw1MTAuMjR8MTcyLjYzfDAuMDA='>
    <rect x='0.00' y='0.00' width='510.24' height='172.63' />
  </clipPath>
</defs>
<defs>
  <clipPath id='cpNDQ5Ljc4fDUxMC4yNHwxNzIuNjN8MTguMDA='>
    <rect x='449.78' y='18.00' width='60.46' height='154.63' />
  </clipPath>
</defs>
<defs>
  <clipPath id='cpMC4wMHw1MTAuMjR8MTcyLjYzfDAuMDA='>
    <rect x='0.00' y='0.00' width='510.24' height='172.63' />
  </clipPath>
</defs>
<defs>
  <clipPath id='cpNDQ5Ljc4fDUxMC4yNHwxNzIuNjN8MTguMDA='>
    <rect x='449.78' y='18.00' width='60.46' height='154.63' />
  </clipPath>
</defs>
<defs>
  <clipPath id='cpMC4wMHw1MTAuMjR8MTcyLjYzfDAuMDA='>
    <rect x='0.00' y='0.00' width='510.24' height='172.63' />
  </clipPath>
</defs>
<g clip-path='url(#cpMC4wMHw1MTAuMjR8MTcyLjYzfDAuMDA=)'><text x='2.30' y='8.78' style='font-size: 9.60px; font-weight: bold; font-family: Arial;' textLength='147.76px' lengthAdjust='spacingAndGlyphs'>Means and associations (r) with </text></g>
<g clip-path='url(#cpMC4wMHw1MTAuMjR8MTcyLjYzfDAuMDA=)'><text x='150.07' y='8.78' style='font-size: 9.60px; font-weight: bold; font-family: Arial;' textLength='43.21px' lengthAdjust='spacingAndGlyphs'>proximity</text></g>
<g clip-path='url(#cpMC4wMHw1MTAuMjR8MTcyLjYzfDAuMDA=)'><text x='193.28' y='8.78' style='font-size: 9.60px; font-weight: bold; font-family: Arial;' textLength='2.67px' lengthAdjust='spacingAndGlyphs'> </text></g>
</svg>
