<?xml version='1.0' encoding='UTF-8' ?>
<svg xmlns='http://www.w3.org/2000/svg' xmlns:xlink='http://www.w3.org/1999/xlink' viewBox='0 0 510.24 142.87'>
<defs>
  <style type='text/css'><![CDATA[
    line, polyline, polygon, path, rect, circle {
      fill: none;
      stroke: #000000;
      stroke-linecap: round;
      stroke-linejoin: round;
      stroke-miterlimit: 10.00;
    }
  ]]></style>
</defs>
<rect width='100%' height='100%' style='stroke: none; fill: none;'/>
<defs>
  <clipPath id='cpMjY0LjU3fDQzNy4xM3wxNDIuODd8MTguMDA='>
    <rect x='264.57' y='18.00' width='172.56' height='124.87' />
  </clipPath>
</defs>
<rect x='264.57' y='18.00' width='172.56' height='124.87' style='stroke-width: 0.78; stroke: #FFFFFF; fill: #FFFFFF;' clip-path='url(#cpMjY0LjU3fDQzNy4xM3wxNDIuODd8MTguMDA=)' />
<defs>
  <clipPath id='cpMC4wMHw1MTAuMjR8MTQyLjg3fDAuMDA='>
    <rect x='0.00' y='0.00' width='510.24' height='142.87' />
  </clipPath>
</defs>
<defs>
  <clipPath id='cpMzE3LjY4fDM5MC43OHwxMjAuMzd8MjEuOTk='>
    <rect x='317.68' y='21.99' width='73.10' height='98.38' />
  </clipPath>
</defs>
<rect x='317.68' y='21.99' width='73.10' height='98.38' style='stroke-width: 0.78; stroke: none; fill: #FFFFFF;' clip-path='url(#cpMzE3LjY4fDM5MC43OHwxMjAuMzd8MjEuOTk=)' />
<polyline points='320.43,120.37 320.43,21.99 ' style='stroke-width: 0.39; stroke: #EBEBEB; stroke-linecap: butt;' clip-path='url(#cpMzE3LjY4fDM5MC43OHwxMjAuMzd8MjEuOTk=)' />
<polyline points='328.92,120.37 328.92,21.99 ' style='stroke-width: 0.39; stroke: #EBEBEB; stroke-linecap: butt;' clip-path='url(#cpMzE3LjY4fDM5MC43OHwxMjAuMzd8MjEuOTk=)' />
<polyline points='337.42,120.37 337.42,21.99 ' style='stroke-width: 0.39; stroke: #EBEBEB; stroke-linecap: butt;' clip-path='url(#cpMzE3LjY4fDM5MC43OHwxMjAuMzd8MjEuOTk=)' />
<polyline points='345.91,120.37 345.91,21.99 ' style='stroke-width: 0.39; stroke: #EBEBEB; stroke-linecap: butt;' clip-path='url(#cpMzE3LjY4fDM5MC43OHwxMjAuMzd8MjEuOTk=)' />
<polyline points='354.41,120.37 354.41,21.99 ' style='stroke-width: 0.39; stroke: #EBEBEB; stroke-linecap: butt;' clip-path='url(#cpMzE3LjY4fDM5MC43OHwxMjAuMzd8MjEuOTk=)' />
<polyline points='362.90,120.37 362.90,21.99 ' style='stroke-width: 0.39; stroke: #EBEBEB; stroke-linecap: butt;' clip-path='url(#cpMzE3LjY4fDM5MC43OHwxMjAuMzd8MjEuOTk=)' />
<polyline points='371.40,120.37 371.40,21.99 ' style='stroke-width: 0.39; stroke: #EBEBEB; stroke-linecap: butt;' clip-path='url(#cpMzE3LjY4fDM5MC43OHwxMjAuMzd8MjEuOTk=)' />
<polyline points='379.89,120.37 379.89,21.99 ' style='stroke-width: 0.39; stroke: #EBEBEB; stroke-linecap: butt;' clip-path='url(#cpMzE3LjY4fDM5MC43OHwxMjAuMzd8MjEuOTk=)' />
<polyline points='388.39,120.37 388.39,21.99 ' style='stroke-width: 0.39; stroke: #EBEBEB; stroke-linecap: butt;' clip-path='url(#cpMzE3LjY4fDM5MC43OHwxMjAuMzd8MjEuOTk=)' />
<polyline points='317.68,108.86 390.78,108.86 ' style='stroke-width: 0.78; stroke: #EBEBEB; stroke-linecap: butt;' clip-path='url(#cpMzE3LjY4fDM5MC43OHwxMjAuMzd8MjEuOTk=)' />
<polyline points='317.68,83.76 390.78,83.76 ' style='stroke-width: 0.78; stroke: #EBEBEB; stroke-linecap: butt;' clip-path='url(#cpMzE3LjY4fDM5MC43OHwxMjAuMzd8MjEuOTk=)' />
<polyline points='317.68,58.65 390.78,58.65 ' style='stroke-width: 0.78; stroke: #EBEBEB; stroke-linecap: butt;' clip-path='url(#cpMzE3LjY4fDM5MC43OHwxMjAuMzd8MjEuOTk=)' />
<polyline points='317.68,33.55 390.78,33.55 ' style='stroke-width: 0.78; stroke: #EBEBEB; stroke-linecap: butt;' clip-path='url(#cpMzE3LjY4fDM5MC43OHwxMjAuMzd8MjEuOTk=)' />
<polyline points='324.68,120.37 324.68,21.99 ' style='stroke-width: 0.78; stroke: #EBEBEB; stroke-linecap: butt;' clip-path='url(#cpMzE3LjY4fDM5MC43OHwxMjAuMzd8MjEuOTk=)' />
<polyline points='333.17,120.37 333.17,21.99 ' style='stroke-width: 0.78; stroke: #EBEBEB; stroke-linecap: butt;' clip-path='url(#cpMzE3LjY4fDM5MC43OHwxMjAuMzd8MjEuOTk=)' />
<polyline points='341.66,120.37 341.66,21.99 ' style='stroke-width: 0.78; stroke: #EBEBEB; stroke-linecap: butt;' clip-path='url(#cpMzE3LjY4fDM5MC43OHwxMjAuMzd8MjEuOTk=)' />
<polyline points='350.16,120.37 350.16,21.99 ' style='stroke-width: 0.78; stroke: #EBEBEB; stroke-linecap: butt;' clip-path='url(#cpMzE3LjY4fDM5MC43OHwxMjAuMzd8MjEuOTk=)' />
<polyline points='358.65,120.37 358.65,21.99 ' style='stroke-width: 0.78; stroke: #EBEBEB; stroke-linecap: butt;' clip-path='url(#cpMzE3LjY4fDM5MC43OHwxMjAuMzd8MjEuOTk=)' />
<polyline points='367.15,120.37 367.15,21.99 ' style='stroke-width: 0.78; stroke: #EBEBEB; stroke-linecap: butt;' clip-path='url(#cpMzE3LjY4fDM5MC43OHwxMjAuMzd8MjEuOTk=)' />
<polyline points='375.64,120.37 375.64,21.99 ' style='stroke-width: 0.78; stroke: #EBEBEB; stroke-linecap: butt;' clip-path='url(#cpMzE3LjY4fDM5MC43OHwxMjAuMzd8MjEuOTk=)' />
<polyline points='384.14,120.37 384.14,21.99 ' style='stroke-width: 0.78; stroke: #EBEBEB; stroke-linecap: butt;' clip-path='url(#cpMzE3LjY4fDM5MC43OHwxMjAuMzd8MjEuOTk=)' />
<circle cx='343.01' cy='115.29' r='2.13' style='stroke-width: 0.00; stroke: #444444; stroke-opacity: 0.10; fill: #444444; fill-opacity: 0.10;' clip-path='url(#cpMzE3LjY4fDM5MC43OHwxMjAuMzd8MjEuOTk=)' />
<circle cx='321.00' cy='104.59' r='2.13' style='stroke-width: 0.00; stroke: #444444; stroke-opacity: 0.10; fill: #444444; fill-opacity: 0.10;' clip-path='url(#cpMzE3LjY4fDM5MC43OHwxMjAuMzd8MjEuOTk=)' />
<circle cx='333.18' cy='103.41' r='2.13' style='stroke-width: 0.00; stroke: #444444; stroke-opacity: 0.10; fill: #444444; fill-opacity: 0.10;' clip-path='url(#cpMzE3LjY4fDM5MC43OHwxMjAuMzd8MjEuOTk=)' />
<circle cx='349.99' cy='115.90' r='2.13' style='stroke-width: 0.00; stroke: #444444; stroke-opacity: 0.10; fill: #444444; fill-opacity: 0.10;' clip-path='url(#cpMzE3LjY4fDM5MC43OHwxMjAuMzd8MjEuOTk=)' />
<circle cx='327.46' cy='102.97' r='2.13' style='stroke-width: 0.00; stroke: #444444; stroke-opacity: 0.10; fill: #444444; fill-opacity: 0.10;' clip-path='url(#cpMzE3LjY4fDM5MC43OHwxMjAuMzd8MjEuOTk=)' />
<circle cx='341.53' cy='102.18' r='2.13' style='stroke-width: 0.00; stroke: #444444; stroke-opacity: 0.10; fill: #444444; fill-opacity: 0.10;' clip-path='url(#cpMzE3LjY4fDM5MC43OHwxMjAuMzd8MjEuOTk=)' />
<circle cx='326.99' cy='111.12' r='2.13' style='stroke-width: 0.00; stroke: #444444; stroke-opacity: 0.10; fill: #444444; fill-opacity: 0.10;' clip-path='url(#cpMzE3LjY4fDM5MC43OHwxMjAuMzd8MjEuOTk=)' />
<circle cx='326.42' cy='113.48' r='2.13' style='stroke-width: 0.00; stroke: #444444; stroke-opacity: 0.10; fill: #444444; fill-opacity: 0.10;' clip-path='url(#cpMzE3LjY4fDM5MC43OHwxMjAuMzd8MjEuOTk=)' />
<circle cx='350.28' cy='102.39' r='2.13' style='stroke-width: 0.00; stroke: #444444; stroke-opacity: 0.10; fill: #444444; fill-opacity: 0.10;' clip-path='url(#cpMzE3LjY4fDM5MC43OHwxMjAuMzd8MjEuOTk=)' />
<circle cx='341.64' cy='114.36' r='2.13' style='stroke-width: 0.00; stroke: #444444; stroke-opacity: 0.10; fill: #444444; fill-opacity: 0.10;' clip-path='url(#cpMzE3LjY4fDM5MC43OHwxMjAuMzd8MjEuOTk=)' />
<circle cx='324.10' cy='101.44' r='2.13' style='stroke-width: 0.00; stroke: #444444; stroke-opacity: 0.10; fill: #444444; fill-opacity: 0.10;' clip-path='url(#cpMzE3LjY4fDM5MC43OHwxMjAuMzd8MjEuOTk=)' />
<circle cx='345.46' cy='110.32' r='2.13' style='stroke-width: 0.00; stroke: #444444; stroke-opacity: 0.10; fill: #444444; fill-opacity: 0.10;' clip-path='url(#cpMzE3LjY4fDM5MC43OHwxMjAuMzd8MjEuOTk=)' />
<circle cx='354.17' cy='109.44' r='2.13' style='stroke-width: 0.00; stroke: #444444; stroke-opacity: 0.10; fill: #444444; fill-opacity: 0.10;' clip-path='url(#cpMzE3LjY4fDM5MC43OHwxMjAuMzd8MjEuOTk=)' />
<circle cx='332.72' cy='107.19' r='2.13' style='stroke-width: 0.00; stroke: #444444; stroke-opacity: 0.10; fill: #444444; fill-opacity: 0.10;' clip-path='url(#cpMzE3LjY4fDM5MC43OHwxMjAuMzd8MjEuOTk=)' />
<circle cx='353.71' cy='110.85' r='2.13' style='stroke-width: 0.00; stroke: #444444; stroke-opacity: 0.10; fill: #444444; fill-opacity: 0.10;' clip-path='url(#cpMzE3LjY4fDM5MC43OHwxMjAuMzd8MjEuOTk=)' />
<circle cx='347.13' cy='109.93' r='2.13' style='stroke-width: 0.00; stroke: #444444; stroke-opacity: 0.10; fill: #444444; fill-opacity: 0.10;' clip-path='url(#cpMzE3LjY4fDM5MC43OHwxMjAuMzd8MjEuOTk=)' />
<circle cx='349.17' cy='103.47' r='2.13' style='stroke-width: 0.00; stroke: #444444; stroke-opacity: 0.10; fill: #444444; fill-opacity: 0.10;' clip-path='url(#cpMzE3LjY4fDM5MC43OHwxMjAuMzd8MjEuOTk=)' />
<circle cx='351.98' cy='112.24' r='2.13' style='stroke-width: 0.00; stroke: #444444; stroke-opacity: 0.10; fill: #444444; fill-opacity: 0.10;' clip-path='url(#cpMzE3LjY4fDM5MC43OHwxMjAuMzd8MjEuOTk=)' />
<circle cx='348.31' cy='101.59' r='2.13' style='stroke-width: 0.00; stroke: #444444; stroke-opacity: 0.10; fill: #444444; fill-opacity: 0.10;' clip-path='url(#cpMzE3LjY4fDM5MC43OHwxMjAuMzd8MjEuOTk=)' />
<circle cx='341.17' cy='103.22' r='2.13' style='stroke-width: 0.00; stroke: #444444; stroke-opacity: 0.10; fill: #444444; fill-opacity: 0.10;' clip-path='url(#cpMzE3LjY4fDM5MC43OHwxMjAuMzd8MjEuOTk=)' />
<circle cx='327.61' cy='113.18' r='2.13' style='stroke-width: 0.00; stroke: #444444; stroke-opacity: 0.10; fill: #444444; fill-opacity: 0.10;' clip-path='url(#cpMzE3LjY4fDM5MC43OHwxMjAuMzd8MjEuOTk=)' />
<circle cx='341.67' cy='86.13' r='2.13' style='stroke-width: 0.00; stroke: #444444; stroke-opacity: 0.10; fill: #444444; fill-opacity: 0.10;' clip-path='url(#cpMzE3LjY4fDM5MC43OHwxMjAuMzd8MjEuOTk=)' />
<circle cx='338.23' cy='87.10' r='2.13' style='stroke-width: 0.00; stroke: #444444; stroke-opacity: 0.10; fill: #444444; fill-opacity: 0.10;' clip-path='url(#cpMzE3LjY4fDM5MC43OHwxMjAuMzd8MjEuOTk=)' />
<circle cx='332.47' cy='85.02' r='2.13' style='stroke-width: 0.00; stroke: #444444; stroke-opacity: 0.10; fill: #444444; fill-opacity: 0.10;' clip-path='url(#cpMzE3LjY4fDM5MC43OHwxMjAuMzd8MjEuOTk=)' />
<circle cx='336.26' cy='81.45' r='2.13' style='stroke-width: 0.00; stroke: #444444; stroke-opacity: 0.10; fill: #444444; fill-opacity: 0.10;' clip-path='url(#cpMzE3LjY4fDM5MC43OHwxMjAuMzd8MjEuOTk=)' />
<circle cx='367.39' cy='89.68' r='2.13' style='stroke-width: 0.00; stroke: #444444; stroke-opacity: 0.10; fill: #444444; fill-opacity: 0.10;' clip-path='url(#cpMzE3LjY4fDM5MC43OHwxMjAuMzd8MjEuOTk=)' />
<circle cx='332.50' cy='80.53' r='2.13' style='stroke-width: 0.00; stroke: #444444; stroke-opacity: 0.10; fill: #444444; fill-opacity: 0.10;' clip-path='url(#cpMzE3LjY4fDM5MC43OHwxMjAuMzd8MjEuOTk=)' />
<circle cx='381.98' cy='76.58' r='2.13' style='stroke-width: 0.00; stroke: #444444; stroke-opacity: 0.10; fill: #444444; fill-opacity: 0.10;' clip-path='url(#cpMzE3LjY4fDM5MC43OHwxMjAuMzd8MjEuOTk=)' />
<circle cx='369.19' cy='83.17' r='2.13' style='stroke-width: 0.00; stroke: #444444; stroke-opacity: 0.10; fill: #444444; fill-opacity: 0.10;' clip-path='url(#cpMzE3LjY4fDM5MC43OHwxMjAuMzd8MjEuOTk=)' />
<circle cx='348.81' cy='83.56' r='2.13' style='stroke-width: 0.00; stroke: #444444; stroke-opacity: 0.10; fill: #444444; fill-opacity: 0.10;' clip-path='url(#cpMzE3LjY4fDM5MC43OHwxMjAuMzd8MjEuOTk=)' />
<circle cx='333.11' cy='84.37' r='2.13' style='stroke-width: 0.00; stroke: #444444; stroke-opacity: 0.10; fill: #444444; fill-opacity: 0.10;' clip-path='url(#cpMzE3LjY4fDM5MC43OHwxMjAuMzd8MjEuOTk=)' />
<circle cx='331.47' cy='83.00' r='2.13' style='stroke-width: 0.00; stroke: #444444; stroke-opacity: 0.10; fill: #444444; fill-opacity: 0.10;' clip-path='url(#cpMzE3LjY4fDM5MC43OHwxMjAuMzd8MjEuOTk=)' />
<circle cx='348.50' cy='78.50' r='2.13' style='stroke-width: 0.00; stroke: #444444; stroke-opacity: 0.10; fill: #444444; fill-opacity: 0.10;' clip-path='url(#cpMzE3LjY4fDM5MC43OHwxMjAuMzd8MjEuOTk=)' />
<circle cx='330.57' cy='81.49' r='2.13' style='stroke-width: 0.00; stroke: #444444; stroke-opacity: 0.10; fill: #444444; fill-opacity: 0.10;' clip-path='url(#cpMzE3LjY4fDM5MC43OHwxMjAuMzd8MjEuOTk=)' />
<circle cx='334.24' cy='86.05' r='2.13' style='stroke-width: 0.00; stroke: #444444; stroke-opacity: 0.10; fill: #444444; fill-opacity: 0.10;' clip-path='url(#cpMzE3LjY4fDM5MC43OHwxMjAuMzd8MjEuOTk=)' />
<circle cx='383.92' cy='80.80' r='2.13' style='stroke-width: 0.00; stroke: #444444; stroke-opacity: 0.10; fill: #444444; fill-opacity: 0.10;' clip-path='url(#cpMzE3LjY4fDM5MC43OHwxMjAuMzd8MjEuOTk=)' />
<circle cx='333.45' cy='76.57' r='2.13' style='stroke-width: 0.00; stroke: #444444; stroke-opacity: 0.10; fill: #444444; fill-opacity: 0.10;' clip-path='url(#cpMzE3LjY4fDM5MC43OHwxMjAuMzd8MjEuOTk=)' />
<circle cx='341.32' cy='85.20' r='2.13' style='stroke-width: 0.00; stroke: #444444; stroke-opacity: 0.10; fill: #444444; fill-opacity: 0.10;' clip-path='url(#cpMzE3LjY4fDM5MC43OHwxMjAuMzd8MjEuOTk=)' />
<circle cx='340.77' cy='88.37' r='2.13' style='stroke-width: 0.00; stroke: #444444; stroke-opacity: 0.10; fill: #444444; fill-opacity: 0.10;' clip-path='url(#cpMzE3LjY4fDM5MC43OHwxMjAuMzd8MjEuOTk=)' />
<circle cx='344.30' cy='89.34' r='2.13' style='stroke-width: 0.00; stroke: #444444; stroke-opacity: 0.10; fill: #444444; fill-opacity: 0.10;' clip-path='url(#cpMzE3LjY4fDM5MC43OHwxMjAuMzd8MjEuOTk=)' />
<circle cx='350.04' cy='82.26' r='2.13' style='stroke-width: 0.00; stroke: #444444; stroke-opacity: 0.10; fill: #444444; fill-opacity: 0.10;' clip-path='url(#cpMzE3LjY4fDM5MC43OHwxMjAuMzd8MjEuOTk=)' />
<circle cx='349.63' cy='84.11' r='2.13' style='stroke-width: 0.00; stroke: #444444; stroke-opacity: 0.10; fill: #444444; fill-opacity: 0.10;' clip-path='url(#cpMzE3LjY4fDM5MC43OHwxMjAuMzd8MjEuOTk=)' />
<circle cx='324.27' cy='89.07' r='2.13' style='stroke-width: 0.00; stroke: #444444; stroke-opacity: 0.10; fill: #444444; fill-opacity: 0.10;' clip-path='url(#cpMzE3LjY4fDM5MC43OHwxMjAuMzd8MjEuOTk=)' />
<circle cx='366.19' cy='79.21' r='2.13' style='stroke-width: 0.00; stroke: #444444; stroke-opacity: 0.10; fill: #444444; fill-opacity: 0.10;' clip-path='url(#cpMzE3LjY4fDM5MC43OHwxMjAuMzd8MjEuOTk=)' />
<circle cx='360.91' cy='91.28' r='2.13' style='stroke-width: 0.00; stroke: #444444; stroke-opacity: 0.10; fill: #444444; fill-opacity: 0.10;' clip-path='url(#cpMzE3LjY4fDM5MC43OHwxMjAuMzd8MjEuOTk=)' />
<circle cx='356.86' cy='55.59' r='2.13' style='stroke-width: 0.00; stroke: #444444; stroke-opacity: 0.10; fill: #444444; fill-opacity: 0.10;' clip-path='url(#cpMzE3LjY4fDM5MC43OHwxMjAuMzd8MjEuOTk=)' />
<circle cx='340.98' cy='62.88' r='2.13' style='stroke-width: 0.00; stroke: #444444; stroke-opacity: 0.10; fill: #444444; fill-opacity: 0.10;' clip-path='url(#cpMzE3LjY4fDM5MC43OHwxMjAuMzd8MjEuOTk=)' />
<circle cx='340.48' cy='60.04' r='2.13' style='stroke-width: 0.00; stroke: #444444; stroke-opacity: 0.10; fill: #444444; fill-opacity: 0.10;' clip-path='url(#cpMzE3LjY4fDM5MC43OHwxMjAuMzd8MjEuOTk=)' />
<circle cx='349.41' cy='62.05' r='2.13' style='stroke-width: 0.00; stroke: #444444; stroke-opacity: 0.10; fill: #444444; fill-opacity: 0.10;' clip-path='url(#cpMzE3LjY4fDM5MC43OHwxMjAuMzd8MjEuOTk=)' />
<circle cx='356.72' cy='57.60' r='2.13' style='stroke-width: 0.00; stroke: #444444; stroke-opacity: 0.10; fill: #444444; fill-opacity: 0.10;' clip-path='url(#cpMzE3LjY4fDM5MC43OHwxMjAuMzd8MjEuOTk=)' />
<circle cx='361.24' cy='59.64' r='2.13' style='stroke-width: 0.00; stroke: #444444; stroke-opacity: 0.10; fill: #444444; fill-opacity: 0.10;' clip-path='url(#cpMzE3LjY4fDM5MC43OHwxMjAuMzd8MjEuOTk=)' />
<circle cx='372.48' cy='62.60' r='2.13' style='stroke-width: 0.00; stroke: #444444; stroke-opacity: 0.10; fill: #444444; fill-opacity: 0.10;' clip-path='url(#cpMzE3LjY4fDM5MC43OHwxMjAuMzd8MjEuOTk=)' />
<circle cx='383.94' cy='61.23' r='2.13' style='stroke-width: 0.00; stroke: #444444; stroke-opacity: 0.10; fill: #444444; fill-opacity: 0.10;' clip-path='url(#cpMzE3LjY4fDM5MC43OHwxMjAuMzd8MjEuOTk=)' />
<circle cx='353.74' cy='53.99' r='2.13' style='stroke-width: 0.00; stroke: #444444; stroke-opacity: 0.10; fill: #444444; fill-opacity: 0.10;' clip-path='url(#cpMzE3LjY4fDM5MC43OHwxMjAuMzd8MjEuOTk=)' />
<circle cx='342.79' cy='61.17' r='2.13' style='stroke-width: 0.00; stroke: #444444; stroke-opacity: 0.10; fill: #444444; fill-opacity: 0.10;' clip-path='url(#cpMzE3LjY4fDM5MC43OHwxMjAuMzd8MjEuOTk=)' />
<circle cx='341.96' cy='61.91' r='2.13' style='stroke-width: 0.00; stroke: #444444; stroke-opacity: 0.10; fill: #444444; fill-opacity: 0.10;' clip-path='url(#cpMzE3LjY4fDM5MC43OHwxMjAuMzd8MjEuOTk=)' />
<circle cx='369.78' cy='63.25' r='2.13' style='stroke-width: 0.00; stroke: #444444; stroke-opacity: 0.10; fill: #444444; fill-opacity: 0.10;' clip-path='url(#cpMzE3LjY4fDM5MC43OHwxMjAuMzd8MjEuOTk=)' />
<circle cx='384.79' cy='64.53' r='2.13' style='stroke-width: 0.00; stroke: #444444; stroke-opacity: 0.10; fill: #444444; fill-opacity: 0.10;' clip-path='url(#cpMzE3LjY4fDM5MC43OHwxMjAuMzd8MjEuOTk=)' />
<circle cx='326.83' cy='51.78' r='2.13' style='stroke-width: 0.00; stroke: #444444; stroke-opacity: 0.10; fill: #444444; fill-opacity: 0.10;' clip-path='url(#cpMzE3LjY4fDM5MC43OHwxMjAuMzd8MjEuOTk=)' />
<circle cx='361.72' cy='65.08' r='2.13' style='stroke-width: 0.00; stroke: #444444; stroke-opacity: 0.10; fill: #444444; fill-opacity: 0.10;' clip-path='url(#cpMzE3LjY4fDM5MC43OHwxMjAuMzd8MjEuOTk=)' />
<circle cx='350.17' cy='52.82' r='2.13' style='stroke-width: 0.00; stroke: #444444; stroke-opacity: 0.10; fill: #444444; fill-opacity: 0.10;' clip-path='url(#cpMzE3LjY4fDM5MC43OHwxMjAuMzd8MjEuOTk=)' />
<circle cx='387.46' cy='61.04' r='2.13' style='stroke-width: 0.00; stroke: #444444; stroke-opacity: 0.10; fill: #444444; fill-opacity: 0.10;' clip-path='url(#cpMzE3LjY4fDM5MC43OHwxMjAuMzd8MjEuOTk=)' />
<circle cx='376.88' cy='61.99' r='2.13' style='stroke-width: 0.00; stroke: #444444; stroke-opacity: 0.10; fill: #444444; fill-opacity: 0.10;' clip-path='url(#cpMzE3LjY4fDM5MC43OHwxMjAuMzd8MjEuOTk=)' />
<circle cx='366.59' cy='53.36' r='2.13' style='stroke-width: 0.00; stroke: #444444; stroke-opacity: 0.10; fill: #444444; fill-opacity: 0.10;' clip-path='url(#cpMzE3LjY4fDM5MC43OHwxMjAuMzd8MjEuOTk=)' />
<circle cx='367.80' cy='58.55' r='2.13' style='stroke-width: 0.00; stroke: #444444; stroke-opacity: 0.10; fill: #444444; fill-opacity: 0.10;' clip-path='url(#cpMzE3LjY4fDM5MC43OHwxMjAuMzd8MjEuOTk=)' />
<circle cx='369.30' cy='64.76' r='2.13' style='stroke-width: 0.00; stroke: #444444; stroke-opacity: 0.10; fill: #444444; fill-opacity: 0.10;' clip-path='url(#cpMzE3LjY4fDM5MC43OHwxMjAuMzd8MjEuOTk=)' />
<circle cx='339.76' cy='60.75' r='2.13' style='stroke-width: 0.00; stroke: #444444; stroke-opacity: 0.10; fill: #444444; fill-opacity: 0.10;' clip-path='url(#cpMzE3LjY4fDM5MC43OHwxMjAuMzd8MjEuOTk=)' />
<circle cx='326.64' cy='60.95' r='2.13' style='stroke-width: 0.00; stroke: #444444; stroke-opacity: 0.10; fill: #444444; fill-opacity: 0.10;' clip-path='url(#cpMzE3LjY4fDM5MC43OHwxMjAuMzd8MjEuOTk=)' />
<circle cx='376.19' cy='64.68' r='2.13' style='stroke-width: 0.00; stroke: #444444; stroke-opacity: 0.10; fill: #444444; fill-opacity: 0.10;' clip-path='url(#cpMzE3LjY4fDM5MC43OHwxMjAuMzd8MjEuOTk=)' />
<circle cx='344.99' cy='61.44' r='2.13' style='stroke-width: 0.00; stroke: #444444; stroke-opacity: 0.10; fill: #444444; fill-opacity: 0.10;' clip-path='url(#cpMzE3LjY4fDM5MC43OHwxMjAuMzd8MjEuOTk=)' />
<circle cx='343.94' cy='60.78' r='2.13' style='stroke-width: 0.00; stroke: #444444; stroke-opacity: 0.10; fill: #444444; fill-opacity: 0.10;' clip-path='url(#cpMzE3LjY4fDM5MC43OHwxMjAuMzd8MjEuOTk=)' />
<circle cx='376.48' cy='29.96' r='2.13' style='stroke-width: 0.00; stroke: #444444; stroke-opacity: 0.10; fill: #444444; fill-opacity: 0.10;' clip-path='url(#cpMzE3LjY4fDM5MC43OHwxMjAuMzd8MjEuOTk=)' />
<circle cx='348.21' cy='38.83' r='2.13' style='stroke-width: 0.00; stroke: #444444; stroke-opacity: 0.10; fill: #444444; fill-opacity: 0.10;' clip-path='url(#cpMzE3LjY4fDM5MC43OHwxMjAuMzd8MjEuOTk=)' />
<circle cx='352.56' cy='33.63' r='2.13' style='stroke-width: 0.00; stroke: #444444; stroke-opacity: 0.10; fill: #444444; fill-opacity: 0.10;' clip-path='url(#cpMzE3LjY4fDM5MC43OHwxMjAuMzd8MjEuOTk=)' />
<circle cx='345.19' cy='39.07' r='2.13' style='stroke-width: 0.00; stroke: #444444; stroke-opacity: 0.10; fill: #444444; fill-opacity: 0.10;' clip-path='url(#cpMzE3LjY4fDM5MC43OHwxMjAuMzd8MjEuOTk=)' />
<circle cx='356.09' cy='27.04' r='2.13' style='stroke-width: 0.00; stroke: #444444; stroke-opacity: 0.10; fill: #444444; fill-opacity: 0.10;' clip-path='url(#cpMzE3LjY4fDM5MC43OHwxMjAuMzd8MjEuOTk=)' />
<circle cx='385.43' cy='28.61' r='2.13' style='stroke-width: 0.00; stroke: #444444; stroke-opacity: 0.10; fill: #444444; fill-opacity: 0.10;' clip-path='url(#cpMzE3LjY4fDM5MC43OHwxMjAuMzd8MjEuOTk=)' />
<circle cx='364.85' cy='33.33' r='2.13' style='stroke-width: 0.00; stroke: #444444; stroke-opacity: 0.10; fill: #444444; fill-opacity: 0.10;' clip-path='url(#cpMzE3LjY4fDM5MC43OHwxMjAuMzd8MjEuOTk=)' />
<circle cx='331.28' cy='35.24' r='2.13' style='stroke-width: 0.00; stroke: #444444; stroke-opacity: 0.10; fill: #444444; fill-opacity: 0.10;' clip-path='url(#cpMzE3LjY4fDM5MC43OHwxMjAuMzd8MjEuOTk=)' />
<circle cx='350.21' cy='32.93' r='2.13' style='stroke-width: 0.00; stroke: #444444; stroke-opacity: 0.10; fill: #444444; fill-opacity: 0.10;' clip-path='url(#cpMzE3LjY4fDM5MC43OHwxMjAuMzd8MjEuOTk=)' />
<circle cx='384.53' cy='30.59' r='2.13' style='stroke-width: 0.00; stroke: #444444; stroke-opacity: 0.10; fill: #444444; fill-opacity: 0.10;' clip-path='url(#cpMzE3LjY4fDM5MC43OHwxMjAuMzd8MjEuOTk=)' />
<circle cx='382.99' cy='37.87' r='2.13' style='stroke-width: 0.00; stroke: #444444; stroke-opacity: 0.10; fill: #444444; fill-opacity: 0.10;' clip-path='url(#cpMzE3LjY4fDM5MC43OHwxMjAuMzd8MjEuOTk=)' />
<circle cx='345.31' cy='26.96' r='2.13' style='stroke-width: 0.00; stroke: #444444; stroke-opacity: 0.10; fill: #444444; fill-opacity: 0.10;' clip-path='url(#cpMzE3LjY4fDM5MC43OHwxMjAuMzd8MjEuOTk=)' />
<circle cx='376.72' cy='32.13' r='2.13' style='stroke-width: 0.00; stroke: #444444; stroke-opacity: 0.10; fill: #444444; fill-opacity: 0.10;' clip-path='url(#cpMzE3LjY4fDM5MC43OHwxMjAuMzd8MjEuOTk=)' />
<circle cx='356.28' cy='35.82' r='2.13' style='stroke-width: 0.00; stroke: #444444; stroke-opacity: 0.10; fill: #444444; fill-opacity: 0.10;' clip-path='url(#cpMzE3LjY4fDM5MC43OHwxMjAuMzd8MjEuOTk=)' />
<circle cx='385.71' cy='26.90' r='2.13' style='stroke-width: 0.00; stroke: #444444; stroke-opacity: 0.10; fill: #444444; fill-opacity: 0.10;' clip-path='url(#cpMzE3LjY4fDM5MC43OHwxMjAuMzd8MjEuOTk=)' />
<circle cx='377.78' cy='34.50' r='2.13' style='stroke-width: 0.00; stroke: #444444; stroke-opacity: 0.10; fill: #444444; fill-opacity: 0.10;' clip-path='url(#cpMzE3LjY4fDM5MC43OHwxMjAuMzd8MjEuOTk=)' />
<circle cx='349.75' cy='40.95' r='2.13' style='stroke-width: 0.00; stroke: #444444; stroke-opacity: 0.10; fill: #444444; fill-opacity: 0.10;' clip-path='url(#cpMzE3LjY4fDM5MC43OHwxMjAuMzd8MjEuOTk=)' />
<circle cx='343.11' cy='32.21' r='2.13' style='stroke-width: 0.00; stroke: #444444; stroke-opacity: 0.10; fill: #444444; fill-opacity: 0.10;' clip-path='url(#cpMzE3LjY4fDM5MC43OHwxMjAuMzd8MjEuOTk=)' />
<circle cx='370.26' cy='40.99' r='2.13' style='stroke-width: 0.00; stroke: #444444; stroke-opacity: 0.10; fill: #444444; fill-opacity: 0.10;' clip-path='url(#cpMzE3LjY4fDM5MC43OHwxMjAuMzd8MjEuOTk=)' />
<circle cx='365.75' cy='36.07' r='2.13' style='stroke-width: 0.00; stroke: #444444; stroke-opacity: 0.10; fill: #444444; fill-opacity: 0.10;' clip-path='url(#cpMzE3LjY4fDM5MC43OHwxMjAuMzd8MjEuOTk=)' />
<circle cx='385.94' cy='28.31' r='2.13' style='stroke-width: 0.00; stroke: #444444; stroke-opacity: 0.10; fill: #444444; fill-opacity: 0.10;' clip-path='url(#cpMzE3LjY4fDM5MC43OHwxMjAuMzd8MjEuOTk=)' />
<circle cx='370.56' cy='36.44' r='2.13' style='stroke-width: 0.00; stroke: #444444; stroke-opacity: 0.10; fill: #444444; fill-opacity: 0.10;' clip-path='url(#cpMzE3LjY4fDM5MC43OHwxMjAuMzd8MjEuOTk=)' />
<circle cx='367.78' cy='30.38' r='2.13' style='stroke-width: 0.00; stroke: #444444; stroke-opacity: 0.10; fill: #444444; fill-opacity: 0.10;' clip-path='url(#cpMzE3LjY4fDM5MC43OHwxMjAuMzd8MjEuOTk=)' />
<circle cx='365.04' cy='26.46' r='2.13' style='stroke-width: 0.00; stroke: #444444; stroke-opacity: 0.10; fill: #444444; fill-opacity: 0.10;' clip-path='url(#cpMzE3LjY4fDM5MC43OHwxMjAuMzd8MjEuOTk=)' />
<circle cx='345.74' cy='40.65' r='2.13' style='stroke-width: 0.00; stroke: #444444; stroke-opacity: 0.10; fill: #444444; fill-opacity: 0.10;' clip-path='url(#cpMzE3LjY4fDM5MC43OHwxMjAuMzd8MjEuOTk=)' />
<circle cx='333.20' cy='35.49' r='2.13' style='stroke-width: 0.00; stroke: #444444; stroke-opacity: 0.10; fill: #444444; fill-opacity: 0.10;' clip-path='url(#cpMzE3LjY4fDM5MC43OHwxMjAuMzd8MjEuOTk=)' />
<circle cx='354.09' cy='27.46' r='2.13' style='stroke-width: 0.00; stroke: #444444; stroke-opacity: 0.10; fill: #444444; fill-opacity: 0.10;' clip-path='url(#cpMzE3LjY4fDM5MC43OHwxMjAuMzd8MjEuOTk=)' />
<polygon points='328.13,108.86 339.51,112.62 350.89,108.86 339.51,105.09 328.13,108.86 ' style='stroke-width: 1.07; stroke: #525857; fill: #525857;' clip-path='url(#cpMzE3LjY4fDM5MC43OHwxMjAuMzd8MjEuOTk=)' />
<polygon points='330.99,83.76 346.97,87.52 362.96,83.76 346.97,79.99 330.99,83.76 ' style='stroke-width: 1.07; stroke: #534A55; fill: #534A55;' clip-path='url(#cpMzE3LjY4fDM5MC43OHwxMjAuMzd8MjEuOTk=)' />
<polygon points='340.91,58.65 356.58,62.42 372.26,58.65 356.58,54.89 340.91,58.65 ' style='stroke-width: 1.07; stroke: #4F3754; fill: #4F3754;' clip-path='url(#cpMzE3LjY4fDM5MC43OHwxMjAuMzd8MjEuOTk=)' />
<polygon points='346.91,33.55 361.38,37.32 375.85,33.55 361.38,29.79 346.91,33.55 ' style='stroke-width: 1.07; stroke: #4D2E54; fill: #4D2E54;' clip-path='url(#cpMzE3LjY4fDM5MC43OHwxMjAuMzd8MjEuOTk=)' />
<rect x='317.68' y='21.99' width='73.10' height='98.38' style='stroke-width: 0.78; stroke: #333333;' clip-path='url(#cpMzE3LjY4fDM5MC43OHwxMjAuMzd8MjEuOTk=)' />
<defs>
  <clipPath id='cpMC4wMHw1MTAuMjR8MTQyLjg3fDAuMDA='>
    <rect x='0.00' y='0.00' width='510.24' height='142.87' />
  </clipPath>
</defs>
<g clip-path='url(#cpMC4wMHw1MTAuMjR8MTQyLjg3fDAuMDA=)'><text x='268.56' y='111.15' style='font-size: 6.40px; fill: #4D4D4D; font-family: Arial;' textLength='45.53px' lengthAdjust='spacingAndGlyphs'>very improbable</text></g>
<g clip-path='url(#cpMC4wMHw1MTAuMjR8MTQyLjg3fDAuMDA=)'><text x='268.56' y='86.05' style='font-size: 6.40px; fill: #4D4D4D; font-family: Arial;' textLength='45.53px' lengthAdjust='spacingAndGlyphs'>very improbable</text></g>
<g clip-path='url(#cpMC4wMHw1MTAuMjR8MTQyLjg3fDAuMDA=)'><text x='268.56' y='60.94' style='font-size: 6.40px; fill: #4D4D4D; font-family: Arial;' textLength='45.53px' lengthAdjust='spacingAndGlyphs'>very improbable</text></g>
<g clip-path='url(#cpMC4wMHw1MTAuMjR8MTQyLjg3fDAuMDA=)'><text x='268.56' y='35.84' style='font-size: 6.40px; fill: #4D4D4D; font-family: Arial;' textLength='45.53px' lengthAdjust='spacingAndGlyphs'>very improbable</text></g>
<polyline points='315.69,108.86 317.68,108.86 ' style='stroke-width: 0.78; stroke: #333333; stroke-linecap: butt;' clip-path='url(#cpMC4wMHw1MTAuMjR8MTQyLjg3fDAuMDA=)' />
<polyline points='315.69,83.76 317.68,83.76 ' style='stroke-width: 0.78; stroke: #333333; stroke-linecap: butt;' clip-path='url(#cpMC4wMHw1MTAuMjR8MTQyLjg3fDAuMDA=)' />
<polyline points='315.69,58.65 317.68,58.65 ' style='stroke-width: 0.78; stroke: #333333; stroke-linecap: butt;' clip-path='url(#cpMC4wMHw1MTAuMjR8MTQyLjg3fDAuMDA=)' />
<polyline points='315.69,33.55 317.68,33.55 ' style='stroke-width: 0.78; stroke: #333333; stroke-linecap: butt;' clip-path='url(#cpMC4wMHw1MTAuMjR8MTQyLjg3fDAuMDA=)' />
<polyline points='390.78,108.85 392.77,108.85 ' style='stroke-width: 0.78; stroke: #333333; stroke-linecap: butt;' clip-path='url(#cpMC4wMHw1MTAuMjR8MTQyLjg3fDAuMDA=)' />
<polyline points='390.78,83.73 392.77,83.73 ' style='stroke-width: 0.78; stroke: #333333; stroke-linecap: butt;' clip-path='url(#cpMC4wMHw1MTAuMjR8MTQyLjg3fDAuMDA=)' />
<polyline points='390.78,58.62 392.77,58.62 ' style='stroke-width: 0.78; stroke: #333333; stroke-linecap: butt;' clip-path='url(#cpMC4wMHw1MTAuMjR8MTQyLjg3fDAuMDA=)' />
<polyline points='390.78,33.51 392.77,33.51 ' style='stroke-width: 0.78; stroke: #333333; stroke-linecap: butt;' clip-path='url(#cpMC4wMHw1MTAuMjR8MTQyLjg3fDAuMDA=)' />
<g clip-path='url(#cpMC4wMHw1MTAuMjR8MTQyLjg3fDAuMDA=)'><text x='394.37' y='111.14' style='font-size: 6.40px; fill: #4D4D4D; font-family: Arial;' textLength='38.78px' lengthAdjust='spacingAndGlyphs'>very probable</text></g>
<g clip-path='url(#cpMC4wMHw1MTAuMjR8MTQyLjg3fDAuMDA=)'><text x='394.37' y='86.02' style='font-size: 6.40px; fill: #4D4D4D; font-family: Arial;' textLength='38.78px' lengthAdjust='spacingAndGlyphs'>very probable</text></g>
<g clip-path='url(#cpMC4wMHw1MTAuMjR8MTQyLjg3fDAuMDA=)'><text x='394.37' y='60.91' style='font-size: 6.40px; fill: #4D4D4D; font-family: Arial;' textLength='38.78px' lengthAdjust='spacingAndGlyphs'>very probable</text></g>
<g clip-path='url(#cpMC4wMHw1MTAuMjR8MTQyLjg3fDAuMDA=)'><text x='394.37' y='35.80' style='font-size: 6.40px; fill: #4D4D4D; font-family: Arial;' textLength='38.78px' lengthAdjust='spacingAndGlyphs'>very probable</text></g>
<polyline points='324.68,122.36 324.68,120.37 ' style='stroke-width: 0.78; stroke: #333333; stroke-linecap: butt;' clip-path='url(#cpMC4wMHw1MTAuMjR8MTQyLjg3fDAuMDA=)' />
<polyline points='333.17,122.36 333.17,120.37 ' style='stroke-width: 0.78; stroke: #333333; stroke-linecap: butt;' clip-path='url(#cpMC4wMHw1MTAuMjR8MTQyLjg3fDAuMDA=)' />
<polyline points='341.66,122.36 341.66,120.37 ' style='stroke-width: 0.78; stroke: #333333; stroke-linecap: butt;' clip-path='url(#cpMC4wMHw1MTAuMjR8MTQyLjg3fDAuMDA=)' />
<polyline points='350.16,122.36 350.16,120.37 ' style='stroke-width: 0.78; stroke: #333333; stroke-linecap: butt;' clip-path='url(#cpMC4wMHw1MTAuMjR8MTQyLjg3fDAuMDA=)' />
<polyline points='358.65,122.36 358.65,120.37 ' style='stroke-width: 0.78; stroke: #333333; stroke-linecap: butt;' clip-path='url(#cpMC4wMHw1MTAuMjR8MTQyLjg3fDAuMDA=)' />
<polyline points='367.15,122.36 367.15,120.37 ' style='stroke-width: 0.78; stroke: #333333; stroke-linecap: butt;' clip-path='url(#cpMC4wMHw1MTAuMjR8MTQyLjg3fDAuMDA=)' />
<polyline points='375.64,122.36 375.64,120.37 ' style='stroke-width: 0.78; stroke: #333333; stroke-linecap: butt;' clip-path='url(#cpMC4wMHw1MTAuMjR8MTQyLjg3fDAuMDA=)' />
<polyline points='384.14,122.36 384.14,120.37 ' style='stroke-width: 0.78; stroke: #333333; stroke-linecap: butt;' clip-path='url(#cpMC4wMHw1MTAuMjR8MTQyLjg3fDAuMDA=)' />
<g clip-path='url(#cpMC4wMHw1MTAuMjR8MTQyLjg3fDAuMDA=)'><text x='321.83' y='128.54' style='font-size: 6.40px; fill: #4D4D4D; font-family: Arial;' textLength='5.69px' lengthAdjust='spacingAndGlyphs'>-2</text></g>
<g clip-path='url(#cpMC4wMHw1MTAuMjR8MTQyLjg3fDAuMDA=)'><text x='330.32' y='128.54' style='font-size: 6.40px; fill: #4D4D4D; font-family: Arial;' textLength='5.69px' lengthAdjust='spacingAndGlyphs'>-1</text></g>
<g clip-path='url(#cpMC4wMHw1MTAuMjR8MTQyLjg3fDAuMDA=)'><text x='339.88' y='128.54' style='font-size: 6.40px; fill: #4D4D4D; font-family: Arial;' textLength='3.56px' lengthAdjust='spacingAndGlyphs'>0</text></g>
<g clip-path='url(#cpMC4wMHw1MTAuMjR8MTQyLjg3fDAuMDA=)'><text x='348.38' y='128.54' style='font-size: 6.40px; fill: #4D4D4D; font-family: Arial;' textLength='3.56px' lengthAdjust='spacingAndGlyphs'>1</text></g>
<g clip-path='url(#cpMC4wMHw1MTAuMjR8MTQyLjg3fDAuMDA=)'><text x='356.87' y='128.54' style='font-size: 6.40px; fill: #4D4D4D; font-family: Arial;' textLength='3.56px' lengthAdjust='spacingAndGlyphs'>2</text></g>
<g clip-path='url(#cpMC4wMHw1MTAuMjR8MTQyLjg3fDAuMDA=)'><text x='365.37' y='128.54' style='font-size: 6.40px; fill: #4D4D4D; font-family: Arial;' textLength='3.56px' lengthAdjust='spacingAndGlyphs'>3</text></g>
<g clip-path='url(#cpMC4wMHw1MTAuMjR8MTQyLjg3fDAuMDA=)'><text x='373.86' y='128.54' style='font-size: 6.40px; fill: #4D4D4D; font-family: Arial;' textLength='3.56px' lengthAdjust='spacingAndGlyphs'>4</text></g>
<g clip-path='url(#cpMC4wMHw1MTAuMjR8MTQyLjg3fDAuMDA=)'><text x='382.36' y='128.54' style='font-size: 6.40px; fill: #4D4D4D; font-family: Arial;' textLength='3.56px' lengthAdjust='spacingAndGlyphs'>5</text></g>
<g clip-path='url(#cpMC4wMHw1MTAuMjR8MTQyLjg3fDAuMDA=)'><text x='312.21' y='137.38' style='font-size: 8.00px; font-family: Arial;' textLength='84.05px' lengthAdjust='spacingAndGlyphs'>Scores and 99.99% CIs</text></g>
<defs>
  <clipPath id='cpMC4wMHwyNjQuNTd8MTIwLjM3fDIxLjk5'>
    <rect x='0.00' y='21.99' width='264.57' height='98.38' />
  </clipPath>
</defs>
<defs>
  <clipPath id='cpMC4wMHw1MTAuMjR8MTQyLjg3fDAuMDA='>
    <rect x='0.00' y='0.00' width='510.24' height='142.87' />
  </clipPath>
</defs>
<g clip-path='url(#cpMC4wMHw1MTAuMjR8MTQyLjg3fDAuMDA=)'><text x='3.59' y='103.56' style='font-size: 8.00px; font-family: Arial;' textLength='255.21px' lengthAdjust='spacingAndGlyphs'>NrmDeBehOther * NrmDeIdOther [How likely do you think it is that other</text></g>
<g clip-path='url(#cpMC4wMHw1MTAuMjR8MTQyLjg3fDAuMDA=)'><text x='3.59' y='112.20' style='font-size: 8.00px; font-family: Arial;' textLength='187.22px' lengthAdjust='spacingAndGlyphs'>people keep at least {distRec} distance from others?]</text></g>
<g clip-path='url(#cpMC4wMHw1MTAuMjR8MTQyLjg3fDAuMDA=)'><text x='3.59' y='120.84' style='font-size: 8.00px; font-family: Arial;' textLength='54.23px' lengthAdjust='spacingAndGlyphs'>[NrmDe_Other]</text></g>
<g clip-path='url(#cpMC4wMHw1MTAuMjR8MTQyLjg3fDAuMDA=)'><text x='3.59' y='78.45' style='font-size: 8.00px; font-family: Arial;' textLength='259.64px' lengthAdjust='spacingAndGlyphs'>NrmDeBehDoctor * NrmDeIdDoctor [How likely do you think it is that your</text></g>
<g clip-path='url(#cpMC4wMHw1MTAuMjR8MTQyLjg3fDAuMDA=)'><text x='3.59' y='87.09' style='font-size: 8.00px; font-family: Arial;' textLength='189.43px' lengthAdjust='spacingAndGlyphs'>doctor keeps at least {distRec} distance from others?]</text></g>
<g clip-path='url(#cpMC4wMHw1MTAuMjR8MTQyLjg3fDAuMDA=)'><text x='3.59' y='95.73' style='font-size: 8.00px; font-family: Arial;' textLength='57.79px' lengthAdjust='spacingAndGlyphs'>[NrmDe_Doctor]</text></g>
<g clip-path='url(#cpMC4wMHw1MTAuMjR8MTQyLjg3fDAuMDA=)'><text x='3.59' y='53.34' style='font-size: 8.00px; font-family: Arial;' textLength='259.63px' lengthAdjust='spacingAndGlyphs'>NrmDeBehFamily * NrmDeIdFamily [How likely do you think it is that your</text></g>
<g clip-path='url(#cpMC4wMHw1MTAuMjR8MTQyLjg3fDAuMDA=)'><text x='3.59' y='61.98' style='font-size: 8.00px; font-family: Arial;' textLength='219.65px' lengthAdjust='spacingAndGlyphs'>family members keep at least {distRec} distance from others?]</text></g>
<g clip-path='url(#cpMC4wMHw1MTAuMjR8MTQyLjg3fDAuMDA=)'><text x='3.59' y='70.62' style='font-size: 8.00px; font-family: Arial;' textLength='57.78px' lengthAdjust='spacingAndGlyphs'>[NrmDe_Family]</text></g>
<g clip-path='url(#cpMC4wMHw1MTAuMjR8MTQyLjg3fDAuMDA=)'><text x='3.59' y='28.22' style='font-size: 8.00px; font-family: Arial;' textLength='260.99px' lengthAdjust='spacingAndGlyphs'>NrmDeBehRole * NrmDeIdRole [How likely do you think it is that your role</text></g>
<g clip-path='url(#cpMC4wMHw1MTAuMjR8MTQyLjg3fDAuMDA=)'><text x='3.59' y='36.86' style='font-size: 8.00px; font-family: Arial;' textLength='188.99px' lengthAdjust='spacingAndGlyphs'>models keep at least {distRec} distance from others?]</text></g>
<g clip-path='url(#cpMC4wMHw1MTAuMjR8MTQyLjg3fDAuMDA=)'><text x='3.59' y='45.50' style='font-size: 8.00px; font-family: Arial;' textLength='50.68px' lengthAdjust='spacingAndGlyphs'>[NrmDe_Role]</text></g>
<defs>
  <clipPath id='cpMC4wMHwyNjQuNTd8MTIwLjM3fDIxLjk5'>
    <rect x='0.00' y='21.99' width='264.57' height='98.38' />
  </clipPath>
</defs>
<defs>
  <clipPath id='cpMC4wMHw1MTAuMjR8MTQyLjg3fDAuMDA='>
    <rect x='0.00' y='0.00' width='510.24' height='142.87' />
  </clipPath>
</defs>
<defs>
  <clipPath id='cpNDM3LjEzfDUxMC4yNHwxNDIuODd8MTguMDA='>
    <rect x='437.13' y='18.00' width='73.10' height='124.87' />
  </clipPath>
</defs>
<rect x='437.13' y='18.00' width='73.10' height='124.87' style='stroke-width: 0.78; stroke: #FFFFFF; fill: #FFFFFF;' clip-path='url(#cpNDM3LjEzfDUxMC4yNHwxNDIuODd8MTguMDA=)' />
<defs>
  <clipPath id='cpNDQxLjEyfDUwNi4yNXwxMjAuMzd8MjEuOTk='>
    <rect x='441.12' y='21.99' width='65.13' height='98.38' />
  </clipPath>
</defs>
<rect x='441.12' y='21.99' width='65.13' height='98.38' style='stroke-width: 0.78; stroke: none; fill: #FFFFFF;' clip-path='url(#cpNDQxLjEyfDUwNi4yNXwxMjAuMzd8MjEuOTk=)' />
<polyline points='451.48,120.37 451.48,21.99 ' style='stroke-width: 0.39; stroke: #EBEBEB; stroke-linecap: butt;' clip-path='url(#cpNDQxLjEyfDUwNi4yNXwxMjAuMzd8MjEuOTk=)' />
<polyline points='466.28,120.37 466.28,21.99 ' style='stroke-width: 0.39; stroke: #EBEBEB; stroke-linecap: butt;' clip-path='url(#cpNDQxLjEyfDUwNi4yNXwxMjAuMzd8MjEuOTk=)' />
<polyline points='481.09,120.37 481.09,21.99 ' style='stroke-width: 0.39; stroke: #EBEBEB; stroke-linecap: butt;' clip-path='url(#cpNDQxLjEyfDUwNi4yNXwxMjAuMzd8MjEuOTk=)' />
<polyline points='495.89,120.37 495.89,21.99 ' style='stroke-width: 0.39; stroke: #EBEBEB; stroke-linecap: butt;' clip-path='url(#cpNDQxLjEyfDUwNi4yNXwxMjAuMzd8MjEuOTk=)' />
<polyline points='444.08,120.37 444.08,21.99 ' style='stroke-width: 0.78; stroke: #EBEBEB; stroke-linecap: butt;' clip-path='url(#cpNDQxLjEyfDUwNi4yNXwxMjAuMzd8MjEuOTk=)' />
<polyline points='458.88,120.37 458.88,21.99 ' style='stroke-width: 0.78; stroke: #EBEBEB; stroke-linecap: butt;' clip-path='url(#cpNDQxLjEyfDUwNi4yNXwxMjAuMzd8MjEuOTk=)' />
<polyline points='473.68,120.37 473.68,21.99 ' style='stroke-width: 0.78; stroke: #EBEBEB; stroke-linecap: butt;' clip-path='url(#cpNDQxLjEyfDUwNi4yNXwxMjAuMzd8MjEuOTk=)' />
<polyline points='488.49,120.37 488.49,21.99 ' style='stroke-width: 0.78; stroke: #EBEBEB; stroke-linecap: butt;' clip-path='url(#cpNDQxLjEyfDUwNi4yNXwxMjAuMzd8MjEuOTk=)' />
<polyline points='503.29,120.37 503.29,21.99 ' style='stroke-width: 0.78; stroke: #EBEBEB; stroke-linecap: butt;' clip-path='url(#cpNDQxLjEyfDUwNi4yNXwxMjAuMzd8MjEuOTk=)' />
<line x1='458.88' y1='120.37' x2='458.88' y2='21.99' style='stroke-width: 1.07; stroke: #BEBEBE; stroke-linecap: butt;' clip-path='url(#cpNDQxLjEyfDUwNi4yNXwxMjAuMzd8MjEuOTk=)' />
<line x1='473.68' y1='120.37' x2='473.68' y2='21.99' style='stroke-width: 1.07; stroke: #BEBEBE; stroke-linecap: butt;' clip-path='url(#cpNDQxLjEyfDUwNi4yNXwxMjAuMzd8MjEuOTk=)' />
<line x1='488.49' y1='120.37' x2='488.49' y2='21.99' style='stroke-width: 1.07; stroke: #BEBEBE; stroke-linecap: butt;' clip-path='url(#cpNDQxLjEyfDUwNi4yNXwxMjAuMzd8MjEuOTk=)' />
<polygon points='455.16,111.83 465.81,115.90 479.23,111.83 465.81,107.77 455.16,111.83 ' style='stroke-width: 2.13; fill: #476463; fill-opacity: 0.50;' clip-path='url(#cpNDQxLjEyfDUwNi4yNXwxMjAuMzd8MjEuOTk=)' />
<polygon points='461.08,84.73 472.88,88.79 484.95,84.73 472.88,80.66 461.08,84.73 ' style='stroke-width: 2.13; fill: #535656; fill-opacity: 0.50;' clip-path='url(#cpNDQxLjEyfDUwNi4yNXwxMjAuMzd8MjEuOTk=)' />
<polygon points='466.48,57.63 478.39,61.69 488.92,57.63 478.39,53.56 466.48,57.63 ' style='stroke-width: 2.13; fill: #524755; fill-opacity: 0.50;' clip-path='url(#cpNDQxLjEyfDUwNi4yNXwxMjAuMzd8MjEuOTk=)' />
<polygon points='471.89,30.52 483.36,34.59 492.30,30.52 483.36,26.46 471.89,30.52 ' style='stroke-width: 2.13; fill: #4F3954; fill-opacity: 0.50;' clip-path='url(#cpNDQxLjEyfDUwNi4yNXwxMjAuMzd8MjEuOTk=)' />
<rect x='441.12' y='21.99' width='65.13' height='98.38' style='stroke-width: 0.78; stroke: #333333;' clip-path='url(#cpNDQxLjEyfDUwNi4yNXwxMjAuMzd8MjEuOTk=)' />
<defs>
  <clipPath id='cpNDM3LjEzfDUxMC4yNHwxNDIuODd8MTguMDA='>
    <rect x='437.13' y='18.00' width='73.10' height='124.87' />
  </clipPath>
</defs>
<defs>
  <clipPath id='cpMC4wMHw1MTAuMjR8MTQyLjg3fDAuMDA='>
    <rect x='0.00' y='0.00' width='510.24' height='142.87' />
  </clipPath>
</defs>
<defs>
  <clipPath id='cpNDM3LjEzfDUxMC4yNHwxNDIuODd8MTguMDA='>
    <rect x='437.13' y='18.00' width='73.10' height='124.87' />
  </clipPath>
</defs>
<defs>
  <clipPath id='cpMC4wMHw1MTAuMjR8MTQyLjg3fDAuMDA='>
    <rect x='0.00' y='0.00' width='510.24' height='142.87' />
  </clipPath>
</defs>
<defs>
  <clipPath id='cpNDM3LjEzfDUxMC4yNHwxNDIuODd8MTguMDA='>
    <rect x='437.13' y='18.00' width='73.10' height='124.87' />
  </clipPath>
</defs>
<defs>
  <clipPath id='cpMC4wMHw1MTAuMjR8MTQyLjg3fDAuMDA='>
    <rect x='0.00' y='0.00' width='510.24' height='142.87' />
  </clipPath>
</defs>
<defs>
  <clipPath id='cpNDM3LjEzfDUxMC4yNHwxNDIuODd8MTguMDA='>
    <rect x='437.13' y='18.00' width='73.10' height='124.87' />
  </clipPath>
</defs>
<defs>
  <clipPath id='cpMC4wMHw1MTAuMjR8MTQyLjg3fDAuMDA='>
    <rect x='0.00' y='0.00' width='510.24' height='142.87' />
  </clipPath>
</defs>
<defs>
  <clipPath id='cpNDM3LjEzfDUxMC4yNHwxNDIuODd8MTguMDA='>
    <rect x='437.13' y='18.00' width='73.10' height='124.87' />
  </clipPath>
</defs>
<defs>
  <clipPath id='cpMC4wMHw1MTAuMjR8MTQyLjg3fDAuMDA='>
    <rect x='0.00' y='0.00' width='510.24' height='142.87' />
  </clipPath>
</defs>
<defs>
  <clipPath id='cpNDM3LjEzfDUxMC4yNHwxNDIuODd8MTguMDA='>
    <rect x='437.13' y='18.00' width='73.10' height='124.87' />
  </clipPath>
</defs>
<defs>
  <clipPath id='cpMC4wMHw1MTAuMjR8MTQyLjg3fDAuMDA='>
    <rect x='0.00' y='0.00' width='510.24' height='142.87' />
  </clipPath>
</defs>
<defs>
  <clipPath id='cpNDM3LjEzfDUxMC4yNHwxNDIuODd8MTguMDA='>
    <rect x='437.13' y='18.00' width='73.10' height='124.87' />
  </clipPath>
</defs>
<defs>
  <clipPath id='cpMC4wMHw1MTAuMjR8MTQyLjg3fDAuMDA='>
    <rect x='0.00' y='0.00' width='510.24' height='142.87' />
  </clipPath>
</defs>
<defs>
  <clipPath id='cpNDM3LjEzfDUxMC4yNHwxNDIuODd8MTguMDA='>
    <rect x='437.13' y='18.00' width='73.10' height='124.87' />
  </clipPath>
</defs>
<defs>
  <clipPath id='cpMC4wMHw1MTAuMjR8MTQyLjg3fDAuMDA='>
    <rect x='0.00' y='0.00' width='510.24' height='142.87' />
  </clipPath>
</defs>
<polyline points='444.08,122.36 444.08,120.37 ' style='stroke-width: 0.78; stroke: #333333; stroke-linecap: butt;' clip-path='url(#cpMC4wMHw1MTAuMjR8MTQyLjg3fDAuMDA=)' />
<polyline points='458.88,122.36 458.88,120.37 ' style='stroke-width: 0.78; stroke: #333333; stroke-linecap: butt;' clip-path='url(#cpMC4wMHw1MTAuMjR8MTQyLjg3fDAuMDA=)' />
<polyline points='473.68,122.36 473.68,120.37 ' style='stroke-width: 0.78; stroke: #333333; stroke-linecap: butt;' clip-path='url(#cpMC4wMHw1MTAuMjR8MTQyLjg3fDAuMDA=)' />
<polyline points='488.49,122.36 488.49,120.37 ' style='stroke-width: 0.78; stroke: #333333; stroke-linecap: butt;' clip-path='url(#cpMC4wMHw1MTAuMjR8MTQyLjg3fDAuMDA=)' />
<polyline points='503.29,122.36 503.29,120.37 ' style='stroke-width: 0.78; stroke: #333333; stroke-linecap: butt;' clip-path='url(#cpMC4wMHw1MTAuMjR8MTQyLjg3fDAuMDA=)' />
<g clip-path='url(#cpMC4wMHw1MTAuMjR8MTQyLjg3fDAuMDA=)'><text x='438.56' y='128.54' style='font-size: 6.40px; fill: #4D4D4D; font-family: Arial;' textLength='11.03px' lengthAdjust='spacingAndGlyphs'>-1.0</text></g>
<g clip-path='url(#cpMC4wMHw1MTAuMjR8MTQyLjg3fDAuMDA=)'><text x='453.37' y='128.54' style='font-size: 6.40px; fill: #4D4D4D; font-family: Arial;' textLength='11.03px' lengthAdjust='spacingAndGlyphs'>-0.5</text></g>
<g clip-path='url(#cpMC4wMHw1MTAuMjR8MTQyLjg3fDAuMDA=)'><text x='469.24' y='128.54' style='font-size: 6.40px; fill: #4D4D4D; font-family: Arial;' textLength='8.90px' lengthAdjust='spacingAndGlyphs'>0.0</text></g>
<g clip-path='url(#cpMC4wMHw1MTAuMjR8MTQyLjg3fDAuMDA=)'><text x='484.04' y='128.54' style='font-size: 6.40px; fill: #4D4D4D; font-family: Arial;' textLength='8.90px' lengthAdjust='spacingAndGlyphs'>0.5</text></g>
<g clip-path='url(#cpMC4wMHw1MTAuMjR8MTQyLjg3fDAuMDA=)'><text x='498.84' y='128.54' style='font-size: 6.40px; fill: #4D4D4D; font-family: Arial;' textLength='8.90px' lengthAdjust='spacingAndGlyphs'>1.0</text></g>
<defs>
  <clipPath id='cpNDM3LjEzfDUxMC4yNHwxNDIuODd8MTguMDA='>
    <rect x='437.13' y='18.00' width='73.10' height='124.87' />
  </clipPath>
</defs>
<defs>
  <clipPath id='cpMC4wMHw1MTAuMjR8MTQyLjg3fDAuMDA='>
    <rect x='0.00' y='0.00' width='510.24' height='142.87' />
  </clipPath>
</defs>
<defs>
  <clipPath id='cpNDM3LjEzfDUxMC4yNHwxNDIuODd8MTguMDA='>
    <rect x='437.13' y='18.00' width='73.10' height='124.87' />
  </clipPath>
</defs>
<defs>
  <clipPath id='cpMC4wMHw1MTAuMjR8MTQyLjg3fDAuMDA='>
    <rect x='0.00' y='0.00' width='510.24' height='142.87' />
  </clipPath>
</defs>
<g clip-path='url(#cpMC4wMHw1MTAuMjR8MTQyLjg3fDAuMDA=)'><text x='431.00' y='137.38' style='font-size: 8.00px; font-family: Arial;' textLength='85.38px' lengthAdjust='spacingAndGlyphs'>95% CIs of associations</text></g>
<defs>
  <clipPath id='cpNDM3LjEzfDUxMC4yNHwxNDIuODd8MTguMDA='>
    <rect x='437.13' y='18.00' width='73.10' height='124.87' />
  </clipPath>
</defs>
<defs>
  <clipPath id='cpMC4wMHw1MTAuMjR8MTQyLjg3fDAuMDA='>
    <rect x='0.00' y='0.00' width='510.24' height='142.87' />
  </clipPath>
</defs>
<defs>
  <clipPath id='cpNDM3LjEzfDUxMC4yNHwxNDIuODd8MTguMDA='>
    <rect x='437.13' y='18.00' width='73.10' height='124.87' />
  </clipPath>
</defs>
<defs>
  <clipPath id='cpMC4wMHw1MTAuMjR8MTQyLjg3fDAuMDA='>
    <rect x='0.00' y='0.00' width='510.24' height='142.87' />
  </clipPath>
</defs>
<defs>
  <clipPath id='cpNDM3LjEzfDUxMC4yNHwxNDIuODd8MTguMDA='>
    <rect x='437.13' y='18.00' width='73.10' height='124.87' />
  </clipPath>
</defs>
<defs>
  <clipPath id='cpMC4wMHw1MTAuMjR8MTQyLjg3fDAuMDA='>
    <rect x='0.00' y='0.00' width='510.24' height='142.87' />
  </clipPath>
</defs>
<defs>
  <clipPath id='cpNDM3LjEzfDUxMC4yNHwxNDIuODd8MTguMDA='>
    <rect x='437.13' y='18.00' width='73.10' height='124.87' />
  </clipPath>
</defs>
<defs>
  <clipPath id='cpMC4wMHw1MTAuMjR8MTQyLjg3fDAuMDA='>
    <rect x='0.00' y='0.00' width='510.24' height='142.87' />
  </clipPath>
</defs>
<defs>
  <clipPath id='cpNDM3LjEzfDUxMC4yNHwxNDIuODd8MTguMDA='>
    <rect x='437.13' y='18.00' width='73.10' height='124.87' />
  </clipPath>
</defs>
<defs>
  <clipPath id='cpMC4wMHw1MTAuMjR8MTQyLjg3fDAuMDA='>
    <rect x='0.00' y='0.00' width='510.24' height='142.87' />
  </clipPath>
</defs>
<defs>
  <clipPath id='cpNDM3LjEzfDUxMC4yNHwxNDIuODd8MTguMDA='>
    <rect x='437.13' y='18.00' width='73.10' height='124.87' />
  </clipPath>
</defs>
<defs>
  <clipPath id='cpMC4wMHw1MTAuMjR8MTQyLjg3fDAuMDA='>
    <rect x='0.00' y='0.00' width='510.24' height='142.87' />
  </clipPath>
</defs>
<defs>
  <clipPath id='cpNDM3LjEzfDUxMC4yNHwxNDIuODd8MTguMDA='>
    <rect x='437.13' y='18.00' width='73.10' height='124.87' />
  </clipPath>
</defs>
<defs>
  <clipPath id='cpMC4wMHw1MTAuMjR8MTQyLjg3fDAuMDA='>
    <rect x='0.00' y='0.00' width='510.24' height='142.87' />
  </clipPath>
</defs>
<g clip-path='url(#cpMC4wMHw1MTAuMjR8MTQyLjg3fDAuMDA=)'><text x='2.30' y='8.78' style='font-size: 9.60px; font-weight: bold; font-family: Arial;' textLength='147.76px' lengthAdjust='spacingAndGlyphs'>Means and associations (r) with </text></g>
<g clip-path='url(#cpMC4wMHw1MTAuMjR8MTQyLjg3fDAuMDA=)'><text x='150.07' y='8.78' style='font-size: 9.60px; font-weight: bold; font-family: Arial;' textLength='43.21px' lengthAdjust='spacingAndGlyphs'>proximity</text></g>
<g clip-path='url(#cpMC4wMHw1MTAuMjR8MTQyLjg3fDAuMDA=)'><text x='193.28' y='8.78' style='font-size: 9.60px; font-weight: bold; font-family: Arial;' textLength='2.67px' lengthAdjust='spacingAndGlyphs'> </text></g>
</svg>
