<?xml version='1.0' encoding='UTF-8' ?>
<svg xmlns='http://www.w3.org/2000/svg' xmlns:xlink='http://www.w3.org/1999/xlink' viewBox='0 0 510.24 261.92'>
<defs>
  <style type='text/css'><![CDATA[
    line, polyline, polygon, path, rect, circle {
      fill: none;
      stroke: #000000;
      stroke-linecap: round;
      stroke-linejoin: round;
      stroke-miterlimit: 10.00;
    }
  ]]></style>
</defs>
<rect width='100%' height='100%' style='stroke: none; fill: none;'/>
<defs>
  <clipPath id='cpMjU4LjM4fDQ0Ny43M3wyNjEuOTJ8MTguMDA='>
    <rect x='258.38' y='18.00' width='189.35' height='243.92' />
  </clipPath>
</defs>
<rect x='258.38' y='18.00' width='189.35' height='243.92' style='stroke-width: 0.78; stroke: #FFFFFF; fill: #FFFFFF;' clip-path='url(#cpMjU4LjM4fDQ0Ny43M3wyNjEuOTJ8MTguMDA=)' />
<defs>
  <clipPath id='cpMC4wMHw1MTAuMjR8MjYxLjkyfDAuMDA='>
    <rect x='0.00' y='0.00' width='510.24' height='261.92' />
  </clipPath>
</defs>
<defs>
  <clipPath id='cpMzE5LjY3fDM4Mi4xN3wyMzkuNDJ8MjEuOTk='>
    <rect x='319.67' y='21.99' width='62.51' height='217.44' />
  </clipPath>
</defs>
<rect x='319.67' y='21.99' width='62.51' height='217.44' style='stroke-width: 0.78; stroke: none; fill: #FFFFFF;' clip-path='url(#cpMzE5LjY3fDM4Mi4xN3wyMzkuNDJ8MjEuOTk=)' />
<polyline points='321.73,239.42 321.73,21.99 ' style='stroke-width: 0.39; stroke: #EBEBEB; stroke-linecap: butt;' clip-path='url(#cpMzE5LjY3fDM4Mi4xN3wyMzkuNDJ8MjEuOTk=)' />
<polyline points='330.02,239.42 330.02,21.99 ' style='stroke-width: 0.39; stroke: #EBEBEB; stroke-linecap: butt;' clip-path='url(#cpMzE5LjY3fDM4Mi4xN3wyMzkuNDJ8MjEuOTk=)' />
<polyline points='338.32,239.42 338.32,21.99 ' style='stroke-width: 0.39; stroke: #EBEBEB; stroke-linecap: butt;' clip-path='url(#cpMzE5LjY3fDM4Mi4xN3wyMzkuNDJ8MjEuOTk=)' />
<polyline points='346.61,239.42 346.61,21.99 ' style='stroke-width: 0.39; stroke: #EBEBEB; stroke-linecap: butt;' clip-path='url(#cpMzE5LjY3fDM4Mi4xN3wyMzkuNDJ8MjEuOTk=)' />
<polyline points='354.90,239.42 354.90,21.99 ' style='stroke-width: 0.39; stroke: #EBEBEB; stroke-linecap: butt;' clip-path='url(#cpMzE5LjY3fDM4Mi4xN3wyMzkuNDJ8MjEuOTk=)' />
<polyline points='363.20,239.42 363.20,21.99 ' style='stroke-width: 0.39; stroke: #EBEBEB; stroke-linecap: butt;' clip-path='url(#cpMzE5LjY3fDM4Mi4xN3wyMzkuNDJ8MjEuOTk=)' />
<polyline points='371.49,239.42 371.49,21.99 ' style='stroke-width: 0.39; stroke: #EBEBEB; stroke-linecap: butt;' clip-path='url(#cpMzE5LjY3fDM4Mi4xN3wyMzkuNDJ8MjEuOTk=)' />
<polyline points='379.78,239.42 379.78,21.99 ' style='stroke-width: 0.39; stroke: #EBEBEB; stroke-linecap: butt;' clip-path='url(#cpMzE5LjY3fDM4Mi4xN3wyMzkuNDJ8MjEuOTk=)' />
<polyline points='319.67,222.06 382.17,222.06 ' style='stroke-width: 0.78; stroke: #EBEBEB; stroke-linecap: butt;' clip-path='url(#cpMzE5LjY3fDM4Mi4xN3wyMzkuNDJ8MjEuOTk=)' />
<polyline points='319.67,195.97 382.17,195.97 ' style='stroke-width: 0.78; stroke: #EBEBEB; stroke-linecap: butt;' clip-path='url(#cpMzE5LjY3fDM4Mi4xN3wyMzkuNDJ8MjEuOTk=)' />
<polyline points='319.67,169.89 382.17,169.89 ' style='stroke-width: 0.78; stroke: #EBEBEB; stroke-linecap: butt;' clip-path='url(#cpMzE5LjY3fDM4Mi4xN3wyMzkuNDJ8MjEuOTk=)' />
<polyline points='319.67,143.80 382.17,143.80 ' style='stroke-width: 0.78; stroke: #EBEBEB; stroke-linecap: butt;' clip-path='url(#cpMzE5LjY3fDM4Mi4xN3wyMzkuNDJ8MjEuOTk=)' />
<polyline points='319.67,117.72 382.17,117.72 ' style='stroke-width: 0.78; stroke: #EBEBEB; stroke-linecap: butt;' clip-path='url(#cpMzE5LjY3fDM4Mi4xN3wyMzkuNDJ8MjEuOTk=)' />
<polyline points='319.67,91.63 382.17,91.63 ' style='stroke-width: 0.78; stroke: #EBEBEB; stroke-linecap: butt;' clip-path='url(#cpMzE5LjY3fDM4Mi4xN3wyMzkuNDJ8MjEuOTk=)' />
<polyline points='319.67,65.55 382.17,65.55 ' style='stroke-width: 0.78; stroke: #EBEBEB; stroke-linecap: butt;' clip-path='url(#cpMzE5LjY3fDM4Mi4xN3wyMzkuNDJ8MjEuOTk=)' />
<polyline points='319.67,39.46 382.17,39.46 ' style='stroke-width: 0.78; stroke: #EBEBEB; stroke-linecap: butt;' clip-path='url(#cpMzE5LjY3fDM4Mi4xN3wyMzkuNDJ8MjEuOTk=)' />
<polyline points='325.88,239.42 325.88,21.99 ' style='stroke-width: 0.78; stroke: #EBEBEB; stroke-linecap: butt;' clip-path='url(#cpMzE5LjY3fDM4Mi4xN3wyMzkuNDJ8MjEuOTk=)' />
<polyline points='334.17,239.42 334.17,21.99 ' style='stroke-width: 0.78; stroke: #EBEBEB; stroke-linecap: butt;' clip-path='url(#cpMzE5LjY3fDM4Mi4xN3wyMzkuNDJ8MjEuOTk=)' />
<polyline points='342.46,239.42 342.46,21.99 ' style='stroke-width: 0.78; stroke: #EBEBEB; stroke-linecap: butt;' clip-path='url(#cpMzE5LjY3fDM4Mi4xN3wyMzkuNDJ8MjEuOTk=)' />
<polyline points='350.76,239.42 350.76,21.99 ' style='stroke-width: 0.78; stroke: #EBEBEB; stroke-linecap: butt;' clip-path='url(#cpMzE5LjY3fDM4Mi4xN3wyMzkuNDJ8MjEuOTk=)' />
<polyline points='359.05,239.42 359.05,21.99 ' style='stroke-width: 0.78; stroke: #EBEBEB; stroke-linecap: butt;' clip-path='url(#cpMzE5LjY3fDM4Mi4xN3wyMzkuNDJ8MjEuOTk=)' />
<polyline points='367.34,239.42 367.34,21.99 ' style='stroke-width: 0.78; stroke: #EBEBEB; stroke-linecap: butt;' clip-path='url(#cpMzE5LjY3fDM4Mi4xN3wyMzkuNDJ8MjEuOTk=)' />
<polyline points='375.64,239.42 375.64,21.99 ' style='stroke-width: 0.78; stroke: #EBEBEB; stroke-linecap: butt;' clip-path='url(#cpMzE5LjY3fDM4Mi4xN3wyMzkuNDJ8MjEuOTk=)' />
<circle cx='375.15' cy='214.69' r='2.13' style='stroke-width: 0.00; stroke: #444444; stroke-opacity: 0.10; fill: #444444; fill-opacity: 0.10;' clip-path='url(#cpMzE5LjY3fDM4Mi4xN3wyMzkuNDJ8MjEuOTk=)' />
<circle cx='350.76' cy='219.48' r='2.13' style='stroke-width: 0.00; stroke: #444444; stroke-opacity: 0.10; fill: #444444; fill-opacity: 0.10;' clip-path='url(#cpMzE5LjY3fDM4Mi4xN3wyMzkuNDJ8MjEuOTk=)' />
<circle cx='325.49' cy='218.47' r='2.13' style='stroke-width: 0.00; stroke: #444444; stroke-opacity: 0.10; fill: #444444; fill-opacity: 0.10;' clip-path='url(#cpMzE5LjY3fDM4Mi4xN3wyMzkuNDJ8MjEuOTk=)' />
<circle cx='325.06' cy='229.54' r='2.13' style='stroke-width: 0.00; stroke: #444444; stroke-opacity: 0.10; fill: #444444; fill-opacity: 0.10;' clip-path='url(#cpMzE5LjY3fDM4Mi4xN3wyMzkuNDJ8MjEuOTk=)' />
<circle cx='352.90' cy='214.67' r='2.13' style='stroke-width: 0.00; stroke: #444444; stroke-opacity: 0.10; fill: #444444; fill-opacity: 0.10;' clip-path='url(#cpMzE5LjY3fDM4Mi4xN3wyMzkuNDJ8MjEuOTk=)' />
<circle cx='322.97' cy='217.98' r='2.13' style='stroke-width: 0.00; stroke: #444444; stroke-opacity: 0.10; fill: #444444; fill-opacity: 0.10;' clip-path='url(#cpMzE5LjY3fDM4Mi4xN3wyMzkuNDJ8MjEuOTk=)' />
<circle cx='367.09' cy='223.07' r='2.13' style='stroke-width: 0.00; stroke: #444444; stroke-opacity: 0.10; fill: #444444; fill-opacity: 0.10;' clip-path='url(#cpMzE5LjY3fDM4Mi4xN3wyMzkuNDJ8MjEuOTk=)' />
<circle cx='341.90' cy='216.72' r='2.13' style='stroke-width: 0.00; stroke: #444444; stroke-opacity: 0.10; fill: #444444; fill-opacity: 0.10;' clip-path='url(#cpMzE5LjY3fDM4Mi4xN3wyMzkuNDJ8MjEuOTk=)' />
<circle cx='352.16' cy='228.05' r='2.13' style='stroke-width: 0.00; stroke: #444444; stroke-opacity: 0.10; fill: #444444; fill-opacity: 0.10;' clip-path='url(#cpMzE5LjY3fDM4Mi4xN3wyMzkuNDJ8MjEuOTk=)' />
<circle cx='324.07' cy='226.43' r='2.13' style='stroke-width: 0.00; stroke: #444444; stroke-opacity: 0.10; fill: #444444; fill-opacity: 0.10;' clip-path='url(#cpMzE5LjY3fDM4Mi4xN3wyMzkuNDJ8MjEuOTk=)' />
<circle cx='326.15' cy='216.41' r='2.13' style='stroke-width: 0.00; stroke: #444444; stroke-opacity: 0.10; fill: #444444; fill-opacity: 0.10;' clip-path='url(#cpMzE5LjY3fDM4Mi4xN3wyMzkuNDJ8MjEuOTk=)' />
<circle cx='351.03' cy='226.90' r='2.13' style='stroke-width: 0.00; stroke: #444444; stroke-opacity: 0.10; fill: #444444; fill-opacity: 0.10;' clip-path='url(#cpMzE5LjY3fDM4Mi4xN3wyMzkuNDJ8MjEuOTk=)' />
<circle cx='379.20' cy='217.22' r='2.13' style='stroke-width: 0.00; stroke: #444444; stroke-opacity: 0.10; fill: #444444; fill-opacity: 0.10;' clip-path='url(#cpMzE5LjY3fDM4Mi4xN3wyMzkuNDJ8MjEuOTk=)' />
<circle cx='375.67' cy='221.95' r='2.13' style='stroke-width: 0.00; stroke: #444444; stroke-opacity: 0.10; fill: #444444; fill-opacity: 0.10;' clip-path='url(#cpMzE5LjY3fDM4Mi4xN3wyMzkuNDJ8MjEuOTk=)' />
<circle cx='375.91' cy='221.31' r='2.13' style='stroke-width: 0.00; stroke: #444444; stroke-opacity: 0.10; fill: #444444; fill-opacity: 0.10;' clip-path='url(#cpMzE5LjY3fDM4Mi4xN3wyMzkuNDJ8MjEuOTk=)' />
<circle cx='349.12' cy='222.74' r='2.13' style='stroke-width: 0.00; stroke: #444444; stroke-opacity: 0.10; fill: #444444; fill-opacity: 0.10;' clip-path='url(#cpMzE5LjY3fDM4Mi4xN3wyMzkuNDJ8MjEuOTk=)' />
<circle cx='325.54' cy='216.89' r='2.13' style='stroke-width: 0.00; stroke: #444444; stroke-opacity: 0.10; fill: #444444; fill-opacity: 0.10;' clip-path='url(#cpMzE5LjY3fDM4Mi4xN3wyMzkuNDJ8MjEuOTk=)' />
<circle cx='361.40' cy='220.07' r='2.13' style='stroke-width: 0.00; stroke: #444444; stroke-opacity: 0.10; fill: #444444; fill-opacity: 0.10;' clip-path='url(#cpMzE5LjY3fDM4Mi4xN3wyMzkuNDJ8MjEuOTk=)' />
<circle cx='326.11' cy='219.76' r='2.13' style='stroke-width: 0.00; stroke: #444444; stroke-opacity: 0.10; fill: #444444; fill-opacity: 0.10;' clip-path='url(#cpMzE5LjY3fDM4Mi4xN3wyMzkuNDJ8MjEuOTk=)' />
<circle cx='363.73' cy='221.00' r='2.13' style='stroke-width: 0.00; stroke: #444444; stroke-opacity: 0.10; fill: #444444; fill-opacity: 0.10;' clip-path='url(#cpMzE5LjY3fDM4Mi4xN3wyMzkuNDJ8MjEuOTk=)' />
<circle cx='373.38' cy='220.70' r='2.13' style='stroke-width: 0.00; stroke: #444444; stroke-opacity: 0.10; fill: #444444; fill-opacity: 0.10;' clip-path='url(#cpMzE5LjY3fDM4Mi4xN3wyMzkuNDJ8MjEuOTk=)' />
<circle cx='354.16' cy='219.58' r='2.13' style='stroke-width: 0.00; stroke: #444444; stroke-opacity: 0.10; fill: #444444; fill-opacity: 0.10;' clip-path='url(#cpMzE5LjY3fDM4Mi4xN3wyMzkuNDJ8MjEuOTk=)' />
<circle cx='325.43' cy='219.40' r='2.13' style='stroke-width: 0.00; stroke: #444444; stroke-opacity: 0.10; fill: #444444; fill-opacity: 0.10;' clip-path='url(#cpMzE5LjY3fDM4Mi4xN3wyMzkuNDJ8MjEuOTk=)' />
<circle cx='347.29' cy='222.35' r='2.13' style='stroke-width: 0.00; stroke: #444444; stroke-opacity: 0.10; fill: #444444; fill-opacity: 0.10;' clip-path='url(#cpMzE5LjY3fDM4Mi4xN3wyMzkuNDJ8MjEuOTk=)' />
<circle cx='379.28' cy='224.28' r='2.13' style='stroke-width: 0.00; stroke: #444444; stroke-opacity: 0.10; fill: #444444; fill-opacity: 0.10;' clip-path='url(#cpMzE5LjY3fDM4Mi4xN3wyMzkuNDJ8MjEuOTk=)' />
<circle cx='361.98' cy='226.28' r='2.13' style='stroke-width: 0.00; stroke: #444444; stroke-opacity: 0.10; fill: #444444; fill-opacity: 0.10;' clip-path='url(#cpMzE5LjY3fDM4Mi4xN3wyMzkuNDJ8MjEuOTk=)' />
<circle cx='349.44' cy='221.04' r='2.13' style='stroke-width: 0.00; stroke: #444444; stroke-opacity: 0.10; fill: #444444; fill-opacity: 0.10;' clip-path='url(#cpMzE5LjY3fDM4Mi4xN3wyMzkuNDJ8MjEuOTk=)' />
<circle cx='370.34' cy='217.69' r='2.13' style='stroke-width: 0.00; stroke: #444444; stroke-opacity: 0.10; fill: #444444; fill-opacity: 0.10;' clip-path='url(#cpMzE5LjY3fDM4Mi4xN3wyMzkuNDJ8MjEuOTk=)' />
<circle cx='378.30' cy='216.53' r='2.13' style='stroke-width: 0.00; stroke: #444444; stroke-opacity: 0.10; fill: #444444; fill-opacity: 0.10;' clip-path='url(#cpMzE5LjY3fDM4Mi4xN3wyMzkuNDJ8MjEuOTk=)' />
<circle cx='378.90' cy='221.23' r='2.13' style='stroke-width: 0.00; stroke: #444444; stroke-opacity: 0.10; fill: #444444; fill-opacity: 0.10;' clip-path='url(#cpMzE5LjY3fDM4Mi4xN3wyMzkuNDJ8MjEuOTk=)' />
<circle cx='352.24' cy='218.62' r='2.13' style='stroke-width: 0.00; stroke: #444444; stroke-opacity: 0.10; fill: #444444; fill-opacity: 0.10;' clip-path='url(#cpMzE5LjY3fDM4Mi4xN3wyMzkuNDJ8MjEuOTk=)' />
<circle cx='351.57' cy='224.77' r='2.13' style='stroke-width: 0.00; stroke: #444444; stroke-opacity: 0.10; fill: #444444; fill-opacity: 0.10;' clip-path='url(#cpMzE5LjY3fDM4Mi4xN3wyMzkuNDJ8MjEuOTk=)' />
<circle cx='354.48' cy='216.03' r='2.13' style='stroke-width: 0.00; stroke: #444444; stroke-opacity: 0.10; fill: #444444; fill-opacity: 0.10;' clip-path='url(#cpMzE5LjY3fDM4Mi4xN3wyMzkuNDJ8MjEuOTk=)' />
<circle cx='328.94' cy='228.21' r='2.13' style='stroke-width: 0.00; stroke: #444444; stroke-opacity: 0.10; fill: #444444; fill-opacity: 0.10;' clip-path='url(#cpMzE5LjY3fDM4Mi4xN3wyMzkuNDJ8MjEuOTk=)' />
<circle cx='377.69' cy='216.80' r='2.13' style='stroke-width: 0.00; stroke: #444444; stroke-opacity: 0.10; fill: #444444; fill-opacity: 0.10;' clip-path='url(#cpMzE5LjY3fDM4Mi4xN3wyMzkuNDJ8MjEuOTk=)' />
<circle cx='374.06' cy='218.78' r='2.13' style='stroke-width: 0.00; stroke: #444444; stroke-opacity: 0.10; fill: #444444; fill-opacity: 0.10;' clip-path='url(#cpMzE5LjY3fDM4Mi4xN3wyMzkuNDJ8MjEuOTk=)' />
<circle cx='347.67' cy='196.80' r='2.13' style='stroke-width: 0.00; stroke: #444444; stroke-opacity: 0.10; fill: #444444; fill-opacity: 0.10;' clip-path='url(#cpMzE5LjY3fDM4Mi4xN3wyMzkuNDJ8MjEuOTk=)' />
<circle cx='377.78' cy='198.49' r='2.13' style='stroke-width: 0.00; stroke: #444444; stroke-opacity: 0.10; fill: #444444; fill-opacity: 0.10;' clip-path='url(#cpMzE5LjY3fDM4Mi4xN3wyMzkuNDJ8MjEuOTk=)' />
<circle cx='326.17' cy='194.06' r='2.13' style='stroke-width: 0.00; stroke: #444444; stroke-opacity: 0.10; fill: #444444; fill-opacity: 0.10;' clip-path='url(#cpMzE5LjY3fDM4Mi4xN3wyMzkuNDJ8MjEuOTk=)' />
<circle cx='347.89' cy='194.63' r='2.13' style='stroke-width: 0.00; stroke: #444444; stroke-opacity: 0.10; fill: #444444; fill-opacity: 0.10;' clip-path='url(#cpMzE5LjY3fDM4Mi4xN3wyMzkuNDJ8MjEuOTk=)' />
<circle cx='374.62' cy='202.07' r='2.13' style='stroke-width: 0.00; stroke: #444444; stroke-opacity: 0.10; fill: #444444; fill-opacity: 0.10;' clip-path='url(#cpMzE5LjY3fDM4Mi4xN3wyMzkuNDJ8MjEuOTk=)' />
<circle cx='349.50' cy='189.82' r='2.13' style='stroke-width: 0.00; stroke: #444444; stroke-opacity: 0.10; fill: #444444; fill-opacity: 0.10;' clip-path='url(#cpMzE5LjY3fDM4Mi4xN3wyMzkuNDJ8MjEuOTk=)' />
<circle cx='375.78' cy='195.19' r='2.13' style='stroke-width: 0.00; stroke: #444444; stroke-opacity: 0.10; fill: #444444; fill-opacity: 0.10;' clip-path='url(#cpMzE5LjY3fDM4Mi4xN3wyMzkuNDJ8MjEuOTk=)' />
<circle cx='322.66' cy='202.64' r='2.13' style='stroke-width: 0.00; stroke: #444444; stroke-opacity: 0.10; fill: #444444; fill-opacity: 0.10;' clip-path='url(#cpMzE5LjY3fDM4Mi4xN3wyMzkuNDJ8MjEuOTk=)' />
<circle cx='376.44' cy='188.88' r='2.13' style='stroke-width: 0.00; stroke: #444444; stroke-opacity: 0.10; fill: #444444; fill-opacity: 0.10;' clip-path='url(#cpMzE5LjY3fDM4Mi4xN3wyMzkuNDJ8MjEuOTk=)' />
<circle cx='353.34' cy='194.27' r='2.13' style='stroke-width: 0.00; stroke: #444444; stroke-opacity: 0.10; fill: #444444; fill-opacity: 0.10;' clip-path='url(#cpMzE5LjY3fDM4Mi4xN3wyMzkuNDJ8MjEuOTk=)' />
<circle cx='327.11' cy='194.56' r='2.13' style='stroke-width: 0.00; stroke: #444444; stroke-opacity: 0.10; fill: #444444; fill-opacity: 0.10;' clip-path='url(#cpMzE5LjY3fDM4Mi4xN3wyMzkuNDJ8MjEuOTk=)' />
<circle cx='378.76' cy='190.78' r='2.13' style='stroke-width: 0.00; stroke: #444444; stroke-opacity: 0.10; fill: #444444; fill-opacity: 0.10;' clip-path='url(#cpMzE5LjY3fDM4Mi4xN3wyMzkuNDJ8MjEuOTk=)' />
<circle cx='329.60' cy='199.15' r='2.13' style='stroke-width: 0.00; stroke: #444444; stroke-opacity: 0.10; fill: #444444; fill-opacity: 0.10;' clip-path='url(#cpMzE5LjY3fDM4Mi4xN3wyMzkuNDJ8MjEuOTk=)' />
<circle cx='375.32' cy='194.04' r='2.13' style='stroke-width: 0.00; stroke: #444444; stroke-opacity: 0.10; fill: #444444; fill-opacity: 0.10;' clip-path='url(#cpMzE5LjY3fDM4Mi4xN3wyMzkuNDJ8MjEuOTk=)' />
<circle cx='366.07' cy='200.96' r='2.13' style='stroke-width: 0.00; stroke: #444444; stroke-opacity: 0.10; fill: #444444; fill-opacity: 0.10;' clip-path='url(#cpMzE5LjY3fDM4Mi4xN3wyMzkuNDJ8MjEuOTk=)' />
<circle cx='346.06' cy='190.63' r='2.13' style='stroke-width: 0.00; stroke: #444444; stroke-opacity: 0.10; fill: #444444; fill-opacity: 0.10;' clip-path='url(#cpMzE5LjY3fDM4Mi4xN3wyMzkuNDJ8MjEuOTk=)' />
<circle cx='327.26' cy='203.43' r='2.13' style='stroke-width: 0.00; stroke: #444444; stroke-opacity: 0.10; fill: #444444; fill-opacity: 0.10;' clip-path='url(#cpMzE5LjY3fDM4Mi4xN3wyMzkuNDJ8MjEuOTk=)' />
<circle cx='373.78' cy='189.33' r='2.13' style='stroke-width: 0.00; stroke: #444444; stroke-opacity: 0.10; fill: #444444; fill-opacity: 0.10;' clip-path='url(#cpMzE5LjY3fDM4Mi4xN3wyMzkuNDJ8MjEuOTk=)' />
<circle cx='367.66' cy='197.33' r='2.13' style='stroke-width: 0.00; stroke: #444444; stroke-opacity: 0.10; fill: #444444; fill-opacity: 0.10;' clip-path='url(#cpMzE5LjY3fDM4Mi4xN3wyMzkuNDJ8MjEuOTk=)' />
<circle cx='343.31' cy='193.28' r='2.13' style='stroke-width: 0.00; stroke: #444444; stroke-opacity: 0.10; fill: #444444; fill-opacity: 0.10;' clip-path='url(#cpMzE5LjY3fDM4Mi4xN3wyMzkuNDJ8MjEuOTk=)' />
<circle cx='349.13' cy='191.30' r='2.13' style='stroke-width: 0.00; stroke: #444444; stroke-opacity: 0.10; fill: #444444; fill-opacity: 0.10;' clip-path='url(#cpMzE5LjY3fDM4Mi4xN3wyMzkuNDJ8MjEuOTk=)' />
<circle cx='374.96' cy='202.70' r='2.13' style='stroke-width: 0.00; stroke: #444444; stroke-opacity: 0.10; fill: #444444; fill-opacity: 0.10;' clip-path='url(#cpMzE5LjY3fDM4Mi4xN3wyMzkuNDJ8MjEuOTk=)' />
<circle cx='353.34' cy='203.00' r='2.13' style='stroke-width: 0.00; stroke: #444444; stroke-opacity: 0.10; fill: #444444; fill-opacity: 0.10;' clip-path='url(#cpMzE5LjY3fDM4Mi4xN3wyMzkuNDJ8MjEuOTk=)' />
<circle cx='375.00' cy='201.77' r='2.13' style='stroke-width: 0.00; stroke: #444444; stroke-opacity: 0.10; fill: #444444; fill-opacity: 0.10;' clip-path='url(#cpMzE5LjY3fDM4Mi4xN3wyMzkuNDJ8MjEuOTk=)' />
<circle cx='352.91' cy='203.37' r='2.13' style='stroke-width: 0.00; stroke: #444444; stroke-opacity: 0.10; fill: #444444; fill-opacity: 0.10;' clip-path='url(#cpMzE5LjY3fDM4Mi4xN3wyMzkuNDJ8MjEuOTk=)' />
<circle cx='375.05' cy='192.58' r='2.13' style='stroke-width: 0.00; stroke: #444444; stroke-opacity: 0.10; fill: #444444; fill-opacity: 0.10;' clip-path='url(#cpMzE5LjY3fDM4Mi4xN3wyMzkuNDJ8MjEuOTk=)' />
<circle cx='347.81' cy='202.89' r='2.13' style='stroke-width: 0.00; stroke: #444444; stroke-opacity: 0.10; fill: #444444; fill-opacity: 0.10;' clip-path='url(#cpMzE5LjY3fDM4Mi4xN3wyMzkuNDJ8MjEuOTk=)' />
<circle cx='378.62' cy='188.85' r='2.13' style='stroke-width: 0.00; stroke: #444444; stroke-opacity: 0.10; fill: #444444; fill-opacity: 0.10;' clip-path='url(#cpMzE5LjY3fDM4Mi4xN3wyMzkuNDJ8MjEuOTk=)' />
<circle cx='365.29' cy='201.80' r='2.13' style='stroke-width: 0.00; stroke: #444444; stroke-opacity: 0.10; fill: #444444; fill-opacity: 0.10;' clip-path='url(#cpMzE5LjY3fDM4Mi4xN3wyMzkuNDJ8MjEuOTk=)' />
<circle cx='365.79' cy='192.23' r='2.13' style='stroke-width: 0.00; stroke: #444444; stroke-opacity: 0.10; fill: #444444; fill-opacity: 0.10;' clip-path='url(#cpMzE5LjY3fDM4Mi4xN3wyMzkuNDJ8MjEuOTk=)' />
<circle cx='341.09' cy='202.70' r='2.13' style='stroke-width: 0.00; stroke: #444444; stroke-opacity: 0.10; fill: #444444; fill-opacity: 0.10;' clip-path='url(#cpMzE5LjY3fDM4Mi4xN3wyMzkuNDJ8MjEuOTk=)' />
<circle cx='376.50' cy='168.85' r='2.13' style='stroke-width: 0.00; stroke: #444444; stroke-opacity: 0.10; fill: #444444; fill-opacity: 0.10;' clip-path='url(#cpMzE5LjY3fDM4Mi4xN3wyMzkuNDJ8MjEuOTk=)' />
<circle cx='324.71' cy='167.11' r='2.13' style='stroke-width: 0.00; stroke: #444444; stroke-opacity: 0.10; fill: #444444; fill-opacity: 0.10;' clip-path='url(#cpMzE5LjY3fDM4Mi4xN3wyMzkuNDJ8MjEuOTk=)' />
<circle cx='335.80' cy='166.60' r='2.13' style='stroke-width: 0.00; stroke: #444444; stroke-opacity: 0.10; fill: #444444; fill-opacity: 0.10;' clip-path='url(#cpMzE5LjY3fDM4Mi4xN3wyMzkuNDJ8MjEuOTk=)' />
<circle cx='326.45' cy='177.58' r='2.13' style='stroke-width: 0.00; stroke: #444444; stroke-opacity: 0.10; fill: #444444; fill-opacity: 0.10;' clip-path='url(#cpMzE5LjY3fDM4Mi4xN3wyMzkuNDJ8MjEuOTk=)' />
<circle cx='375.19' cy='174.38' r='2.13' style='stroke-width: 0.00; stroke: #444444; stroke-opacity: 0.10; fill: #444444; fill-opacity: 0.10;' clip-path='url(#cpMzE5LjY3fDM4Mi4xN3wyMzkuNDJ8MjEuOTk=)' />
<circle cx='324.74' cy='170.04' r='2.13' style='stroke-width: 0.00; stroke: #444444; stroke-opacity: 0.10; fill: #444444; fill-opacity: 0.10;' clip-path='url(#cpMzE5LjY3fDM4Mi4xN3wyMzkuNDJ8MjEuOTk=)' />
<circle cx='332.02' cy='170.41' r='2.13' style='stroke-width: 0.00; stroke: #444444; stroke-opacity: 0.10; fill: #444444; fill-opacity: 0.10;' clip-path='url(#cpMzE5LjY3fDM4Mi4xN3wyMzkuNDJ8MjEuOTk=)' />
<circle cx='347.82' cy='162.38' r='2.13' style='stroke-width: 0.00; stroke: #444444; stroke-opacity: 0.10; fill: #444444; fill-opacity: 0.10;' clip-path='url(#cpMzE5LjY3fDM4Mi4xN3wyMzkuNDJ8MjEuOTk=)' />
<circle cx='373.86' cy='170.36' r='2.13' style='stroke-width: 0.00; stroke: #444444; stroke-opacity: 0.10; fill: #444444; fill-opacity: 0.10;' clip-path='url(#cpMzE5LjY3fDM4Mi4xN3wyMzkuNDJ8MjEuOTk=)' />
<circle cx='349.16' cy='168.53' r='2.13' style='stroke-width: 0.00; stroke: #444444; stroke-opacity: 0.10; fill: #444444; fill-opacity: 0.10;' clip-path='url(#cpMzE5LjY3fDM4Mi4xN3wyMzkuNDJ8MjEuOTk=)' />
<circle cx='378.37' cy='167.46' r='2.13' style='stroke-width: 0.00; stroke: #444444; stroke-opacity: 0.10; fill: #444444; fill-opacity: 0.10;' clip-path='url(#cpMzE5LjY3fDM4Mi4xN3wyMzkuNDJ8MjEuOTk=)' />
<circle cx='326.39' cy='165.40' r='2.13' style='stroke-width: 0.00; stroke: #444444; stroke-opacity: 0.10; fill: #444444; fill-opacity: 0.10;' clip-path='url(#cpMzE5LjY3fDM4Mi4xN3wyMzkuNDJ8MjEuOTk=)' />
<circle cx='322.55' cy='169.30' r='2.13' style='stroke-width: 0.00; stroke: #444444; stroke-opacity: 0.10; fill: #444444; fill-opacity: 0.10;' clip-path='url(#cpMzE5LjY3fDM4Mi4xN3wyMzkuNDJ8MjEuOTk=)' />
<circle cx='350.41' cy='176.85' r='2.13' style='stroke-width: 0.00; stroke: #444444; stroke-opacity: 0.10; fill: #444444; fill-opacity: 0.10;' clip-path='url(#cpMzE5LjY3fDM4Mi4xN3wyMzkuNDJ8MjEuOTk=)' />
<circle cx='379.33' cy='176.52' r='2.13' style='stroke-width: 0.00; stroke: #444444; stroke-opacity: 0.10; fill: #444444; fill-opacity: 0.10;' clip-path='url(#cpMzE5LjY3fDM4Mi4xN3wyMzkuNDJ8MjEuOTk=)' />
<circle cx='348.19' cy='168.67' r='2.13' style='stroke-width: 0.00; stroke: #444444; stroke-opacity: 0.10; fill: #444444; fill-opacity: 0.10;' clip-path='url(#cpMzE5LjY3fDM4Mi4xN3wyMzkuNDJ8MjEuOTk=)' />
<circle cx='377.76' cy='170.95' r='2.13' style='stroke-width: 0.00; stroke: #444444; stroke-opacity: 0.10; fill: #444444; fill-opacity: 0.10;' clip-path='url(#cpMzE5LjY3fDM4Mi4xN3wyMzkuNDJ8MjEuOTk=)' />
<circle cx='372.46' cy='163.35' r='2.13' style='stroke-width: 0.00; stroke: #444444; stroke-opacity: 0.10; fill: #444444; fill-opacity: 0.10;' clip-path='url(#cpMzE5LjY3fDM4Mi4xN3wyMzkuNDJ8MjEuOTk=)' />
<circle cx='328.75' cy='168.03' r='2.13' style='stroke-width: 0.00; stroke: #444444; stroke-opacity: 0.10; fill: #444444; fill-opacity: 0.10;' clip-path='url(#cpMzE5LjY3fDM4Mi4xN3wyMzkuNDJ8MjEuOTk=)' />
<circle cx='377.33' cy='173.49' r='2.13' style='stroke-width: 0.00; stroke: #444444; stroke-opacity: 0.10; fill: #444444; fill-opacity: 0.10;' clip-path='url(#cpMzE5LjY3fDM4Mi4xN3wyMzkuNDJ8MjEuOTk=)' />
<circle cx='372.90' cy='177.64' r='2.13' style='stroke-width: 0.00; stroke: #444444; stroke-opacity: 0.10; fill: #444444; fill-opacity: 0.10;' clip-path='url(#cpMzE5LjY3fDM4Mi4xN3wyMzkuNDJ8MjEuOTk=)' />
<circle cx='325.40' cy='173.60' r='2.13' style='stroke-width: 0.00; stroke: #444444; stroke-opacity: 0.10; fill: #444444; fill-opacity: 0.10;' clip-path='url(#cpMzE5LjY3fDM4Mi4xN3wyMzkuNDJ8MjEuOTk=)' />
<circle cx='347.18' cy='177.70' r='2.13' style='stroke-width: 0.00; stroke: #444444; stroke-opacity: 0.10; fill: #444444; fill-opacity: 0.10;' clip-path='url(#cpMzE5LjY3fDM4Mi4xN3wyMzkuNDJ8MjEuOTk=)' />
<circle cx='379.23' cy='172.25' r='2.13' style='stroke-width: 0.00; stroke: #444444; stroke-opacity: 0.10; fill: #444444; fill-opacity: 0.10;' clip-path='url(#cpMzE5LjY3fDM4Mi4xN3wyMzkuNDJ8MjEuOTk=)' />
<circle cx='372.06' cy='171.75' r='2.13' style='stroke-width: 0.00; stroke: #444444; stroke-opacity: 0.10; fill: #444444; fill-opacity: 0.10;' clip-path='url(#cpMzE5LjY3fDM4Mi4xN3wyMzkuNDJ8MjEuOTk=)' />
<circle cx='334.45' cy='166.44' r='2.13' style='stroke-width: 0.00; stroke: #444444; stroke-opacity: 0.10; fill: #444444; fill-opacity: 0.10;' clip-path='url(#cpMzE5LjY3fDM4Mi4xN3wyMzkuNDJ8MjEuOTk=)' />
<circle cx='333.15' cy='177.39' r='2.13' style='stroke-width: 0.00; stroke: #444444; stroke-opacity: 0.10; fill: #444444; fill-opacity: 0.10;' clip-path='url(#cpMzE5LjY3fDM4Mi4xN3wyMzkuNDJ8MjEuOTk=)' />
<circle cx='375.04' cy='175.08' r='2.13' style='stroke-width: 0.00; stroke: #444444; stroke-opacity: 0.10; fill: #444444; fill-opacity: 0.10;' clip-path='url(#cpMzE5LjY3fDM4Mi4xN3wyMzkuNDJ8MjEuOTk=)' />
<circle cx='326.77' cy='163.05' r='2.13' style='stroke-width: 0.00; stroke: #444444; stroke-opacity: 0.10; fill: #444444; fill-opacity: 0.10;' clip-path='url(#cpMzE5LjY3fDM4Mi4xN3wyMzkuNDJ8MjEuOTk=)' />
<circle cx='347.33' cy='163.80' r='2.13' style='stroke-width: 0.00; stroke: #444444; stroke-opacity: 0.10; fill: #444444; fill-opacity: 0.10;' clip-path='url(#cpMzE5LjY3fDM4Mi4xN3wyMzkuNDJ8MjEuOTk=)' />
<circle cx='374.70' cy='166.46' r='2.13' style='stroke-width: 0.00; stroke: #444444; stroke-opacity: 0.10; fill: #444444; fill-opacity: 0.10;' clip-path='url(#cpMzE5LjY3fDM4Mi4xN3wyMzkuNDJ8MjEuOTk=)' />
<circle cx='324.47' cy='172.57' r='2.13' style='stroke-width: 0.00; stroke: #444444; stroke-opacity: 0.10; fill: #444444; fill-opacity: 0.10;' clip-path='url(#cpMzE5LjY3fDM4Mi4xN3wyMzkuNDJ8MjEuOTk=)' />
<circle cx='335.89' cy='175.99' r='2.13' style='stroke-width: 0.00; stroke: #444444; stroke-opacity: 0.10; fill: #444444; fill-opacity: 0.10;' clip-path='url(#cpMzE5LjY3fDM4Mi4xN3wyMzkuNDJ8MjEuOTk=)' />
<circle cx='379.31' cy='165.97' r='2.13' style='stroke-width: 0.00; stroke: #444444; stroke-opacity: 0.10; fill: #444444; fill-opacity: 0.10;' clip-path='url(#cpMzE5LjY3fDM4Mi4xN3wyMzkuNDJ8MjEuOTk=)' />
<circle cx='349.94' cy='173.06' r='2.13' style='stroke-width: 0.00; stroke: #444444; stroke-opacity: 0.10; fill: #444444; fill-opacity: 0.10;' clip-path='url(#cpMzE5LjY3fDM4Mi4xN3wyMzkuNDJ8MjEuOTk=)' />
<circle cx='372.80' cy='177.56' r='2.13' style='stroke-width: 0.00; stroke: #444444; stroke-opacity: 0.10; fill: #444444; fill-opacity: 0.10;' clip-path='url(#cpMzE5LjY3fDM4Mi4xN3wyMzkuNDJ8MjEuOTk=)' />
<circle cx='375.32' cy='165.59' r='2.13' style='stroke-width: 0.00; stroke: #444444; stroke-opacity: 0.10; fill: #444444; fill-opacity: 0.10;' clip-path='url(#cpMzE5LjY3fDM4Mi4xN3wyMzkuNDJ8MjEuOTk=)' />
<circle cx='348.16' cy='165.25' r='2.13' style='stroke-width: 0.00; stroke: #444444; stroke-opacity: 0.10; fill: #444444; fill-opacity: 0.10;' clip-path='url(#cpMzE5LjY3fDM4Mi4xN3wyMzkuNDJ8MjEuOTk=)' />
<circle cx='373.87' cy='162.86' r='2.13' style='stroke-width: 0.00; stroke: #444444; stroke-opacity: 0.10; fill: #444444; fill-opacity: 0.10;' clip-path='url(#cpMzE5LjY3fDM4Mi4xN3wyMzkuNDJ8MjEuOTk=)' />
<circle cx='366.40' cy='170.20' r='2.13' style='stroke-width: 0.00; stroke: #444444; stroke-opacity: 0.10; fill: #444444; fill-opacity: 0.10;' clip-path='url(#cpMzE5LjY3fDM4Mi4xN3wyMzkuNDJ8MjEuOTk=)' />
<circle cx='375.38' cy='137.14' r='2.13' style='stroke-width: 0.00; stroke: #444444; stroke-opacity: 0.10; fill: #444444; fill-opacity: 0.10;' clip-path='url(#cpMzE5LjY3fDM4Mi4xN3wyMzkuNDJ8MjEuOTk=)' />
<circle cx='348.63' cy='150.69' r='2.13' style='stroke-width: 0.00; stroke: #444444; stroke-opacity: 0.10; fill: #444444; fill-opacity: 0.10;' clip-path='url(#cpMzE5LjY3fDM4Mi4xN3wyMzkuNDJ8MjEuOTk=)' />
<circle cx='351.11' cy='136.71' r='2.13' style='stroke-width: 0.00; stroke: #444444; stroke-opacity: 0.10; fill: #444444; fill-opacity: 0.10;' clip-path='url(#cpMzE5LjY3fDM4Mi4xN3wyMzkuNDJ8MjEuOTk=)' />
<circle cx='328.71' cy='147.50' r='2.13' style='stroke-width: 0.00; stroke: #444444; stroke-opacity: 0.10; fill: #444444; fill-opacity: 0.10;' clip-path='url(#cpMzE5LjY3fDM4Mi4xN3wyMzkuNDJ8MjEuOTk=)' />
<circle cx='378.70' cy='144.73' r='2.13' style='stroke-width: 0.00; stroke: #444444; stroke-opacity: 0.10; fill: #444444; fill-opacity: 0.10;' clip-path='url(#cpMzE5LjY3fDM4Mi4xN3wyMzkuNDJ8MjEuOTk=)' />
<circle cx='347.03' cy='143.56' r='2.13' style='stroke-width: 0.00; stroke: #444444; stroke-opacity: 0.10; fill: #444444; fill-opacity: 0.10;' clip-path='url(#cpMzE5LjY3fDM4Mi4xN3wyMzkuNDJ8MjEuOTk=)' />
<circle cx='376.01' cy='146.58' r='2.13' style='stroke-width: 0.00; stroke: #444444; stroke-opacity: 0.10; fill: #444444; fill-opacity: 0.10;' clip-path='url(#cpMzE5LjY3fDM4Mi4xN3wyMzkuNDJ8MjEuOTk=)' />
<circle cx='357.38' cy='144.35' r='2.13' style='stroke-width: 0.00; stroke: #444444; stroke-opacity: 0.10; fill: #444444; fill-opacity: 0.10;' clip-path='url(#cpMzE5LjY3fDM4Mi4xN3wyMzkuNDJ8MjEuOTk=)' />
<circle cx='359.09' cy='138.38' r='2.13' style='stroke-width: 0.00; stroke: #444444; stroke-opacity: 0.10; fill: #444444; fill-opacity: 0.10;' clip-path='url(#cpMzE5LjY3fDM4Mi4xN3wyMzkuNDJ8MjEuOTk=)' />
<circle cx='328.68' cy='142.35' r='2.13' style='stroke-width: 0.00; stroke: #444444; stroke-opacity: 0.10; fill: #444444; fill-opacity: 0.10;' clip-path='url(#cpMzE5LjY3fDM4Mi4xN3wyMzkuNDJ8MjEuOTk=)' />
<circle cx='324.37' cy='138.01' r='2.13' style='stroke-width: 0.00; stroke: #444444; stroke-opacity: 0.10; fill: #444444; fill-opacity: 0.10;' clip-path='url(#cpMzE5LjY3fDM4Mi4xN3wyMzkuNDJ8MjEuOTk=)' />
<circle cx='352.61' cy='149.53' r='2.13' style='stroke-width: 0.00; stroke: #444444; stroke-opacity: 0.10; fill: #444444; fill-opacity: 0.10;' clip-path='url(#cpMzE5LjY3fDM4Mi4xN3wyMzkuNDJ8MjEuOTk=)' />
<circle cx='328.70' cy='138.60' r='2.13' style='stroke-width: 0.00; stroke: #444444; stroke-opacity: 0.10; fill: #444444; fill-opacity: 0.10;' clip-path='url(#cpMzE5LjY3fDM4Mi4xN3wyMzkuNDJ8MjEuOTk=)' />
<circle cx='334.53' cy='136.22' r='2.13' style='stroke-width: 0.00; stroke: #444444; stroke-opacity: 0.10; fill: #444444; fill-opacity: 0.10;' clip-path='url(#cpMzE5LjY3fDM4Mi4xN3wyMzkuNDJ8MjEuOTk=)' />
<circle cx='350.80' cy='146.91' r='2.13' style='stroke-width: 0.00; stroke: #444444; stroke-opacity: 0.10; fill: #444444; fill-opacity: 0.10;' clip-path='url(#cpMzE5LjY3fDM4Mi4xN3wyMzkuNDJ8MjEuOTk=)' />
<circle cx='350.89' cy='140.63' r='2.13' style='stroke-width: 0.00; stroke: #444444; stroke-opacity: 0.10; fill: #444444; fill-opacity: 0.10;' clip-path='url(#cpMzE5LjY3fDM4Mi4xN3wyMzkuNDJ8MjEuOTk=)' />
<circle cx='373.39' cy='141.67' r='2.13' style='stroke-width: 0.00; stroke: #444444; stroke-opacity: 0.10; fill: #444444; fill-opacity: 0.10;' clip-path='url(#cpMzE5LjY3fDM4Mi4xN3wyMzkuNDJ8MjEuOTk=)' />
<circle cx='344.10' cy='149.51' r='2.13' style='stroke-width: 0.00; stroke: #444444; stroke-opacity: 0.10; fill: #444444; fill-opacity: 0.10;' clip-path='url(#cpMzE5LjY3fDM4Mi4xN3wyMzkuNDJ8MjEuOTk=)' />
<circle cx='322.68' cy='143.21' r='2.13' style='stroke-width: 0.00; stroke: #444444; stroke-opacity: 0.10; fill: #444444; fill-opacity: 0.10;' clip-path='url(#cpMzE5LjY3fDM4Mi4xN3wyMzkuNDJ8MjEuOTk=)' />
<circle cx='373.41' cy='145.31' r='2.13' style='stroke-width: 0.00; stroke: #444444; stroke-opacity: 0.10; fill: #444444; fill-opacity: 0.10;' clip-path='url(#cpMzE5LjY3fDM4Mi4xN3wyMzkuNDJ8MjEuOTk=)' />
<circle cx='374.96' cy='147.07' r='2.13' style='stroke-width: 0.00; stroke: #444444; stroke-opacity: 0.10; fill: #444444; fill-opacity: 0.10;' clip-path='url(#cpMzE5LjY3fDM4Mi4xN3wyMzkuNDJ8MjEuOTk=)' />
<circle cx='341.07' cy='138.33' r='2.13' style='stroke-width: 0.00; stroke: #444444; stroke-opacity: 0.10; fill: #444444; fill-opacity: 0.10;' clip-path='url(#cpMzE5LjY3fDM4Mi4xN3wyMzkuNDJ8MjEuOTk=)' />
<circle cx='326.68' cy='150.16' r='2.13' style='stroke-width: 0.00; stroke: #444444; stroke-opacity: 0.10; fill: #444444; fill-opacity: 0.10;' clip-path='url(#cpMzE5LjY3fDM4Mi4xN3wyMzkuNDJ8MjEuOTk=)' />
<circle cx='349.68' cy='148.17' r='2.13' style='stroke-width: 0.00; stroke: #444444; stroke-opacity: 0.10; fill: #444444; fill-opacity: 0.10;' clip-path='url(#cpMzE5LjY3fDM4Mi4xN3wyMzkuNDJ8MjEuOTk=)' />
<circle cx='322.77' cy='141.07' r='2.13' style='stroke-width: 0.00; stroke: #444444; stroke-opacity: 0.10; fill: #444444; fill-opacity: 0.10;' clip-path='url(#cpMzE5LjY3fDM4Mi4xN3wyMzkuNDJ8MjEuOTk=)' />
<circle cx='378.01' cy='140.22' r='2.13' style='stroke-width: 0.00; stroke: #444444; stroke-opacity: 0.10; fill: #444444; fill-opacity: 0.10;' clip-path='url(#cpMzE5LjY3fDM4Mi4xN3wyMzkuNDJ8MjEuOTk=)' />
<circle cx='353.41' cy='141.76' r='2.13' style='stroke-width: 0.00; stroke: #444444; stroke-opacity: 0.10; fill: #444444; fill-opacity: 0.10;' clip-path='url(#cpMzE5LjY3fDM4Mi4xN3wyMzkuNDJ8MjEuOTk=)' />
<circle cx='335.61' cy='150.53' r='2.13' style='stroke-width: 0.00; stroke: #444444; stroke-opacity: 0.10; fill: #444444; fill-opacity: 0.10;' clip-path='url(#cpMzE5LjY3fDM4Mi4xN3wyMzkuNDJ8MjEuOTk=)' />
<circle cx='371.92' cy='139.02' r='2.13' style='stroke-width: 0.00; stroke: #444444; stroke-opacity: 0.10; fill: #444444; fill-opacity: 0.10;' clip-path='url(#cpMzE5LjY3fDM4Mi4xN3wyMzkuNDJ8MjEuOTk=)' />
<circle cx='376.14' cy='117.42' r='2.13' style='stroke-width: 0.00; stroke: #444444; stroke-opacity: 0.10; fill: #444444; fill-opacity: 0.10;' clip-path='url(#cpMzE5LjY3fDM4Mi4xN3wyMzkuNDJ8MjEuOTk=)' />
<circle cx='377.94' cy='111.29' r='2.13' style='stroke-width: 0.00; stroke: #444444; stroke-opacity: 0.10; fill: #444444; fill-opacity: 0.10;' clip-path='url(#cpMzE5LjY3fDM4Mi4xN3wyMzkuNDJ8MjEuOTk=)' />
<circle cx='365.51' cy='113.68' r='2.13' style='stroke-width: 0.00; stroke: #444444; stroke-opacity: 0.10; fill: #444444; fill-opacity: 0.10;' clip-path='url(#cpMzE5LjY3fDM4Mi4xN3wyMzkuNDJ8MjEuOTk=)' />
<circle cx='372.18' cy='114.87' r='2.13' style='stroke-width: 0.00; stroke: #444444; stroke-opacity: 0.10; fill: #444444; fill-opacity: 0.10;' clip-path='url(#cpMzE5LjY3fDM4Mi4xN3wyMzkuNDJ8MjEuOTk=)' />
<circle cx='379.03' cy='123.15' r='2.13' style='stroke-width: 0.00; stroke: #444444; stroke-opacity: 0.10; fill: #444444; fill-opacity: 0.10;' clip-path='url(#cpMzE5LjY3fDM4Mi4xN3wyMzkuNDJ8MjEuOTk=)' />
<circle cx='328.07' cy='116.51' r='2.13' style='stroke-width: 0.00; stroke: #444444; stroke-opacity: 0.10; fill: #444444; fill-opacity: 0.10;' clip-path='url(#cpMzE5LjY3fDM4Mi4xN3wyMzkuNDJ8MjEuOTk=)' />
<circle cx='327.70' cy='122.00' r='2.13' style='stroke-width: 0.00; stroke: #444444; stroke-opacity: 0.10; fill: #444444; fill-opacity: 0.10;' clip-path='url(#cpMzE5LjY3fDM4Mi4xN3wyMzkuNDJ8MjEuOTk=)' />
<circle cx='372.54' cy='119.46' r='2.13' style='stroke-width: 0.00; stroke: #444444; stroke-opacity: 0.10; fill: #444444; fill-opacity: 0.10;' clip-path='url(#cpMzE5LjY3fDM4Mi4xN3wyMzkuNDJ8MjEuOTk=)' />
<circle cx='378.25' cy='119.82' r='2.13' style='stroke-width: 0.00; stroke: #444444; stroke-opacity: 0.10; fill: #444444; fill-opacity: 0.10;' clip-path='url(#cpMzE5LjY3fDM4Mi4xN3wyMzkuNDJ8MjEuOTk=)' />
<circle cx='378.44' cy='118.70' r='2.13' style='stroke-width: 0.00; stroke: #444444; stroke-opacity: 0.10; fill: #444444; fill-opacity: 0.10;' clip-path='url(#cpMzE5LjY3fDM4Mi4xN3wyMzkuNDJ8MjEuOTk=)' />
<circle cx='331.20' cy='118.67' r='2.13' style='stroke-width: 0.00; stroke: #444444; stroke-opacity: 0.10; fill: #444444; fill-opacity: 0.10;' clip-path='url(#cpMzE5LjY3fDM4Mi4xN3wyMzkuNDJ8MjEuOTk=)' />
<circle cx='375.92' cy='122.22' r='2.13' style='stroke-width: 0.00; stroke: #444444; stroke-opacity: 0.10; fill: #444444; fill-opacity: 0.10;' clip-path='url(#cpMzE5LjY3fDM4Mi4xN3wyMzkuNDJ8MjEuOTk=)' />
<circle cx='372.34' cy='121.74' r='2.13' style='stroke-width: 0.00; stroke: #444444; stroke-opacity: 0.10; fill: #444444; fill-opacity: 0.10;' clip-path='url(#cpMzE5LjY3fDM4Mi4xN3wyMzkuNDJ8MjEuOTk=)' />
<circle cx='345.46' cy='120.18' r='2.13' style='stroke-width: 0.00; stroke: #444444; stroke-opacity: 0.10; fill: #444444; fill-opacity: 0.10;' clip-path='url(#cpMzE5LjY3fDM4Mi4xN3wyMzkuNDJ8MjEuOTk=)' />
<circle cx='365.28' cy='117.63' r='2.13' style='stroke-width: 0.00; stroke: #444444; stroke-opacity: 0.10; fill: #444444; fill-opacity: 0.10;' clip-path='url(#cpMzE5LjY3fDM4Mi4xN3wyMzkuNDJ8MjEuOTk=)' />
<circle cx='376.05' cy='116.47' r='2.13' style='stroke-width: 0.00; stroke: #444444; stroke-opacity: 0.10; fill: #444444; fill-opacity: 0.10;' clip-path='url(#cpMzE5LjY3fDM4Mi4xN3wyMzkuNDJ8MjEuOTk=)' />
<circle cx='374.33' cy='120.00' r='2.13' style='stroke-width: 0.00; stroke: #444444; stroke-opacity: 0.10; fill: #444444; fill-opacity: 0.10;' clip-path='url(#cpMzE5LjY3fDM4Mi4xN3wyMzkuNDJ8MjEuOTk=)' />
<circle cx='373.59' cy='123.06' r='2.13' style='stroke-width: 0.00; stroke: #444444; stroke-opacity: 0.10; fill: #444444; fill-opacity: 0.10;' clip-path='url(#cpMzE5LjY3fDM4Mi4xN3wyMzkuNDJ8MjEuOTk=)' />
<circle cx='378.33' cy='119.66' r='2.13' style='stroke-width: 0.00; stroke: #444444; stroke-opacity: 0.10; fill: #444444; fill-opacity: 0.10;' clip-path='url(#cpMzE5LjY3fDM4Mi4xN3wyMzkuNDJ8MjEuOTk=)' />
<circle cx='348.75' cy='111.00' r='2.13' style='stroke-width: 0.00; stroke: #444444; stroke-opacity: 0.10; fill: #444444; fill-opacity: 0.10;' clip-path='url(#cpMzE5LjY3fDM4Mi4xN3wyMzkuNDJ8MjEuOTk=)' />
<circle cx='373.75' cy='118.83' r='2.13' style='stroke-width: 0.00; stroke: #444444; stroke-opacity: 0.10; fill: #444444; fill-opacity: 0.10;' clip-path='url(#cpMzE5LjY3fDM4Mi4xN3wyMzkuNDJ8MjEuOTk=)' />
<circle cx='329.25' cy='112.34' r='2.13' style='stroke-width: 0.00; stroke: #444444; stroke-opacity: 0.10; fill: #444444; fill-opacity: 0.10;' clip-path='url(#cpMzE5LjY3fDM4Mi4xN3wyMzkuNDJ8MjEuOTk=)' />
<circle cx='352.96' cy='113.62' r='2.13' style='stroke-width: 0.00; stroke: #444444; stroke-opacity: 0.10; fill: #444444; fill-opacity: 0.10;' clip-path='url(#cpMzE5LjY3fDM4Mi4xN3wyMzkuNDJ8MjEuOTk=)' />
<circle cx='358.93' cy='120.43' r='2.13' style='stroke-width: 0.00; stroke: #444444; stroke-opacity: 0.10; fill: #444444; fill-opacity: 0.10;' clip-path='url(#cpMzE5LjY3fDM4Mi4xN3wyMzkuNDJ8MjEuOTk=)' />
<circle cx='365.02' cy='114.64' r='2.13' style='stroke-width: 0.00; stroke: #444444; stroke-opacity: 0.10; fill: #444444; fill-opacity: 0.10;' clip-path='url(#cpMzE5LjY3fDM4Mi4xN3wyMzkuNDJ8MjEuOTk=)' />
<circle cx='375.00' cy='114.71' r='2.13' style='stroke-width: 0.00; stroke: #444444; stroke-opacity: 0.10; fill: #444444; fill-opacity: 0.10;' clip-path='url(#cpMzE5LjY3fDM4Mi4xN3wyMzkuNDJ8MjEuOTk=)' />
<circle cx='359.32' cy='117.32' r='2.13' style='stroke-width: 0.00; stroke: #444444; stroke-opacity: 0.10; fill: #444444; fill-opacity: 0.10;' clip-path='url(#cpMzE5LjY3fDM4Mi4xN3wyMzkuNDJ8MjEuOTk=)' />
<circle cx='374.64' cy='110.20' r='2.13' style='stroke-width: 0.00; stroke: #444444; stroke-opacity: 0.10; fill: #444444; fill-opacity: 0.10;' clip-path='url(#cpMzE5LjY3fDM4Mi4xN3wyMzkuNDJ8MjEuOTk=)' />
<circle cx='375.21' cy='113.44' r='2.13' style='stroke-width: 0.00; stroke: #444444; stroke-opacity: 0.10; fill: #444444; fill-opacity: 0.10;' clip-path='url(#cpMzE5LjY3fDM4Mi4xN3wyMzkuNDJ8MjEuOTk=)' />
<circle cx='378.74' cy='117.64' r='2.13' style='stroke-width: 0.00; stroke: #444444; stroke-opacity: 0.10; fill: #444444; fill-opacity: 0.10;' clip-path='url(#cpMzE5LjY3fDM4Mi4xN3wyMzkuNDJ8MjEuOTk=)' />
<circle cx='368.10' cy='120.98' r='2.13' style='stroke-width: 0.00; stroke: #444444; stroke-opacity: 0.10; fill: #444444; fill-opacity: 0.10;' clip-path='url(#cpMzE5LjY3fDM4Mi4xN3wyMzkuNDJ8MjEuOTk=)' />
<circle cx='373.34' cy='118.70' r='2.13' style='stroke-width: 0.00; stroke: #444444; stroke-opacity: 0.10; fill: #444444; fill-opacity: 0.10;' clip-path='url(#cpMzE5LjY3fDM4Mi4xN3wyMzkuNDJ8MjEuOTk=)' />
<circle cx='376.13' cy='125.19' r='2.13' style='stroke-width: 0.00; stroke: #444444; stroke-opacity: 0.10; fill: #444444; fill-opacity: 0.10;' clip-path='url(#cpMzE5LjY3fDM4Mi4xN3wyMzkuNDJ8MjEuOTk=)' />
<circle cx='376.39' cy='120.34' r='2.13' style='stroke-width: 0.00; stroke: #444444; stroke-opacity: 0.10; fill: #444444; fill-opacity: 0.10;' clip-path='url(#cpMzE5LjY3fDM4Mi4xN3wyMzkuNDJ8MjEuOTk=)' />
<circle cx='373.32' cy='115.31' r='2.13' style='stroke-width: 0.00; stroke: #444444; stroke-opacity: 0.10; fill: #444444; fill-opacity: 0.10;' clip-path='url(#cpMzE5LjY3fDM4Mi4xN3wyMzkuNDJ8MjEuOTk=)' />
<circle cx='347.27' cy='125.40' r='2.13' style='stroke-width: 0.00; stroke: #444444; stroke-opacity: 0.10; fill: #444444; fill-opacity: 0.10;' clip-path='url(#cpMzE5LjY3fDM4Mi4xN3wyMzkuNDJ8MjEuOTk=)' />
<circle cx='379.25' cy='112.52' r='2.13' style='stroke-width: 0.00; stroke: #444444; stroke-opacity: 0.10; fill: #444444; fill-opacity: 0.10;' clip-path='url(#cpMzE5LjY3fDM4Mi4xN3wyMzkuNDJ8MjEuOTk=)' />
<circle cx='372.69' cy='111.45' r='2.13' style='stroke-width: 0.00; stroke: #444444; stroke-opacity: 0.10; fill: #444444; fill-opacity: 0.10;' clip-path='url(#cpMzE5LjY3fDM4Mi4xN3wyMzkuNDJ8MjEuOTk=)' />
<circle cx='322.51' cy='122.80' r='2.13' style='stroke-width: 0.00; stroke: #444444; stroke-opacity: 0.10; fill: #444444; fill-opacity: 0.10;' clip-path='url(#cpMzE5LjY3fDM4Mi4xN3wyMzkuNDJ8MjEuOTk=)' />
<circle cx='335.66' cy='118.88' r='2.13' style='stroke-width: 0.00; stroke: #444444; stroke-opacity: 0.10; fill: #444444; fill-opacity: 0.10;' clip-path='url(#cpMzE5LjY3fDM4Mi4xN3wyMzkuNDJ8MjEuOTk=)' />
<circle cx='373.01' cy='99.08' r='2.13' style='stroke-width: 0.00; stroke: #444444; stroke-opacity: 0.10; fill: #444444; fill-opacity: 0.10;' clip-path='url(#cpMzE5LjY3fDM4Mi4xN3wyMzkuNDJ8MjEuOTk=)' />
<circle cx='351.47' cy='89.51' r='2.13' style='stroke-width: 0.00; stroke: #444444; stroke-opacity: 0.10; fill: #444444; fill-opacity: 0.10;' clip-path='url(#cpMzE5LjY3fDM4Mi4xN3wyMzkuNDJ8MjEuOTk=)' />
<circle cx='350.36' cy='96.85' r='2.13' style='stroke-width: 0.00; stroke: #444444; stroke-opacity: 0.10; fill: #444444; fill-opacity: 0.10;' clip-path='url(#cpMzE5LjY3fDM4Mi4xN3wyMzkuNDJ8MjEuOTk=)' />
<circle cx='376.14' cy='96.18' r='2.13' style='stroke-width: 0.00; stroke: #444444; stroke-opacity: 0.10; fill: #444444; fill-opacity: 0.10;' clip-path='url(#cpMzE5LjY3fDM4Mi4xN3wyMzkuNDJ8MjEuOTk=)' />
<circle cx='374.64' cy='84.36' r='2.13' style='stroke-width: 0.00; stroke: #444444; stroke-opacity: 0.10; fill: #444444; fill-opacity: 0.10;' clip-path='url(#cpMzE5LjY3fDM4Mi4xN3wyMzkuNDJ8MjEuOTk=)' />
<circle cx='370.15' cy='94.03' r='2.13' style='stroke-width: 0.00; stroke: #444444; stroke-opacity: 0.10; fill: #444444; fill-opacity: 0.10;' clip-path='url(#cpMzE5LjY3fDM4Mi4xN3wyMzkuNDJ8MjEuOTk=)' />
<circle cx='361.32' cy='99.07' r='2.13' style='stroke-width: 0.00; stroke: #444444; stroke-opacity: 0.10; fill: #444444; fill-opacity: 0.10;' clip-path='url(#cpMzE5LjY3fDM4Mi4xN3wyMzkuNDJ8MjEuOTk=)' />
<circle cx='327.99' cy='98.25' r='2.13' style='stroke-width: 0.00; stroke: #444444; stroke-opacity: 0.10; fill: #444444; fill-opacity: 0.10;' clip-path='url(#cpMzE5LjY3fDM4Mi4xN3wyMzkuNDJ8MjEuOTk=)' />
<circle cx='358.41' cy='86.02' r='2.13' style='stroke-width: 0.00; stroke: #444444; stroke-opacity: 0.10; fill: #444444; fill-opacity: 0.10;' clip-path='url(#cpMzE5LjY3fDM4Mi4xN3wyMzkuNDJ8MjEuOTk=)' />
<circle cx='371.99' cy='95.19' r='2.13' style='stroke-width: 0.00; stroke: #444444; stroke-opacity: 0.10; fill: #444444; fill-opacity: 0.10;' clip-path='url(#cpMzE5LjY3fDM4Mi4xN3wyMzkuNDJ8MjEuOTk=)' />
<circle cx='333.22' cy='97.07' r='2.13' style='stroke-width: 0.00; stroke: #444444; stroke-opacity: 0.10; fill: #444444; fill-opacity: 0.10;' clip-path='url(#cpMzE5LjY3fDM4Mi4xN3wyMzkuNDJ8MjEuOTk=)' />
<circle cx='349.65' cy='95.27' r='2.13' style='stroke-width: 0.00; stroke: #444444; stroke-opacity: 0.10; fill: #444444; fill-opacity: 0.10;' clip-path='url(#cpMzE5LjY3fDM4Mi4xN3wyMzkuNDJ8MjEuOTk=)' />
<circle cx='323.77' cy='90.26' r='2.13' style='stroke-width: 0.00; stroke: #444444; stroke-opacity: 0.10; fill: #444444; fill-opacity: 0.10;' clip-path='url(#cpMzE5LjY3fDM4Mi4xN3wyMzkuNDJ8MjEuOTk=)' />
<circle cx='327.81' cy='92.04' r='2.13' style='stroke-width: 0.00; stroke: #444444; stroke-opacity: 0.10; fill: #444444; fill-opacity: 0.10;' clip-path='url(#cpMzE5LjY3fDM4Mi4xN3wyMzkuNDJ8MjEuOTk=)' />
<circle cx='372.78' cy='87.20' r='2.13' style='stroke-width: 0.00; stroke: #444444; stroke-opacity: 0.10; fill: #444444; fill-opacity: 0.10;' clip-path='url(#cpMzE5LjY3fDM4Mi4xN3wyMzkuNDJ8MjEuOTk=)' />
<circle cx='372.33' cy='88.22' r='2.13' style='stroke-width: 0.00; stroke: #444444; stroke-opacity: 0.10; fill: #444444; fill-opacity: 0.10;' clip-path='url(#cpMzE5LjY3fDM4Mi4xN3wyMzkuNDJ8MjEuOTk=)' />
<circle cx='366.56' cy='89.33' r='2.13' style='stroke-width: 0.00; stroke: #444444; stroke-opacity: 0.10; fill: #444444; fill-opacity: 0.10;' clip-path='url(#cpMzE5LjY3fDM4Mi4xN3wyMzkuNDJ8MjEuOTk=)' />
<circle cx='338.93' cy='96.61' r='2.13' style='stroke-width: 0.00; stroke: #444444; stroke-opacity: 0.10; fill: #444444; fill-opacity: 0.10;' clip-path='url(#cpMzE5LjY3fDM4Mi4xN3wyMzkuNDJ8MjEuOTk=)' />
<circle cx='372.98' cy='93.97' r='2.13' style='stroke-width: 0.00; stroke: #444444; stroke-opacity: 0.10; fill: #444444; fill-opacity: 0.10;' clip-path='url(#cpMzE5LjY3fDM4Mi4xN3wyMzkuNDJ8MjEuOTk=)' />
<circle cx='331.35' cy='84.85' r='2.13' style='stroke-width: 0.00; stroke: #444444; stroke-opacity: 0.10; fill: #444444; fill-opacity: 0.10;' clip-path='url(#cpMzE5LjY3fDM4Mi4xN3wyMzkuNDJ8MjEuOTk=)' />
<circle cx='325.55' cy='98.29' r='2.13' style='stroke-width: 0.00; stroke: #444444; stroke-opacity: 0.10; fill: #444444; fill-opacity: 0.10;' clip-path='url(#cpMzE5LjY3fDM4Mi4xN3wyMzkuNDJ8MjEuOTk=)' />
<circle cx='335.64' cy='91.88' r='2.13' style='stroke-width: 0.00; stroke: #444444; stroke-opacity: 0.10; fill: #444444; fill-opacity: 0.10;' clip-path='url(#cpMzE5LjY3fDM4Mi4xN3wyMzkuNDJ8MjEuOTk=)' />
<circle cx='365.64' cy='93.83' r='2.13' style='stroke-width: 0.00; stroke: #444444; stroke-opacity: 0.10; fill: #444444; fill-opacity: 0.10;' clip-path='url(#cpMzE5LjY3fDM4Mi4xN3wyMzkuNDJ8MjEuOTk=)' />
<circle cx='377.64' cy='90.58' r='2.13' style='stroke-width: 0.00; stroke: #444444; stroke-opacity: 0.10; fill: #444444; fill-opacity: 0.10;' clip-path='url(#cpMzE5LjY3fDM4Mi4xN3wyMzkuNDJ8MjEuOTk=)' />
<circle cx='346.10' cy='89.98' r='2.13' style='stroke-width: 0.00; stroke: #444444; stroke-opacity: 0.10; fill: #444444; fill-opacity: 0.10;' clip-path='url(#cpMzE5LjY3fDM4Mi4xN3wyMzkuNDJ8MjEuOTk=)' />
<circle cx='340.11' cy='86.84' r='2.13' style='stroke-width: 0.00; stroke: #444444; stroke-opacity: 0.10; fill: #444444; fill-opacity: 0.10;' clip-path='url(#cpMzE5LjY3fDM4Mi4xN3wyMzkuNDJ8MjEuOTk=)' />
<circle cx='331.82' cy='89.83' r='2.13' style='stroke-width: 0.00; stroke: #444444; stroke-opacity: 0.10; fill: #444444; fill-opacity: 0.10;' clip-path='url(#cpMzE5LjY3fDM4Mi4xN3wyMzkuNDJ8MjEuOTk=)' />
<circle cx='347.80' cy='91.49' r='2.13' style='stroke-width: 0.00; stroke: #444444; stroke-opacity: 0.10; fill: #444444; fill-opacity: 0.10;' clip-path='url(#cpMzE5LjY3fDM4Mi4xN3wyMzkuNDJ8MjEuOTk=)' />
<circle cx='375.90' cy='91.30' r='2.13' style='stroke-width: 0.00; stroke: #444444; stroke-opacity: 0.10; fill: #444444; fill-opacity: 0.10;' clip-path='url(#cpMzE5LjY3fDM4Mi4xN3wyMzkuNDJ8MjEuOTk=)' />
<circle cx='372.72' cy='87.47' r='2.13' style='stroke-width: 0.00; stroke: #444444; stroke-opacity: 0.10; fill: #444444; fill-opacity: 0.10;' clip-path='url(#cpMzE5LjY3fDM4Mi4xN3wyMzkuNDJ8MjEuOTk=)' />
<circle cx='329.03' cy='98.94' r='2.13' style='stroke-width: 0.00; stroke: #444444; stroke-opacity: 0.10; fill: #444444; fill-opacity: 0.10;' clip-path='url(#cpMzE5LjY3fDM4Mi4xN3wyMzkuNDJ8MjEuOTk=)' />
<circle cx='328.55' cy='87.04' r='2.13' style='stroke-width: 0.00; stroke: #444444; stroke-opacity: 0.10; fill: #444444; fill-opacity: 0.10;' clip-path='url(#cpMzE5LjY3fDM4Mi4xN3wyMzkuNDJ8MjEuOTk=)' />
<circle cx='347.03' cy='88.17' r='2.13' style='stroke-width: 0.00; stroke: #444444; stroke-opacity: 0.10; fill: #444444; fill-opacity: 0.10;' clip-path='url(#cpMzE5LjY3fDM4Mi4xN3wyMzkuNDJ8MjEuOTk=)' />
<circle cx='374.19' cy='67.47' r='2.13' style='stroke-width: 0.00; stroke: #444444; stroke-opacity: 0.10; fill: #444444; fill-opacity: 0.10;' clip-path='url(#cpMzE5LjY3fDM4Mi4xN3wyMzkuNDJ8MjEuOTk=)' />
<circle cx='367.11' cy='69.69' r='2.13' style='stroke-width: 0.00; stroke: #444444; stroke-opacity: 0.10; fill: #444444; fill-opacity: 0.10;' clip-path='url(#cpMzE5LjY3fDM4Mi4xN3wyMzkuNDJ8MjEuOTk=)' />
<circle cx='379.24' cy='64.95' r='2.13' style='stroke-width: 0.00; stroke: #444444; stroke-opacity: 0.10; fill: #444444; fill-opacity: 0.10;' clip-path='url(#cpMzE5LjY3fDM4Mi4xN3wyMzkuNDJ8MjEuOTk=)' />
<circle cx='379.15' cy='63.79' r='2.13' style='stroke-width: 0.00; stroke: #444444; stroke-opacity: 0.10; fill: #444444; fill-opacity: 0.10;' clip-path='url(#cpMzE5LjY3fDM4Mi4xN3wyMzkuNDJ8MjEuOTk=)' />
<circle cx='378.17' cy='61.98' r='2.13' style='stroke-width: 0.00; stroke: #444444; stroke-opacity: 0.10; fill: #444444; fill-opacity: 0.10;' clip-path='url(#cpMzE5LjY3fDM4Mi4xN3wyMzkuNDJ8MjEuOTk=)' />
<circle cx='375.58' cy='72.57' r='2.13' style='stroke-width: 0.00; stroke: #444444; stroke-opacity: 0.10; fill: #444444; fill-opacity: 0.10;' clip-path='url(#cpMzE5LjY3fDM4Mi4xN3wyMzkuNDJ8MjEuOTk=)' />
<circle cx='375.65' cy='61.87' r='2.13' style='stroke-width: 0.00; stroke: #444444; stroke-opacity: 0.10; fill: #444444; fill-opacity: 0.10;' clip-path='url(#cpMzE5LjY3fDM4Mi4xN3wyMzkuNDJ8MjEuOTk=)' />
<circle cx='378.11' cy='63.97' r='2.13' style='stroke-width: 0.00; stroke: #444444; stroke-opacity: 0.10; fill: #444444; fill-opacity: 0.10;' clip-path='url(#cpMzE5LjY3fDM4Mi4xN3wyMzkuNDJ8MjEuOTk=)' />
<circle cx='373.30' cy='66.76' r='2.13' style='stroke-width: 0.00; stroke: #444444; stroke-opacity: 0.10; fill: #444444; fill-opacity: 0.10;' clip-path='url(#cpMzE5LjY3fDM4Mi4xN3wyMzkuNDJ8MjEuOTk=)' />
<circle cx='375.84' cy='63.37' r='2.13' style='stroke-width: 0.00; stroke: #444444; stroke-opacity: 0.10; fill: #444444; fill-opacity: 0.10;' clip-path='url(#cpMzE5LjY3fDM4Mi4xN3wyMzkuNDJ8MjEuOTk=)' />
<circle cx='378.04' cy='67.70' r='2.13' style='stroke-width: 0.00; stroke: #444444; stroke-opacity: 0.10; fill: #444444; fill-opacity: 0.10;' clip-path='url(#cpMzE5LjY3fDM4Mi4xN3wyMzkuNDJ8MjEuOTk=)' />
<circle cx='374.56' cy='59.17' r='2.13' style='stroke-width: 0.00; stroke: #444444; stroke-opacity: 0.10; fill: #444444; fill-opacity: 0.10;' clip-path='url(#cpMzE5LjY3fDM4Mi4xN3wyMzkuNDJ8MjEuOTk=)' />
<circle cx='352.55' cy='70.30' r='2.13' style='stroke-width: 0.00; stroke: #444444; stroke-opacity: 0.10; fill: #444444; fill-opacity: 0.10;' clip-path='url(#cpMzE5LjY3fDM4Mi4xN3wyMzkuNDJ8MjEuOTk=)' />
<circle cx='364.78' cy='59.05' r='2.13' style='stroke-width: 0.00; stroke: #444444; stroke-opacity: 0.10; fill: #444444; fill-opacity: 0.10;' clip-path='url(#cpMzE5LjY3fDM4Mi4xN3wyMzkuNDJ8MjEuOTk=)' />
<circle cx='372.63' cy='59.02' r='2.13' style='stroke-width: 0.00; stroke: #444444; stroke-opacity: 0.10; fill: #444444; fill-opacity: 0.10;' clip-path='url(#cpMzE5LjY3fDM4Mi4xN3wyMzkuNDJ8MjEuOTk=)' />
<circle cx='377.70' cy='63.09' r='2.13' style='stroke-width: 0.00; stroke: #444444; stroke-opacity: 0.10; fill: #444444; fill-opacity: 0.10;' clip-path='url(#cpMzE5LjY3fDM4Mi4xN3wyMzkuNDJ8MjEuOTk=)' />
<circle cx='350.67' cy='66.50' r='2.13' style='stroke-width: 0.00; stroke: #444444; stroke-opacity: 0.10; fill: #444444; fill-opacity: 0.10;' clip-path='url(#cpMzE5LjY3fDM4Mi4xN3wyMzkuNDJ8MjEuOTk=)' />
<circle cx='379.29' cy='69.20' r='2.13' style='stroke-width: 0.00; stroke: #444444; stroke-opacity: 0.10; fill: #444444; fill-opacity: 0.10;' clip-path='url(#cpMzE5LjY3fDM4Mi4xN3wyMzkuNDJ8MjEuOTk=)' />
<circle cx='372.62' cy='63.77' r='2.13' style='stroke-width: 0.00; stroke: #444444; stroke-opacity: 0.10; fill: #444444; fill-opacity: 0.10;' clip-path='url(#cpMzE5LjY3fDM4Mi4xN3wyMzkuNDJ8MjEuOTk=)' />
<circle cx='353.69' cy='60.45' r='2.13' style='stroke-width: 0.00; stroke: #444444; stroke-opacity: 0.10; fill: #444444; fill-opacity: 0.10;' clip-path='url(#cpMzE5LjY3fDM4Mi4xN3wyMzkuNDJ8MjEuOTk=)' />
<circle cx='347.80' cy='68.12' r='2.13' style='stroke-width: 0.00; stroke: #444444; stroke-opacity: 0.10; fill: #444444; fill-opacity: 0.10;' clip-path='url(#cpMzE5LjY3fDM4Mi4xN3wyMzkuNDJ8MjEuOTk=)' />
<circle cx='349.29' cy='71.49' r='2.13' style='stroke-width: 0.00; stroke: #444444; stroke-opacity: 0.10; fill: #444444; fill-opacity: 0.10;' clip-path='url(#cpMzE5LjY3fDM4Mi4xN3wyMzkuNDJ8MjEuOTk=)' />
<circle cx='375.39' cy='67.12' r='2.13' style='stroke-width: 0.00; stroke: #444444; stroke-opacity: 0.10; fill: #444444; fill-opacity: 0.10;' clip-path='url(#cpMzE5LjY3fDM4Mi4xN3wyMzkuNDJ8MjEuOTk=)' />
<circle cx='375.27' cy='67.44' r='2.13' style='stroke-width: 0.00; stroke: #444444; stroke-opacity: 0.10; fill: #444444; fill-opacity: 0.10;' clip-path='url(#cpMzE5LjY3fDM4Mi4xN3wyMzkuNDJ8MjEuOTk=)' />
<circle cx='351.05' cy='62.01' r='2.13' style='stroke-width: 0.00; stroke: #444444; stroke-opacity: 0.10; fill: #444444; fill-opacity: 0.10;' clip-path='url(#cpMzE5LjY3fDM4Mi4xN3wyMzkuNDJ8MjEuOTk=)' />
<circle cx='374.35' cy='66.78' r='2.13' style='stroke-width: 0.00; stroke: #444444; stroke-opacity: 0.10; fill: #444444; fill-opacity: 0.10;' clip-path='url(#cpMzE5LjY3fDM4Mi4xN3wyMzkuNDJ8MjEuOTk=)' />
<circle cx='372.96' cy='62.30' r='2.13' style='stroke-width: 0.00; stroke: #444444; stroke-opacity: 0.10; fill: #444444; fill-opacity: 0.10;' clip-path='url(#cpMzE5LjY3fDM4Mi4xN3wyMzkuNDJ8MjEuOTk=)' />
<circle cx='379.07' cy='65.97' r='2.13' style='stroke-width: 0.00; stroke: #444444; stroke-opacity: 0.10; fill: #444444; fill-opacity: 0.10;' clip-path='url(#cpMzE5LjY3fDM4Mi4xN3wyMzkuNDJ8MjEuOTk=)' />
<circle cx='364.13' cy='65.18' r='2.13' style='stroke-width: 0.00; stroke: #444444; stroke-opacity: 0.10; fill: #444444; fill-opacity: 0.10;' clip-path='url(#cpMzE5LjY3fDM4Mi4xN3wyMzkuNDJ8MjEuOTk=)' />
<circle cx='351.59' cy='34.27' r='2.13' style='stroke-width: 0.00; stroke: #444444; stroke-opacity: 0.10; fill: #444444; fill-opacity: 0.10;' clip-path='url(#cpMzE5LjY3fDM4Mi4xN3wyMzkuNDJ8MjEuOTk=)' />
<circle cx='369.66' cy='32.79' r='2.13' style='stroke-width: 0.00; stroke: #444444; stroke-opacity: 0.10; fill: #444444; fill-opacity: 0.10;' clip-path='url(#cpMzE5LjY3fDM4Mi4xN3wyMzkuNDJ8MjEuOTk=)' />
<circle cx='378.33' cy='35.77' r='2.13' style='stroke-width: 0.00; stroke: #444444; stroke-opacity: 0.10; fill: #444444; fill-opacity: 0.10;' clip-path='url(#cpMzE5LjY3fDM4Mi4xN3wyMzkuNDJ8MjEuOTk=)' />
<circle cx='353.60' cy='32.79' r='2.13' style='stroke-width: 0.00; stroke: #444444; stroke-opacity: 0.10; fill: #444444; fill-opacity: 0.10;' clip-path='url(#cpMzE5LjY3fDM4Mi4xN3wyMzkuNDJ8MjEuOTk=)' />
<circle cx='377.78' cy='40.04' r='2.13' style='stroke-width: 0.00; stroke: #444444; stroke-opacity: 0.10; fill: #444444; fill-opacity: 0.10;' clip-path='url(#cpMzE5LjY3fDM4Mi4xN3wyMzkuNDJ8MjEuOTk=)' />
<circle cx='376.14' cy='38.23' r='2.13' style='stroke-width: 0.00; stroke: #444444; stroke-opacity: 0.10; fill: #444444; fill-opacity: 0.10;' clip-path='url(#cpMzE5LjY3fDM4Mi4xN3wyMzkuNDJ8MjEuOTk=)' />
<circle cx='373.94' cy='33.53' r='2.13' style='stroke-width: 0.00; stroke: #444444; stroke-opacity: 0.10; fill: #444444; fill-opacity: 0.10;' clip-path='url(#cpMzE5LjY3fDM4Mi4xN3wyMzkuNDJ8MjEuOTk=)' />
<circle cx='375.28' cy='46.71' r='2.13' style='stroke-width: 0.00; stroke: #444444; stroke-opacity: 0.10; fill: #444444; fill-opacity: 0.10;' clip-path='url(#cpMzE5LjY3fDM4Mi4xN3wyMzkuNDJ8MjEuOTk=)' />
<circle cx='377.31' cy='42.66' r='2.13' style='stroke-width: 0.00; stroke: #444444; stroke-opacity: 0.10; fill: #444444; fill-opacity: 0.10;' clip-path='url(#cpMzE5LjY3fDM4Mi4xN3wyMzkuNDJ8MjEuOTk=)' />
<circle cx='369.41' cy='46.07' r='2.13' style='stroke-width: 0.00; stroke: #444444; stroke-opacity: 0.10; fill: #444444; fill-opacity: 0.10;' clip-path='url(#cpMzE5LjY3fDM4Mi4xN3wyMzkuNDJ8MjEuOTk=)' />
<circle cx='375.30' cy='33.92' r='2.13' style='stroke-width: 0.00; stroke: #444444; stroke-opacity: 0.10; fill: #444444; fill-opacity: 0.10;' clip-path='url(#cpMzE5LjY3fDM4Mi4xN3wyMzkuNDJ8MjEuOTk=)' />
<circle cx='364.24' cy='37.93' r='2.13' style='stroke-width: 0.00; stroke: #444444; stroke-opacity: 0.10; fill: #444444; fill-opacity: 0.10;' clip-path='url(#cpMzE5LjY3fDM4Mi4xN3wyMzkuNDJ8MjEuOTk=)' />
<circle cx='374.74' cy='46.67' r='2.13' style='stroke-width: 0.00; stroke: #444444; stroke-opacity: 0.10; fill: #444444; fill-opacity: 0.10;' clip-path='url(#cpMzE5LjY3fDM4Mi4xN3wyMzkuNDJ8MjEuOTk=)' />
<circle cx='350.50' cy='36.10' r='2.13' style='stroke-width: 0.00; stroke: #444444; stroke-opacity: 0.10; fill: #444444; fill-opacity: 0.10;' clip-path='url(#cpMzE5LjY3fDM4Mi4xN3wyMzkuNDJ8MjEuOTk=)' />
<circle cx='374.56' cy='32.45' r='2.13' style='stroke-width: 0.00; stroke: #444444; stroke-opacity: 0.10; fill: #444444; fill-opacity: 0.10;' clip-path='url(#cpMzE5LjY3fDM4Mi4xN3wyMzkuNDJ8MjEuOTk=)' />
<circle cx='374.28' cy='38.07' r='2.13' style='stroke-width: 0.00; stroke: #444444; stroke-opacity: 0.10; fill: #444444; fill-opacity: 0.10;' clip-path='url(#cpMzE5LjY3fDM4Mi4xN3wyMzkuNDJ8MjEuOTk=)' />
<circle cx='359.92' cy='41.93' r='2.13' style='stroke-width: 0.00; stroke: #444444; stroke-opacity: 0.10; fill: #444444; fill-opacity: 0.10;' clip-path='url(#cpMzE5LjY3fDM4Mi4xN3wyMzkuNDJ8MjEuOTk=)' />
<circle cx='368.14' cy='47.27' r='2.13' style='stroke-width: 0.00; stroke: #444444; stroke-opacity: 0.10; fill: #444444; fill-opacity: 0.10;' clip-path='url(#cpMzE5LjY3fDM4Mi4xN3wyMzkuNDJ8MjEuOTk=)' />
<circle cx='373.26' cy='37.58' r='2.13' style='stroke-width: 0.00; stroke: #444444; stroke-opacity: 0.10; fill: #444444; fill-opacity: 0.10;' clip-path='url(#cpMzE5LjY3fDM4Mi4xN3wyMzkuNDJ8MjEuOTk=)' />
<circle cx='365.35' cy='31.87' r='2.13' style='stroke-width: 0.00; stroke: #444444; stroke-opacity: 0.10; fill: #444444; fill-opacity: 0.10;' clip-path='url(#cpMzE5LjY3fDM4Mi4xN3wyMzkuNDJ8MjEuOTk=)' />
<circle cx='374.96' cy='47.18' r='2.13' style='stroke-width: 0.00; stroke: #444444; stroke-opacity: 0.10; fill: #444444; fill-opacity: 0.10;' clip-path='url(#cpMzE5LjY3fDM4Mi4xN3wyMzkuNDJ8MjEuOTk=)' />
<circle cx='376.52' cy='40.15' r='2.13' style='stroke-width: 0.00; stroke: #444444; stroke-opacity: 0.10; fill: #444444; fill-opacity: 0.10;' clip-path='url(#cpMzE5LjY3fDM4Mi4xN3wyMzkuNDJ8MjEuOTk=)' />
<circle cx='377.28' cy='37.08' r='2.13' style='stroke-width: 0.00; stroke: #444444; stroke-opacity: 0.10; fill: #444444; fill-opacity: 0.10;' clip-path='url(#cpMzE5LjY3fDM4Mi4xN3wyMzkuNDJ8MjEuOTk=)' />
<circle cx='351.41' cy='34.22' r='2.13' style='stroke-width: 0.00; stroke: #444444; stroke-opacity: 0.10; fill: #444444; fill-opacity: 0.10;' clip-path='url(#cpMzE5LjY3fDM4Mi4xN3wyMzkuNDJ8MjEuOTk=)' />
<circle cx='374.24' cy='44.11' r='2.13' style='stroke-width: 0.00; stroke: #444444; stroke-opacity: 0.10; fill: #444444; fill-opacity: 0.10;' clip-path='url(#cpMzE5LjY3fDM4Mi4xN3wyMzkuNDJ8MjEuOTk=)' />
<circle cx='373.32' cy='37.68' r='2.13' style='stroke-width: 0.00; stroke: #444444; stroke-opacity: 0.10; fill: #444444; fill-opacity: 0.10;' clip-path='url(#cpMzE5LjY3fDM4Mi4xN3wyMzkuNDJ8MjEuOTk=)' />
<circle cx='374.27' cy='40.49' r='2.13' style='stroke-width: 0.00; stroke: #444444; stroke-opacity: 0.10; fill: #444444; fill-opacity: 0.10;' clip-path='url(#cpMzE5LjY3fDM4Mi4xN3wyMzkuNDJ8MjEuOTk=)' />
<circle cx='373.76' cy='32.10' r='2.13' style='stroke-width: 0.00; stroke: #444444; stroke-opacity: 0.10; fill: #444444; fill-opacity: 0.10;' clip-path='url(#cpMzE5LjY3fDM4Mi4xN3wyMzkuNDJ8MjEuOTk=)' />
<circle cx='372.84' cy='33.67' r='2.13' style='stroke-width: 0.00; stroke: #444444; stroke-opacity: 0.10; fill: #444444; fill-opacity: 0.10;' clip-path='url(#cpMzE5LjY3fDM4Mi4xN3wyMzkuNDJ8MjEuOTk=)' />
<circle cx='355.86' cy='32.86' r='2.13' style='stroke-width: 0.00; stroke: #444444; stroke-opacity: 0.10; fill: #444444; fill-opacity: 0.10;' clip-path='url(#cpMzE5LjY3fDM4Mi4xN3wyMzkuNDJ8MjEuOTk=)' />
<circle cx='376.95' cy='33.02' r='2.13' style='stroke-width: 0.00; stroke: #444444; stroke-opacity: 0.10; fill: #444444; fill-opacity: 0.10;' clip-path='url(#cpMzE5LjY3fDM4Mi4xN3wyMzkuNDJ8MjEuOTk=)' />
<circle cx='372.56' cy='39.92' r='2.13' style='stroke-width: 0.00; stroke: #444444; stroke-opacity: 0.10; fill: #444444; fill-opacity: 0.10;' clip-path='url(#cpMzE5LjY3fDM4Mi4xN3wyMzkuNDJ8MjEuOTk=)' />
<polygon points='339.18,222.06 353.06,225.97 366.94,222.06 353.06,218.14 339.18,222.06 ' style='stroke-width: 1.07; stroke: #534D55; fill: #534D55;' clip-path='url(#cpMzE5LjY3fDM4Mi4xN3wyMzkuNDJ8MjEuOTk=)' />
<polygon points='342.18,195.97 356.91,199.88 371.64,195.97 356.91,192.06 342.18,195.97 ' style='stroke-width: 1.07; stroke: #504054; fill: #504054;' clip-path='url(#cpMzE5LjY3fDM4Mi4xN3wyMzkuNDJ8MjEuOTk=)' />
<polygon points='339.64,169.89 354.07,173.80 368.50,169.89 354.07,165.97 339.64,169.89 ' style='stroke-width: 1.07; stroke: #524A55; fill: #524A55;' clip-path='url(#cpMzE5LjY3fDM4Mi4xN3wyMzkuNDJ8MjEuOTk=)' />
<polygon points='334.49,143.80 350.47,147.71 366.46,143.80 350.47,139.89 334.49,143.80 ' style='stroke-width: 1.07; stroke: #545555; fill: #545555;' clip-path='url(#cpMzE5LjY3fDM4Mi4xN3wyMzkuNDJ8MjEuOTk=)' />
<polygon points='352.25,117.72 364.23,121.63 376.21,117.72 364.23,113.80 352.25,117.72 ' style='stroke-width: 1.07; stroke: #4B2754; fill: #4B2754;' clip-path='url(#cpMzE5LjY3fDM4Mi4xN3wyMzkuNDJ8MjEuOTk=)' />
<polygon points='338.04,91.63 353.02,95.54 367.99,91.63 353.02,87.72 338.04,91.63 ' style='stroke-width: 1.07; stroke: #534D55; fill: #534D55;' clip-path='url(#cpMzE5LjY3fDM4Mi4xN3wyMzkuNDJ8MjEuOTk=)' />
<polygon points='361.11,65.55 369.63,69.46 378.16,65.55 369.63,61.63 361.11,65.55 ' style='stroke-width: 1.07; stroke: #481554; fill: #481554;' clip-path='url(#cpMzE5LjY3fDM4Mi4xN3wyMzkuNDJ8MjEuOTk=)' />
<polygon points='363.22,39.46 370.19,43.37 377.16,39.46 370.19,35.55 363.22,39.46 ' style='stroke-width: 1.07; stroke: #471354; fill: #471354;' clip-path='url(#cpMzE5LjY3fDM4Mi4xN3wyMzkuNDJ8MjEuOTk=)' />
<rect x='319.67' y='21.99' width='62.51' height='217.44' style='stroke-width: 0.78; stroke: #333333;' clip-path='url(#cpMzE5LjY3fDM4Mi4xN3wyMzkuNDJ8MjEuOTk=)' />
<defs>
  <clipPath id='cpMC4wMHw1MTAuMjR8MjYxLjkyfDAuMDA='>
    <rect x='0.00' y='0.00' width='510.24' height='261.92' />
  </clipPath>
</defs>
<g clip-path='url(#cpMC4wMHw1MTAuMjR8MjYxLjkyfDAuMDA=)'><text x='262.36' y='224.35' style='font-size: 6.40px; fill: #4D4D4D; font-family: Arial;' textLength='53.72px' lengthAdjust='spacingAndGlyphs'>as little as possible</text></g>
<g clip-path='url(#cpMC4wMHw1MTAuMjR8MjYxLjkyfDAuMDA=)'><text x='262.36' y='198.26' style='font-size: 6.40px; fill: #4D4D4D; font-family: Arial;' textLength='53.72px' lengthAdjust='spacingAndGlyphs'>as little as possible</text></g>
<g clip-path='url(#cpMC4wMHw1MTAuMjR8MjYxLjkyfDAuMDA=)'><text x='262.36' y='172.18' style='font-size: 6.40px; fill: #4D4D4D; font-family: Arial;' textLength='53.72px' lengthAdjust='spacingAndGlyphs'>as little as possible</text></g>
<g clip-path='url(#cpMC4wMHw1MTAuMjR8MjYxLjkyfDAuMDA=)'><text x='262.36' y='146.09' style='font-size: 6.40px; fill: #4D4D4D; font-family: Arial;' textLength='53.72px' lengthAdjust='spacingAndGlyphs'>as little as possible</text></g>
<g clip-path='url(#cpMC4wMHw1MTAuMjR8MjYxLjkyfDAuMDA=)'><text x='262.36' y='120.01' style='font-size: 6.40px; fill: #4D4D4D; font-family: Arial;' textLength='53.72px' lengthAdjust='spacingAndGlyphs'>as little as possible</text></g>
<g clip-path='url(#cpMC4wMHw1MTAuMjR8MjYxLjkyfDAuMDA=)'><text x='262.36' y='93.92' style='font-size: 6.40px; fill: #4D4D4D; font-family: Arial;' textLength='53.72px' lengthAdjust='spacingAndGlyphs'>as little as possible</text></g>
<g clip-path='url(#cpMC4wMHw1MTAuMjR8MjYxLjkyfDAuMDA=)'><text x='262.36' y='67.84' style='font-size: 6.40px; fill: #4D4D4D; font-family: Arial;' textLength='53.72px' lengthAdjust='spacingAndGlyphs'>as little as possible</text></g>
<g clip-path='url(#cpMC4wMHw1MTAuMjR8MjYxLjkyfDAuMDA=)'><text x='262.36' y='41.75' style='font-size: 6.40px; fill: #4D4D4D; font-family: Arial;' textLength='53.72px' lengthAdjust='spacingAndGlyphs'>as little as possible</text></g>
<polyline points='317.67,222.06 319.67,222.06 ' style='stroke-width: 0.78; stroke: #333333; stroke-linecap: butt;' clip-path='url(#cpMC4wMHw1MTAuMjR8MjYxLjkyfDAuMDA=)' />
<polyline points='317.67,195.97 319.67,195.97 ' style='stroke-width: 0.78; stroke: #333333; stroke-linecap: butt;' clip-path='url(#cpMC4wMHw1MTAuMjR8MjYxLjkyfDAuMDA=)' />
<polyline points='317.67,169.89 319.67,169.89 ' style='stroke-width: 0.78; stroke: #333333; stroke-linecap: butt;' clip-path='url(#cpMC4wMHw1MTAuMjR8MjYxLjkyfDAuMDA=)' />
<polyline points='317.67,143.80 319.67,143.80 ' style='stroke-width: 0.78; stroke: #333333; stroke-linecap: butt;' clip-path='url(#cpMC4wMHw1MTAuMjR8MjYxLjkyfDAuMDA=)' />
<polyline points='317.67,117.72 319.67,117.72 ' style='stroke-width: 0.78; stroke: #333333; stroke-linecap: butt;' clip-path='url(#cpMC4wMHw1MTAuMjR8MjYxLjkyfDAuMDA=)' />
<polyline points='317.67,91.63 319.67,91.63 ' style='stroke-width: 0.78; stroke: #333333; stroke-linecap: butt;' clip-path='url(#cpMC4wMHw1MTAuMjR8MjYxLjkyfDAuMDA=)' />
<polyline points='317.67,65.55 319.67,65.55 ' style='stroke-width: 0.78; stroke: #333333; stroke-linecap: butt;' clip-path='url(#cpMC4wMHw1MTAuMjR8MjYxLjkyfDAuMDA=)' />
<polyline points='317.67,39.46 319.67,39.46 ' style='stroke-width: 0.78; stroke: #333333; stroke-linecap: butt;' clip-path='url(#cpMC4wMHw1MTAuMjR8MjYxLjkyfDAuMDA=)' />
<polyline points='382.17,222.01 384.17,222.01 ' style='stroke-width: 0.78; stroke: #333333; stroke-linecap: butt;' clip-path='url(#cpMC4wMHw1MTAuMjR8MjYxLjkyfDAuMDA=)' />
<polyline points='382.17,195.89 384.17,195.89 ' style='stroke-width: 0.78; stroke: #333333; stroke-linecap: butt;' clip-path='url(#cpMC4wMHw1MTAuMjR8MjYxLjkyfDAuMDA=)' />
<polyline points='382.17,169.99 384.17,169.99 ' style='stroke-width: 0.78; stroke: #333333; stroke-linecap: butt;' clip-path='url(#cpMC4wMHw1MTAuMjR8MjYxLjkyfDAuMDA=)' />
<polyline points='382.17,143.87 384.17,143.87 ' style='stroke-width: 0.78; stroke: #333333; stroke-linecap: butt;' clip-path='url(#cpMC4wMHw1MTAuMjR8MjYxLjkyfDAuMDA=)' />
<polyline points='382.17,117.75 384.17,117.75 ' style='stroke-width: 0.78; stroke: #333333; stroke-linecap: butt;' clip-path='url(#cpMC4wMHw1MTAuMjR8MjYxLjkyfDAuMDA=)' />
<polyline points='382.17,91.64 384.17,91.64 ' style='stroke-width: 0.78; stroke: #333333; stroke-linecap: butt;' clip-path='url(#cpMC4wMHw1MTAuMjR8MjYxLjkyfDAuMDA=)' />
<polyline points='382.17,65.52 384.17,65.52 ' style='stroke-width: 0.78; stroke: #333333; stroke-linecap: butt;' clip-path='url(#cpMC4wMHw1MTAuMjR8MjYxLjkyfDAuMDA=)' />
<polyline points='382.17,39.40 384.17,39.40 ' style='stroke-width: 0.78; stroke: #333333; stroke-linecap: butt;' clip-path='url(#cpMC4wMHw1MTAuMjR8MjYxLjkyfDAuMDA=)' />
<g clip-path='url(#cpMC4wMHw1MTAuMjR8MjYxLjkyfDAuMDA=)'><text x='385.76' y='224.30' style='font-size: 6.40px; fill: #4D4D4D; font-family: Arial;' textLength='57.98px' lengthAdjust='spacingAndGlyphs'>as much as possible</text></g>
<g clip-path='url(#cpMC4wMHw1MTAuMjR8MjYxLjkyfDAuMDA=)'><text x='385.76' y='198.18' style='font-size: 6.40px; fill: #4D4D4D; font-family: Arial;' textLength='57.98px' lengthAdjust='spacingAndGlyphs'>as much as possible</text></g>
<g clip-path='url(#cpMC4wMHw1MTAuMjR8MjYxLjkyfDAuMDA=)'><text x='385.76' y='172.28' style='font-size: 6.40px; fill: #4D4D4D; font-family: Arial;' textLength='57.98px' lengthAdjust='spacingAndGlyphs'>as much as possible</text></g>
<g clip-path='url(#cpMC4wMHw1MTAuMjR8MjYxLjkyfDAuMDA=)'><text x='385.76' y='146.16' style='font-size: 6.40px; fill: #4D4D4D; font-family: Arial;' textLength='57.98px' lengthAdjust='spacingAndGlyphs'>as much as possible</text></g>
<g clip-path='url(#cpMC4wMHw1MTAuMjR8MjYxLjkyfDAuMDA=)'><text x='385.76' y='120.04' style='font-size: 6.40px; fill: #4D4D4D; font-family: Arial;' textLength='57.98px' lengthAdjust='spacingAndGlyphs'>as much as possible</text></g>
<g clip-path='url(#cpMC4wMHw1MTAuMjR8MjYxLjkyfDAuMDA=)'><text x='385.76' y='93.93' style='font-size: 6.40px; fill: #4D4D4D; font-family: Arial;' textLength='57.98px' lengthAdjust='spacingAndGlyphs'>as much as possible</text></g>
<g clip-path='url(#cpMC4wMHw1MTAuMjR8MjYxLjkyfDAuMDA=)'><text x='385.76' y='67.81' style='font-size: 6.40px; fill: #4D4D4D; font-family: Arial;' textLength='57.98px' lengthAdjust='spacingAndGlyphs'>as much as possible</text></g>
<g clip-path='url(#cpMC4wMHw1MTAuMjR8MjYxLjkyfDAuMDA=)'><text x='385.76' y='41.69' style='font-size: 6.40px; fill: #4D4D4D; font-family: Arial;' textLength='57.98px' lengthAdjust='spacingAndGlyphs'>as much as possible</text></g>
<polyline points='325.88,241.42 325.88,239.42 ' style='stroke-width: 0.78; stroke: #333333; stroke-linecap: butt;' clip-path='url(#cpMC4wMHw1MTAuMjR8MjYxLjkyfDAuMDA=)' />
<polyline points='334.17,241.42 334.17,239.42 ' style='stroke-width: 0.78; stroke: #333333; stroke-linecap: butt;' clip-path='url(#cpMC4wMHw1MTAuMjR8MjYxLjkyfDAuMDA=)' />
<polyline points='342.46,241.42 342.46,239.42 ' style='stroke-width: 0.78; stroke: #333333; stroke-linecap: butt;' clip-path='url(#cpMC4wMHw1MTAuMjR8MjYxLjkyfDAuMDA=)' />
<polyline points='350.76,241.42 350.76,239.42 ' style='stroke-width: 0.78; stroke: #333333; stroke-linecap: butt;' clip-path='url(#cpMC4wMHw1MTAuMjR8MjYxLjkyfDAuMDA=)' />
<polyline points='359.05,241.42 359.05,239.42 ' style='stroke-width: 0.78; stroke: #333333; stroke-linecap: butt;' clip-path='url(#cpMC4wMHw1MTAuMjR8MjYxLjkyfDAuMDA=)' />
<polyline points='367.34,241.42 367.34,239.42 ' style='stroke-width: 0.78; stroke: #333333; stroke-linecap: butt;' clip-path='url(#cpMC4wMHw1MTAuMjR8MjYxLjkyfDAuMDA=)' />
<polyline points='375.64,241.42 375.64,239.42 ' style='stroke-width: 0.78; stroke: #333333; stroke-linecap: butt;' clip-path='url(#cpMC4wMHw1MTAuMjR8MjYxLjkyfDAuMDA=)' />
<g clip-path='url(#cpMC4wMHw1MTAuMjR8MjYxLjkyfDAuMDA=)'><text x='323.03' y='247.59' style='font-size: 6.40px; fill: #4D4D4D; font-family: Arial;' textLength='5.69px' lengthAdjust='spacingAndGlyphs'>-3</text></g>
<g clip-path='url(#cpMC4wMHw1MTAuMjR8MjYxLjkyfDAuMDA=)'><text x='331.33' y='247.59' style='font-size: 6.40px; fill: #4D4D4D; font-family: Arial;' textLength='5.69px' lengthAdjust='spacingAndGlyphs'>-2</text></g>
<g clip-path='url(#cpMC4wMHw1MTAuMjR8MjYxLjkyfDAuMDA=)'><text x='339.62' y='247.59' style='font-size: 6.40px; fill: #4D4D4D; font-family: Arial;' textLength='5.69px' lengthAdjust='spacingAndGlyphs'>-1</text></g>
<g clip-path='url(#cpMC4wMHw1MTAuMjR8MjYxLjkyfDAuMDA=)'><text x='348.98' y='247.59' style='font-size: 6.40px; fill: #4D4D4D; font-family: Arial;' textLength='3.56px' lengthAdjust='spacingAndGlyphs'>0</text></g>
<g clip-path='url(#cpMC4wMHw1MTAuMjR8MjYxLjkyfDAuMDA=)'><text x='357.27' y='247.59' style='font-size: 6.40px; fill: #4D4D4D; font-family: Arial;' textLength='3.56px' lengthAdjust='spacingAndGlyphs'>1</text></g>
<g clip-path='url(#cpMC4wMHw1MTAuMjR8MjYxLjkyfDAuMDA=)'><text x='365.56' y='247.59' style='font-size: 6.40px; fill: #4D4D4D; font-family: Arial;' textLength='3.56px' lengthAdjust='spacingAndGlyphs'>2</text></g>
<g clip-path='url(#cpMC4wMHw1MTAuMjR8MjYxLjkyfDAuMDA=)'><text x='373.86' y='247.59' style='font-size: 6.40px; fill: #4D4D4D; font-family: Arial;' textLength='3.56px' lengthAdjust='spacingAndGlyphs'>3</text></g>
<g clip-path='url(#cpMC4wMHw1MTAuMjR8MjYxLjkyfDAuMDA=)'><text x='308.90' y='256.44' style='font-size: 8.00px; font-family: Arial;' textLength='84.05px' lengthAdjust='spacingAndGlyphs'>Scores and 99.99% CIs</text></g>
<defs>
  <clipPath id='cpMC4wMHwyNTguMzh8MjM5LjQyfDIxLjk5'>
    <rect x='0.00' y='21.99' width='258.38' height='217.44' />
  </clipPath>
</defs>
<defs>
  <clipPath id='cpMC4wMHw1MTAuMjR8MjYxLjkyfDAuMDA='>
    <rect x='0.00' y='0.00' width='510.24' height='261.92' />
  </clipPath>
</defs>
<g clip-path='url(#cpMC4wMHw1MTAuMjR8MjYxLjkyfDAuMDA=)'><text x='3.59' y='216.24' style='font-size: 8.00px; font-family: Arial;' textLength='254.79px' lengthAdjust='spacingAndGlyphs'>When it comes to keeping at least {distRec} distance from others, I want</text></g>
<g clip-path='url(#cpMC4wMHw1MTAuMjR8MjYxLjkyfDAuMDA=)'><text x='3.59' y='224.88' style='font-size: 8.00px; font-family: Arial;' textLength='105.85px' lengthAdjust='spacingAndGlyphs'>to be like people in general …</text></g>
<g clip-path='url(#cpMC4wMHw1MTAuMjR8MjYxLjkyfDAuMDA=)'><text x='3.59' y='233.52' style='font-size: 8.00px; font-family: Arial;' textLength='103.16px' lengthAdjust='spacingAndGlyphs'>[NrmDeIdLikeGeneral_clean]</text></g>
<g clip-path='url(#cpMC4wMHw1MTAuMjR8MjYxLjkyfDAuMDA=)'><text x='3.59' y='190.12' style='font-size: 8.00px; font-family: Arial;' textLength='254.79px' lengthAdjust='spacingAndGlyphs'>When it comes to keeping at least {distRec} distance from others, I want</text></g>
<g clip-path='url(#cpMC4wMHw1MTAuMjR8MjYxLjkyfDAuMDA=)'><text x='3.59' y='198.76' style='font-size: 8.00px; font-family: Arial;' textLength='81.36px' lengthAdjust='spacingAndGlyphs'>to be like my friends …</text></g>
<g clip-path='url(#cpMC4wMHw1MTAuMjR8MjYxLjkyfDAuMDA=)'><text x='3.59' y='207.40' style='font-size: 8.00px; font-family: Arial;' textLength='86.70px' lengthAdjust='spacingAndGlyphs'>[NrmDeIdFriends_clean]</text></g>
<g clip-path='url(#cpMC4wMHw1MTAuMjR8MjYxLjkyfDAuMDA=)'><text x='3.59' y='164.00' style='font-size: 8.00px; font-family: Arial;' textLength='254.79px' lengthAdjust='spacingAndGlyphs'>When it comes to keeping at least {distRec} distance from others, I want</text></g>
<g clip-path='url(#cpMC4wMHw1MTAuMjR8MjYxLjkyfDAuMDA=)'><text x='3.59' y='172.64' style='font-size: 8.00px; font-family: Arial;' textLength='79.59px' lengthAdjust='spacingAndGlyphs'>to be like my doctor …</text></g>
<g clip-path='url(#cpMC4wMHw1MTAuMjR8MjYxLjkyfDAuMDA=)'><text x='3.59' y='181.28' style='font-size: 8.00px; font-family: Arial;' textLength='83.59px' lengthAdjust='spacingAndGlyphs'>[NrmDeIdDoctor_clean]</text></g>
<g clip-path='url(#cpMC4wMHw1MTAuMjR8MjYxLjkyfDAuMDA=)'><text x='3.59' y='137.66' style='font-size: 8.00px; font-family: Arial;' textLength='254.79px' lengthAdjust='spacingAndGlyphs'>When it comes to keeping at least {distRec} distance from others, I want</text></g>
<g clip-path='url(#cpMC4wMHw1MTAuMjR8MjYxLjkyfDAuMDA=)'><text x='3.59' y='146.30' style='font-size: 8.00px; font-family: Arial;' textLength='88.95px' lengthAdjust='spacingAndGlyphs'>to be like other people …</text></g>
<g clip-path='url(#cpMC4wMHw1MTAuMjR8MjYxLjkyfDAuMDA=)'><text x='3.59' y='154.94' style='font-size: 8.00px; font-family: Arial;' textLength='80.03px' lengthAdjust='spacingAndGlyphs'>[NrmDeIdOther_clean]</text></g>
<g clip-path='url(#cpMC4wMHw1MTAuMjR8MjYxLjkyfDAuMDA=)'><text x='3.59' y='111.54' style='font-size: 8.00px; font-family: Arial;' textLength='254.79px' lengthAdjust='spacingAndGlyphs'>When it comes to keeping at least {distRec} distance from others, I want</text></g>
<g clip-path='url(#cpMC4wMHw1MTAuMjR8MjYxLjkyfDAuMDA=)'><text x='3.59' y='120.18' style='font-size: 8.00px; font-family: Arial;' textLength='113.80px' lengthAdjust='spacingAndGlyphs'>to be like my family members …</text></g>
<g clip-path='url(#cpMC4wMHw1MTAuMjR8MjYxLjkyfDAuMDA=)'><text x='3.59' y='128.82' style='font-size: 8.00px; font-family: Arial;' textLength='83.58px' lengthAdjust='spacingAndGlyphs'>[NrmDeIdFamily_clean]</text></g>
<g clip-path='url(#cpMC4wMHw1MTAuMjR8MjYxLjkyfDAuMDA=)'><text x='3.59' y='85.42' style='font-size: 8.00px; font-family: Arial;' textLength='254.79px' lengthAdjust='spacingAndGlyphs'>When it comes to keeping at least {distRec} distance from others, I want</text></g>
<g clip-path='url(#cpMC4wMHw1MTAuMjR8MjYxLjkyfDAuMDA=)'><text x='3.59' y='94.06' style='font-size: 8.00px; font-family: Arial;' textLength='145.43px' lengthAdjust='spacingAndGlyphs'>to be like people in my neighbourhood …</text></g>
<g clip-path='url(#cpMC4wMHw1MTAuMjR8MjYxLjkyfDAuMDA=)'><text x='3.59' y='102.70' style='font-size: 8.00px; font-family: Arial;' textLength='100.05px' lengthAdjust='spacingAndGlyphs'>[NrmDeIdLikeNeighb_clean]</text></g>
<g clip-path='url(#cpMC4wMHw1MTAuMjR8MjYxLjkyfDAuMDA=)'><text x='3.59' y='59.30' style='font-size: 8.00px; font-family: Arial;' textLength='254.79px' lengthAdjust='spacingAndGlyphs'>When it comes to keeping at least {distRec} distance from others, I want</text></g>
<g clip-path='url(#cpMC4wMHw1MTAuMjR8MjYxLjkyfDAuMDA=)'><text x='3.59' y='67.94' style='font-size: 8.00px; font-family: Arial;' textLength='98.70px' lengthAdjust='spacingAndGlyphs'>to be like my role models …</text></g>
<g clip-path='url(#cpMC4wMHw1MTAuMjR8MjYxLjkyfDAuMDA=)'><text x='3.59' y='76.58' style='font-size: 8.00px; font-family: Arial;' textLength='76.48px' lengthAdjust='spacingAndGlyphs'>[NrmDeIdRole_clean]</text></g>
<g clip-path='url(#cpMC4wMHw1MTAuMjR8MjYxLjkyfDAuMDA=)'><text x='3.59' y='33.19' style='font-size: 8.00px; font-family: Arial;' textLength='254.79px' lengthAdjust='spacingAndGlyphs'>When it comes to keeping at least {distRec} distance from others, I want</text></g>
<g clip-path='url(#cpMC4wMHw1MTAuMjR8MjYxLjkyfDAuMDA=)'><text x='3.59' y='41.83' style='font-size: 8.00px; font-family: Arial;' textLength='96.05px' lengthAdjust='spacingAndGlyphs'>to be like people like me …</text></g>
<g clip-path='url(#cpMC4wMHw1MTAuMjR8MjYxLjkyfDAuMDA=)'><text x='3.59' y='50.47' style='font-size: 8.00px; font-family: Arial;' textLength='88.93px' lengthAdjust='spacingAndGlyphs'>[NrmDeIdLikeYou_clean]</text></g>
<defs>
  <clipPath id='cpMC4wMHwyNTguMzh8MjM5LjQyfDIxLjk5'>
    <rect x='0.00' y='21.99' width='258.38' height='217.44' />
  </clipPath>
</defs>
<defs>
  <clipPath id='cpMC4wMHw1MTAuMjR8MjYxLjkyfDAuMDA='>
    <rect x='0.00' y='0.00' width='510.24' height='261.92' />
  </clipPath>
</defs>
<defs>
  <clipPath id='cpNDQ3LjczfDUxMC4yNHwyNjEuOTJ8MTguMDA='>
    <rect x='447.73' y='18.00' width='62.51' height='243.92' />
  </clipPath>
</defs>
<rect x='447.73' y='18.00' width='62.51' height='243.92' style='stroke-width: 0.78; stroke: #FFFFFF; fill: #FFFFFF;' clip-path='url(#cpNDQ3LjczfDUxMC4yNHwyNjEuOTJ8MTguMDA=)' />
<defs>
  <clipPath id='cpNDUxLjcxfDUwNi4yNXwyMzkuNDJ8MjEuOTk='>
    <rect x='451.71' y='21.99' width='54.54' height='217.44' />
  </clipPath>
</defs>
<rect x='451.71' y='21.99' width='54.54' height='217.44' style='stroke-width: 0.78; stroke: none; fill: #FFFFFF;' clip-path='url(#cpNDUxLjcxfDUwNi4yNXwyMzkuNDJ8MjEuOTk=)' />
<polyline points='460.39,239.42 460.39,21.99 ' style='stroke-width: 0.39; stroke: #EBEBEB; stroke-linecap: butt;' clip-path='url(#cpNDUxLjcxfDUwNi4yNXwyMzkuNDJ8MjEuOTk=)' />
<polyline points='472.79,239.42 472.79,21.99 ' style='stroke-width: 0.39; stroke: #EBEBEB; stroke-linecap: butt;' clip-path='url(#cpNDUxLjcxfDUwNi4yNXwyMzkuNDJ8MjEuOTk=)' />
<polyline points='485.18,239.42 485.18,21.99 ' style='stroke-width: 0.39; stroke: #EBEBEB; stroke-linecap: butt;' clip-path='url(#cpNDUxLjcxfDUwNi4yNXwyMzkuNDJ8MjEuOTk=)' />
<polyline points='497.57,239.42 497.57,21.99 ' style='stroke-width: 0.39; stroke: #EBEBEB; stroke-linecap: butt;' clip-path='url(#cpNDUxLjcxfDUwNi4yNXwyMzkuNDJ8MjEuOTk=)' />
<polyline points='454.19,239.42 454.19,21.99 ' style='stroke-width: 0.78; stroke: #EBEBEB; stroke-linecap: butt;' clip-path='url(#cpNDUxLjcxfDUwNi4yNXwyMzkuNDJ8MjEuOTk=)' />
<polyline points='466.59,239.42 466.59,21.99 ' style='stroke-width: 0.78; stroke: #EBEBEB; stroke-linecap: butt;' clip-path='url(#cpNDUxLjcxfDUwNi4yNXwyMzkuNDJ8MjEuOTk=)' />
<polyline points='478.98,239.42 478.98,21.99 ' style='stroke-width: 0.78; stroke: #EBEBEB; stroke-linecap: butt;' clip-path='url(#cpNDUxLjcxfDUwNi4yNXwyMzkuNDJ8MjEuOTk=)' />
<polyline points='491.38,239.42 491.38,21.99 ' style='stroke-width: 0.78; stroke: #EBEBEB; stroke-linecap: butt;' clip-path='url(#cpNDUxLjcxfDUwNi4yNXwyMzkuNDJ8MjEuOTk=)' />
<polyline points='503.77,239.42 503.77,21.99 ' style='stroke-width: 0.78; stroke: #EBEBEB; stroke-linecap: butt;' clip-path='url(#cpNDUxLjcxfDUwNi4yNXwyMzkuNDJ8MjEuOTk=)' />
<line x1='466.59' y1='239.42' x2='466.59' y2='21.99' style='stroke-width: 1.07; stroke: #BEBEBE; stroke-linecap: butt;' clip-path='url(#cpNDUxLjcxfDUwNi4yNXwyMzkuNDJ8MjEuOTk=)' />
<line x1='478.98' y1='239.42' x2='478.98' y2='21.99' style='stroke-width: 1.07; stroke: #BEBEBE; stroke-linecap: butt;' clip-path='url(#cpNDUxLjcxfDUwNi4yNXwyMzkuNDJ8MjEuOTk=)' />
<line x1='491.38' y1='239.42' x2='491.38' y2='21.99' style='stroke-width: 1.07; stroke: #BEBEBE; stroke-linecap: butt;' clip-path='url(#cpNDUxLjcxfDUwNi4yNXwyMzkuNDJ8MjEuOTk=)' />
<polygon points='468.21,225.48 475.91,229.54 484.27,225.48 475.91,221.42 468.21,225.48 ' style='stroke-width: 2.13; fill: #4E5C5B; fill-opacity: 0.50;' clip-path='url(#cpNDUxLjcxfDUwNi4yNXwyMzkuNDJ8MjEuOTk=)' />
<polygon points='469.15,198.40 477.77,202.46 486.69,198.40 477.77,194.34 469.15,198.40 ' style='stroke-width: 2.13; fill: #525857; fill-opacity: 0.50;' clip-path='url(#cpNDUxLjcxfDUwNi4yNXwyMzkuNDJ8MjEuOTk=)' />
<polygon points='470.43,171.32 478.06,175.38 485.86,171.32 478.06,167.26 470.43,171.32 ' style='stroke-width: 2.13; fill: #535757; fill-opacity: 0.50;' clip-path='url(#cpNDUxLjcxfDUwNi4yNXwyMzkuNDJ8MjEuOTk=)' />
<polygon points='470.49,144.24 479.66,148.31 488.65,144.24 479.66,140.18 470.49,144.24 ' style='stroke-width: 2.13; fill: #545255; fill-opacity: 0.50;' clip-path='url(#cpNDUxLjcxfDUwNi4yNXwyMzkuNDJ8MjEuOTk=)' />
<polygon points='473.51,117.17 481.39,121.23 488.82,117.17 481.39,113.10 473.51,117.17 ' style='stroke-width: 2.13; fill: #534D55; fill-opacity: 0.50;' clip-path='url(#cpNDUxLjcxfDUwNi4yNXwyMzkuNDJ8MjEuOTk=)' />
<polygon points='473.04,90.09 481.78,94.15 489.87,90.09 481.78,86.03 473.04,90.09 ' style='stroke-width: 2.13; fill: #534B55; fill-opacity: 0.50;' clip-path='url(#cpNDUxLjcxfDUwNi4yNXwyMzkuNDJ8MjEuOTk=)' />
<polygon points='476.81,63.01 486.13,67.07 493.66,63.01 486.13,58.95 476.81,63.01 ' style='stroke-width: 2.13; fill: #503D54; fill-opacity: 0.50;' clip-path='url(#cpNDUxLjcxfDUwNi4yNXwyMzkuNDJ8MjEuOTk=)' />
<polygon points='478.11,35.93 486.85,39.99 493.85,35.93 486.85,31.87 478.11,35.93 ' style='stroke-width: 2.13; fill: #4F3A54; fill-opacity: 0.50;' clip-path='url(#cpNDUxLjcxfDUwNi4yNXwyMzkuNDJ8MjEuOTk=)' />
<rect x='451.71' y='21.99' width='54.54' height='217.44' style='stroke-width: 0.78; stroke: #333333;' clip-path='url(#cpNDUxLjcxfDUwNi4yNXwyMzkuNDJ8MjEuOTk=)' />
<defs>
  <clipPath id='cpNDQ3LjczfDUxMC4yNHwyNjEuOTJ8MTguMDA='>
    <rect x='447.73' y='18.00' width='62.51' height='243.92' />
  </clipPath>
</defs>
<defs>
  <clipPath id='cpMC4wMHw1MTAuMjR8MjYxLjkyfDAuMDA='>
    <rect x='0.00' y='0.00' width='510.24' height='261.92' />
  </clipPath>
</defs>
<defs>
  <clipPath id='cpNDQ3LjczfDUxMC4yNHwyNjEuOTJ8MTguMDA='>
    <rect x='447.73' y='18.00' width='62.51' height='243.92' />
  </clipPath>
</defs>
<defs>
  <clipPath id='cpMC4wMHw1MTAuMjR8MjYxLjkyfDAuMDA='>
    <rect x='0.00' y='0.00' width='510.24' height='261.92' />
  </clipPath>
</defs>
<defs>
  <clipPath id='cpNDQ3LjczfDUxMC4yNHwyNjEuOTJ8MTguMDA='>
    <rect x='447.73' y='18.00' width='62.51' height='243.92' />
  </clipPath>
</defs>
<defs>
  <clipPath id='cpMC4wMHw1MTAuMjR8MjYxLjkyfDAuMDA='>
    <rect x='0.00' y='0.00' width='510.24' height='261.92' />
  </clipPath>
</defs>
<defs>
  <clipPath id='cpNDQ3LjczfDUxMC4yNHwyNjEuOTJ8MTguMDA='>
    <rect x='447.73' y='18.00' width='62.51' height='243.92' />
  </clipPath>
</defs>
<defs>
  <clipPath id='cpMC4wMHw1MTAuMjR8MjYxLjkyfDAuMDA='>
    <rect x='0.00' y='0.00' width='510.24' height='261.92' />
  </clipPath>
</defs>
<defs>
  <clipPath id='cpNDQ3LjczfDUxMC4yNHwyNjEuOTJ8MTguMDA='>
    <rect x='447.73' y='18.00' width='62.51' height='243.92' />
  </clipPath>
</defs>
<defs>
  <clipPath id='cpMC4wMHw1MTAuMjR8MjYxLjkyfDAuMDA='>
    <rect x='0.00' y='0.00' width='510.24' height='261.92' />
  </clipPath>
</defs>
<defs>
  <clipPath id='cpNDQ3LjczfDUxMC4yNHwyNjEuOTJ8MTguMDA='>
    <rect x='447.73' y='18.00' width='62.51' height='243.92' />
  </clipPath>
</defs>
<defs>
  <clipPath id='cpMC4wMHw1MTAuMjR8MjYxLjkyfDAuMDA='>
    <rect x='0.00' y='0.00' width='510.24' height='261.92' />
  </clipPath>
</defs>
<defs>
  <clipPath id='cpNDQ3LjczfDUxMC4yNHwyNjEuOTJ8MTguMDA='>
    <rect x='447.73' y='18.00' width='62.51' height='243.92' />
  </clipPath>
</defs>
<defs>
  <clipPath id='cpMC4wMHw1MTAuMjR8MjYxLjkyfDAuMDA='>
    <rect x='0.00' y='0.00' width='510.24' height='261.92' />
  </clipPath>
</defs>
<defs>
  <clipPath id='cpNDQ3LjczfDUxMC4yNHwyNjEuOTJ8MTguMDA='>
    <rect x='447.73' y='18.00' width='62.51' height='243.92' />
  </clipPath>
</defs>
<defs>
  <clipPath id='cpMC4wMHw1MTAuMjR8MjYxLjkyfDAuMDA='>
    <rect x='0.00' y='0.00' width='510.24' height='261.92' />
  </clipPath>
</defs>
<polyline points='454.19,241.42 454.19,239.42 ' style='stroke-width: 0.78; stroke: #333333; stroke-linecap: butt;' clip-path='url(#cpMC4wMHw1MTAuMjR8MjYxLjkyfDAuMDA=)' />
<polyline points='466.59,241.42 466.59,239.42 ' style='stroke-width: 0.78; stroke: #333333; stroke-linecap: butt;' clip-path='url(#cpMC4wMHw1MTAuMjR8MjYxLjkyfDAuMDA=)' />
<polyline points='478.98,241.42 478.98,239.42 ' style='stroke-width: 0.78; stroke: #333333; stroke-linecap: butt;' clip-path='url(#cpMC4wMHw1MTAuMjR8MjYxLjkyfDAuMDA=)' />
<polyline points='491.38,241.42 491.38,239.42 ' style='stroke-width: 0.78; stroke: #333333; stroke-linecap: butt;' clip-path='url(#cpMC4wMHw1MTAuMjR8MjYxLjkyfDAuMDA=)' />
<polyline points='503.77,241.42 503.77,239.42 ' style='stroke-width: 0.78; stroke: #333333; stroke-linecap: butt;' clip-path='url(#cpMC4wMHw1MTAuMjR8MjYxLjkyfDAuMDA=)' />
<g clip-path='url(#cpMC4wMHw1MTAuMjR8MjYxLjkyfDAuMDA=)'><text x='448.68' y='247.59' style='font-size: 6.40px; fill: #4D4D4D; font-family: Arial;' textLength='11.03px' lengthAdjust='spacingAndGlyphs'>-1.0</text></g>
<g clip-path='url(#cpMC4wMHw1MTAuMjR8MjYxLjkyfDAuMDA=)'><text x='461.07' y='247.59' style='font-size: 6.40px; fill: #4D4D4D; font-family: Arial;' textLength='11.03px' lengthAdjust='spacingAndGlyphs'>-0.5</text></g>
<g clip-path='url(#cpMC4wMHw1MTAuMjR8MjYxLjkyfDAuMDA=)'><text x='474.53' y='247.59' style='font-size: 6.40px; fill: #4D4D4D; font-family: Arial;' textLength='8.90px' lengthAdjust='spacingAndGlyphs'>0.0</text></g>
<g clip-path='url(#cpMC4wMHw1MTAuMjR8MjYxLjkyfDAuMDA=)'><text x='486.93' y='247.59' style='font-size: 6.40px; fill: #4D4D4D; font-family: Arial;' textLength='8.90px' lengthAdjust='spacingAndGlyphs'>0.5</text></g>
<g clip-path='url(#cpMC4wMHw1MTAuMjR8MjYxLjkyfDAuMDA=)'><text x='499.32' y='247.59' style='font-size: 6.40px; fill: #4D4D4D; font-family: Arial;' textLength='8.90px' lengthAdjust='spacingAndGlyphs'>1.0</text></g>
<defs>
  <clipPath id='cpNDQ3LjczfDUxMC4yNHwyNjEuOTJ8MTguMDA='>
    <rect x='447.73' y='18.00' width='62.51' height='243.92' />
  </clipPath>
</defs>
<defs>
  <clipPath id='cpMC4wMHw1MTAuMjR8MjYxLjkyfDAuMDA='>
    <rect x='0.00' y='0.00' width='510.24' height='261.92' />
  </clipPath>
</defs>
<defs>
  <clipPath id='cpNDQ3LjczfDUxMC4yNHwyNjEuOTJ8MTguMDA='>
    <rect x='447.73' y='18.00' width='62.51' height='243.92' />
  </clipPath>
</defs>
<defs>
  <clipPath id='cpMC4wMHw1MTAuMjR8MjYxLjkyfDAuMDA='>
    <rect x='0.00' y='0.00' width='510.24' height='261.92' />
  </clipPath>
</defs>
<g clip-path='url(#cpMC4wMHw1MTAuMjR8MjYxLjkyfDAuMDA=)'><text x='436.30' y='256.44' style='font-size: 8.00px; font-family: Arial;' textLength='85.38px' lengthAdjust='spacingAndGlyphs'>95% CIs of associations</text></g>
<defs>
  <clipPath id='cpNDQ3LjczfDUxMC4yNHwyNjEuOTJ8MTguMDA='>
    <rect x='447.73' y='18.00' width='62.51' height='243.92' />
  </clipPath>
</defs>
<defs>
  <clipPath id='cpMC4wMHw1MTAuMjR8MjYxLjkyfDAuMDA='>
    <rect x='0.00' y='0.00' width='510.24' height='261.92' />
  </clipPath>
</defs>
<defs>
  <clipPath id='cpNDQ3LjczfDUxMC4yNHwyNjEuOTJ8MTguMDA='>
    <rect x='447.73' y='18.00' width='62.51' height='243.92' />
  </clipPath>
</defs>
<defs>
  <clipPath id='cpMC4wMHw1MTAuMjR8MjYxLjkyfDAuMDA='>
    <rect x='0.00' y='0.00' width='510.24' height='261.92' />
  </clipPath>
</defs>
<defs>
  <clipPath id='cpNDQ3LjczfDUxMC4yNHwyNjEuOTJ8MTguMDA='>
    <rect x='447.73' y='18.00' width='62.51' height='243.92' />
  </clipPath>
</defs>
<defs>
  <clipPath id='cpMC4wMHw1MTAuMjR8MjYxLjkyfDAuMDA='>
    <rect x='0.00' y='0.00' width='510.24' height='261.92' />
  </clipPath>
</defs>
<defs>
  <clipPath id='cpNDQ3LjczfDUxMC4yNHwyNjEuOTJ8MTguMDA='>
    <rect x='447.73' y='18.00' width='62.51' height='243.92' />
  </clipPath>
</defs>
<defs>
  <clipPath id='cpMC4wMHw1MTAuMjR8MjYxLjkyfDAuMDA='>
    <rect x='0.00' y='0.00' width='510.24' height='261.92' />
  </clipPath>
</defs>
<defs>
  <clipPath id='cpNDQ3LjczfDUxMC4yNHwyNjEuOTJ8MTguMDA='>
    <rect x='447.73' y='18.00' width='62.51' height='243.92' />
  </clipPath>
</defs>
<defs>
  <clipPath id='cpMC4wMHw1MTAuMjR8MjYxLjkyfDAuMDA='>
    <rect x='0.00' y='0.00' width='510.24' height='261.92' />
  </clipPath>
</defs>
<defs>
  <clipPath id='cpNDQ3LjczfDUxMC4yNHwyNjEuOTJ8MTguMDA='>
    <rect x='447.73' y='18.00' width='62.51' height='243.92' />
  </clipPath>
</defs>
<defs>
  <clipPath id='cpMC4wMHw1MTAuMjR8MjYxLjkyfDAuMDA='>
    <rect x='0.00' y='0.00' width='510.24' height='261.92' />
  </clipPath>
</defs>
<defs>
  <clipPath id='cpNDQ3LjczfDUxMC4yNHwyNjEuOTJ8MTguMDA='>
    <rect x='447.73' y='18.00' width='62.51' height='243.92' />
  </clipPath>
</defs>
<defs>
  <clipPath id='cpMC4wMHw1MTAuMjR8MjYxLjkyfDAuMDA='>
    <rect x='0.00' y='0.00' width='510.24' height='261.92' />
  </clipPath>
</defs>
<g clip-path='url(#cpMC4wMHw1MTAuMjR8MjYxLjkyfDAuMDA=)'><text x='2.30' y='8.78' style='font-size: 9.60px; font-weight: bold; font-family: Arial;' textLength='147.76px' lengthAdjust='spacingAndGlyphs'>Means and associations (r) with </text></g>
<g clip-path='url(#cpMC4wMHw1MTAuMjR8MjYxLjkyfDAuMDA=)'><text x='150.07' y='8.78' style='font-size: 9.60px; font-weight: bold; font-family: Arial;' textLength='43.21px' lengthAdjust='spacingAndGlyphs'>proximity</text></g>
<g clip-path='url(#cpMC4wMHw1MTAuMjR8MjYxLjkyfDAuMDA=)'><text x='193.28' y='8.78' style='font-size: 9.60px; font-weight: bold; font-family: Arial;' textLength='2.67px' lengthAdjust='spacingAndGlyphs'> </text></g>
</svg>
