<?xml version='1.0' encoding='UTF-8' ?>
<svg xmlns='http://www.w3.org/2000/svg' xmlns:xlink='http://www.w3.org/1999/xlink' viewBox='0 0 510.24 113.10'>
<defs>
  <style type='text/css'><![CDATA[
    line, polyline, polygon, path, rect, circle {
      fill: none;
      stroke: #000000;
      stroke-linecap: round;
      stroke-linejoin: round;
      stroke-miterlimit: 10.00;
    }
  ]]></style>
</defs>
<rect width='100%' height='100%' style='stroke: none; fill: none;'/>
<defs>
  <clipPath id='cpMjE1LjI0fDQ0My4wN3wxMTMuMTB8MTguMDA='>
    <rect x='215.24' y='18.00' width='227.83' height='95.10' />
  </clipPath>
</defs>
<rect x='215.24' y='18.00' width='227.83' height='95.10' style='stroke-width: 0.78; stroke: #FFFFFF; fill: #FFFFFF;' clip-path='url(#cpMjE1LjI0fDQ0My4wN3wxMTMuMTB8MTguMDA=)' />
<defs>
  <clipPath id='cpMC4wMHw1MTAuMjR8MTEzLjEwfDAuMDA='>
    <rect x='0.00' y='0.00' width='510.24' height='113.10' />
  </clipPath>
</defs>
<defs>
  <clipPath id='cpMjk2LjEwfDM2My4yN3w5MC42MXwyMS45OQ=='>
    <rect x='296.10' y='21.99' width='67.17' height='68.62' />
  </clipPath>
</defs>
<rect x='296.10' y='21.99' width='67.17' height='68.62' style='stroke-width: 0.78; stroke: none; fill: #FFFFFF;' clip-path='url(#cpMjk2LjEwfDM2My4yN3w5MC42MXwyMS45OQ==)' />
<polyline points='305.28,90.61 305.28,21.99 ' style='stroke-width: 0.39; stroke: #EBEBEB; stroke-linecap: butt;' clip-path='url(#cpMjk2LjEwfDM2My4yN3w5MC42MXwyMS45OQ==)' />
<polyline points='314.49,90.61 314.49,21.99 ' style='stroke-width: 0.39; stroke: #EBEBEB; stroke-linecap: butt;' clip-path='url(#cpMjk2LjEwfDM2My4yN3w5MC42MXwyMS45OQ==)' />
<polyline points='323.70,90.61 323.70,21.99 ' style='stroke-width: 0.39; stroke: #EBEBEB; stroke-linecap: butt;' clip-path='url(#cpMjk2LjEwfDM2My4yN3w5MC42MXwyMS45OQ==)' />
<polyline points='332.91,90.61 332.91,21.99 ' style='stroke-width: 0.39; stroke: #EBEBEB; stroke-linecap: butt;' clip-path='url(#cpMjk2LjEwfDM2My4yN3w5MC42MXwyMS45OQ==)' />
<polyline points='342.13,90.61 342.13,21.99 ' style='stroke-width: 0.39; stroke: #EBEBEB; stroke-linecap: butt;' clip-path='url(#cpMjk2LjEwfDM2My4yN3w5MC42MXwyMS45OQ==)' />
<polyline points='351.34,90.61 351.34,21.99 ' style='stroke-width: 0.39; stroke: #EBEBEB; stroke-linecap: butt;' clip-path='url(#cpMjk2LjEwfDM2My4yN3w5MC42MXwyMS45OQ==)' />
<polyline points='360.55,90.61 360.55,21.99 ' style='stroke-width: 0.39; stroke: #EBEBEB; stroke-linecap: butt;' clip-path='url(#cpMjk2LjEwfDM2My4yN3w5MC42MXwyMS45OQ==)' />
<polyline points='296.10,80.39 363.27,80.39 ' style='stroke-width: 0.78; stroke: #EBEBEB; stroke-linecap: butt;' clip-path='url(#cpMjk2LjEwfDM2My4yN3w5MC42MXwyMS45OQ==)' />
<polyline points='296.10,56.06 363.27,56.06 ' style='stroke-width: 0.78; stroke: #EBEBEB; stroke-linecap: butt;' clip-path='url(#cpMjk2LjEwfDM2My4yN3w5MC42MXwyMS45OQ==)' />
<polyline points='296.10,31.73 363.27,31.73 ' style='stroke-width: 0.78; stroke: #EBEBEB; stroke-linecap: butt;' clip-path='url(#cpMjk2LjEwfDM2My4yN3w5MC42MXwyMS45OQ==)' />
<polyline points='300.67,90.61 300.67,21.99 ' style='stroke-width: 0.78; stroke: #EBEBEB; stroke-linecap: butt;' clip-path='url(#cpMjk2LjEwfDM2My4yN3w5MC42MXwyMS45OQ==)' />
<polyline points='309.88,90.61 309.88,21.99 ' style='stroke-width: 0.78; stroke: #EBEBEB; stroke-linecap: butt;' clip-path='url(#cpMjk2LjEwfDM2My4yN3w5MC42MXwyMS45OQ==)' />
<polyline points='319.10,90.61 319.10,21.99 ' style='stroke-width: 0.78; stroke: #EBEBEB; stroke-linecap: butt;' clip-path='url(#cpMjk2LjEwfDM2My4yN3w5MC42MXwyMS45OQ==)' />
<polyline points='328.31,90.61 328.31,21.99 ' style='stroke-width: 0.78; stroke: #EBEBEB; stroke-linecap: butt;' clip-path='url(#cpMjk2LjEwfDM2My4yN3w5MC42MXwyMS45OQ==)' />
<polyline points='337.52,90.61 337.52,21.99 ' style='stroke-width: 0.78; stroke: #EBEBEB; stroke-linecap: butt;' clip-path='url(#cpMjk2LjEwfDM2My4yN3w5MC42MXwyMS45OQ==)' />
<polyline points='346.73,90.61 346.73,21.99 ' style='stroke-width: 0.78; stroke: #EBEBEB; stroke-linecap: butt;' clip-path='url(#cpMjk2LjEwfDM2My4yN3w5MC42MXwyMS45OQ==)' />
<polyline points='355.95,90.61 355.95,21.99 ' style='stroke-width: 0.78; stroke: #EBEBEB; stroke-linecap: butt;' clip-path='url(#cpMjk2LjEwfDM2My4yN3w5MC42MXwyMS45OQ==)' />
<circle cx='331.23' cy='76.34' r='2.13' style='stroke-width: 0.00; stroke: #444444; stroke-opacity: 0.10; fill: #444444; fill-opacity: 0.10;' clip-path='url(#cpMjk2LjEwfDM2My4yN3w5MC42MXwyMS45OQ==)' />
<circle cx='358.99' cy='84.30' r='2.13' style='stroke-width: 0.00; stroke: #444444; stroke-opacity: 0.10; fill: #444444; fill-opacity: 0.10;' clip-path='url(#cpMjk2LjEwfDM2My4yN3w5MC42MXwyMS45OQ==)' />
<circle cx='353.98' cy='79.89' r='2.13' style='stroke-width: 0.00; stroke: #444444; stroke-opacity: 0.10; fill: #444444; fill-opacity: 0.10;' clip-path='url(#cpMjk2LjEwfDM2My4yN3w5MC42MXwyMS45OQ==)' />
<circle cx='359.16' cy='85.95' r='2.13' style='stroke-width: 0.00; stroke: #444444; stroke-opacity: 0.10; fill: #444444; fill-opacity: 0.10;' clip-path='url(#cpMjk2LjEwfDM2My4yN3w5MC42MXwyMS45OQ==)' />
<circle cx='356.92' cy='85.01' r='2.13' style='stroke-width: 0.00; stroke: #444444; stroke-opacity: 0.10; fill: #444444; fill-opacity: 0.10;' clip-path='url(#cpMjk2LjEwfDM2My4yN3w5MC42MXwyMS45OQ==)' />
<circle cx='356.69' cy='85.16' r='2.13' style='stroke-width: 0.00; stroke: #444444; stroke-opacity: 0.10; fill: #444444; fill-opacity: 0.10;' clip-path='url(#cpMjk2LjEwfDM2My4yN3w5MC42MXwyMS45OQ==)' />
<circle cx='354.35' cy='75.17' r='2.13' style='stroke-width: 0.00; stroke: #444444; stroke-opacity: 0.10; fill: #444444; fill-opacity: 0.10;' clip-path='url(#cpMjk2LjEwfDM2My4yN3w5MC42MXwyMS45OQ==)' />
<circle cx='358.72' cy='74.49' r='2.13' style='stroke-width: 0.00; stroke: #444444; stroke-opacity: 0.10; fill: #444444; fill-opacity: 0.10;' clip-path='url(#cpMjk2LjEwfDM2My4yN3w5MC42MXwyMS45OQ==)' />
<circle cx='356.31' cy='80.41' r='2.13' style='stroke-width: 0.00; stroke: #444444; stroke-opacity: 0.10; fill: #444444; fill-opacity: 0.10;' clip-path='url(#cpMjk2LjEwfDM2My4yN3w5MC42MXwyMS45OQ==)' />
<circle cx='359.79' cy='86.38' r='2.13' style='stroke-width: 0.00; stroke: #444444; stroke-opacity: 0.10; fill: #444444; fill-opacity: 0.10;' clip-path='url(#cpMjk2LjEwfDM2My4yN3w5MC42MXwyMS45OQ==)' />
<circle cx='357.75' cy='78.97' r='2.13' style='stroke-width: 0.00; stroke: #444444; stroke-opacity: 0.10; fill: #444444; fill-opacity: 0.10;' clip-path='url(#cpMjk2LjEwfDM2My4yN3w5MC42MXwyMS45OQ==)' />
<circle cx='359.04' cy='86.61' r='2.13' style='stroke-width: 0.00; stroke: #444444; stroke-opacity: 0.10; fill: #444444; fill-opacity: 0.10;' clip-path='url(#cpMjk2LjEwfDM2My4yN3w5MC42MXwyMS45OQ==)' />
<circle cx='357.61' cy='81.93' r='2.13' style='stroke-width: 0.00; stroke: #444444; stroke-opacity: 0.10; fill: #444444; fill-opacity: 0.10;' clip-path='url(#cpMjk2LjEwfDM2My4yN3w5MC42MXwyMS45OQ==)' />
<circle cx='353.23' cy='76.56' r='2.13' style='stroke-width: 0.00; stroke: #444444; stroke-opacity: 0.10; fill: #444444; fill-opacity: 0.10;' clip-path='url(#cpMjk2LjEwfDM2My4yN3w5MC42MXwyMS45OQ==)' />
<circle cx='342.95' cy='87.49' r='2.13' style='stroke-width: 0.00; stroke: #444444; stroke-opacity: 0.10; fill: #444444; fill-opacity: 0.10;' clip-path='url(#cpMjk2LjEwfDM2My4yN3w5MC42MXwyMS45OQ==)' />
<circle cx='354.03' cy='83.13' r='2.13' style='stroke-width: 0.00; stroke: #444444; stroke-opacity: 0.10; fill: #444444; fill-opacity: 0.10;' clip-path='url(#cpMjk2LjEwfDM2My4yN3w5MC42MXwyMS45OQ==)' />
<circle cx='358.38' cy='77.31' r='2.13' style='stroke-width: 0.00; stroke: #444444; stroke-opacity: 0.10; fill: #444444; fill-opacity: 0.10;' clip-path='url(#cpMjk2LjEwfDM2My4yN3w5MC42MXwyMS45OQ==)' />
<circle cx='356.85' cy='74.76' r='2.13' style='stroke-width: 0.00; stroke: #444444; stroke-opacity: 0.10; fill: #444444; fill-opacity: 0.10;' clip-path='url(#cpMjk2LjEwfDM2My4yN3w5MC42MXwyMS45OQ==)' />
<circle cx='356.90' cy='80.34' r='2.13' style='stroke-width: 0.00; stroke: #444444; stroke-opacity: 0.10; fill: #444444; fill-opacity: 0.10;' clip-path='url(#cpMjk2LjEwfDM2My4yN3w5MC42MXwyMS45OQ==)' />
<circle cx='353.64' cy='76.15' r='2.13' style='stroke-width: 0.00; stroke: #444444; stroke-opacity: 0.10; fill: #444444; fill-opacity: 0.10;' clip-path='url(#cpMjk2LjEwfDM2My4yN3w5MC42MXwyMS45OQ==)' />
<circle cx='353.38' cy='86.54' r='2.13' style='stroke-width: 0.00; stroke: #444444; stroke-opacity: 0.10; fill: #444444; fill-opacity: 0.10;' clip-path='url(#cpMjk2LjEwfDM2My4yN3w5MC42MXwyMS45OQ==)' />
<circle cx='359.94' cy='74.39' r='2.13' style='stroke-width: 0.00; stroke: #444444; stroke-opacity: 0.10; fill: #444444; fill-opacity: 0.10;' clip-path='url(#cpMjk2LjEwfDM2My4yN3w5MC42MXwyMS45OQ==)' />
<circle cx='352.79' cy='82.04' r='2.13' style='stroke-width: 0.00; stroke: #444444; stroke-opacity: 0.10; fill: #444444; fill-opacity: 0.10;' clip-path='url(#cpMjk2LjEwfDM2My4yN3w5MC42MXwyMS45OQ==)' />
<circle cx='325.90' cy='81.61' r='2.13' style='stroke-width: 0.00; stroke: #444444; stroke-opacity: 0.10; fill: #444444; fill-opacity: 0.10;' clip-path='url(#cpMjk2LjEwfDM2My4yN3w5MC42MXwyMS45OQ==)' />
<circle cx='344.93' cy='86.60' r='2.13' style='stroke-width: 0.00; stroke: #444444; stroke-opacity: 0.10; fill: #444444; fill-opacity: 0.10;' clip-path='url(#cpMjk2LjEwfDM2My4yN3w5MC42MXwyMS45OQ==)' />
<circle cx='349.44' cy='84.14' r='2.13' style='stroke-width: 0.00; stroke: #444444; stroke-opacity: 0.10; fill: #444444; fill-opacity: 0.10;' clip-path='url(#cpMjk2LjEwfDM2My4yN3w5MC42MXwyMS45OQ==)' />
<circle cx='359.74' cy='76.67' r='2.13' style='stroke-width: 0.00; stroke: #444444; stroke-opacity: 0.10; fill: #444444; fill-opacity: 0.10;' clip-path='url(#cpMjk2LjEwfDM2My4yN3w5MC42MXwyMS45OQ==)' />
<circle cx='359.36' cy='86.55' r='2.13' style='stroke-width: 0.00; stroke: #444444; stroke-opacity: 0.10; fill: #444444; fill-opacity: 0.10;' clip-path='url(#cpMjk2LjEwfDM2My4yN3w5MC42MXwyMS45OQ==)' />
<circle cx='359.52' cy='77.13' r='2.13' style='stroke-width: 0.00; stroke: #444444; stroke-opacity: 0.10; fill: #444444; fill-opacity: 0.10;' clip-path='url(#cpMjk2LjEwfDM2My4yN3w5MC42MXwyMS45OQ==)' />
<circle cx='357.94' cy='76.20' r='2.13' style='stroke-width: 0.00; stroke: #444444; stroke-opacity: 0.10; fill: #444444; fill-opacity: 0.10;' clip-path='url(#cpMjk2LjEwfDM2My4yN3w5MC42MXwyMS45OQ==)' />
<circle cx='346.48' cy='84.37' r='2.13' style='stroke-width: 0.00; stroke: #444444; stroke-opacity: 0.10; fill: #444444; fill-opacity: 0.10;' clip-path='url(#cpMjk2LjEwfDM2My4yN3w5MC42MXwyMS45OQ==)' />
<circle cx='346.99' cy='79.51' r='2.13' style='stroke-width: 0.00; stroke: #444444; stroke-opacity: 0.10; fill: #444444; fill-opacity: 0.10;' clip-path='url(#cpMjk2LjEwfDM2My4yN3w5MC42MXwyMS45OQ==)' />
<circle cx='330.27' cy='78.67' r='2.13' style='stroke-width: 0.00; stroke: #444444; stroke-opacity: 0.10; fill: #444444; fill-opacity: 0.10;' clip-path='url(#cpMjk2LjEwfDM2My4yN3w5MC42MXwyMS45OQ==)' />
<circle cx='348.89' cy='74.57' r='2.13' style='stroke-width: 0.00; stroke: #444444; stroke-opacity: 0.10; fill: #444444; fill-opacity: 0.10;' clip-path='url(#cpMjk2LjEwfDM2My4yN3w5MC42MXwyMS45OQ==)' />
<circle cx='352.89' cy='75.03' r='2.13' style='stroke-width: 0.00; stroke: #444444; stroke-opacity: 0.10; fill: #444444; fill-opacity: 0.10;' clip-path='url(#cpMjk2LjEwfDM2My4yN3w5MC42MXwyMS45OQ==)' />
<circle cx='357.90' cy='74.02' r='2.13' style='stroke-width: 0.00; stroke: #444444; stroke-opacity: 0.10; fill: #444444; fill-opacity: 0.10;' clip-path='url(#cpMjk2LjEwfDM2My4yN3w5MC42MXwyMS45OQ==)' />
<circle cx='351.99' cy='74.75' r='2.13' style='stroke-width: 0.00; stroke: #444444; stroke-opacity: 0.10; fill: #444444; fill-opacity: 0.10;' clip-path='url(#cpMjk2LjEwfDM2My4yN3w5MC42MXwyMS45OQ==)' />
<circle cx='357.76' cy='83.48' r='2.13' style='stroke-width: 0.00; stroke: #444444; stroke-opacity: 0.10; fill: #444444; fill-opacity: 0.10;' clip-path='url(#cpMjk2LjEwfDM2My4yN3w5MC42MXwyMS45OQ==)' />
<circle cx='355.65' cy='73.97' r='2.13' style='stroke-width: 0.00; stroke: #444444; stroke-opacity: 0.10; fill: #444444; fill-opacity: 0.10;' clip-path='url(#cpMjk2LjEwfDM2My4yN3w5MC42MXwyMS45OQ==)' />
<circle cx='358.45' cy='76.11' r='2.13' style='stroke-width: 0.00; stroke: #444444; stroke-opacity: 0.10; fill: #444444; fill-opacity: 0.10;' clip-path='url(#cpMjk2LjEwfDM2My4yN3w5MC42MXwyMS45OQ==)' />
<circle cx='353.94' cy='81.41' r='2.13' style='stroke-width: 0.00; stroke: #444444; stroke-opacity: 0.10; fill: #444444; fill-opacity: 0.10;' clip-path='url(#cpMjk2LjEwfDM2My4yN3w5MC42MXwyMS45OQ==)' />
<circle cx='340.58' cy='75.21' r='2.13' style='stroke-width: 0.00; stroke: #444444; stroke-opacity: 0.10; fill: #444444; fill-opacity: 0.10;' clip-path='url(#cpMjk2LjEwfDM2My4yN3w5MC42MXwyMS45OQ==)' />
<circle cx='336.34' cy='79.19' r='2.13' style='stroke-width: 0.00; stroke: #444444; stroke-opacity: 0.10; fill: #444444; fill-opacity: 0.10;' clip-path='url(#cpMjk2LjEwfDM2My4yN3w5MC42MXwyMS45OQ==)' />
<circle cx='329.86' cy='61.37' r='2.13' style='stroke-width: 0.00; stroke: #444444; stroke-opacity: 0.10; fill: #444444; fill-opacity: 0.10;' clip-path='url(#cpMjk2LjEwfDM2My4yN3w5MC42MXwyMS45OQ==)' />
<circle cx='352.82' cy='51.34' r='2.13' style='stroke-width: 0.00; stroke: #444444; stroke-opacity: 0.10; fill: #444444; fill-opacity: 0.10;' clip-path='url(#cpMjk2LjEwfDM2My4yN3w5MC42MXwyMS45OQ==)' />
<circle cx='354.81' cy='55.28' r='2.13' style='stroke-width: 0.00; stroke: #444444; stroke-opacity: 0.10; fill: #444444; fill-opacity: 0.10;' clip-path='url(#cpMjk2LjEwfDM2My4yN3w5MC42MXwyMS45OQ==)' />
<circle cx='318.86' cy='60.82' r='2.13' style='stroke-width: 0.00; stroke: #444444; stroke-opacity: 0.10; fill: #444444; fill-opacity: 0.10;' clip-path='url(#cpMjk2LjEwfDM2My4yN3w5MC42MXwyMS45OQ==)' />
<circle cx='328.69' cy='53.83' r='2.13' style='stroke-width: 0.00; stroke: #444444; stroke-opacity: 0.10; fill: #444444; fill-opacity: 0.10;' clip-path='url(#cpMjk2LjEwfDM2My4yN3w5MC42MXwyMS45OQ==)' />
<circle cx='325.74' cy='60.82' r='2.13' style='stroke-width: 0.00; stroke: #444444; stroke-opacity: 0.10; fill: #444444; fill-opacity: 0.10;' clip-path='url(#cpMjk2LjEwfDM2My4yN3w5MC42MXwyMS45OQ==)' />
<circle cx='303.89' cy='59.97' r='2.13' style='stroke-width: 0.00; stroke: #444444; stroke-opacity: 0.10; fill: #444444; fill-opacity: 0.10;' clip-path='url(#cpMjk2LjEwfDM2My4yN3w5MC42MXwyMS45OQ==)' />
<circle cx='347.91' cy='52.02' r='2.13' style='stroke-width: 0.00; stroke: #444444; stroke-opacity: 0.10; fill: #444444; fill-opacity: 0.10;' clip-path='url(#cpMjk2LjEwfDM2My4yN3w5MC42MXwyMS45OQ==)' />
<circle cx='330.46' cy='58.05' r='2.13' style='stroke-width: 0.00; stroke: #444444; stroke-opacity: 0.10; fill: #444444; fill-opacity: 0.10;' clip-path='url(#cpMjk2LjEwfDM2My4yN3w5MC42MXwyMS45OQ==)' />
<circle cx='355.80' cy='53.75' r='2.13' style='stroke-width: 0.00; stroke: #444444; stroke-opacity: 0.10; fill: #444444; fill-opacity: 0.10;' clip-path='url(#cpMjk2LjEwfDM2My4yN3w5MC42MXwyMS45OQ==)' />
<circle cx='303.16' cy='60.35' r='2.13' style='stroke-width: 0.00; stroke: #444444; stroke-opacity: 0.10; fill: #444444; fill-opacity: 0.10;' clip-path='url(#cpMjk2LjEwfDM2My4yN3w5MC42MXwyMS45OQ==)' />
<circle cx='359.60' cy='61.07' r='2.13' style='stroke-width: 0.00; stroke: #444444; stroke-opacity: 0.10; fill: #444444; fill-opacity: 0.10;' clip-path='url(#cpMjk2LjEwfDM2My4yN3w5MC42MXwyMS45OQ==)' />
<circle cx='327.13' cy='57.20' r='2.13' style='stroke-width: 0.00; stroke: #444444; stroke-opacity: 0.10; fill: #444444; fill-opacity: 0.10;' clip-path='url(#cpMjk2LjEwfDM2My4yN3w5MC42MXwyMS45OQ==)' />
<circle cx='353.05' cy='51.50' r='2.13' style='stroke-width: 0.00; stroke: #444444; stroke-opacity: 0.10; fill: #444444; fill-opacity: 0.10;' clip-path='url(#cpMjk2LjEwfDM2My4yN3w5MC42MXwyMS45OQ==)' />
<circle cx='353.10' cy='57.51' r='2.13' style='stroke-width: 0.00; stroke: #444444; stroke-opacity: 0.10; fill: #444444; fill-opacity: 0.10;' clip-path='url(#cpMjk2LjEwfDM2My4yN3w5MC42MXwyMS45OQ==)' />
<circle cx='327.43' cy='49.39' r='2.13' style='stroke-width: 0.00; stroke: #444444; stroke-opacity: 0.10; fill: #444444; fill-opacity: 0.10;' clip-path='url(#cpMjk2LjEwfDM2My4yN3w5MC42MXwyMS45OQ==)' />
<circle cx='356.10' cy='53.93' r='2.13' style='stroke-width: 0.00; stroke: #444444; stroke-opacity: 0.10; fill: #444444; fill-opacity: 0.10;' clip-path='url(#cpMjk2LjEwfDM2My4yN3w5MC42MXwyMS45OQ==)' />
<circle cx='313.57' cy='52.87' r='2.13' style='stroke-width: 0.00; stroke: #444444; stroke-opacity: 0.10; fill: #444444; fill-opacity: 0.10;' clip-path='url(#cpMjk2LjEwfDM2My4yN3w5MC42MXwyMS45OQ==)' />
<circle cx='327.11' cy='61.88' r='2.13' style='stroke-width: 0.00; stroke: #444444; stroke-opacity: 0.10; fill: #444444; fill-opacity: 0.10;' clip-path='url(#cpMjk2LjEwfDM2My4yN3w5MC42MXwyMS45OQ==)' />
<circle cx='328.94' cy='56.19' r='2.13' style='stroke-width: 0.00; stroke: #444444; stroke-opacity: 0.10; fill: #444444; fill-opacity: 0.10;' clip-path='url(#cpMjk2LjEwfDM2My4yN3w5MC42MXwyMS45OQ==)' />
<circle cx='330.29' cy='49.04' r='2.13' style='stroke-width: 0.00; stroke: #444444; stroke-opacity: 0.10; fill: #444444; fill-opacity: 0.10;' clip-path='url(#cpMjk2LjEwfDM2My4yN3w5MC42MXwyMS45OQ==)' />
<circle cx='336.53' cy='51.42' r='2.13' style='stroke-width: 0.00; stroke: #444444; stroke-opacity: 0.10; fill: #444444; fill-opacity: 0.10;' clip-path='url(#cpMjk2LjEwfDM2My4yN3w5MC42MXwyMS45OQ==)' />
<circle cx='349.85' cy='60.21' r='2.13' style='stroke-width: 0.00; stroke: #444444; stroke-opacity: 0.10; fill: #444444; fill-opacity: 0.10;' clip-path='url(#cpMjk2LjEwfDM2My4yN3w5MC42MXwyMS45OQ==)' />
<circle cx='318.73' cy='57.18' r='2.13' style='stroke-width: 0.00; stroke: #444444; stroke-opacity: 0.10; fill: #444444; fill-opacity: 0.10;' clip-path='url(#cpMjk2LjEwfDM2My4yN3w5MC42MXwyMS45OQ==)' />
<circle cx='303.02' cy='56.55' r='2.13' style='stroke-width: 0.00; stroke: #444444; stroke-opacity: 0.10; fill: #444444; fill-opacity: 0.10;' clip-path='url(#cpMjk2LjEwfDM2My4yN3w5MC42MXwyMS45OQ==)' />
<circle cx='331.58' cy='51.75' r='2.13' style='stroke-width: 0.00; stroke: #444444; stroke-opacity: 0.10; fill: #444444; fill-opacity: 0.10;' clip-path='url(#cpMjk2LjEwfDM2My4yN3w5MC42MXwyMS45OQ==)' />
<circle cx='351.93' cy='59.69' r='2.13' style='stroke-width: 0.00; stroke: #444444; stroke-opacity: 0.10; fill: #444444; fill-opacity: 0.10;' clip-path='url(#cpMjk2LjEwfDM2My4yN3w5MC42MXwyMS45OQ==)' />
<circle cx='357.79' cy='53.57' r='2.13' style='stroke-width: 0.00; stroke: #444444; stroke-opacity: 0.10; fill: #444444; fill-opacity: 0.10;' clip-path='url(#cpMjk2LjEwfDM2My4yN3w5MC42MXwyMS45OQ==)' />
<circle cx='316.95' cy='51.43' r='2.13' style='stroke-width: 0.00; stroke: #444444; stroke-opacity: 0.10; fill: #444444; fill-opacity: 0.10;' clip-path='url(#cpMjk2LjEwfDM2My4yN3w5MC42MXwyMS45OQ==)' />
<circle cx='319.35' cy='60.90' r='2.13' style='stroke-width: 0.00; stroke: #444444; stroke-opacity: 0.10; fill: #444444; fill-opacity: 0.10;' clip-path='url(#cpMjk2LjEwfDM2My4yN3w5MC42MXwyMS45OQ==)' />
<circle cx='299.15' cy='58.71' r='2.13' style='stroke-width: 0.00; stroke: #444444; stroke-opacity: 0.10; fill: #444444; fill-opacity: 0.10;' clip-path='url(#cpMjk2LjEwfDM2My4yN3w5MC42MXwyMS45OQ==)' />
<circle cx='356.74' cy='59.44' r='2.13' style='stroke-width: 0.00; stroke: #444444; stroke-opacity: 0.10; fill: #444444; fill-opacity: 0.10;' clip-path='url(#cpMjk2LjEwfDM2My4yN3w5MC42MXwyMS45OQ==)' />
<circle cx='350.74' cy='59.95' r='2.13' style='stroke-width: 0.00; stroke: #444444; stroke-opacity: 0.10; fill: #444444; fill-opacity: 0.10;' clip-path='url(#cpMjk2LjEwfDM2My4yN3w5MC42MXwyMS45OQ==)' />
<circle cx='347.22' cy='61.47' r='2.13' style='stroke-width: 0.00; stroke: #444444; stroke-opacity: 0.10; fill: #444444; fill-opacity: 0.10;' clip-path='url(#cpMjk2LjEwfDM2My4yN3w5MC42MXwyMS45OQ==)' />
<circle cx='353.50' cy='49.40' r='2.13' style='stroke-width: 0.00; stroke: #444444; stroke-opacity: 0.10; fill: #444444; fill-opacity: 0.10;' clip-path='url(#cpMjk2LjEwfDM2My4yN3w5MC42MXwyMS45OQ==)' />
<circle cx='301.31' cy='60.44' r='2.13' style='stroke-width: 0.00; stroke: #444444; stroke-opacity: 0.10; fill: #444444; fill-opacity: 0.10;' clip-path='url(#cpMjk2LjEwfDM2My4yN3w5MC42MXwyMS45OQ==)' />
<circle cx='347.92' cy='60.08' r='2.13' style='stroke-width: 0.00; stroke: #444444; stroke-opacity: 0.10; fill: #444444; fill-opacity: 0.10;' clip-path='url(#cpMjk2LjEwfDM2My4yN3w5MC42MXwyMS45OQ==)' />
<circle cx='300.97' cy='55.51' r='2.13' style='stroke-width: 0.00; stroke: #444444; stroke-opacity: 0.10; fill: #444444; fill-opacity: 0.10;' clip-path='url(#cpMjk2LjEwfDM2My4yN3w5MC42MXwyMS45OQ==)' />
<circle cx='352.86' cy='53.37' r='2.13' style='stroke-width: 0.00; stroke: #444444; stroke-opacity: 0.10; fill: #444444; fill-opacity: 0.10;' clip-path='url(#cpMjk2LjEwfDM2My4yN3w5MC42MXwyMS45OQ==)' />
<circle cx='356.72' cy='49.46' r='2.13' style='stroke-width: 0.00; stroke: #444444; stroke-opacity: 0.10; fill: #444444; fill-opacity: 0.10;' clip-path='url(#cpMjk2LjEwfDM2My4yN3w5MC42MXwyMS45OQ==)' />
<circle cx='356.77' cy='35.23' r='2.13' style='stroke-width: 0.00; stroke: #444444; stroke-opacity: 0.10; fill: #444444; fill-opacity: 0.10;' clip-path='url(#cpMjk2LjEwfDM2My4yN3w5MC42MXwyMS45OQ==)' />
<circle cx='355.85' cy='32.76' r='2.13' style='stroke-width: 0.00; stroke: #444444; stroke-opacity: 0.10; fill: #444444; fill-opacity: 0.10;' clip-path='url(#cpMjk2LjEwfDM2My4yN3w5MC42MXwyMS45OQ==)' />
<circle cx='353.02' cy='25.10' r='2.13' style='stroke-width: 0.00; stroke: #444444; stroke-opacity: 0.10; fill: #444444; fill-opacity: 0.10;' clip-path='url(#cpMjk2LjEwfDM2My4yN3w5MC42MXwyMS45OQ==)' />
<circle cx='304.60' cy='27.89' r='2.13' style='stroke-width: 0.00; stroke: #444444; stroke-opacity: 0.10; fill: #444444; fill-opacity: 0.10;' clip-path='url(#cpMjk2LjEwfDM2My4yN3w5MC42MXwyMS45OQ==)' />
<circle cx='358.05' cy='37.51' r='2.13' style='stroke-width: 0.00; stroke: #444444; stroke-opacity: 0.10; fill: #444444; fill-opacity: 0.10;' clip-path='url(#cpMjk2LjEwfDM2My4yN3w5MC42MXwyMS45OQ==)' />
<circle cx='325.87' cy='37.04' r='2.13' style='stroke-width: 0.00; stroke: #444444; stroke-opacity: 0.10; fill: #444444; fill-opacity: 0.10;' clip-path='url(#cpMjk2LjEwfDM2My4yN3w5MC42MXwyMS45OQ==)' />
<circle cx='352.78' cy='29.79' r='2.13' style='stroke-width: 0.00; stroke: #444444; stroke-opacity: 0.10; fill: #444444; fill-opacity: 0.10;' clip-path='url(#cpMjk2LjEwfDM2My4yN3w5MC42MXwyMS45OQ==)' />
<circle cx='354.87' cy='26.51' r='2.13' style='stroke-width: 0.00; stroke: #444444; stroke-opacity: 0.10; fill: #444444; fill-opacity: 0.10;' clip-path='url(#cpMjk2LjEwfDM2My4yN3w5MC42MXwyMS45OQ==)' />
<circle cx='346.84' cy='37.43' r='2.13' style='stroke-width: 0.00; stroke: #444444; stroke-opacity: 0.10; fill: #444444; fill-opacity: 0.10;' clip-path='url(#cpMjk2LjEwfDM2My4yN3w5MC42MXwyMS45OQ==)' />
<circle cx='355.44' cy='26.38' r='2.13' style='stroke-width: 0.00; stroke: #444444; stroke-opacity: 0.10; fill: #444444; fill-opacity: 0.10;' clip-path='url(#cpMjk2LjEwfDM2My4yN3w5MC42MXwyMS45OQ==)' />
<circle cx='326.62' cy='26.87' r='2.13' style='stroke-width: 0.00; stroke: #444444; stroke-opacity: 0.10; fill: #444444; fill-opacity: 0.10;' clip-path='url(#cpMjk2LjEwfDM2My4yN3w5MC42MXwyMS45OQ==)' />
<circle cx='357.93' cy='30.23' r='2.13' style='stroke-width: 0.00; stroke: #444444; stroke-opacity: 0.10; fill: #444444; fill-opacity: 0.10;' clip-path='url(#cpMjk2LjEwfDM2My4yN3w5MC42MXwyMS45OQ==)' />
<circle cx='358.39' cy='38.11' r='2.13' style='stroke-width: 0.00; stroke: #444444; stroke-opacity: 0.10; fill: #444444; fill-opacity: 0.10;' clip-path='url(#cpMjk2LjEwfDM2My4yN3w5MC42MXwyMS45OQ==)' />
<circle cx='346.70' cy='36.99' r='2.13' style='stroke-width: 0.00; stroke: #444444; stroke-opacity: 0.10; fill: #444444; fill-opacity: 0.10;' clip-path='url(#cpMjk2LjEwfDM2My4yN3w5MC42MXwyMS45OQ==)' />
<circle cx='355.37' cy='34.80' r='2.13' style='stroke-width: 0.00; stroke: #444444; stroke-opacity: 0.10; fill: #444444; fill-opacity: 0.10;' clip-path='url(#cpMjk2LjEwfDM2My4yN3w5MC42MXwyMS45OQ==)' />
<circle cx='354.95' cy='36.22' r='2.13' style='stroke-width: 0.00; stroke: #444444; stroke-opacity: 0.10; fill: #444444; fill-opacity: 0.10;' clip-path='url(#cpMjk2LjEwfDM2My4yN3w5MC42MXwyMS45OQ==)' />
<circle cx='358.53' cy='33.48' r='2.13' style='stroke-width: 0.00; stroke: #444444; stroke-opacity: 0.10; fill: #444444; fill-opacity: 0.10;' clip-path='url(#cpMjk2LjEwfDM2My4yN3w5MC42MXwyMS45OQ==)' />
<circle cx='355.58' cy='31.47' r='2.13' style='stroke-width: 0.00; stroke: #444444; stroke-opacity: 0.10; fill: #444444; fill-opacity: 0.10;' clip-path='url(#cpMjk2LjEwfDM2My4yN3w5MC42MXwyMS45OQ==)' />
<circle cx='354.55' cy='35.30' r='2.13' style='stroke-width: 0.00; stroke: #444444; stroke-opacity: 0.10; fill: #444444; fill-opacity: 0.10;' clip-path='url(#cpMjk2LjEwfDM2My4yN3w5MC42MXwyMS45OQ==)' />
<circle cx='327.50' cy='36.32' r='2.13' style='stroke-width: 0.00; stroke: #444444; stroke-opacity: 0.10; fill: #444444; fill-opacity: 0.10;' clip-path='url(#cpMjk2LjEwfDM2My4yN3w5MC42MXwyMS45OQ==)' />
<circle cx='343.77' cy='25.16' r='2.13' style='stroke-width: 0.00; stroke: #444444; stroke-opacity: 0.10; fill: #444444; fill-opacity: 0.10;' clip-path='url(#cpMjk2LjEwfDM2My4yN3w5MC42MXwyMS45OQ==)' />
<circle cx='359.63' cy='30.53' r='2.13' style='stroke-width: 0.00; stroke: #444444; stroke-opacity: 0.10; fill: #444444; fill-opacity: 0.10;' clip-path='url(#cpMjk2LjEwfDM2My4yN3w5MC42MXwyMS45OQ==)' />
<circle cx='355.08' cy='25.25' r='2.13' style='stroke-width: 0.00; stroke: #444444; stroke-opacity: 0.10; fill: #444444; fill-opacity: 0.10;' clip-path='url(#cpMjk2LjEwfDM2My4yN3w5MC42MXwyMS45OQ==)' />
<circle cx='352.84' cy='36.35' r='2.13' style='stroke-width: 0.00; stroke: #444444; stroke-opacity: 0.10; fill: #444444; fill-opacity: 0.10;' clip-path='url(#cpMjk2LjEwfDM2My4yN3w5MC42MXwyMS45OQ==)' />
<circle cx='360.06' cy='28.30' r='2.13' style='stroke-width: 0.00; stroke: #444444; stroke-opacity: 0.10; fill: #444444; fill-opacity: 0.10;' clip-path='url(#cpMjk2LjEwfDM2My4yN3w5MC42MXwyMS45OQ==)' />
<circle cx='359.81' cy='30.41' r='2.13' style='stroke-width: 0.00; stroke: #444444; stroke-opacity: 0.10; fill: #444444; fill-opacity: 0.10;' clip-path='url(#cpMjk2LjEwfDM2My4yN3w5MC42MXwyMS45OQ==)' />
<circle cx='355.47' cy='32.30' r='2.13' style='stroke-width: 0.00; stroke: #444444; stroke-opacity: 0.10; fill: #444444; fill-opacity: 0.10;' clip-path='url(#cpMjk2LjEwfDM2My4yN3w5MC42MXwyMS45OQ==)' />
<circle cx='352.56' cy='27.10' r='2.13' style='stroke-width: 0.00; stroke: #444444; stroke-opacity: 0.10; fill: #444444; fill-opacity: 0.10;' clip-path='url(#cpMjk2LjEwfDM2My4yN3w5MC42MXwyMS45OQ==)' />
<circle cx='359.44' cy='30.12' r='2.13' style='stroke-width: 0.00; stroke: #444444; stroke-opacity: 0.10; fill: #444444; fill-opacity: 0.10;' clip-path='url(#cpMjk2LjEwfDM2My4yN3w5MC42MXwyMS45OQ==)' />
<circle cx='353.55' cy='35.81' r='2.13' style='stroke-width: 0.00; stroke: #444444; stroke-opacity: 0.10; fill: #444444; fill-opacity: 0.10;' clip-path='url(#cpMjk2LjEwfDM2My4yN3w5MC42MXwyMS45OQ==)' />
<circle cx='345.65' cy='32.07' r='2.13' style='stroke-width: 0.00; stroke: #444444; stroke-opacity: 0.10; fill: #444444; fill-opacity: 0.10;' clip-path='url(#cpMjk2LjEwfDM2My4yN3w5MC42MXwyMS45OQ==)' />
<circle cx='359.15' cy='35.31' r='2.13' style='stroke-width: 0.00; stroke: #444444; stroke-opacity: 0.10; fill: #444444; fill-opacity: 0.10;' clip-path='url(#cpMjk2LjEwfDM2My4yN3w5MC42MXwyMS45OQ==)' />
<polygon points='346.56,80.39 351.88,84.04 357.20,80.39 351.88,76.74 346.56,80.39 ' style='stroke-width: 1.07; stroke: #460D54; fill: #460D54;' clip-path='url(#cpMjk2LjEwfDM2My4yN3w5MC42MXwyMS45OQ==)' />
<polygon points='320.62,56.06 334.30,59.71 347.97,56.06 334.30,52.41 320.62,56.06 ' style='stroke-width: 1.07; stroke: #514354; fill: #514354;' clip-path='url(#cpMjk2LjEwfDM2My4yN3w5MC42MXwyMS45OQ==)' />
<polygon points='340.74,31.73 350.48,35.38 360.22,31.73 350.48,28.08 340.74,31.73 ' style='stroke-width: 1.07; stroke: #471254; fill: #471254;' clip-path='url(#cpMjk2LjEwfDM2My4yN3w5MC42MXwyMS45OQ==)' />
<rect x='296.10' y='21.99' width='67.17' height='68.62' style='stroke-width: 0.78; stroke: #333333;' clip-path='url(#cpMjk2LjEwfDM2My4yN3w5MC42MXwyMS45OQ==)' />
<defs>
  <clipPath id='cpMC4wMHw1MTAuMjR8MTEzLjEwfDAuMDA='>
    <rect x='0.00' y='0.00' width='510.24' height='113.10' />
  </clipPath>
</defs>
<g clip-path='url(#cpMC4wMHw1MTAuMjR8MTEzLjEwfDAuMDA=)'><text x='219.22' y='75.77' style='font-size: 6.40px; fill: #4D4D4D; font-family: Arial;' textLength='73.29px' lengthAdjust='spacingAndGlyphs'>disapprove of me keeping</text></g>
<g clip-path='url(#cpMC4wMHw1MTAuMjR8MTEzLjEwfDAuMDA=)'><text x='244.49' y='82.68' style='font-size: 6.40px; fill: #4D4D4D; font-family: Arial;' textLength='48.03px' lengthAdjust='spacingAndGlyphs'>at least {distRec}</text></g>
<g clip-path='url(#cpMC4wMHw1MTAuMjR8MTEzLjEwfDAuMDA=)'><text x='234.53' y='89.59' style='font-size: 6.40px; fill: #4D4D4D; font-family: Arial;' textLength='57.98px' lengthAdjust='spacingAndGlyphs'>distance from others</text></g>
<g clip-path='url(#cpMC4wMHw1MTAuMjR8MTEzLjEwfDAuMDA=)'><text x='261.20' y='58.35' style='font-size: 6.40px; fill: #4D4D4D; font-family: Arial;' textLength='31.32px' lengthAdjust='spacingAndGlyphs'>unpleasant</text></g>
<g clip-path='url(#cpMC4wMHw1MTAuMjR8MTEzLjEwfDAuMDA=)'><text x='281.84' y='34.02' style='font-size: 6.40px; fill: #4D4D4D; font-family: Arial;' textLength='10.68px' lengthAdjust='spacingAndGlyphs'>bad</text></g>
<polyline points='294.11,80.39 296.10,80.39 ' style='stroke-width: 0.78; stroke: #333333; stroke-linecap: butt;' clip-path='url(#cpMC4wMHw1MTAuMjR8MTEzLjEwfDAuMDA=)' />
<polyline points='294.11,56.06 296.10,56.06 ' style='stroke-width: 0.78; stroke: #333333; stroke-linecap: butt;' clip-path='url(#cpMC4wMHw1MTAuMjR8MTEzLjEwfDAuMDA=)' />
<polyline points='294.11,31.73 296.10,31.73 ' style='stroke-width: 0.78; stroke: #333333; stroke-linecap: butt;' clip-path='url(#cpMC4wMHw1MTAuMjR8MTEzLjEwfDAuMDA=)' />
<polyline points='363.27,80.37 365.26,80.37 ' style='stroke-width: 0.78; stroke: #333333; stroke-linecap: butt;' clip-path='url(#cpMC4wMHw1MTAuMjR8MTEzLjEwfDAuMDA=)' />
<polyline points='363.27,56.05 365.26,56.05 ' style='stroke-width: 0.78; stroke: #333333; stroke-linecap: butt;' clip-path='url(#cpMC4wMHw1MTAuMjR8MTEzLjEwfDAuMDA=)' />
<polyline points='363.27,31.74 365.26,31.74 ' style='stroke-width: 0.78; stroke: #333333; stroke-linecap: butt;' clip-path='url(#cpMC4wMHw1MTAuMjR8MTEzLjEwfDAuMDA=)' />
<g clip-path='url(#cpMC4wMHw1MTAuMjR8MTEzLjEwfDAuMDA=)'><text x='366.86' y='75.75' style='font-size: 6.40px; fill: #4D4D4D; font-family: Arial;' textLength='72.23px' lengthAdjust='spacingAndGlyphs'>approve of me keeping at</text></g>
<g clip-path='url(#cpMC4wMHw1MTAuMjR8MTEzLjEwfDAuMDA=)'><text x='366.86' y='82.66' style='font-size: 6.40px; fill: #4D4D4D; font-family: Arial;' textLength='66.53px' lengthAdjust='spacingAndGlyphs'>least {distRec} distance</text></g>
<g clip-path='url(#cpMC4wMHw1MTAuMjR8MTEzLjEwfDAuMDA=)'><text x='366.86' y='89.57' style='font-size: 6.40px; fill: #4D4D4D; font-family: Arial;' textLength='32.37px' lengthAdjust='spacingAndGlyphs'>from others</text></g>
<g clip-path='url(#cpMC4wMHw1MTAuMjR8MTEzLjEwfDAuMDA=)'><text x='366.86' y='58.35' style='font-size: 6.40px; fill: #4D4D4D; font-family: Arial;' textLength='24.20px' lengthAdjust='spacingAndGlyphs'>pleasant</text></g>
<g clip-path='url(#cpMC4wMHw1MTAuMjR8MTEzLjEwfDAuMDA=)'><text x='366.86' y='34.03' style='font-size: 6.40px; fill: #4D4D4D; font-family: Arial;' textLength='14.24px' lengthAdjust='spacingAndGlyphs'>good</text></g>
<polyline points='300.67,92.60 300.67,90.61 ' style='stroke-width: 0.78; stroke: #333333; stroke-linecap: butt;' clip-path='url(#cpMC4wMHw1MTAuMjR8MTEzLjEwfDAuMDA=)' />
<polyline points='309.88,92.60 309.88,90.61 ' style='stroke-width: 0.78; stroke: #333333; stroke-linecap: butt;' clip-path='url(#cpMC4wMHw1MTAuMjR8MTEzLjEwfDAuMDA=)' />
<polyline points='319.10,92.60 319.10,90.61 ' style='stroke-width: 0.78; stroke: #333333; stroke-linecap: butt;' clip-path='url(#cpMC4wMHw1MTAuMjR8MTEzLjEwfDAuMDA=)' />
<polyline points='328.31,92.60 328.31,90.61 ' style='stroke-width: 0.78; stroke: #333333; stroke-linecap: butt;' clip-path='url(#cpMC4wMHw1MTAuMjR8MTEzLjEwfDAuMDA=)' />
<polyline points='337.52,92.60 337.52,90.61 ' style='stroke-width: 0.78; stroke: #333333; stroke-linecap: butt;' clip-path='url(#cpMC4wMHw1MTAuMjR8MTEzLjEwfDAuMDA=)' />
<polyline points='346.73,92.60 346.73,90.61 ' style='stroke-width: 0.78; stroke: #333333; stroke-linecap: butt;' clip-path='url(#cpMC4wMHw1MTAuMjR8MTEzLjEwfDAuMDA=)' />
<polyline points='355.95,92.60 355.95,90.61 ' style='stroke-width: 0.78; stroke: #333333; stroke-linecap: butt;' clip-path='url(#cpMC4wMHw1MTAuMjR8MTEzLjEwfDAuMDA=)' />
<g clip-path='url(#cpMC4wMHw1MTAuMjR8MTEzLjEwfDAuMDA=)'><text x='297.82' y='98.77' style='font-size: 6.40px; fill: #4D4D4D; font-family: Arial;' textLength='5.69px' lengthAdjust='spacingAndGlyphs'>-3</text></g>
<g clip-path='url(#cpMC4wMHw1MTAuMjR8MTEzLjEwfDAuMDA=)'><text x='307.04' y='98.77' style='font-size: 6.40px; fill: #4D4D4D; font-family: Arial;' textLength='5.69px' lengthAdjust='spacingAndGlyphs'>-2</text></g>
<g clip-path='url(#cpMC4wMHw1MTAuMjR8MTEzLjEwfDAuMDA=)'><text x='316.25' y='98.77' style='font-size: 6.40px; fill: #4D4D4D; font-family: Arial;' textLength='5.69px' lengthAdjust='spacingAndGlyphs'>-1</text></g>
<g clip-path='url(#cpMC4wMHw1MTAuMjR8MTEzLjEwfDAuMDA=)'><text x='326.53' y='98.77' style='font-size: 6.40px; fill: #4D4D4D; font-family: Arial;' textLength='3.56px' lengthAdjust='spacingAndGlyphs'>0</text></g>
<g clip-path='url(#cpMC4wMHw1MTAuMjR8MTEzLjEwfDAuMDA=)'><text x='335.74' y='98.77' style='font-size: 6.40px; fill: #4D4D4D; font-family: Arial;' textLength='3.56px' lengthAdjust='spacingAndGlyphs'>1</text></g>
<g clip-path='url(#cpMC4wMHw1MTAuMjR8MTEzLjEwfDAuMDA=)'><text x='344.95' y='98.77' style='font-size: 6.40px; fill: #4D4D4D; font-family: Arial;' textLength='3.56px' lengthAdjust='spacingAndGlyphs'>2</text></g>
<g clip-path='url(#cpMC4wMHw1MTAuMjR8MTEzLjEwfDAuMDA=)'><text x='354.17' y='98.77' style='font-size: 6.40px; fill: #4D4D4D; font-family: Arial;' textLength='3.56px' lengthAdjust='spacingAndGlyphs'>3</text></g>
<g clip-path='url(#cpMC4wMHw1MTAuMjR8MTEzLjEwfDAuMDA=)'><text x='287.66' y='107.62' style='font-size: 8.00px; font-family: Arial;' textLength='84.05px' lengthAdjust='spacingAndGlyphs'>Scores and 99.99% CIs</text></g>
<defs>
  <clipPath id='cpMC4wMHwyMTUuMjR8OTAuNjF8MjEuOTk='>
    <rect x='0.00' y='21.99' width='215.24' height='68.62' />
  </clipPath>
</defs>
<defs>
  <clipPath id='cpMC4wMHw1MTAuMjR8MTEzLjEwfDAuMDA='>
    <rect x='0.00' y='0.00' width='510.24' height='113.10' />
  </clipPath>
</defs>
<g clip-path='url(#cpMC4wMHw1MTAuMjR8MTEzLjEwfDAuMDA=)'><text x='3.59' y='78.98' style='font-size: 8.00px; font-family: Arial;' textLength='158.76px' lengthAdjust='spacingAndGlyphs'>Most people whose opinions I value would ...</text></g>
<g clip-path='url(#cpMC4wMHw1MTAuMjR8MTEzLjEwfDAuMDA=)'><text x='3.59' y='87.62' style='font-size: 8.00px; font-family: Arial;' textLength='80.93px' lengthAdjust='spacingAndGlyphs'>[CIBERlitePnInj_clean]</text></g>
<g clip-path='url(#cpMC4wMHw1MTAuMjR8MTEzLjEwfDAuMDA=)'><text x='3.59' y='54.94' style='font-size: 8.00px; font-family: Arial;' textLength='211.65px' lengthAdjust='spacingAndGlyphs'>For me, keeping at least {distRec} distance from others is ...</text></g>
<g clip-path='url(#cpMC4wMHw1MTAuMjR8MTEzLjEwfDAuMDA=)'><text x='3.59' y='63.58' style='font-size: 8.00px; font-family: Arial;' textLength='86.26px' lengthAdjust='spacingAndGlyphs'>[CIBERliteAttExp_clean]</text></g>
<g clip-path='url(#cpMC4wMHw1MTAuMjR8MTEzLjEwfDAuMDA=)'><text x='3.59' y='30.83' style='font-size: 8.00px; font-family: Arial;' textLength='211.65px' lengthAdjust='spacingAndGlyphs'>For me, keeping at least {distRec} distance from others is ...</text></g>
<g clip-path='url(#cpMC4wMHw1MTAuMjR8MTEzLjEwfDAuMDA=)'><text x='3.59' y='39.47' style='font-size: 8.00px; font-family: Arial;' textLength='83.15px' lengthAdjust='spacingAndGlyphs'>[CIBERliteAttIns_clean]</text></g>
<defs>
  <clipPath id='cpMC4wMHwyMTUuMjR8OTAuNjF8MjEuOTk='>
    <rect x='0.00' y='21.99' width='215.24' height='68.62' />
  </clipPath>
</defs>
<defs>
  <clipPath id='cpMC4wMHw1MTAuMjR8MTEzLjEwfDAuMDA='>
    <rect x='0.00' y='0.00' width='510.24' height='113.10' />
  </clipPath>
</defs>
<defs>
  <clipPath id='cpNDQzLjA3fDUxMC4yNHwxMTMuMTB8MTguMDA='>
    <rect x='443.07' y='18.00' width='67.17' height='95.10' />
  </clipPath>
</defs>
<rect x='443.07' y='18.00' width='67.17' height='95.10' style='stroke-width: 0.78; stroke: #FFFFFF; fill: #FFFFFF;' clip-path='url(#cpNDQzLjA3fDUxMC4yNHwxMTMuMTB8MTguMDA=)' />
<defs>
  <clipPath id='cpNDQ3LjA1fDUwNi4yNXw5MC42MXwyMS45OQ=='>
    <rect x='447.05' y='21.99' width='59.20' height='68.62' />
  </clipPath>
</defs>
<rect x='447.05' y='21.99' width='59.20' height='68.62' style='stroke-width: 0.78; stroke: none; fill: #FFFFFF;' clip-path='url(#cpNDQ3LjA1fDUwNi4yNXw5MC42MXwyMS45OQ==)' />
<polyline points='456.47,90.61 456.47,21.99 ' style='stroke-width: 0.39; stroke: #EBEBEB; stroke-linecap: butt;' clip-path='url(#cpNDQ3LjA1fDUwNi4yNXw5MC42MXwyMS45OQ==)' />
<polyline points='469.92,90.61 469.92,21.99 ' style='stroke-width: 0.39; stroke: #EBEBEB; stroke-linecap: butt;' clip-path='url(#cpNDQ3LjA1fDUwNi4yNXw5MC42MXwyMS45OQ==)' />
<polyline points='483.38,90.61 483.38,21.99 ' style='stroke-width: 0.39; stroke: #EBEBEB; stroke-linecap: butt;' clip-path='url(#cpNDQ3LjA1fDUwNi4yNXw5MC42MXwyMS45OQ==)' />
<polyline points='496.83,90.61 496.83,21.99 ' style='stroke-width: 0.39; stroke: #EBEBEB; stroke-linecap: butt;' clip-path='url(#cpNDQ3LjA1fDUwNi4yNXw5MC42MXwyMS45OQ==)' />
<polyline points='449.74,90.61 449.74,21.99 ' style='stroke-width: 0.78; stroke: #EBEBEB; stroke-linecap: butt;' clip-path='url(#cpNDQ3LjA1fDUwNi4yNXw5MC42MXwyMS45OQ==)' />
<polyline points='463.20,90.61 463.20,21.99 ' style='stroke-width: 0.78; stroke: #EBEBEB; stroke-linecap: butt;' clip-path='url(#cpNDQ3LjA1fDUwNi4yNXw5MC42MXwyMS45OQ==)' />
<polyline points='476.65,90.61 476.65,21.99 ' style='stroke-width: 0.78; stroke: #EBEBEB; stroke-linecap: butt;' clip-path='url(#cpNDQ3LjA1fDUwNi4yNXw5MC42MXwyMS45OQ==)' />
<polyline points='490.11,90.61 490.11,21.99 ' style='stroke-width: 0.78; stroke: #EBEBEB; stroke-linecap: butt;' clip-path='url(#cpNDQ3LjA1fDUwNi4yNXw5MC42MXwyMS45OQ==)' />
<polyline points='503.56,90.61 503.56,21.99 ' style='stroke-width: 0.78; stroke: #EBEBEB; stroke-linecap: butt;' clip-path='url(#cpNDQ3LjA1fDUwNi4yNXw5MC42MXwyMS45OQ==)' />
<line x1='463.20' y1='90.61' x2='463.20' y2='21.99' style='stroke-width: 1.07; stroke: #BEBEBE; stroke-linecap: butt;' clip-path='url(#cpNDQ3LjA1fDUwNi4yNXw5MC42MXwyMS45OQ==)' />
<line x1='476.65' y1='90.61' x2='476.65' y2='21.99' style='stroke-width: 1.07; stroke: #BEBEBE; stroke-linecap: butt;' clip-path='url(#cpNDQ3LjA1fDUwNi4yNXw5MC42MXwyMS45OQ==)' />
<line x1='490.11' y1='90.61' x2='490.11' y2='21.99' style='stroke-width: 1.07; stroke: #BEBEBE; stroke-linecap: butt;' clip-path='url(#cpNDQ3LjA1fDUwNi4yNXw5MC42MXwyMS45OQ==)' />
<polygon points='470.30,83.42 478.52,87.49 486.40,83.42 478.52,79.35 470.30,83.42 ' style='stroke-width: 2.13; fill: #534F55; fill-opacity: 0.50;' clip-path='url(#cpNDQ3LjA1fDUwNi4yNXw5MC42MXwyMS45OQ==)' />
<polygon points='473.94,56.30 482.50,60.36 489.98,56.30 482.50,52.23 473.94,56.30 ' style='stroke-width: 2.13; fill: #514254; fill-opacity: 0.50;' clip-path='url(#cpNDQ3LjA1fDUwNi4yNXw5MC42MXwyMS45OQ==)' />
<polygon points='491.04,29.17 496.69,33.24 500.01,29.17 496.69,25.10 491.04,29.17 ' style='stroke-width: 2.13; fill: #481654; fill-opacity: 0.50;' clip-path='url(#cpNDQ3LjA1fDUwNi4yNXw5MC42MXwyMS45OQ==)' />
<rect x='447.05' y='21.99' width='59.20' height='68.62' style='stroke-width: 0.78; stroke: #333333;' clip-path='url(#cpNDQ3LjA1fDUwNi4yNXw5MC42MXwyMS45OQ==)' />
<defs>
  <clipPath id='cpNDQzLjA3fDUxMC4yNHwxMTMuMTB8MTguMDA='>
    <rect x='443.07' y='18.00' width='67.17' height='95.10' />
  </clipPath>
</defs>
<defs>
  <clipPath id='cpMC4wMHw1MTAuMjR8MTEzLjEwfDAuMDA='>
    <rect x='0.00' y='0.00' width='510.24' height='113.10' />
  </clipPath>
</defs>
<defs>
  <clipPath id='cpNDQzLjA3fDUxMC4yNHwxMTMuMTB8MTguMDA='>
    <rect x='443.07' y='18.00' width='67.17' height='95.10' />
  </clipPath>
</defs>
<defs>
  <clipPath id='cpMC4wMHw1MTAuMjR8MTEzLjEwfDAuMDA='>
    <rect x='0.00' y='0.00' width='510.24' height='113.10' />
  </clipPath>
</defs>
<defs>
  <clipPath id='cpNDQzLjA3fDUxMC4yNHwxMTMuMTB8MTguMDA='>
    <rect x='443.07' y='18.00' width='67.17' height='95.10' />
  </clipPath>
</defs>
<defs>
  <clipPath id='cpMC4wMHw1MTAuMjR8MTEzLjEwfDAuMDA='>
    <rect x='0.00' y='0.00' width='510.24' height='113.10' />
  </clipPath>
</defs>
<defs>
  <clipPath id='cpNDQzLjA3fDUxMC4yNHwxMTMuMTB8MTguMDA='>
    <rect x='443.07' y='18.00' width='67.17' height='95.10' />
  </clipPath>
</defs>
<defs>
  <clipPath id='cpMC4wMHw1MTAuMjR8MTEzLjEwfDAuMDA='>
    <rect x='0.00' y='0.00' width='510.24' height='113.10' />
  </clipPath>
</defs>
<defs>
  <clipPath id='cpNDQzLjA3fDUxMC4yNHwxMTMuMTB8MTguMDA='>
    <rect x='443.07' y='18.00' width='67.17' height='95.10' />
  </clipPath>
</defs>
<defs>
  <clipPath id='cpMC4wMHw1MTAuMjR8MTEzLjEwfDAuMDA='>
    <rect x='0.00' y='0.00' width='510.24' height='113.10' />
  </clipPath>
</defs>
<defs>
  <clipPath id='cpNDQzLjA3fDUxMC4yNHwxMTMuMTB8MTguMDA='>
    <rect x='443.07' y='18.00' width='67.17' height='95.10' />
  </clipPath>
</defs>
<defs>
  <clipPath id='cpMC4wMHw1MTAuMjR8MTEzLjEwfDAuMDA='>
    <rect x='0.00' y='0.00' width='510.24' height='113.10' />
  </clipPath>
</defs>
<defs>
  <clipPath id='cpNDQzLjA3fDUxMC4yNHwxMTMuMTB8MTguMDA='>
    <rect x='443.07' y='18.00' width='67.17' height='95.10' />
  </clipPath>
</defs>
<defs>
  <clipPath id='cpMC4wMHw1MTAuMjR8MTEzLjEwfDAuMDA='>
    <rect x='0.00' y='0.00' width='510.24' height='113.10' />
  </clipPath>
</defs>
<defs>
  <clipPath id='cpNDQzLjA3fDUxMC4yNHwxMTMuMTB8MTguMDA='>
    <rect x='443.07' y='18.00' width='67.17' height='95.10' />
  </clipPath>
</defs>
<defs>
  <clipPath id='cpMC4wMHw1MTAuMjR8MTEzLjEwfDAuMDA='>
    <rect x='0.00' y='0.00' width='510.24' height='113.10' />
  </clipPath>
</defs>
<polyline points='449.74,92.60 449.74,90.61 ' style='stroke-width: 0.78; stroke: #333333; stroke-linecap: butt;' clip-path='url(#cpMC4wMHw1MTAuMjR8MTEzLjEwfDAuMDA=)' />
<polyline points='463.20,92.60 463.20,90.61 ' style='stroke-width: 0.78; stroke: #333333; stroke-linecap: butt;' clip-path='url(#cpMC4wMHw1MTAuMjR8MTEzLjEwfDAuMDA=)' />
<polyline points='476.65,92.60 476.65,90.61 ' style='stroke-width: 0.78; stroke: #333333; stroke-linecap: butt;' clip-path='url(#cpMC4wMHw1MTAuMjR8MTEzLjEwfDAuMDA=)' />
<polyline points='490.11,92.60 490.11,90.61 ' style='stroke-width: 0.78; stroke: #333333; stroke-linecap: butt;' clip-path='url(#cpMC4wMHw1MTAuMjR8MTEzLjEwfDAuMDA=)' />
<polyline points='503.56,92.60 503.56,90.61 ' style='stroke-width: 0.78; stroke: #333333; stroke-linecap: butt;' clip-path='url(#cpMC4wMHw1MTAuMjR8MTEzLjEwfDAuMDA=)' />
<g clip-path='url(#cpMC4wMHw1MTAuMjR8MTEzLjEwfDAuMDA=)'><text x='444.23' y='98.77' style='font-size: 6.40px; fill: #4D4D4D; font-family: Arial;' textLength='11.03px' lengthAdjust='spacingAndGlyphs'>-1.0</text></g>
<g clip-path='url(#cpMC4wMHw1MTAuMjR8MTEzLjEwfDAuMDA=)'><text x='457.68' y='98.77' style='font-size: 6.40px; fill: #4D4D4D; font-family: Arial;' textLength='11.03px' lengthAdjust='spacingAndGlyphs'>-0.5</text></g>
<g clip-path='url(#cpMC4wMHw1MTAuMjR8MTEzLjEwfDAuMDA=)'><text x='472.20' y='98.77' style='font-size: 6.40px; fill: #4D4D4D; font-family: Arial;' textLength='8.90px' lengthAdjust='spacingAndGlyphs'>0.0</text></g>
<g clip-path='url(#cpMC4wMHw1MTAuMjR8MTEzLjEwfDAuMDA=)'><text x='485.66' y='98.77' style='font-size: 6.40px; fill: #4D4D4D; font-family: Arial;' textLength='8.90px' lengthAdjust='spacingAndGlyphs'>0.5</text></g>
<g clip-path='url(#cpMC4wMHw1MTAuMjR8MTEzLjEwfDAuMDA=)'><text x='499.11' y='98.77' style='font-size: 6.40px; fill: #4D4D4D; font-family: Arial;' textLength='8.90px' lengthAdjust='spacingAndGlyphs'>1.0</text></g>
<defs>
  <clipPath id='cpNDQzLjA3fDUxMC4yNHwxMTMuMTB8MTguMDA='>
    <rect x='443.07' y='18.00' width='67.17' height='95.10' />
  </clipPath>
</defs>
<defs>
  <clipPath id='cpMC4wMHw1MTAuMjR8MTEzLjEwfDAuMDA='>
    <rect x='0.00' y='0.00' width='510.24' height='113.10' />
  </clipPath>
</defs>
<defs>
  <clipPath id='cpNDQzLjA3fDUxMC4yNHwxMTMuMTB8MTguMDA='>
    <rect x='443.07' y='18.00' width='67.17' height='95.10' />
  </clipPath>
</defs>
<defs>
  <clipPath id='cpMC4wMHw1MTAuMjR8MTEzLjEwfDAuMDA='>
    <rect x='0.00' y='0.00' width='510.24' height='113.10' />
  </clipPath>
</defs>
<g clip-path='url(#cpMC4wMHw1MTAuMjR8MTEzLjEwfDAuMDA=)'><text x='433.96' y='107.62' style='font-size: 8.00px; font-family: Arial;' textLength='85.38px' lengthAdjust='spacingAndGlyphs'>95% CIs of associations</text></g>
<defs>
  <clipPath id='cpNDQzLjA3fDUxMC4yNHwxMTMuMTB8MTguMDA='>
    <rect x='443.07' y='18.00' width='67.17' height='95.10' />
  </clipPath>
</defs>
<defs>
  <clipPath id='cpMC4wMHw1MTAuMjR8MTEzLjEwfDAuMDA='>
    <rect x='0.00' y='0.00' width='510.24' height='113.10' />
  </clipPath>
</defs>
<defs>
  <clipPath id='cpNDQzLjA3fDUxMC4yNHwxMTMuMTB8MTguMDA='>
    <rect x='443.07' y='18.00' width='67.17' height='95.10' />
  </clipPath>
</defs>
<defs>
  <clipPath id='cpMC4wMHw1MTAuMjR8MTEzLjEwfDAuMDA='>
    <rect x='0.00' y='0.00' width='510.24' height='113.10' />
  </clipPath>
</defs>
<defs>
  <clipPath id='cpNDQzLjA3fDUxMC4yNHwxMTMuMTB8MTguMDA='>
    <rect x='443.07' y='18.00' width='67.17' height='95.10' />
  </clipPath>
</defs>
<defs>
  <clipPath id='cpMC4wMHw1MTAuMjR8MTEzLjEwfDAuMDA='>
    <rect x='0.00' y='0.00' width='510.24' height='113.10' />
  </clipPath>
</defs>
<defs>
  <clipPath id='cpNDQzLjA3fDUxMC4yNHwxMTMuMTB8MTguMDA='>
    <rect x='443.07' y='18.00' width='67.17' height='95.10' />
  </clipPath>
</defs>
<defs>
  <clipPath id='cpMC4wMHw1MTAuMjR8MTEzLjEwfDAuMDA='>
    <rect x='0.00' y='0.00' width='510.24' height='113.10' />
  </clipPath>
</defs>
<defs>
  <clipPath id='cpNDQzLjA3fDUxMC4yNHwxMTMuMTB8MTguMDA='>
    <rect x='443.07' y='18.00' width='67.17' height='95.10' />
  </clipPath>
</defs>
<defs>
  <clipPath id='cpMC4wMHw1MTAuMjR8MTEzLjEwfDAuMDA='>
    <rect x='0.00' y='0.00' width='510.24' height='113.10' />
  </clipPath>
</defs>
<defs>
  <clipPath id='cpNDQzLjA3fDUxMC4yNHwxMTMuMTB8MTguMDA='>
    <rect x='443.07' y='18.00' width='67.17' height='95.10' />
  </clipPath>
</defs>
<defs>
  <clipPath id='cpMC4wMHw1MTAuMjR8MTEzLjEwfDAuMDA='>
    <rect x='0.00' y='0.00' width='510.24' height='113.10' />
  </clipPath>
</defs>
<defs>
  <clipPath id='cpNDQzLjA3fDUxMC4yNHwxMTMuMTB8MTguMDA='>
    <rect x='443.07' y='18.00' width='67.17' height='95.10' />
  </clipPath>
</defs>
<defs>
  <clipPath id='cpMC4wMHw1MTAuMjR8MTEzLjEwfDAuMDA='>
    <rect x='0.00' y='0.00' width='510.24' height='113.10' />
  </clipPath>
</defs>
<g clip-path='url(#cpMC4wMHw1MTAuMjR8MTEzLjEwfDAuMDA=)'><text x='2.30' y='8.78' style='font-size: 9.60px; font-weight: bold; font-family: Arial;' textLength='147.76px' lengthAdjust='spacingAndGlyphs'>Means and associations (r) with </text></g>
<g clip-path='url(#cpMC4wMHw1MTAuMjR8MTEzLjEwfDAuMDA=)'><text x='150.07' y='8.78' style='font-size: 9.60px; font-weight: bold; font-family: Arial;' textLength='43.21px' lengthAdjust='spacingAndGlyphs'>proximity</text></g>
<g clip-path='url(#cpMC4wMHw1MTAuMjR8MTEzLjEwfDAuMDA=)'><text x='193.28' y='8.78' style='font-size: 9.60px; font-weight: bold; font-family: Arial;' textLength='2.67px' lengthAdjust='spacingAndGlyphs'> </text></g>
</svg>
