<?xml version='1.0' encoding='UTF-8' ?>
<svg xmlns='http://www.w3.org/2000/svg' xmlns:xlink='http://www.w3.org/1999/xlink' viewBox='0 0 510.24 113.10'>
<defs>
  <style type='text/css'><![CDATA[
    line, polyline, polygon, path, rect, circle {
      fill: none;
      stroke: #000000;
      stroke-linecap: round;
      stroke-linejoin: round;
      stroke-miterlimit: 10.00;
    }
  ]]></style>
</defs>
<rect width='100%' height='100%' style='stroke: none; fill: none;'/>
<defs>
  <clipPath id='cpMjE1LjI0fDQ0My4wN3wxMTMuMTB8MTguMDA='>
    <rect x='215.24' y='18.00' width='227.83' height='95.10' />
  </clipPath>
</defs>
<rect x='215.24' y='18.00' width='227.83' height='95.10' style='stroke-width: 0.78; stroke: #FFFFFF; fill: #FFFFFF;' clip-path='url(#cpMjE1LjI0fDQ0My4wN3wxMTMuMTB8MTguMDA=)' />
<defs>
  <clipPath id='cpMC4wMHw1MTAuMjR8MTEzLjEwfDAuMDA='>
    <rect x='0.00' y='0.00' width='510.24' height='113.10' />
  </clipPath>
</defs>
<defs>
  <clipPath id='cpMjk2LjEwfDM2My4yN3w5MC42MXwyMS45OQ=='>
    <rect x='296.10' y='21.99' width='67.17' height='68.62' />
  </clipPath>
</defs>
<rect x='296.10' y='21.99' width='67.17' height='68.62' style='stroke-width: 0.78; stroke: none; fill: #FFFFFF;' clip-path='url(#cpMjk2LjEwfDM2My4yN3w5MC42MXwyMS45OQ==)' />
<polyline points='297.54,90.61 297.54,21.99 ' style='stroke-width: 0.39; stroke: #EBEBEB; stroke-linecap: butt;' clip-path='url(#cpMjk2LjEwfDM2My4yN3w5MC42MXwyMS45OQ==)' />
<polyline points='306.56,90.61 306.56,21.99 ' style='stroke-width: 0.39; stroke: #EBEBEB; stroke-linecap: butt;' clip-path='url(#cpMjk2LjEwfDM2My4yN3w5MC42MXwyMS45OQ==)' />
<polyline points='315.59,90.61 315.59,21.99 ' style='stroke-width: 0.39; stroke: #EBEBEB; stroke-linecap: butt;' clip-path='url(#cpMjk2LjEwfDM2My4yN3w5MC42MXwyMS45OQ==)' />
<polyline points='324.61,90.61 324.61,21.99 ' style='stroke-width: 0.39; stroke: #EBEBEB; stroke-linecap: butt;' clip-path='url(#cpMjk2LjEwfDM2My4yN3w5MC42MXwyMS45OQ==)' />
<polyline points='333.64,90.61 333.64,21.99 ' style='stroke-width: 0.39; stroke: #EBEBEB; stroke-linecap: butt;' clip-path='url(#cpMjk2LjEwfDM2My4yN3w5MC42MXwyMS45OQ==)' />
<polyline points='342.66,90.61 342.66,21.99 ' style='stroke-width: 0.39; stroke: #EBEBEB; stroke-linecap: butt;' clip-path='url(#cpMjk2LjEwfDM2My4yN3w5MC42MXwyMS45OQ==)' />
<polyline points='351.69,90.61 351.69,21.99 ' style='stroke-width: 0.39; stroke: #EBEBEB; stroke-linecap: butt;' clip-path='url(#cpMjk2LjEwfDM2My4yN3w5MC42MXwyMS45OQ==)' />
<polyline points='360.71,90.61 360.71,21.99 ' style='stroke-width: 0.39; stroke: #EBEBEB; stroke-linecap: butt;' clip-path='url(#cpMjk2LjEwfDM2My4yN3w5MC42MXwyMS45OQ==)' />
<polyline points='296.10,80.61 363.27,80.61 ' style='stroke-width: 0.78; stroke: #EBEBEB; stroke-linecap: butt;' clip-path='url(#cpMjk2LjEwfDM2My4yN3w5MC42MXwyMS45OQ==)' />
<polyline points='296.10,56.32 363.27,56.32 ' style='stroke-width: 0.78; stroke: #EBEBEB; stroke-linecap: butt;' clip-path='url(#cpMjk2LjEwfDM2My4yN3w5MC42MXwyMS45OQ==)' />
<polyline points='296.10,32.04 363.27,32.04 ' style='stroke-width: 0.78; stroke: #EBEBEB; stroke-linecap: butt;' clip-path='url(#cpMjk2LjEwfDM2My4yN3w5MC42MXwyMS45OQ==)' />
<polyline points='302.05,90.61 302.05,21.99 ' style='stroke-width: 0.78; stroke: #EBEBEB; stroke-linecap: butt;' clip-path='url(#cpMjk2LjEwfDM2My4yN3w5MC42MXwyMS45OQ==)' />
<polyline points='311.08,90.61 311.08,21.99 ' style='stroke-width: 0.78; stroke: #EBEBEB; stroke-linecap: butt;' clip-path='url(#cpMjk2LjEwfDM2My4yN3w5MC42MXwyMS45OQ==)' />
<polyline points='320.10,90.61 320.10,21.99 ' style='stroke-width: 0.78; stroke: #EBEBEB; stroke-linecap: butt;' clip-path='url(#cpMjk2LjEwfDM2My4yN3w5MC42MXwyMS45OQ==)' />
<polyline points='329.12,90.61 329.12,21.99 ' style='stroke-width: 0.78; stroke: #EBEBEB; stroke-linecap: butt;' clip-path='url(#cpMjk2LjEwfDM2My4yN3w5MC42MXwyMS45OQ==)' />
<polyline points='338.15,90.61 338.15,21.99 ' style='stroke-width: 0.78; stroke: #EBEBEB; stroke-linecap: butt;' clip-path='url(#cpMjk2LjEwfDM2My4yN3w5MC42MXwyMS45OQ==)' />
<polyline points='347.17,90.61 347.17,21.99 ' style='stroke-width: 0.78; stroke: #EBEBEB; stroke-linecap: butt;' clip-path='url(#cpMjk2LjEwfDM2My4yN3w5MC42MXwyMS45OQ==)' />
<polyline points='356.20,90.61 356.20,21.99 ' style='stroke-width: 0.78; stroke: #EBEBEB; stroke-linecap: butt;' clip-path='url(#cpMjk2LjEwfDM2My4yN3w5MC42MXwyMS45OQ==)' />
<circle cx='357.72' cy='74.15' r='2.13' style='stroke-width: 0.00; stroke: #444444; stroke-opacity: 0.10; fill: #444444; fill-opacity: 0.10;' clip-path='url(#cpMjk2LjEwfDM2My4yN3w5MC42MXwyMS45OQ==)' />
<circle cx='336.06' cy='80.79' r='2.13' style='stroke-width: 0.00; stroke: #444444; stroke-opacity: 0.10; fill: #444444; fill-opacity: 0.10;' clip-path='url(#cpMjk2LjEwfDM2My4yN3w5MC42MXwyMS45OQ==)' />
<circle cx='321.93' cy='77.06' r='2.13' style='stroke-width: 0.00; stroke: #444444; stroke-opacity: 0.10; fill: #444444; fill-opacity: 0.10;' clip-path='url(#cpMjk2LjEwfDM2My4yN3w5MC42MXwyMS45OQ==)' />
<circle cx='321.01' cy='85.69' r='2.13' style='stroke-width: 0.00; stroke: #444444; stroke-opacity: 0.10; fill: #444444; fill-opacity: 0.10;' clip-path='url(#cpMjk2LjEwfDM2My4yN3w5MC42MXwyMS45OQ==)' />
<circle cx='319.13' cy='83.68' r='2.13' style='stroke-width: 0.00; stroke: #444444; stroke-opacity: 0.10; fill: #444444; fill-opacity: 0.10;' clip-path='url(#cpMjk2LjEwfDM2My4yN3w5MC42MXwyMS45OQ==)' />
<circle cx='358.65' cy='77.03' r='2.13' style='stroke-width: 0.00; stroke: #444444; stroke-opacity: 0.10; fill: #444444; fill-opacity: 0.10;' clip-path='url(#cpMjk2LjEwfDM2My4yN3w5MC42MXwyMS45OQ==)' />
<circle cx='360.21' cy='85.02' r='2.13' style='stroke-width: 0.00; stroke: #444444; stroke-opacity: 0.10; fill: #444444; fill-opacity: 0.10;' clip-path='url(#cpMjk2LjEwfDM2My4yN3w5MC42MXwyMS45OQ==)' />
<circle cx='329.19' cy='84.09' r='2.13' style='stroke-width: 0.00; stroke: #444444; stroke-opacity: 0.10; fill: #444444; fill-opacity: 0.10;' clip-path='url(#cpMjk2LjEwfDM2My4yN3w5MC42MXwyMS45OQ==)' />
<circle cx='326.42' cy='82.09' r='2.13' style='stroke-width: 0.00; stroke: #444444; stroke-opacity: 0.10; fill: #444444; fill-opacity: 0.10;' clip-path='url(#cpMjk2LjEwfDM2My4yN3w5MC42MXwyMS45OQ==)' />
<circle cx='299.15' cy='84.54' r='2.13' style='stroke-width: 0.00; stroke: #444444; stroke-opacity: 0.10; fill: #444444; fill-opacity: 0.10;' clip-path='url(#cpMjk2LjEwfDM2My4yN3w5MC42MXwyMS45OQ==)' />
<circle cx='340.31' cy='83.25' r='2.13' style='stroke-width: 0.00; stroke: #444444; stroke-opacity: 0.10; fill: #444444; fill-opacity: 0.10;' clip-path='url(#cpMjk2LjEwfDM2My4yN3w5MC42MXwyMS45OQ==)' />
<circle cx='334.10' cy='76.35' r='2.13' style='stroke-width: 0.00; stroke: #444444; stroke-opacity: 0.10; fill: #444444; fill-opacity: 0.10;' clip-path='url(#cpMjk2LjEwfDM2My4yN3w5MC42MXwyMS45OQ==)' />
<circle cx='340.31' cy='81.91' r='2.13' style='stroke-width: 0.00; stroke: #444444; stroke-opacity: 0.10; fill: #444444; fill-opacity: 0.10;' clip-path='url(#cpMjk2LjEwfDM2My4yN3w5MC42MXwyMS45OQ==)' />
<circle cx='340.58' cy='78.99' r='2.13' style='stroke-width: 0.00; stroke: #444444; stroke-opacity: 0.10; fill: #444444; fill-opacity: 0.10;' clip-path='url(#cpMjk2LjEwfDM2My4yN3w5MC42MXwyMS45OQ==)' />
<circle cx='360.13' cy='85.45' r='2.13' style='stroke-width: 0.00; stroke: #444444; stroke-opacity: 0.10; fill: #444444; fill-opacity: 0.10;' clip-path='url(#cpMjk2LjEwfDM2My4yN3w5MC42MXwyMS45OQ==)' />
<circle cx='328.17' cy='82.93' r='2.13' style='stroke-width: 0.00; stroke: #444444; stroke-opacity: 0.10; fill: #444444; fill-opacity: 0.10;' clip-path='url(#cpMjk2LjEwfDM2My4yN3w5MC42MXwyMS45OQ==)' />
<circle cx='359.31' cy='86.55' r='2.13' style='stroke-width: 0.00; stroke: #444444; stroke-opacity: 0.10; fill: #444444; fill-opacity: 0.10;' clip-path='url(#cpMjk2LjEwfDM2My4yN3w5MC42MXwyMS45OQ==)' />
<circle cx='336.43' cy='78.06' r='2.13' style='stroke-width: 0.00; stroke: #444444; stroke-opacity: 0.10; fill: #444444; fill-opacity: 0.10;' clip-path='url(#cpMjk2LjEwfDM2My4yN3w5MC42MXwyMS45OQ==)' />
<circle cx='341.98' cy='82.24' r='2.13' style='stroke-width: 0.00; stroke: #444444; stroke-opacity: 0.10; fill: #444444; fill-opacity: 0.10;' clip-path='url(#cpMjk2LjEwfDM2My4yN3w5MC42MXwyMS45OQ==)' />
<circle cx='357.66' cy='77.29' r='2.13' style='stroke-width: 0.00; stroke: #444444; stroke-opacity: 0.10; fill: #444444; fill-opacity: 0.10;' clip-path='url(#cpMjk2LjEwfDM2My4yN3w5MC42MXwyMS45OQ==)' />
<circle cx='352.86' cy='77.47' r='2.13' style='stroke-width: 0.00; stroke: #444444; stroke-opacity: 0.10; fill: #444444; fill-opacity: 0.10;' clip-path='url(#cpMjk2LjEwfDM2My4yN3w5MC42MXwyMS45OQ==)' />
<circle cx='332.13' cy='86.94' r='2.13' style='stroke-width: 0.00; stroke: #444444; stroke-opacity: 0.10; fill: #444444; fill-opacity: 0.10;' clip-path='url(#cpMjk2LjEwfDM2My4yN3w5MC42MXwyMS45OQ==)' />
<circle cx='320.89' cy='78.23' r='2.13' style='stroke-width: 0.00; stroke: #444444; stroke-opacity: 0.10; fill: #444444; fill-opacity: 0.10;' clip-path='url(#cpMjk2LjEwfDM2My4yN3w5MC42MXwyMS45OQ==)' />
<circle cx='322.53' cy='81.74' r='2.13' style='stroke-width: 0.00; stroke: #444444; stroke-opacity: 0.10; fill: #444444; fill-opacity: 0.10;' clip-path='url(#cpMjk2LjEwfDM2My4yN3w5MC42MXwyMS45OQ==)' />
<circle cx='327.23' cy='82.46' r='2.13' style='stroke-width: 0.00; stroke: #444444; stroke-opacity: 0.10; fill: #444444; fill-opacity: 0.10;' clip-path='url(#cpMjk2LjEwfDM2My4yN3w5MC42MXwyMS45OQ==)' />
<circle cx='330.21' cy='80.86' r='2.13' style='stroke-width: 0.00; stroke: #444444; stroke-opacity: 0.10; fill: #444444; fill-opacity: 0.10;' clip-path='url(#cpMjk2LjEwfDM2My4yN3w5MC42MXwyMS45OQ==)' />
<circle cx='305.09' cy='86.47' r='2.13' style='stroke-width: 0.00; stroke: #444444; stroke-opacity: 0.10; fill: #444444; fill-opacity: 0.10;' clip-path='url(#cpMjk2LjEwfDM2My4yN3w5MC42MXwyMS45OQ==)' />
<circle cx='337.33' cy='83.68' r='2.13' style='stroke-width: 0.00; stroke: #444444; stroke-opacity: 0.10; fill: #444444; fill-opacity: 0.10;' clip-path='url(#cpMjk2LjEwfDM2My4yN3w5MC42MXwyMS45OQ==)' />
<circle cx='333.17' cy='84.54' r='2.13' style='stroke-width: 0.00; stroke: #444444; stroke-opacity: 0.10; fill: #444444; fill-opacity: 0.10;' clip-path='url(#cpMjk2LjEwfDM2My4yN3w5MC42MXwyMS45OQ==)' />
<circle cx='332.51' cy='74.88' r='2.13' style='stroke-width: 0.00; stroke: #444444; stroke-opacity: 0.10; fill: #444444; fill-opacity: 0.10;' clip-path='url(#cpMjk2LjEwfDM2My4yN3w5MC42MXwyMS45OQ==)' />
<circle cx='342.08' cy='79.90' r='2.13' style='stroke-width: 0.00; stroke: #444444; stroke-opacity: 0.10; fill: #444444; fill-opacity: 0.10;' clip-path='url(#cpMjk2LjEwfDM2My4yN3w5MC42MXwyMS45OQ==)' />
<circle cx='301.75' cy='76.88' r='2.13' style='stroke-width: 0.00; stroke: #444444; stroke-opacity: 0.10; fill: #444444; fill-opacity: 0.10;' clip-path='url(#cpMjk2LjEwfDM2My4yN3w5MC42MXwyMS45OQ==)' />
<circle cx='343.64' cy='78.87' r='2.13' style='stroke-width: 0.00; stroke: #444444; stroke-opacity: 0.10; fill: #444444; fill-opacity: 0.10;' clip-path='url(#cpMjk2LjEwfDM2My4yN3w5MC42MXwyMS45OQ==)' />
<circle cx='328.39' cy='78.17' r='2.13' style='stroke-width: 0.00; stroke: #444444; stroke-opacity: 0.10; fill: #444444; fill-opacity: 0.10;' clip-path='url(#cpMjk2LjEwfDM2My4yN3w5MC42MXwyMS45OQ==)' />
<circle cx='322.77' cy='84.47' r='2.13' style='stroke-width: 0.00; stroke: #444444; stroke-opacity: 0.10; fill: #444444; fill-opacity: 0.10;' clip-path='url(#cpMjk2LjEwfDM2My4yN3w5MC42MXwyMS45OQ==)' />
<circle cx='341.09' cy='87.16' r='2.13' style='stroke-width: 0.00; stroke: #444444; stroke-opacity: 0.10; fill: #444444; fill-opacity: 0.10;' clip-path='url(#cpMjk2LjEwfDM2My4yN3w5MC42MXwyMS45OQ==)' />
<circle cx='344.04' cy='75.89' r='2.13' style='stroke-width: 0.00; stroke: #444444; stroke-opacity: 0.10; fill: #444444; fill-opacity: 0.10;' clip-path='url(#cpMjk2LjEwfDM2My4yN3w5MC42MXwyMS45OQ==)' />
<circle cx='350.98' cy='85.22' r='2.13' style='stroke-width: 0.00; stroke: #444444; stroke-opacity: 0.10; fill: #444444; fill-opacity: 0.10;' clip-path='url(#cpMjk2LjEwfDM2My4yN3w5MC42MXwyMS45OQ==)' />
<circle cx='358.00' cy='79.14' r='2.13' style='stroke-width: 0.00; stroke: #444444; stroke-opacity: 0.10; fill: #444444; fill-opacity: 0.10;' clip-path='url(#cpMjk2LjEwfDM2My4yN3w5MC42MXwyMS45OQ==)' />
<circle cx='346.24' cy='83.56' r='2.13' style='stroke-width: 0.00; stroke: #444444; stroke-opacity: 0.10; fill: #444444; fill-opacity: 0.10;' clip-path='url(#cpMjk2LjEwfDM2My4yN3w5MC42MXwyMS45OQ==)' />
<circle cx='329.45' cy='85.52' r='2.13' style='stroke-width: 0.00; stroke: #444444; stroke-opacity: 0.10; fill: #444444; fill-opacity: 0.10;' clip-path='url(#cpMjk2LjEwfDM2My4yN3w5MC42MXwyMS45OQ==)' />
<circle cx='328.90' cy='86.24' r='2.13' style='stroke-width: 0.00; stroke: #444444; stroke-opacity: 0.10; fill: #444444; fill-opacity: 0.10;' clip-path='url(#cpMjk2LjEwfDM2My4yN3w5MC42MXwyMS45OQ==)' />
<circle cx='329.06' cy='86.58' r='2.13' style='stroke-width: 0.00; stroke: #444444; stroke-opacity: 0.10; fill: #444444; fill-opacity: 0.10;' clip-path='url(#cpMjk2LjEwfDM2My4yN3w5MC42MXwyMS45OQ==)' />
<circle cx='322.73' cy='83.44' r='2.13' style='stroke-width: 0.00; stroke: #444444; stroke-opacity: 0.10; fill: #444444; fill-opacity: 0.10;' clip-path='url(#cpMjk2LjEwfDM2My4yN3w5MC42MXwyMS45OQ==)' />
<circle cx='329.19' cy='76.41' r='2.13' style='stroke-width: 0.00; stroke: #444444; stroke-opacity: 0.10; fill: #444444; fill-opacity: 0.10;' clip-path='url(#cpMjk2LjEwfDM2My4yN3w5MC42MXwyMS45OQ==)' />
<circle cx='353.87' cy='83.75' r='2.13' style='stroke-width: 0.00; stroke: #444444; stroke-opacity: 0.10; fill: #444444; fill-opacity: 0.10;' clip-path='url(#cpMjk2LjEwfDM2My4yN3w5MC42MXwyMS45OQ==)' />
<circle cx='323.45' cy='76.55' r='2.13' style='stroke-width: 0.00; stroke: #444444; stroke-opacity: 0.10; fill: #444444; fill-opacity: 0.10;' clip-path='url(#cpMjk2LjEwfDM2My4yN3w5MC42MXwyMS45OQ==)' />
<circle cx='321.57' cy='79.45' r='2.13' style='stroke-width: 0.00; stroke: #444444; stroke-opacity: 0.10; fill: #444444; fill-opacity: 0.10;' clip-path='url(#cpMjk2LjEwfDM2My4yN3w5MC42MXwyMS45OQ==)' />
<circle cx='345.79' cy='82.81' r='2.13' style='stroke-width: 0.00; stroke: #444444; stroke-opacity: 0.10; fill: #444444; fill-opacity: 0.10;' clip-path='url(#cpMjk2LjEwfDM2My4yN3w5MC42MXwyMS45OQ==)' />
<circle cx='344.84' cy='80.52' r='2.13' style='stroke-width: 0.00; stroke: #444444; stroke-opacity: 0.10; fill: #444444; fill-opacity: 0.10;' clip-path='url(#cpMjk2LjEwfDM2My4yN3w5MC42MXwyMS45OQ==)' />
<circle cx='344.47' cy='85.37' r='2.13' style='stroke-width: 0.00; stroke: #444444; stroke-opacity: 0.10; fill: #444444; fill-opacity: 0.10;' clip-path='url(#cpMjk2LjEwfDM2My4yN3w5MC42MXwyMS45OQ==)' />
<circle cx='352.79' cy='86.69' r='2.13' style='stroke-width: 0.00; stroke: #444444; stroke-opacity: 0.10; fill: #444444; fill-opacity: 0.10;' clip-path='url(#cpMjk2LjEwfDM2My4yN3w5MC42MXwyMS45OQ==)' />
<circle cx='358.40' cy='78.92' r='2.13' style='stroke-width: 0.00; stroke: #444444; stroke-opacity: 0.10; fill: #444444; fill-opacity: 0.10;' clip-path='url(#cpMjk2LjEwfDM2My4yN3w5MC42MXwyMS45OQ==)' />
<circle cx='358.21' cy='80.98' r='2.13' style='stroke-width: 0.00; stroke: #444444; stroke-opacity: 0.10; fill: #444444; fill-opacity: 0.10;' clip-path='url(#cpMjk2LjEwfDM2My4yN3w5MC42MXwyMS45OQ==)' />
<circle cx='329.39' cy='74.52' r='2.13' style='stroke-width: 0.00; stroke: #444444; stroke-opacity: 0.10; fill: #444444; fill-opacity: 0.10;' clip-path='url(#cpMjk2LjEwfDM2My4yN3w5MC42MXwyMS45OQ==)' />
<circle cx='339.84' cy='83.44' r='2.13' style='stroke-width: 0.00; stroke: #444444; stroke-opacity: 0.10; fill: #444444; fill-opacity: 0.10;' clip-path='url(#cpMjk2LjEwfDM2My4yN3w5MC42MXwyMS45OQ==)' />
<circle cx='353.39' cy='83.96' r='2.13' style='stroke-width: 0.00; stroke: #444444; stroke-opacity: 0.10; fill: #444444; fill-opacity: 0.10;' clip-path='url(#cpMjk2LjEwfDM2My4yN3w5MC42MXwyMS45OQ==)' />
<circle cx='347.68' cy='83.66' r='2.13' style='stroke-width: 0.00; stroke: #444444; stroke-opacity: 0.10; fill: #444444; fill-opacity: 0.10;' clip-path='url(#cpMjk2LjEwfDM2My4yN3w5MC42MXwyMS45OQ==)' />
<circle cx='355.60' cy='86.68' r='2.13' style='stroke-width: 0.00; stroke: #444444; stroke-opacity: 0.10; fill: #444444; fill-opacity: 0.10;' clip-path='url(#cpMjk2LjEwfDM2My4yN3w5MC42MXwyMS45OQ==)' />
<circle cx='338.28' cy='79.56' r='2.13' style='stroke-width: 0.00; stroke: #444444; stroke-opacity: 0.10; fill: #444444; fill-opacity: 0.10;' clip-path='url(#cpMjk2LjEwfDM2My4yN3w5MC42MXwyMS45OQ==)' />
<circle cx='357.68' cy='86.14' r='2.13' style='stroke-width: 0.00; stroke: #444444; stroke-opacity: 0.10; fill: #444444; fill-opacity: 0.10;' clip-path='url(#cpMjk2LjEwfDM2My4yN3w5MC42MXwyMS45OQ==)' />
<circle cx='357.18' cy='74.39' r='2.13' style='stroke-width: 0.00; stroke: #444444; stroke-opacity: 0.10; fill: #444444; fill-opacity: 0.10;' clip-path='url(#cpMjk2LjEwfDM2My4yN3w5MC42MXwyMS45OQ==)' />
<circle cx='320.00' cy='86.23' r='2.13' style='stroke-width: 0.00; stroke: #444444; stroke-opacity: 0.10; fill: #444444; fill-opacity: 0.10;' clip-path='url(#cpMjk2LjEwfDM2My4yN3w5MC42MXwyMS45OQ==)' />
<circle cx='344.28' cy='81.86' r='2.13' style='stroke-width: 0.00; stroke: #444444; stroke-opacity: 0.10; fill: #444444; fill-opacity: 0.10;' clip-path='url(#cpMjk2LjEwfDM2My4yN3w5MC42MXwyMS45OQ==)' />
<circle cx='320.29' cy='77.78' r='2.13' style='stroke-width: 0.00; stroke: #444444; stroke-opacity: 0.10; fill: #444444; fill-opacity: 0.10;' clip-path='url(#cpMjk2LjEwfDM2My4yN3w5MC42MXwyMS45OQ==)' />
<circle cx='301.53' cy='84.99' r='2.13' style='stroke-width: 0.00; stroke: #444444; stroke-opacity: 0.10; fill: #444444; fill-opacity: 0.10;' clip-path='url(#cpMjk2LjEwfDM2My4yN3w5MC42MXwyMS45OQ==)' />
<circle cx='302.82' cy='76.05' r='2.13' style='stroke-width: 0.00; stroke: #444444; stroke-opacity: 0.10; fill: #444444; fill-opacity: 0.10;' clip-path='url(#cpMjk2LjEwfDM2My4yN3w5MC42MXwyMS45OQ==)' />
<circle cx='354.20' cy='82.53' r='2.13' style='stroke-width: 0.00; stroke: #444444; stroke-opacity: 0.10; fill: #444444; fill-opacity: 0.10;' clip-path='url(#cpMjk2LjEwfDM2My4yN3w5MC42MXwyMS45OQ==)' />
<circle cx='348.90' cy='73.79' r='2.13' style='stroke-width: 0.00; stroke: #444444; stroke-opacity: 0.10; fill: #444444; fill-opacity: 0.10;' clip-path='url(#cpMjk2LjEwfDM2My4yN3w5MC42MXwyMS45OQ==)' />
<circle cx='306.08' cy='75.23' r='2.13' style='stroke-width: 0.00; stroke: #444444; stroke-opacity: 0.10; fill: #444444; fill-opacity: 0.10;' clip-path='url(#cpMjk2LjEwfDM2My4yN3w5MC42MXwyMS45OQ==)' />
<circle cx='304.37' cy='82.19' r='2.13' style='stroke-width: 0.00; stroke: #444444; stroke-opacity: 0.10; fill: #444444; fill-opacity: 0.10;' clip-path='url(#cpMjk2LjEwfDM2My4yN3w5MC42MXwyMS45OQ==)' />
<circle cx='357.56' cy='76.18' r='2.13' style='stroke-width: 0.00; stroke: #444444; stroke-opacity: 0.10; fill: #444444; fill-opacity: 0.10;' clip-path='url(#cpMjk2LjEwfDM2My4yN3w5MC42MXwyMS45OQ==)' />
<circle cx='326.96' cy='77.65' r='2.13' style='stroke-width: 0.00; stroke: #444444; stroke-opacity: 0.10; fill: #444444; fill-opacity: 0.10;' clip-path='url(#cpMjk2LjEwfDM2My4yN3w5MC42MXwyMS45OQ==)' />
<circle cx='346.95' cy='87.49' r='2.13' style='stroke-width: 0.00; stroke: #444444; stroke-opacity: 0.10; fill: #444444; fill-opacity: 0.10;' clip-path='url(#cpMjk2LjEwfDM2My4yN3w5MC42MXwyMS45OQ==)' />
<circle cx='324.12' cy='84.06' r='2.13' style='stroke-width: 0.00; stroke: #444444; stroke-opacity: 0.10; fill: #444444; fill-opacity: 0.10;' clip-path='url(#cpMjk2LjEwfDM2My4yN3w5MC42MXwyMS45OQ==)' />
<circle cx='346.33' cy='83.72' r='2.13' style='stroke-width: 0.00; stroke: #444444; stroke-opacity: 0.10; fill: #444444; fill-opacity: 0.10;' clip-path='url(#cpMjk2LjEwfDM2My4yN3w5MC42MXwyMS45OQ==)' />
<circle cx='322.25' cy='77.27' r='2.13' style='stroke-width: 0.00; stroke: #444444; stroke-opacity: 0.10; fill: #444444; fill-opacity: 0.10;' clip-path='url(#cpMjk2LjEwfDM2My4yN3w5MC42MXwyMS45OQ==)' />
<circle cx='357.49' cy='80.50' r='2.13' style='stroke-width: 0.00; stroke: #444444; stroke-opacity: 0.10; fill: #444444; fill-opacity: 0.10;' clip-path='url(#cpMjk2LjEwfDM2My4yN3w5MC42MXwyMS45OQ==)' />
<circle cx='356.84' cy='84.41' r='2.13' style='stroke-width: 0.00; stroke: #444444; stroke-opacity: 0.10; fill: #444444; fill-opacity: 0.10;' clip-path='url(#cpMjk2LjEwfDM2My4yN3w5MC42MXwyMS45OQ==)' />
<circle cx='341.10' cy='87.42' r='2.13' style='stroke-width: 0.00; stroke: #444444; stroke-opacity: 0.10; fill: #444444; fill-opacity: 0.10;' clip-path='url(#cpMjk2LjEwfDM2My4yN3w5MC42MXwyMS45OQ==)' />
<circle cx='352.19' cy='84.09' r='2.13' style='stroke-width: 0.00; stroke: #444444; stroke-opacity: 0.10; fill: #444444; fill-opacity: 0.10;' clip-path='url(#cpMjk2LjEwfDM2My4yN3w5MC42MXwyMS45OQ==)' />
<circle cx='319.69' cy='75.15' r='2.13' style='stroke-width: 0.00; stroke: #444444; stroke-opacity: 0.10; fill: #444444; fill-opacity: 0.10;' clip-path='url(#cpMjk2LjEwfDM2My4yN3w5MC42MXwyMS45OQ==)' />
<circle cx='345.91' cy='87.27' r='2.13' style='stroke-width: 0.00; stroke: #444444; stroke-opacity: 0.10; fill: #444444; fill-opacity: 0.10;' clip-path='url(#cpMjk2LjEwfDM2My4yN3w5MC42MXwyMS45OQ==)' />
<circle cx='352.69' cy='82.84' r='2.13' style='stroke-width: 0.00; stroke: #444444; stroke-opacity: 0.10; fill: #444444; fill-opacity: 0.10;' clip-path='url(#cpMjk2LjEwfDM2My4yN3w5MC42MXwyMS45OQ==)' />
<circle cx='353.36' cy='74.36' r='2.13' style='stroke-width: 0.00; stroke: #444444; stroke-opacity: 0.10; fill: #444444; fill-opacity: 0.10;' clip-path='url(#cpMjk2LjEwfDM2My4yN3w5MC42MXwyMS45OQ==)' />
<circle cx='328.04' cy='85.58' r='2.13' style='stroke-width: 0.00; stroke: #444444; stroke-opacity: 0.10; fill: #444444; fill-opacity: 0.10;' clip-path='url(#cpMjk2LjEwfDM2My4yN3w5MC42MXwyMS45OQ==)' />
<circle cx='328.94' cy='80.77' r='2.13' style='stroke-width: 0.00; stroke: #444444; stroke-opacity: 0.10; fill: #444444; fill-opacity: 0.10;' clip-path='url(#cpMjk2LjEwfDM2My4yN3w5MC42MXwyMS45OQ==)' />
<circle cx='323.19' cy='76.35' r='2.13' style='stroke-width: 0.00; stroke: #444444; stroke-opacity: 0.10; fill: #444444; fill-opacity: 0.10;' clip-path='url(#cpMjk2LjEwfDM2My4yN3w5MC42MXwyMS45OQ==)' />
<circle cx='345.48' cy='84.63' r='2.13' style='stroke-width: 0.00; stroke: #444444; stroke-opacity: 0.10; fill: #444444; fill-opacity: 0.10;' clip-path='url(#cpMjk2LjEwfDM2My4yN3w5MC42MXwyMS45OQ==)' />
<circle cx='331.15' cy='80.00' r='2.13' style='stroke-width: 0.00; stroke: #444444; stroke-opacity: 0.10; fill: #444444; fill-opacity: 0.10;' clip-path='url(#cpMjk2LjEwfDM2My4yN3w5MC42MXwyMS45OQ==)' />
<circle cx='310.22' cy='77.64' r='2.13' style='stroke-width: 0.00; stroke: #444444; stroke-opacity: 0.10; fill: #444444; fill-opacity: 0.10;' clip-path='url(#cpMjk2LjEwfDM2My4yN3w5MC42MXwyMS45OQ==)' />
<circle cx='332.21' cy='82.06' r='2.13' style='stroke-width: 0.00; stroke: #444444; stroke-opacity: 0.10; fill: #444444; fill-opacity: 0.10;' clip-path='url(#cpMjk2LjEwfDM2My4yN3w5MC42MXwyMS45OQ==)' />
<circle cx='325.41' cy='84.67' r='2.13' style='stroke-width: 0.00; stroke: #444444; stroke-opacity: 0.10; fill: #444444; fill-opacity: 0.10;' clip-path='url(#cpMjk2LjEwfDM2My4yN3w5MC42MXwyMS45OQ==)' />
<circle cx='328.10' cy='76.60' r='2.13' style='stroke-width: 0.00; stroke: #444444; stroke-opacity: 0.10; fill: #444444; fill-opacity: 0.10;' clip-path='url(#cpMjk2LjEwfDM2My4yN3w5MC42MXwyMS45OQ==)' />
<circle cx='313.24' cy='87.13' r='2.13' style='stroke-width: 0.00; stroke: #444444; stroke-opacity: 0.10; fill: #444444; fill-opacity: 0.10;' clip-path='url(#cpMjk2LjEwfDM2My4yN3w5MC42MXwyMS45OQ==)' />
<circle cx='358.75' cy='55.31' r='2.13' style='stroke-width: 0.00; stroke: #444444; stroke-opacity: 0.10; fill: #444444; fill-opacity: 0.10;' clip-path='url(#cpMjk2LjEwfDM2My4yN3w5MC42MXwyMS45OQ==)' />
<circle cx='357.82' cy='57.21' r='2.13' style='stroke-width: 0.00; stroke: #444444; stroke-opacity: 0.10; fill: #444444; fill-opacity: 0.10;' clip-path='url(#cpMjk2LjEwfDM2My4yN3w5MC42MXwyMS45OQ==)' />
<circle cx='352.29' cy='57.20' r='2.13' style='stroke-width: 0.00; stroke: #444444; stroke-opacity: 0.10; fill: #444444; fill-opacity: 0.10;' clip-path='url(#cpMjk2LjEwfDM2My4yN3w5MC42MXwyMS45OQ==)' />
<circle cx='350.94' cy='56.82' r='2.13' style='stroke-width: 0.00; stroke: #444444; stroke-opacity: 0.10; fill: #444444; fill-opacity: 0.10;' clip-path='url(#cpMjk2LjEwfDM2My4yN3w5MC42MXwyMS45OQ==)' />
<circle cx='358.81' cy='61.22' r='2.13' style='stroke-width: 0.00; stroke: #444444; stroke-opacity: 0.10; fill: #444444; fill-opacity: 0.10;' clip-path='url(#cpMjk2LjEwfDM2My4yN3w5MC42MXwyMS45OQ==)' />
<circle cx='299.75' cy='51.77' r='2.13' style='stroke-width: 0.00; stroke: #444444; stroke-opacity: 0.10; fill: #444444; fill-opacity: 0.10;' clip-path='url(#cpMjk2LjEwfDM2My4yN3w5MC42MXwyMS45OQ==)' />
<circle cx='358.57' cy='54.90' r='2.13' style='stroke-width: 0.00; stroke: #444444; stroke-opacity: 0.10; fill: #444444; fill-opacity: 0.10;' clip-path='url(#cpMjk2LjEwfDM2My4yN3w5MC42MXwyMS45OQ==)' />
<circle cx='353.17' cy='57.97' r='2.13' style='stroke-width: 0.00; stroke: #444444; stroke-opacity: 0.10; fill: #444444; fill-opacity: 0.10;' clip-path='url(#cpMjk2LjEwfDM2My4yN3w5MC42MXwyMS45OQ==)' />
<circle cx='344.90' cy='49.54' r='2.13' style='stroke-width: 0.00; stroke: #444444; stroke-opacity: 0.10; fill: #444444; fill-opacity: 0.10;' clip-path='url(#cpMjk2LjEwfDM2My4yN3w5MC42MXwyMS45OQ==)' />
<circle cx='352.89' cy='58.14' r='2.13' style='stroke-width: 0.00; stroke: #444444; stroke-opacity: 0.10; fill: #444444; fill-opacity: 0.10;' clip-path='url(#cpMjk2LjEwfDM2My4yN3w5MC42MXwyMS45OQ==)' />
<circle cx='359.08' cy='52.20' r='2.13' style='stroke-width: 0.00; stroke: #444444; stroke-opacity: 0.10; fill: #444444; fill-opacity: 0.10;' clip-path='url(#cpMjk2LjEwfDM2My4yN3w5MC42MXwyMS45OQ==)' />
<circle cx='351.06' cy='53.34' r='2.13' style='stroke-width: 0.00; stroke: #444444; stroke-opacity: 0.10; fill: #444444; fill-opacity: 0.10;' clip-path='url(#cpMjk2LjEwfDM2My4yN3w5MC42MXwyMS45OQ==)' />
<circle cx='345.68' cy='49.78' r='2.13' style='stroke-width: 0.00; stroke: #444444; stroke-opacity: 0.10; fill: #444444; fill-opacity: 0.10;' clip-path='url(#cpMjk2LjEwfDM2My4yN3w5MC42MXwyMS45OQ==)' />
<circle cx='358.30' cy='53.62' r='2.13' style='stroke-width: 0.00; stroke: #444444; stroke-opacity: 0.10; fill: #444444; fill-opacity: 0.10;' clip-path='url(#cpMjk2LjEwfDM2My4yN3w5MC42MXwyMS45OQ==)' />
<circle cx='356.01' cy='52.55' r='2.13' style='stroke-width: 0.00; stroke: #444444; stroke-opacity: 0.10; fill: #444444; fill-opacity: 0.10;' clip-path='url(#cpMjk2LjEwfDM2My4yN3w5MC42MXwyMS45OQ==)' />
<circle cx='308.12' cy='53.63' r='2.13' style='stroke-width: 0.00; stroke: #444444; stroke-opacity: 0.10; fill: #444444; fill-opacity: 0.10;' clip-path='url(#cpMjk2LjEwfDM2My4yN3w5MC42MXwyMS45OQ==)' />
<circle cx='356.19' cy='55.44' r='2.13' style='stroke-width: 0.00; stroke: #444444; stroke-opacity: 0.10; fill: #444444; fill-opacity: 0.10;' clip-path='url(#cpMjk2LjEwfDM2My4yN3w5MC42MXwyMS45OQ==)' />
<circle cx='357.96' cy='55.44' r='2.13' style='stroke-width: 0.00; stroke: #444444; stroke-opacity: 0.10; fill: #444444; fill-opacity: 0.10;' clip-path='url(#cpMjk2LjEwfDM2My4yN3w5MC42MXwyMS45OQ==)' />
<circle cx='355.51' cy='55.51' r='2.13' style='stroke-width: 0.00; stroke: #444444; stroke-opacity: 0.10; fill: #444444; fill-opacity: 0.10;' clip-path='url(#cpMjk2LjEwfDM2My4yN3w5MC42MXwyMS45OQ==)' />
<circle cx='339.74' cy='59.40' r='2.13' style='stroke-width: 0.00; stroke: #444444; stroke-opacity: 0.10; fill: #444444; fill-opacity: 0.10;' clip-path='url(#cpMjk2LjEwfDM2My4yN3w5MC42MXwyMS45OQ==)' />
<circle cx='352.68' cy='56.25' r='2.13' style='stroke-width: 0.00; stroke: #444444; stroke-opacity: 0.10; fill: #444444; fill-opacity: 0.10;' clip-path='url(#cpMjk2LjEwfDM2My4yN3w5MC42MXwyMS45OQ==)' />
<circle cx='359.68' cy='53.63' r='2.13' style='stroke-width: 0.00; stroke: #444444; stroke-opacity: 0.10; fill: #444444; fill-opacity: 0.10;' clip-path='url(#cpMjk2LjEwfDM2My4yN3w5MC42MXwyMS45OQ==)' />
<circle cx='357.16' cy='62.74' r='2.13' style='stroke-width: 0.00; stroke: #444444; stroke-opacity: 0.10; fill: #444444; fill-opacity: 0.10;' clip-path='url(#cpMjk2LjEwfDM2My4yN3w5MC42MXwyMS45OQ==)' />
<circle cx='345.65' cy='51.67' r='2.13' style='stroke-width: 0.00; stroke: #444444; stroke-opacity: 0.10; fill: #444444; fill-opacity: 0.10;' clip-path='url(#cpMjk2LjEwfDM2My4yN3w5MC42MXwyMS45OQ==)' />
<circle cx='355.23' cy='53.44' r='2.13' style='stroke-width: 0.00; stroke: #444444; stroke-opacity: 0.10; fill: #444444; fill-opacity: 0.10;' clip-path='url(#cpMjk2LjEwfDM2My4yN3w5MC42MXwyMS45OQ==)' />
<circle cx='358.28' cy='52.11' r='2.13' style='stroke-width: 0.00; stroke: #444444; stroke-opacity: 0.10; fill: #444444; fill-opacity: 0.10;' clip-path='url(#cpMjk2LjEwfDM2My4yN3w5MC42MXwyMS45OQ==)' />
<circle cx='346.58' cy='50.15' r='2.13' style='stroke-width: 0.00; stroke: #444444; stroke-opacity: 0.10; fill: #444444; fill-opacity: 0.10;' clip-path='url(#cpMjk2LjEwfDM2My4yN3w5MC42MXwyMS45OQ==)' />
<circle cx='359.07' cy='54.55' r='2.13' style='stroke-width: 0.00; stroke: #444444; stroke-opacity: 0.10; fill: #444444; fill-opacity: 0.10;' clip-path='url(#cpMjk2LjEwfDM2My4yN3w5MC42MXwyMS45OQ==)' />
<circle cx='359.41' cy='49.47' r='2.13' style='stroke-width: 0.00; stroke: #444444; stroke-opacity: 0.10; fill: #444444; fill-opacity: 0.10;' clip-path='url(#cpMjk2LjEwfDM2My4yN3w5MC42MXwyMS45OQ==)' />
<circle cx='353.63' cy='50.82' r='2.13' style='stroke-width: 0.00; stroke: #444444; stroke-opacity: 0.10; fill: #444444; fill-opacity: 0.10;' clip-path='url(#cpMjk2LjEwfDM2My4yN3w5MC42MXwyMS45OQ==)' />
<circle cx='347.16' cy='56.40' r='2.13' style='stroke-width: 0.00; stroke: #444444; stroke-opacity: 0.10; fill: #444444; fill-opacity: 0.10;' clip-path='url(#cpMjk2LjEwfDM2My4yN3w5MC42MXwyMS45OQ==)' />
<circle cx='347.36' cy='56.78' r='2.13' style='stroke-width: 0.00; stroke: #444444; stroke-opacity: 0.10; fill: #444444; fill-opacity: 0.10;' clip-path='url(#cpMjk2LjEwfDM2My4yN3w5MC42MXwyMS45OQ==)' />
<circle cx='353.33' cy='49.66' r='2.13' style='stroke-width: 0.00; stroke: #444444; stroke-opacity: 0.10; fill: #444444; fill-opacity: 0.10;' clip-path='url(#cpMjk2LjEwfDM2My4yN3w5MC42MXwyMS45OQ==)' />
<circle cx='355.79' cy='61.51' r='2.13' style='stroke-width: 0.00; stroke: #444444; stroke-opacity: 0.10; fill: #444444; fill-opacity: 0.10;' clip-path='url(#cpMjk2LjEwfDM2My4yN3w5MC42MXwyMS45OQ==)' />
<circle cx='354.69' cy='53.41' r='2.13' style='stroke-width: 0.00; stroke: #444444; stroke-opacity: 0.10; fill: #444444; fill-opacity: 0.10;' clip-path='url(#cpMjk2LjEwfDM2My4yN3w5MC42MXwyMS45OQ==)' />
<circle cx='353.96' cy='59.04' r='2.13' style='stroke-width: 0.00; stroke: #444444; stroke-opacity: 0.10; fill: #444444; fill-opacity: 0.10;' clip-path='url(#cpMjk2LjEwfDM2My4yN3w5MC42MXwyMS45OQ==)' />
<circle cx='356.25' cy='55.48' r='2.13' style='stroke-width: 0.00; stroke: #444444; stroke-opacity: 0.10; fill: #444444; fill-opacity: 0.10;' clip-path='url(#cpMjk2LjEwfDM2My4yN3w5MC42MXwyMS45OQ==)' />
<circle cx='347.63' cy='50.55' r='2.13' style='stroke-width: 0.00; stroke: #444444; stroke-opacity: 0.10; fill: #444444; fill-opacity: 0.10;' clip-path='url(#cpMjk2LjEwfDM2My4yN3w5MC42MXwyMS45OQ==)' />
<circle cx='353.50' cy='55.67' r='2.13' style='stroke-width: 0.00; stroke: #444444; stroke-opacity: 0.10; fill: #444444; fill-opacity: 0.10;' clip-path='url(#cpMjk2LjEwfDM2My4yN3w5MC42MXwyMS45OQ==)' />
<circle cx='347.91' cy='54.35' r='2.13' style='stroke-width: 0.00; stroke: #444444; stroke-opacity: 0.10; fill: #444444; fill-opacity: 0.10;' clip-path='url(#cpMjk2LjEwfDM2My4yN3w5MC42MXwyMS45OQ==)' />
<circle cx='350.78' cy='56.73' r='2.13' style='stroke-width: 0.00; stroke: #444444; stroke-opacity: 0.10; fill: #444444; fill-opacity: 0.10;' clip-path='url(#cpMjk2LjEwfDM2My4yN3w5MC42MXwyMS45OQ==)' />
<circle cx='356.38' cy='60.42' r='2.13' style='stroke-width: 0.00; stroke: #444444; stroke-opacity: 0.10; fill: #444444; fill-opacity: 0.10;' clip-path='url(#cpMjk2LjEwfDM2My4yN3w5MC42MXwyMS45OQ==)' />
<circle cx='347.71' cy='59.23' r='2.13' style='stroke-width: 0.00; stroke: #444444; stroke-opacity: 0.10; fill: #444444; fill-opacity: 0.10;' clip-path='url(#cpMjk2LjEwfDM2My4yN3w5MC42MXwyMS45OQ==)' />
<circle cx='331.15' cy='62.70' r='2.13' style='stroke-width: 0.00; stroke: #444444; stroke-opacity: 0.10; fill: #444444; fill-opacity: 0.10;' clip-path='url(#cpMjk2LjEwfDM2My4yN3w5MC42MXwyMS45OQ==)' />
<circle cx='360.22' cy='62.33' r='2.13' style='stroke-width: 0.00; stroke: #444444; stroke-opacity: 0.10; fill: #444444; fill-opacity: 0.10;' clip-path='url(#cpMjk2LjEwfDM2My4yN3w5MC42MXwyMS45OQ==)' />
<circle cx='353.26' cy='49.12' r='2.13' style='stroke-width: 0.00; stroke: #444444; stroke-opacity: 0.10; fill: #444444; fill-opacity: 0.10;' clip-path='url(#cpMjk2LjEwfDM2My4yN3w5MC42MXwyMS45OQ==)' />
<circle cx='358.01' cy='55.57' r='2.13' style='stroke-width: 0.00; stroke: #444444; stroke-opacity: 0.10; fill: #444444; fill-opacity: 0.10;' clip-path='url(#cpMjk2LjEwfDM2My4yN3w5MC42MXwyMS45OQ==)' />
<circle cx='354.20' cy='53.06' r='2.13' style='stroke-width: 0.00; stroke: #444444; stroke-opacity: 0.10; fill: #444444; fill-opacity: 0.10;' clip-path='url(#cpMjk2LjEwfDM2My4yN3w5MC42MXwyMS45OQ==)' />
<circle cx='358.39' cy='62.26' r='2.13' style='stroke-width: 0.00; stroke: #444444; stroke-opacity: 0.10; fill: #444444; fill-opacity: 0.10;' clip-path='url(#cpMjk2LjEwfDM2My4yN3w5MC42MXwyMS45OQ==)' />
<circle cx='329.86' cy='54.57' r='2.13' style='stroke-width: 0.00; stroke: #444444; stroke-opacity: 0.10; fill: #444444; fill-opacity: 0.10;' clip-path='url(#cpMjk2LjEwfDM2My4yN3w5MC42MXwyMS45OQ==)' />
<circle cx='356.05' cy='56.97' r='2.13' style='stroke-width: 0.00; stroke: #444444; stroke-opacity: 0.10; fill: #444444; fill-opacity: 0.10;' clip-path='url(#cpMjk2LjEwfDM2My4yN3w5MC42MXwyMS45OQ==)' />
<circle cx='356.79' cy='50.17' r='2.13' style='stroke-width: 0.00; stroke: #444444; stroke-opacity: 0.10; fill: #444444; fill-opacity: 0.10;' clip-path='url(#cpMjk2LjEwfDM2My4yN3w5MC42MXwyMS45OQ==)' />
<circle cx='356.22' cy='57.75' r='2.13' style='stroke-width: 0.00; stroke: #444444; stroke-opacity: 0.10; fill: #444444; fill-opacity: 0.10;' clip-path='url(#cpMjk2LjEwfDM2My4yN3w5MC42MXwyMS45OQ==)' />
<circle cx='336.66' cy='62.82' r='2.13' style='stroke-width: 0.00; stroke: #444444; stroke-opacity: 0.10; fill: #444444; fill-opacity: 0.10;' clip-path='url(#cpMjk2LjEwfDM2My4yN3w5MC42MXwyMS45OQ==)' />
<circle cx='353.03' cy='54.42' r='2.13' style='stroke-width: 0.00; stroke: #444444; stroke-opacity: 0.10; fill: #444444; fill-opacity: 0.10;' clip-path='url(#cpMjk2LjEwfDM2My4yN3w5MC42MXwyMS45OQ==)' />
<circle cx='354.98' cy='62.45' r='2.13' style='stroke-width: 0.00; stroke: #444444; stroke-opacity: 0.10; fill: #444444; fill-opacity: 0.10;' clip-path='url(#cpMjk2LjEwfDM2My4yN3w5MC42MXwyMS45OQ==)' />
<circle cx='352.49' cy='49.36' r='2.13' style='stroke-width: 0.00; stroke: #444444; stroke-opacity: 0.10; fill: #444444; fill-opacity: 0.10;' clip-path='url(#cpMjk2LjEwfDM2My4yN3w5MC42MXwyMS45OQ==)' />
<circle cx='326.82' cy='61.91' r='2.13' style='stroke-width: 0.00; stroke: #444444; stroke-opacity: 0.10; fill: #444444; fill-opacity: 0.10;' clip-path='url(#cpMjk2LjEwfDM2My4yN3w5MC42MXwyMS45OQ==)' />
<circle cx='353.52' cy='58.57' r='2.13' style='stroke-width: 0.00; stroke: #444444; stroke-opacity: 0.10; fill: #444444; fill-opacity: 0.10;' clip-path='url(#cpMjk2LjEwfDM2My4yN3w5MC42MXwyMS45OQ==)' />
<circle cx='327.17' cy='49.54' r='2.13' style='stroke-width: 0.00; stroke: #444444; stroke-opacity: 0.10; fill: #444444; fill-opacity: 0.10;' clip-path='url(#cpMjk2LjEwfDM2My4yN3w5MC42MXwyMS45OQ==)' />
<circle cx='353.16' cy='49.67' r='2.13' style='stroke-width: 0.00; stroke: #444444; stroke-opacity: 0.10; fill: #444444; fill-opacity: 0.10;' clip-path='url(#cpMjk2LjEwfDM2My4yN3w5MC42MXwyMS45OQ==)' />
<circle cx='359.15' cy='51.84' r='2.13' style='stroke-width: 0.00; stroke: #444444; stroke-opacity: 0.10; fill: #444444; fill-opacity: 0.10;' clip-path='url(#cpMjk2LjEwfDM2My4yN3w5MC42MXwyMS45OQ==)' />
<circle cx='345.34' cy='60.81' r='2.13' style='stroke-width: 0.00; stroke: #444444; stroke-opacity: 0.10; fill: #444444; fill-opacity: 0.10;' clip-path='url(#cpMjk2LjEwfDM2My4yN3w5MC42MXwyMS45OQ==)' />
<circle cx='347.45' cy='54.53' r='2.13' style='stroke-width: 0.00; stroke: #444444; stroke-opacity: 0.10; fill: #444444; fill-opacity: 0.10;' clip-path='url(#cpMjk2LjEwfDM2My4yN3w5MC42MXwyMS45OQ==)' />
<circle cx='343.17' cy='60.56' r='2.13' style='stroke-width: 0.00; stroke: #444444; stroke-opacity: 0.10; fill: #444444; fill-opacity: 0.10;' clip-path='url(#cpMjk2LjEwfDM2My4yN3w5MC42MXwyMS45OQ==)' />
<circle cx='354.81' cy='51.39' r='2.13' style='stroke-width: 0.00; stroke: #444444; stroke-opacity: 0.10; fill: #444444; fill-opacity: 0.10;' clip-path='url(#cpMjk2LjEwfDM2My4yN3w5MC42MXwyMS45OQ==)' />
<circle cx='356.85' cy='60.66' r='2.13' style='stroke-width: 0.00; stroke: #444444; stroke-opacity: 0.10; fill: #444444; fill-opacity: 0.10;' clip-path='url(#cpMjk2LjEwfDM2My4yN3w5MC42MXwyMS45OQ==)' />
<circle cx='353.35' cy='29.07' r='2.13' style='stroke-width: 0.00; stroke: #444444; stroke-opacity: 0.10; fill: #444444; fill-opacity: 0.10;' clip-path='url(#cpMjk2LjEwfDM2My4yN3w5MC42MXwyMS45OQ==)' />
<circle cx='354.98' cy='37.93' r='2.13' style='stroke-width: 0.00; stroke: #444444; stroke-opacity: 0.10; fill: #444444; fill-opacity: 0.10;' clip-path='url(#cpMjk2LjEwfDM2My4yN3w5MC42MXwyMS45OQ==)' />
<circle cx='330.30' cy='27.64' r='2.13' style='stroke-width: 0.00; stroke: #444444; stroke-opacity: 0.10; fill: #444444; fill-opacity: 0.10;' clip-path='url(#cpMjk2LjEwfDM2My4yN3w5MC42MXwyMS45OQ==)' />
<circle cx='353.70' cy='34.42' r='2.13' style='stroke-width: 0.00; stroke: #444444; stroke-opacity: 0.10; fill: #444444; fill-opacity: 0.10;' clip-path='url(#cpMjk2LjEwfDM2My4yN3w5MC42MXwyMS45OQ==)' />
<circle cx='358.08' cy='34.82' r='2.13' style='stroke-width: 0.00; stroke: #444444; stroke-opacity: 0.10; fill: #444444; fill-opacity: 0.10;' clip-path='url(#cpMjk2LjEwfDM2My4yN3w5MC42MXwyMS45OQ==)' />
<circle cx='342.08' cy='27.32' r='2.13' style='stroke-width: 0.00; stroke: #444444; stroke-opacity: 0.10; fill: #444444; fill-opacity: 0.10;' clip-path='url(#cpMjk2LjEwfDM2My4yN3w5MC42MXwyMS45OQ==)' />
<circle cx='353.14' cy='29.42' r='2.13' style='stroke-width: 0.00; stroke: #444444; stroke-opacity: 0.10; fill: #444444; fill-opacity: 0.10;' clip-path='url(#cpMjk2LjEwfDM2My4yN3w5MC42MXwyMS45OQ==)' />
<circle cx='336.35' cy='39.01' r='2.13' style='stroke-width: 0.00; stroke: #444444; stroke-opacity: 0.10; fill: #444444; fill-opacity: 0.10;' clip-path='url(#cpMjk2LjEwfDM2My4yN3w5MC42MXwyMS45OQ==)' />
<circle cx='355.84' cy='30.57' r='2.13' style='stroke-width: 0.00; stroke: #444444; stroke-opacity: 0.10; fill: #444444; fill-opacity: 0.10;' clip-path='url(#cpMjk2LjEwfDM2My4yN3w5MC42MXwyMS45OQ==)' />
<circle cx='359.80' cy='36.73' r='2.13' style='stroke-width: 0.00; stroke: #444444; stroke-opacity: 0.10; fill: #444444; fill-opacity: 0.10;' clip-path='url(#cpMjk2LjEwfDM2My4yN3w5MC42MXwyMS45OQ==)' />
<circle cx='349.96' cy='36.98' r='2.13' style='stroke-width: 0.00; stroke: #444444; stroke-opacity: 0.10; fill: #444444; fill-opacity: 0.10;' clip-path='url(#cpMjk2LjEwfDM2My4yN3w5MC42MXwyMS45OQ==)' />
<circle cx='354.38' cy='34.68' r='2.13' style='stroke-width: 0.00; stroke: #444444; stroke-opacity: 0.10; fill: #444444; fill-opacity: 0.10;' clip-path='url(#cpMjk2LjEwfDM2My4yN3w5MC42MXwyMS45OQ==)' />
<circle cx='349.73' cy='35.31' r='2.13' style='stroke-width: 0.00; stroke: #444444; stroke-opacity: 0.10; fill: #444444; fill-opacity: 0.10;' clip-path='url(#cpMjk2LjEwfDM2My4yN3w5MC42MXwyMS45OQ==)' />
<circle cx='353.52' cy='32.26' r='2.13' style='stroke-width: 0.00; stroke: #444444; stroke-opacity: 0.10; fill: #444444; fill-opacity: 0.10;' clip-path='url(#cpMjk2LjEwfDM2My4yN3w5MC42MXwyMS45OQ==)' />
<circle cx='357.33' cy='33.67' r='2.13' style='stroke-width: 0.00; stroke: #444444; stroke-opacity: 0.10; fill: #444444; fill-opacity: 0.10;' clip-path='url(#cpMjk2LjEwfDM2My4yN3w5MC42MXwyMS45OQ==)' />
<circle cx='355.19' cy='33.11' r='2.13' style='stroke-width: 0.00; stroke: #444444; stroke-opacity: 0.10; fill: #444444; fill-opacity: 0.10;' clip-path='url(#cpMjk2LjEwfDM2My4yN3w5MC42MXwyMS45OQ==)' />
<circle cx='326.98' cy='25.10' r='2.13' style='stroke-width: 0.00; stroke: #444444; stroke-opacity: 0.10; fill: #444444; fill-opacity: 0.10;' clip-path='url(#cpMjk2LjEwfDM2My4yN3w5MC42MXwyMS45OQ==)' />
<circle cx='356.06' cy='26.60' r='2.13' style='stroke-width: 0.00; stroke: #444444; stroke-opacity: 0.10; fill: #444444; fill-opacity: 0.10;' clip-path='url(#cpMjk2LjEwfDM2My4yN3w5MC42MXwyMS45OQ==)' />
<circle cx='357.86' cy='32.29' r='2.13' style='stroke-width: 0.00; stroke: #444444; stroke-opacity: 0.10; fill: #444444; fill-opacity: 0.10;' clip-path='url(#cpMjk2LjEwfDM2My4yN3w5MC42MXwyMS45OQ==)' />
<circle cx='357.58' cy='26.64' r='2.13' style='stroke-width: 0.00; stroke: #444444; stroke-opacity: 0.10; fill: #444444; fill-opacity: 0.10;' clip-path='url(#cpMjk2LjEwfDM2My4yN3w5MC42MXwyMS45OQ==)' />
<circle cx='326.71' cy='35.28' r='2.13' style='stroke-width: 0.00; stroke: #444444; stroke-opacity: 0.10; fill: #444444; fill-opacity: 0.10;' clip-path='url(#cpMjk2LjEwfDM2My4yN3w5MC42MXwyMS45OQ==)' />
<circle cx='352.49' cy='34.65' r='2.13' style='stroke-width: 0.00; stroke: #444444; stroke-opacity: 0.10; fill: #444444; fill-opacity: 0.10;' clip-path='url(#cpMjk2LjEwfDM2My4yN3w5MC42MXwyMS45OQ==)' />
<circle cx='357.78' cy='35.04' r='2.13' style='stroke-width: 0.00; stroke: #444444; stroke-opacity: 0.10; fill: #444444; fill-opacity: 0.10;' clip-path='url(#cpMjk2LjEwfDM2My4yN3w5MC42MXwyMS45OQ==)' />
<circle cx='359.25' cy='33.97' r='2.13' style='stroke-width: 0.00; stroke: #444444; stroke-opacity: 0.10; fill: #444444; fill-opacity: 0.10;' clip-path='url(#cpMjk2LjEwfDM2My4yN3w5MC42MXwyMS45OQ==)' />
<circle cx='347.60' cy='28.67' r='2.13' style='stroke-width: 0.00; stroke: #444444; stroke-opacity: 0.10; fill: #444444; fill-opacity: 0.10;' clip-path='url(#cpMjk2LjEwfDM2My4yN3w5MC42MXwyMS45OQ==)' />
<circle cx='334.38' cy='30.15' r='2.13' style='stroke-width: 0.00; stroke: #444444; stroke-opacity: 0.10; fill: #444444; fill-opacity: 0.10;' clip-path='url(#cpMjk2LjEwfDM2My4yN3w5MC42MXwyMS45OQ==)' />
<circle cx='354.29' cy='38.91' r='2.13' style='stroke-width: 0.00; stroke: #444444; stroke-opacity: 0.10; fill: #444444; fill-opacity: 0.10;' clip-path='url(#cpMjk2LjEwfDM2My4yN3w5MC42MXwyMS45OQ==)' />
<circle cx='353.55' cy='26.91' r='2.13' style='stroke-width: 0.00; stroke: #444444; stroke-opacity: 0.10; fill: #444444; fill-opacity: 0.10;' clip-path='url(#cpMjk2LjEwfDM2My4yN3w5MC42MXwyMS45OQ==)' />
<circle cx='327.59' cy='25.84' r='2.13' style='stroke-width: 0.00; stroke: #444444; stroke-opacity: 0.10; fill: #444444; fill-opacity: 0.10;' clip-path='url(#cpMjk2LjEwfDM2My4yN3w5MC42MXwyMS45OQ==)' />
<circle cx='354.03' cy='27.87' r='2.13' style='stroke-width: 0.00; stroke: #444444; stroke-opacity: 0.10; fill: #444444; fill-opacity: 0.10;' clip-path='url(#cpMjk2LjEwfDM2My4yN3w5MC42MXwyMS45OQ==)' />
<circle cx='353.21' cy='30.72' r='2.13' style='stroke-width: 0.00; stroke: #444444; stroke-opacity: 0.10; fill: #444444; fill-opacity: 0.10;' clip-path='url(#cpMjk2LjEwfDM2My4yN3w5MC42MXwyMS45OQ==)' />
<circle cx='349.11' cy='32.72' r='2.13' style='stroke-width: 0.00; stroke: #444444; stroke-opacity: 0.10; fill: #444444; fill-opacity: 0.10;' clip-path='url(#cpMjk2LjEwfDM2My4yN3w5MC42MXwyMS45OQ==)' />
<circle cx='349.53' cy='29.15' r='2.13' style='stroke-width: 0.00; stroke: #444444; stroke-opacity: 0.10; fill: #444444; fill-opacity: 0.10;' clip-path='url(#cpMjk2LjEwfDM2My4yN3w5MC42MXwyMS45OQ==)' />
<circle cx='353.69' cy='26.14' r='2.13' style='stroke-width: 0.00; stroke: #444444; stroke-opacity: 0.10; fill: #444444; fill-opacity: 0.10;' clip-path='url(#cpMjk2LjEwfDM2My4yN3w5MC42MXwyMS45OQ==)' />
<circle cx='340.67' cy='37.35' r='2.13' style='stroke-width: 0.00; stroke: #444444; stroke-opacity: 0.10; fill: #444444; fill-opacity: 0.10;' clip-path='url(#cpMjk2LjEwfDM2My4yN3w5MC42MXwyMS45OQ==)' />
<circle cx='348.41' cy='34.70' r='2.13' style='stroke-width: 0.00; stroke: #444444; stroke-opacity: 0.10; fill: #444444; fill-opacity: 0.10;' clip-path='url(#cpMjk2LjEwfDM2My4yN3w5MC42MXwyMS45OQ==)' />
<circle cx='311.88' cy='37.08' r='2.13' style='stroke-width: 0.00; stroke: #444444; stroke-opacity: 0.10; fill: #444444; fill-opacity: 0.10;' clip-path='url(#cpMjk2LjEwfDM2My4yN3w5MC42MXwyMS45OQ==)' />
<circle cx='344.10' cy='37.00' r='2.13' style='stroke-width: 0.00; stroke: #444444; stroke-opacity: 0.10; fill: #444444; fill-opacity: 0.10;' clip-path='url(#cpMjk2LjEwfDM2My4yN3w5MC42MXwyMS45OQ==)' />
<circle cx='343.16' cy='33.31' r='2.13' style='stroke-width: 0.00; stroke: #444444; stroke-opacity: 0.10; fill: #444444; fill-opacity: 0.10;' clip-path='url(#cpMjk2LjEwfDM2My4yN3w5MC42MXwyMS45OQ==)' />
<circle cx='357.93' cy='27.86' r='2.13' style='stroke-width: 0.00; stroke: #444444; stroke-opacity: 0.10; fill: #444444; fill-opacity: 0.10;' clip-path='url(#cpMjk2LjEwfDM2My4yN3w5MC42MXwyMS45OQ==)' />
<circle cx='335.72' cy='30.42' r='2.13' style='stroke-width: 0.00; stroke: #444444; stroke-opacity: 0.10; fill: #444444; fill-opacity: 0.10;' clip-path='url(#cpMjk2LjEwfDM2My4yN3w5MC42MXwyMS45OQ==)' />
<circle cx='357.03' cy='38.89' r='2.13' style='stroke-width: 0.00; stroke: #444444; stroke-opacity: 0.10; fill: #444444; fill-opacity: 0.10;' clip-path='url(#cpMjk2LjEwfDM2My4yN3w5MC42MXwyMS45OQ==)' />
<circle cx='350.31' cy='29.46' r='2.13' style='stroke-width: 0.00; stroke: #444444; stroke-opacity: 0.10; fill: #444444; fill-opacity: 0.10;' clip-path='url(#cpMjk2LjEwfDM2My4yN3w5MC42MXwyMS45OQ==)' />
<circle cx='352.20' cy='27.23' r='2.13' style='stroke-width: 0.00; stroke: #444444; stroke-opacity: 0.10; fill: #444444; fill-opacity: 0.10;' clip-path='url(#cpMjk2LjEwfDM2My4yN3w5MC42MXwyMS45OQ==)' />
<circle cx='335.22' cy='32.90' r='2.13' style='stroke-width: 0.00; stroke: #444444; stroke-opacity: 0.10; fill: #444444; fill-opacity: 0.10;' clip-path='url(#cpMjk2LjEwfDM2My4yN3w5MC42MXwyMS45OQ==)' />
<circle cx='347.17' cy='35.94' r='2.13' style='stroke-width: 0.00; stroke: #444444; stroke-opacity: 0.10; fill: #444444; fill-opacity: 0.10;' clip-path='url(#cpMjk2LjEwfDM2My4yN3w5MC42MXwyMS45OQ==)' />
<circle cx='302.21' cy='34.96' r='2.13' style='stroke-width: 0.00; stroke: #444444; stroke-opacity: 0.10; fill: #444444; fill-opacity: 0.10;' clip-path='url(#cpMjk2LjEwfDM2My4yN3w5MC42MXwyMS45OQ==)' />
<circle cx='357.70' cy='25.40' r='2.13' style='stroke-width: 0.00; stroke: #444444; stroke-opacity: 0.10; fill: #444444; fill-opacity: 0.10;' clip-path='url(#cpMjk2LjEwfDM2My4yN3w5MC42MXwyMS45OQ==)' />
<circle cx='354.54' cy='30.84' r='2.13' style='stroke-width: 0.00; stroke: #444444; stroke-opacity: 0.10; fill: #444444; fill-opacity: 0.10;' clip-path='url(#cpMjk2LjEwfDM2My4yN3w5MC42MXwyMS45OQ==)' />
<circle cx='355.99' cy='37.27' r='2.13' style='stroke-width: 0.00; stroke: #444444; stroke-opacity: 0.10; fill: #444444; fill-opacity: 0.10;' clip-path='url(#cpMjk2LjEwfDM2My4yN3w5MC42MXwyMS45OQ==)' />
<circle cx='357.98' cy='30.70' r='2.13' style='stroke-width: 0.00; stroke: #444444; stroke-opacity: 0.10; fill: #444444; fill-opacity: 0.10;' clip-path='url(#cpMjk2LjEwfDM2My4yN3w5MC42MXwyMS45OQ==)' />
<circle cx='356.11' cy='27.35' r='2.13' style='stroke-width: 0.00; stroke: #444444; stroke-opacity: 0.10; fill: #444444; fill-opacity: 0.10;' clip-path='url(#cpMjk2LjEwfDM2My4yN3w5MC42MXwyMS45OQ==)' />
<circle cx='346.35' cy='32.15' r='2.13' style='stroke-width: 0.00; stroke: #444444; stroke-opacity: 0.10; fill: #444444; fill-opacity: 0.10;' clip-path='url(#cpMjk2LjEwfDM2My4yN3w5MC42MXwyMS45OQ==)' />
<circle cx='357.38' cy='32.70' r='2.13' style='stroke-width: 0.00; stroke: #444444; stroke-opacity: 0.10; fill: #444444; fill-opacity: 0.10;' clip-path='url(#cpMjk2LjEwfDM2My4yN3w5MC42MXwyMS45OQ==)' />
<circle cx='352.28' cy='28.32' r='2.13' style='stroke-width: 0.00; stroke: #444444; stroke-opacity: 0.10; fill: #444444; fill-opacity: 0.10;' clip-path='url(#cpMjk2LjEwfDM2My4yN3w5MC42MXwyMS45OQ==)' />
<circle cx='356.46' cy='35.46' r='2.13' style='stroke-width: 0.00; stroke: #444444; stroke-opacity: 0.10; fill: #444444; fill-opacity: 0.10;' clip-path='url(#cpMjk2LjEwfDM2My4yN3w5MC42MXwyMS45OQ==)' />
<circle cx='345.81' cy='29.20' r='2.13' style='stroke-width: 0.00; stroke: #444444; stroke-opacity: 0.10; fill: #444444; fill-opacity: 0.10;' clip-path='url(#cpMjk2LjEwfDM2My4yN3w5MC42MXwyMS45OQ==)' />
<circle cx='354.61' cy='32.06' r='2.13' style='stroke-width: 0.00; stroke: #444444; stroke-opacity: 0.10; fill: #444444; fill-opacity: 0.10;' clip-path='url(#cpMjk2LjEwfDM2My4yN3w5MC42MXwyMS45OQ==)' />
<circle cx='354.08' cy='28.57' r='2.13' style='stroke-width: 0.00; stroke: #444444; stroke-opacity: 0.10; fill: #444444; fill-opacity: 0.10;' clip-path='url(#cpMjk2LjEwfDM2My4yN3w5MC42MXwyMS45OQ==)' />
<circle cx='300.63' cy='28.52' r='2.13' style='stroke-width: 0.00; stroke: #444444; stroke-opacity: 0.10; fill: #444444; fill-opacity: 0.10;' clip-path='url(#cpMjk2LjEwfDM2My4yN3w5MC42MXwyMS45OQ==)' />
<circle cx='357.10' cy='27.41' r='2.13' style='stroke-width: 0.00; stroke: #444444; stroke-opacity: 0.10; fill: #444444; fill-opacity: 0.10;' clip-path='url(#cpMjk2LjEwfDM2My4yN3w5MC42MXwyMS45OQ==)' />
<circle cx='357.60' cy='35.35' r='2.13' style='stroke-width: 0.00; stroke: #444444; stroke-opacity: 0.10; fill: #444444; fill-opacity: 0.10;' clip-path='url(#cpMjk2LjEwfDM2My4yN3w5MC42MXwyMS45OQ==)' />
<circle cx='340.29' cy='25.47' r='2.13' style='stroke-width: 0.00; stroke: #444444; stroke-opacity: 0.10; fill: #444444; fill-opacity: 0.10;' clip-path='url(#cpMjk2LjEwfDM2My4yN3w5MC42MXwyMS45OQ==)' />
<circle cx='323.91' cy='32.48' r='2.13' style='stroke-width: 0.00; stroke: #444444; stroke-opacity: 0.10; fill: #444444; fill-opacity: 0.10;' clip-path='url(#cpMjk2LjEwfDM2My4yN3w5MC42MXwyMS45OQ==)' />
<circle cx='341.86' cy='25.64' r='2.13' style='stroke-width: 0.00; stroke: #444444; stroke-opacity: 0.10; fill: #444444; fill-opacity: 0.10;' clip-path='url(#cpMjk2LjEwfDM2My4yN3w5MC42MXwyMS45OQ==)' />
<circle cx='359.29' cy='36.14' r='2.13' style='stroke-width: 0.00; stroke: #444444; stroke-opacity: 0.10; fill: #444444; fill-opacity: 0.10;' clip-path='url(#cpMjk2LjEwfDM2My4yN3w5MC42MXwyMS45OQ==)' />
<circle cx='354.15' cy='27.26' r='2.13' style='stroke-width: 0.00; stroke: #444444; stroke-opacity: 0.10; fill: #444444; fill-opacity: 0.10;' clip-path='url(#cpMjk2LjEwfDM2My4yN3w5MC42MXwyMS45OQ==)' />
<circle cx='358.16' cy='31.69' r='2.13' style='stroke-width: 0.00; stroke: #444444; stroke-opacity: 0.10; fill: #444444; fill-opacity: 0.10;' clip-path='url(#cpMjk2LjEwfDM2My4yN3w5MC42MXwyMS45OQ==)' />
<circle cx='358.89' cy='33.24' r='2.13' style='stroke-width: 0.00; stroke: #444444; stroke-opacity: 0.10; fill: #444444; fill-opacity: 0.10;' clip-path='url(#cpMjk2LjEwfDM2My4yN3w5MC42MXwyMS45OQ==)' />
<circle cx='346.37' cy='35.59' r='2.13' style='stroke-width: 0.00; stroke: #444444; stroke-opacity: 0.10; fill: #444444; fill-opacity: 0.10;' clip-path='url(#cpMjk2LjEwfDM2My4yN3w5MC42MXwyMS45OQ==)' />
<circle cx='352.49' cy='28.81' r='2.13' style='stroke-width: 0.00; stroke: #444444; stroke-opacity: 0.10; fill: #444444; fill-opacity: 0.10;' clip-path='url(#cpMjk2LjEwfDM2My4yN3w5MC42MXwyMS45OQ==)' />
<circle cx='343.84' cy='27.84' r='2.13' style='stroke-width: 0.00; stroke: #444444; stroke-opacity: 0.10; fill: #444444; fill-opacity: 0.10;' clip-path='url(#cpMjk2LjEwfDM2My4yN3w5MC42MXwyMS45OQ==)' />
<circle cx='360.15' cy='32.29' r='2.13' style='stroke-width: 0.00; stroke: #444444; stroke-opacity: 0.10; fill: #444444; fill-opacity: 0.10;' clip-path='url(#cpMjk2LjEwfDM2My4yN3w5MC42MXwyMS45OQ==)' />
<circle cx='353.63' cy='31.19' r='2.13' style='stroke-width: 0.00; stroke: #444444; stroke-opacity: 0.10; fill: #444444; fill-opacity: 0.10;' clip-path='url(#cpMjk2LjEwfDM2My4yN3w5MC42MXwyMS45OQ==)' />
<circle cx='357.39' cy='29.89' r='2.13' style='stroke-width: 0.00; stroke: #444444; stroke-opacity: 0.10; fill: #444444; fill-opacity: 0.10;' clip-path='url(#cpMjk2LjEwfDM2My4yN3w5MC42MXwyMS45OQ==)' />
<circle cx='354.18' cy='29.97' r='2.13' style='stroke-width: 0.00; stroke: #444444; stroke-opacity: 0.10; fill: #444444; fill-opacity: 0.10;' clip-path='url(#cpMjk2LjEwfDM2My4yN3w5MC42MXwyMS45OQ==)' />
<circle cx='354.88' cy='25.85' r='2.13' style='stroke-width: 0.00; stroke: #444444; stroke-opacity: 0.10; fill: #444444; fill-opacity: 0.10;' clip-path='url(#cpMjk2LjEwfDM2My4yN3w5MC42MXwyMS45OQ==)' />
<circle cx='340.66' cy='38.49' r='2.13' style='stroke-width: 0.00; stroke: #444444; stroke-opacity: 0.10; fill: #444444; fill-opacity: 0.10;' clip-path='url(#cpMjk2LjEwfDM2My4yN3w5MC42MXwyMS45OQ==)' />
<circle cx='356.25' cy='29.14' r='2.13' style='stroke-width: 0.00; stroke: #444444; stroke-opacity: 0.10; fill: #444444; fill-opacity: 0.10;' clip-path='url(#cpMjk2LjEwfDM2My4yN3w5MC42MXwyMS45OQ==)' />
<circle cx='352.15' cy='36.74' r='2.13' style='stroke-width: 0.00; stroke: #444444; stroke-opacity: 0.10; fill: #444444; fill-opacity: 0.10;' clip-path='url(#cpMjk2LjEwfDM2My4yN3w5MC42MXwyMS45OQ==)' />
<circle cx='348.66' cy='29.64' r='2.13' style='stroke-width: 0.00; stroke: #444444; stroke-opacity: 0.10; fill: #444444; fill-opacity: 0.10;' clip-path='url(#cpMjk2LjEwfDM2My4yN3w5MC42MXwyMS45OQ==)' />
<circle cx='356.17' cy='31.76' r='2.13' style='stroke-width: 0.00; stroke: #444444; stroke-opacity: 0.10; fill: #444444; fill-opacity: 0.10;' clip-path='url(#cpMjk2LjEwfDM2My4yN3w5MC42MXwyMS45OQ==)' />
<circle cx='352.81' cy='29.57' r='2.13' style='stroke-width: 0.00; stroke: #444444; stroke-opacity: 0.10; fill: #444444; fill-opacity: 0.10;' clip-path='url(#cpMjk2LjEwfDM2My4yN3w5MC42MXwyMS45OQ==)' />
<circle cx='357.12' cy='26.17' r='2.13' style='stroke-width: 0.00; stroke: #444444; stroke-opacity: 0.10; fill: #444444; fill-opacity: 0.10;' clip-path='url(#cpMjk2LjEwfDM2My4yN3w5MC42MXwyMS45OQ==)' />
<circle cx='340.40' cy='34.51' r='2.13' style='stroke-width: 0.00; stroke: #444444; stroke-opacity: 0.10; fill: #444444; fill-opacity: 0.10;' clip-path='url(#cpMjk2LjEwfDM2My4yN3w5MC42MXwyMS45OQ==)' />
<circle cx='354.57' cy='32.87' r='2.13' style='stroke-width: 0.00; stroke: #444444; stroke-opacity: 0.10; fill: #444444; fill-opacity: 0.10;' clip-path='url(#cpMjk2LjEwfDM2My4yN3w5MC42MXwyMS45OQ==)' />
<circle cx='359.64' cy='37.93' r='2.13' style='stroke-width: 0.00; stroke: #444444; stroke-opacity: 0.10; fill: #444444; fill-opacity: 0.10;' clip-path='url(#cpMjk2LjEwfDM2My4yN3w5MC42MXwyMS45OQ==)' />
<circle cx='352.48' cy='32.71' r='2.13' style='stroke-width: 0.00; stroke: #444444; stroke-opacity: 0.10; fill: #444444; fill-opacity: 0.10;' clip-path='url(#cpMjk2LjEwfDM2My4yN3w5MC42MXwyMS45OQ==)' />
<circle cx='354.49' cy='39.07' r='2.13' style='stroke-width: 0.00; stroke: #444444; stroke-opacity: 0.10; fill: #444444; fill-opacity: 0.10;' clip-path='url(#cpMjk2LjEwfDM2My4yN3w5MC42MXwyMS45OQ==)' />
<circle cx='331.43' cy='31.89' r='2.13' style='stroke-width: 0.00; stroke: #444444; stroke-opacity: 0.10; fill: #444444; fill-opacity: 0.10;' clip-path='url(#cpMjk2LjEwfDM2My4yN3w5MC42MXwyMS45OQ==)' />
<circle cx='338.11' cy='26.57' r='2.13' style='stroke-width: 0.00; stroke: #444444; stroke-opacity: 0.10; fill: #444444; fill-opacity: 0.10;' clip-path='url(#cpMjk2LjEwfDM2My4yN3w5MC42MXwyMS45OQ==)' />
<circle cx='348.25' cy='34.26' r='2.13' style='stroke-width: 0.00; stroke: #444444; stroke-opacity: 0.10; fill: #444444; fill-opacity: 0.10;' clip-path='url(#cpMjk2LjEwfDM2My4yN3w5MC42MXwyMS45OQ==)' />
<circle cx='338.92' cy='29.66' r='2.13' style='stroke-width: 0.00; stroke: #444444; stroke-opacity: 0.10; fill: #444444; fill-opacity: 0.10;' clip-path='url(#cpMjk2LjEwfDM2My4yN3w5MC42MXwyMS45OQ==)' />
<circle cx='337.57' cy='32.86' r='2.13' style='stroke-width: 0.00; stroke: #444444; stroke-opacity: 0.10; fill: #444444; fill-opacity: 0.10;' clip-path='url(#cpMjk2LjEwfDM2My4yN3w5MC42MXwyMS45OQ==)' />
<circle cx='353.81' cy='31.36' r='2.13' style='stroke-width: 0.00; stroke: #444444; stroke-opacity: 0.10; fill: #444444; fill-opacity: 0.10;' clip-path='url(#cpMjk2LjEwfDM2My4yN3w5MC42MXwyMS45OQ==)' />
<circle cx='338.54' cy='36.80' r='2.13' style='stroke-width: 0.00; stroke: #444444; stroke-opacity: 0.10; fill: #444444; fill-opacity: 0.10;' clip-path='url(#cpMjk2LjEwfDM2My4yN3w5MC42MXwyMS45OQ==)' />
<circle cx='348.33' cy='26.71' r='2.13' style='stroke-width: 0.00; stroke: #444444; stroke-opacity: 0.10; fill: #444444; fill-opacity: 0.10;' clip-path='url(#cpMjk2LjEwfDM2My4yN3w5MC42MXwyMS45OQ==)' />
<circle cx='327.15' cy='33.17' r='2.13' style='stroke-width: 0.00; stroke: #444444; stroke-opacity: 0.10; fill: #444444; fill-opacity: 0.10;' clip-path='url(#cpMjk2LjEwfDM2My4yN3w5MC42MXwyMS45OQ==)' />
<polygon points='328.94,80.61 335.77,84.25 342.61,80.61 335.77,76.96 328.94,80.61 ' style='stroke-width: 1.07; stroke: #514054; fill: #514054;' clip-path='url(#cpMjk2LjEwfDM2My4yN3w5MC42MXwyMS45OQ==)' />
<polygon points='345.10,56.32 350.54,59.96 355.98,56.32 350.54,52.68 345.10,56.32 ' style='stroke-width: 1.07; stroke: #471254; fill: #471254;' clip-path='url(#cpMjk2LjEwfDM2My4yN3w5MC42MXwyMS45OQ==)' />
<polygon points='343.59,32.04 348.46,35.68 353.33,32.04 348.46,28.39 343.59,32.04 ' style='stroke-width: 1.07; stroke: #491954; fill: #491954;' clip-path='url(#cpMjk2LjEwfDM2My4yN3w5MC42MXwyMS45OQ==)' />
<rect x='296.10' y='21.99' width='67.17' height='68.62' style='stroke-width: 0.78; stroke: #333333;' clip-path='url(#cpMjk2LjEwfDM2My4yN3w5MC42MXwyMS45OQ==)' />
<defs>
  <clipPath id='cpMC4wMHw1MTAuMjR8MTEzLjEwfDAuMDA='>
    <rect x='0.00' y='0.00' width='510.24' height='113.10' />
  </clipPath>
</defs>
<g clip-path='url(#cpMC4wMHw1MTAuMjR8MTEzLjEwfDAuMDA=)'><text x='261.20' y='82.90' style='font-size: 6.40px; fill: #4D4D4D; font-family: Arial;' textLength='31.32px' lengthAdjust='spacingAndGlyphs'>unpleasant</text></g>
<g clip-path='url(#cpMC4wMHw1MTAuMjR8MTEzLjEwfDAuMDA=)'><text x='219.22' y='51.70' style='font-size: 6.40px; fill: #4D4D4D; font-family: Arial;' textLength='73.29px' lengthAdjust='spacingAndGlyphs'>disapprove of me keeping</text></g>
<g clip-path='url(#cpMC4wMHw1MTAuMjR8MTEzLjEwfDAuMDA=)'><text x='244.49' y='58.61' style='font-size: 6.40px; fill: #4D4D4D; font-family: Arial;' textLength='48.03px' lengthAdjust='spacingAndGlyphs'>at least {distRec}</text></g>
<g clip-path='url(#cpMC4wMHw1MTAuMjR8MTEzLjEwfDAuMDA=)'><text x='234.53' y='65.52' style='font-size: 6.40px; fill: #4D4D4D; font-family: Arial;' textLength='57.98px' lengthAdjust='spacingAndGlyphs'>distance from others</text></g>
<g clip-path='url(#cpMC4wMHw1MTAuMjR8MTEzLjEwfDAuMDA=)'><text x='281.84' y='34.33' style='font-size: 6.40px; fill: #4D4D4D; font-family: Arial;' textLength='10.68px' lengthAdjust='spacingAndGlyphs'>bad</text></g>
<polyline points='294.11,80.61 296.10,80.61 ' style='stroke-width: 0.78; stroke: #333333; stroke-linecap: butt;' clip-path='url(#cpMC4wMHw1MTAuMjR8MTEzLjEwfDAuMDA=)' />
<polyline points='294.11,56.32 296.10,56.32 ' style='stroke-width: 0.78; stroke: #333333; stroke-linecap: butt;' clip-path='url(#cpMC4wMHw1MTAuMjR8MTEzLjEwfDAuMDA=)' />
<polyline points='294.11,32.04 296.10,32.04 ' style='stroke-width: 0.78; stroke: #333333; stroke-linecap: butt;' clip-path='url(#cpMC4wMHw1MTAuMjR8MTEzLjEwfDAuMDA=)' />
<polyline points='363.27,80.58 365.26,80.58 ' style='stroke-width: 0.78; stroke: #333333; stroke-linecap: butt;' clip-path='url(#cpMC4wMHw1MTAuMjR8MTEzLjEwfDAuMDA=)' />
<polyline points='363.27,56.33 365.26,56.33 ' style='stroke-width: 0.78; stroke: #333333; stroke-linecap: butt;' clip-path='url(#cpMC4wMHw1MTAuMjR8MTEzLjEwfDAuMDA=)' />
<polyline points='363.27,32.01 365.26,32.01 ' style='stroke-width: 0.78; stroke: #333333; stroke-linecap: butt;' clip-path='url(#cpMC4wMHw1MTAuMjR8MTEzLjEwfDAuMDA=)' />
<g clip-path='url(#cpMC4wMHw1MTAuMjR8MTEzLjEwfDAuMDA=)'><text x='366.86' y='82.87' style='font-size: 6.40px; fill: #4D4D4D; font-family: Arial;' textLength='24.20px' lengthAdjust='spacingAndGlyphs'>pleasant</text></g>
<g clip-path='url(#cpMC4wMHw1MTAuMjR8MTEzLjEwfDAuMDA=)'><text x='366.86' y='51.71' style='font-size: 6.40px; fill: #4D4D4D; font-family: Arial;' textLength='72.23px' lengthAdjust='spacingAndGlyphs'>approve of me keeping at</text></g>
<g clip-path='url(#cpMC4wMHw1MTAuMjR8MTEzLjEwfDAuMDA=)'><text x='366.86' y='58.62' style='font-size: 6.40px; fill: #4D4D4D; font-family: Arial;' textLength='66.53px' lengthAdjust='spacingAndGlyphs'>least {distRec} distance</text></g>
<g clip-path='url(#cpMC4wMHw1MTAuMjR8MTEzLjEwfDAuMDA=)'><text x='366.86' y='65.53' style='font-size: 6.40px; fill: #4D4D4D; font-family: Arial;' textLength='32.37px' lengthAdjust='spacingAndGlyphs'>from others</text></g>
<g clip-path='url(#cpMC4wMHw1MTAuMjR8MTEzLjEwfDAuMDA=)'><text x='366.86' y='34.30' style='font-size: 6.40px; fill: #4D4D4D; font-family: Arial;' textLength='14.24px' lengthAdjust='spacingAndGlyphs'>good</text></g>
<polyline points='302.05,92.60 302.05,90.61 ' style='stroke-width: 0.78; stroke: #333333; stroke-linecap: butt;' clip-path='url(#cpMC4wMHw1MTAuMjR8MTEzLjEwfDAuMDA=)' />
<polyline points='311.08,92.60 311.08,90.61 ' style='stroke-width: 0.78; stroke: #333333; stroke-linecap: butt;' clip-path='url(#cpMC4wMHw1MTAuMjR8MTEzLjEwfDAuMDA=)' />
<polyline points='320.10,92.60 320.10,90.61 ' style='stroke-width: 0.78; stroke: #333333; stroke-linecap: butt;' clip-path='url(#cpMC4wMHw1MTAuMjR8MTEzLjEwfDAuMDA=)' />
<polyline points='329.12,92.60 329.12,90.61 ' style='stroke-width: 0.78; stroke: #333333; stroke-linecap: butt;' clip-path='url(#cpMC4wMHw1MTAuMjR8MTEzLjEwfDAuMDA=)' />
<polyline points='338.15,92.60 338.15,90.61 ' style='stroke-width: 0.78; stroke: #333333; stroke-linecap: butt;' clip-path='url(#cpMC4wMHw1MTAuMjR8MTEzLjEwfDAuMDA=)' />
<polyline points='347.17,92.60 347.17,90.61 ' style='stroke-width: 0.78; stroke: #333333; stroke-linecap: butt;' clip-path='url(#cpMC4wMHw1MTAuMjR8MTEzLjEwfDAuMDA=)' />
<polyline points='356.20,92.60 356.20,90.61 ' style='stroke-width: 0.78; stroke: #333333; stroke-linecap: butt;' clip-path='url(#cpMC4wMHw1MTAuMjR8MTEzLjEwfDAuMDA=)' />
<g clip-path='url(#cpMC4wMHw1MTAuMjR8MTEzLjEwfDAuMDA=)'><text x='299.21' y='98.77' style='font-size: 6.40px; fill: #4D4D4D; font-family: Arial;' textLength='5.69px' lengthAdjust='spacingAndGlyphs'>-3</text></g>
<g clip-path='url(#cpMC4wMHw1MTAuMjR8MTEzLjEwfDAuMDA=)'><text x='308.23' y='98.77' style='font-size: 6.40px; fill: #4D4D4D; font-family: Arial;' textLength='5.69px' lengthAdjust='spacingAndGlyphs'>-2</text></g>
<g clip-path='url(#cpMC4wMHw1MTAuMjR8MTEzLjEwfDAuMDA=)'><text x='317.26' y='98.77' style='font-size: 6.40px; fill: #4D4D4D; font-family: Arial;' textLength='5.69px' lengthAdjust='spacingAndGlyphs'>-1</text></g>
<g clip-path='url(#cpMC4wMHw1MTAuMjR8MTEzLjEwfDAuMDA=)'><text x='327.35' y='98.77' style='font-size: 6.40px; fill: #4D4D4D; font-family: Arial;' textLength='3.56px' lengthAdjust='spacingAndGlyphs'>0</text></g>
<g clip-path='url(#cpMC4wMHw1MTAuMjR8MTEzLjEwfDAuMDA=)'><text x='336.37' y='98.77' style='font-size: 6.40px; fill: #4D4D4D; font-family: Arial;' textLength='3.56px' lengthAdjust='spacingAndGlyphs'>1</text></g>
<g clip-path='url(#cpMC4wMHw1MTAuMjR8MTEzLjEwfDAuMDA=)'><text x='345.39' y='98.77' style='font-size: 6.40px; fill: #4D4D4D; font-family: Arial;' textLength='3.56px' lengthAdjust='spacingAndGlyphs'>2</text></g>
<g clip-path='url(#cpMC4wMHw1MTAuMjR8MTEzLjEwfDAuMDA=)'><text x='354.42' y='98.77' style='font-size: 6.40px; fill: #4D4D4D; font-family: Arial;' textLength='3.56px' lengthAdjust='spacingAndGlyphs'>3</text></g>
<g clip-path='url(#cpMC4wMHw1MTAuMjR8MTEzLjEwfDAuMDA=)'><text x='287.66' y='107.62' style='font-size: 8.00px; font-family: Arial;' textLength='84.05px' lengthAdjust='spacingAndGlyphs'>Scores and 99.99% CIs</text></g>
<defs>
  <clipPath id='cpMC4wMHwyMTUuMjR8OTAuNjF8MjEuOTk='>
    <rect x='0.00' y='21.99' width='215.24' height='68.62' />
  </clipPath>
</defs>
<defs>
  <clipPath id='cpMC4wMHw1MTAuMjR8MTEzLjEwfDAuMDA='>
    <rect x='0.00' y='0.00' width='510.24' height='113.10' />
  </clipPath>
</defs>
<g clip-path='url(#cpMC4wMHw1MTAuMjR8MTEzLjEwfDAuMDA=)'><text x='3.59' y='78.85' style='font-size: 8.00px; font-family: Arial;' textLength='211.65px' lengthAdjust='spacingAndGlyphs'>For me, keeping at least {distRec} distance from others is ...</text></g>
<g clip-path='url(#cpMC4wMHw1MTAuMjR8MTEzLjEwfDAuMDA=)'><text x='3.59' y='87.49' style='font-size: 8.00px; font-family: Arial;' textLength='86.26px' lengthAdjust='spacingAndGlyphs'>[CIBERliteAttExp_clean]</text></g>
<g clip-path='url(#cpMC4wMHw1MTAuMjR8MTEzLjEwfDAuMDA=)'><text x='3.59' y='54.87' style='font-size: 8.00px; font-family: Arial;' textLength='158.76px' lengthAdjust='spacingAndGlyphs'>Most people whose opinions I value would ...</text></g>
<g clip-path='url(#cpMC4wMHw1MTAuMjR8MTEzLjEwfDAuMDA=)'><text x='3.59' y='63.51' style='font-size: 8.00px; font-family: Arial;' textLength='80.93px' lengthAdjust='spacingAndGlyphs'>[CIBERlitePnInj_clean]</text></g>
<g clip-path='url(#cpMC4wMHw1MTAuMjR8MTEzLjEwfDAuMDA=)'><text x='3.59' y='30.83' style='font-size: 8.00px; font-family: Arial;' textLength='211.65px' lengthAdjust='spacingAndGlyphs'>For me, keeping at least {distRec} distance from others is ...</text></g>
<g clip-path='url(#cpMC4wMHw1MTAuMjR8MTEzLjEwfDAuMDA=)'><text x='3.59' y='39.47' style='font-size: 8.00px; font-family: Arial;' textLength='83.15px' lengthAdjust='spacingAndGlyphs'>[CIBERliteAttIns_clean]</text></g>
<defs>
  <clipPath id='cpMC4wMHwyMTUuMjR8OTAuNjF8MjEuOTk='>
    <rect x='0.00' y='21.99' width='215.24' height='68.62' />
  </clipPath>
</defs>
<defs>
  <clipPath id='cpMC4wMHw1MTAuMjR8MTEzLjEwfDAuMDA='>
    <rect x='0.00' y='0.00' width='510.24' height='113.10' />
  </clipPath>
</defs>
<defs>
  <clipPath id='cpNDQzLjA3fDUxMC4yNHwxMTMuMTB8MTguMDA='>
    <rect x='443.07' y='18.00' width='67.17' height='95.10' />
  </clipPath>
</defs>
<rect x='443.07' y='18.00' width='67.17' height='95.10' style='stroke-width: 0.78; stroke: #FFFFFF; fill: #FFFFFF;' clip-path='url(#cpNDQzLjA3fDUxMC4yNHwxMTMuMTB8MTguMDA=)' />
<defs>
  <clipPath id='cpNDQ3LjA1fDUwNi4yNXw5MC42MXwyMS45OQ=='>
    <rect x='447.05' y='21.99' width='59.20' height='68.62' />
  </clipPath>
</defs>
<rect x='447.05' y='21.99' width='59.20' height='68.62' style='stroke-width: 0.78; stroke: none; fill: #FFFFFF;' clip-path='url(#cpNDQ3LjA1fDUwNi4yNXw5MC42MXwyMS45OQ==)' />
<polyline points='456.47,90.61 456.47,21.99 ' style='stroke-width: 0.39; stroke: #EBEBEB; stroke-linecap: butt;' clip-path='url(#cpNDQ3LjA1fDUwNi4yNXw5MC42MXwyMS45OQ==)' />
<polyline points='469.92,90.61 469.92,21.99 ' style='stroke-width: 0.39; stroke: #EBEBEB; stroke-linecap: butt;' clip-path='url(#cpNDQ3LjA1fDUwNi4yNXw5MC42MXwyMS45OQ==)' />
<polyline points='483.38,90.61 483.38,21.99 ' style='stroke-width: 0.39; stroke: #EBEBEB; stroke-linecap: butt;' clip-path='url(#cpNDQ3LjA1fDUwNi4yNXw5MC42MXwyMS45OQ==)' />
<polyline points='496.83,90.61 496.83,21.99 ' style='stroke-width: 0.39; stroke: #EBEBEB; stroke-linecap: butt;' clip-path='url(#cpNDQ3LjA1fDUwNi4yNXw5MC42MXwyMS45OQ==)' />
<polyline points='449.74,90.61 449.74,21.99 ' style='stroke-width: 0.78; stroke: #EBEBEB; stroke-linecap: butt;' clip-path='url(#cpNDQ3LjA1fDUwNi4yNXw5MC42MXwyMS45OQ==)' />
<polyline points='463.20,90.61 463.20,21.99 ' style='stroke-width: 0.78; stroke: #EBEBEB; stroke-linecap: butt;' clip-path='url(#cpNDQ3LjA1fDUwNi4yNXw5MC42MXwyMS45OQ==)' />
<polyline points='476.65,90.61 476.65,21.99 ' style='stroke-width: 0.78; stroke: #EBEBEB; stroke-linecap: butt;' clip-path='url(#cpNDQ3LjA1fDUwNi4yNXw5MC42MXwyMS45OQ==)' />
<polyline points='490.11,90.61 490.11,21.99 ' style='stroke-width: 0.78; stroke: #EBEBEB; stroke-linecap: butt;' clip-path='url(#cpNDQ3LjA1fDUwNi4yNXw5MC42MXwyMS45OQ==)' />
<polyline points='503.56,90.61 503.56,21.99 ' style='stroke-width: 0.78; stroke: #EBEBEB; stroke-linecap: butt;' clip-path='url(#cpNDQ3LjA1fDUwNi4yNXw5MC42MXwyMS45OQ==)' />
<line x1='463.20' y1='90.61' x2='463.20' y2='21.99' style='stroke-width: 1.07; stroke: #BEBEBE; stroke-linecap: butt;' clip-path='url(#cpNDQ3LjA1fDUwNi4yNXw5MC42MXwyMS45OQ==)' />
<line x1='476.65' y1='90.61' x2='476.65' y2='21.99' style='stroke-width: 1.07; stroke: #BEBEBE; stroke-linecap: butt;' clip-path='url(#cpNDQ3LjA1fDUwNi4yNXw5MC42MXwyMS45OQ==)' />
<line x1='490.11' y1='90.61' x2='490.11' y2='21.99' style='stroke-width: 1.07; stroke: #BEBEBE; stroke-linecap: butt;' clip-path='url(#cpNDQ3LjA1fDUwNi4yNXw5MC42MXwyMS45OQ==)' />
<polygon points='474.07,83.42 479.55,87.49 484.80,83.42 479.55,79.35 474.07,83.42 ' style='stroke-width: 2.13; fill: #534C55; fill-opacity: 0.50;' clip-path='url(#cpNDQ3LjA1fDUwNi4yNXw5MC42MXwyMS45OQ==)' />
<polygon points='480.65,56.30 486.75,60.36 491.85,56.30 486.75,52.23 480.65,56.30 ' style='stroke-width: 2.13; fill: #4E3554; fill-opacity: 0.50;' clip-path='url(#cpNDQ3LjA1fDUwNi4yNXw5MC42MXwyMS45OQ==)' />
<polygon points='487.35,29.17 491.54,33.24 494.89,29.17 491.54,25.10 487.35,29.17 ' style='stroke-width: 2.13; fill: #4B2654; fill-opacity: 0.50;' clip-path='url(#cpNDQ3LjA1fDUwNi4yNXw5MC42MXwyMS45OQ==)' />
<rect x='447.05' y='21.99' width='59.20' height='68.62' style='stroke-width: 0.78; stroke: #333333;' clip-path='url(#cpNDQ3LjA1fDUwNi4yNXw5MC42MXwyMS45OQ==)' />
<defs>
  <clipPath id='cpNDQzLjA3fDUxMC4yNHwxMTMuMTB8MTguMDA='>
    <rect x='443.07' y='18.00' width='67.17' height='95.10' />
  </clipPath>
</defs>
<defs>
  <clipPath id='cpMC4wMHw1MTAuMjR8MTEzLjEwfDAuMDA='>
    <rect x='0.00' y='0.00' width='510.24' height='113.10' />
  </clipPath>
</defs>
<defs>
  <clipPath id='cpNDQzLjA3fDUxMC4yNHwxMTMuMTB8MTguMDA='>
    <rect x='443.07' y='18.00' width='67.17' height='95.10' />
  </clipPath>
</defs>
<defs>
  <clipPath id='cpMC4wMHw1MTAuMjR8MTEzLjEwfDAuMDA='>
    <rect x='0.00' y='0.00' width='510.24' height='113.10' />
  </clipPath>
</defs>
<defs>
  <clipPath id='cpNDQzLjA3fDUxMC4yNHwxMTMuMTB8MTguMDA='>
    <rect x='443.07' y='18.00' width='67.17' height='95.10' />
  </clipPath>
</defs>
<defs>
  <clipPath id='cpMC4wMHw1MTAuMjR8MTEzLjEwfDAuMDA='>
    <rect x='0.00' y='0.00' width='510.24' height='113.10' />
  </clipPath>
</defs>
<defs>
  <clipPath id='cpNDQzLjA3fDUxMC4yNHwxMTMuMTB8MTguMDA='>
    <rect x='443.07' y='18.00' width='67.17' height='95.10' />
  </clipPath>
</defs>
<defs>
  <clipPath id='cpMC4wMHw1MTAuMjR8MTEzLjEwfDAuMDA='>
    <rect x='0.00' y='0.00' width='510.24' height='113.10' />
  </clipPath>
</defs>
<defs>
  <clipPath id='cpNDQzLjA3fDUxMC4yNHwxMTMuMTB8MTguMDA='>
    <rect x='443.07' y='18.00' width='67.17' height='95.10' />
  </clipPath>
</defs>
<defs>
  <clipPath id='cpMC4wMHw1MTAuMjR8MTEzLjEwfDAuMDA='>
    <rect x='0.00' y='0.00' width='510.24' height='113.10' />
  </clipPath>
</defs>
<defs>
  <clipPath id='cpNDQzLjA3fDUxMC4yNHwxMTMuMTB8MTguMDA='>
    <rect x='443.07' y='18.00' width='67.17' height='95.10' />
  </clipPath>
</defs>
<defs>
  <clipPath id='cpMC4wMHw1MTAuMjR8MTEzLjEwfDAuMDA='>
    <rect x='0.00' y='0.00' width='510.24' height='113.10' />
  </clipPath>
</defs>
<defs>
  <clipPath id='cpNDQzLjA3fDUxMC4yNHwxMTMuMTB8MTguMDA='>
    <rect x='443.07' y='18.00' width='67.17' height='95.10' />
  </clipPath>
</defs>
<defs>
  <clipPath id='cpMC4wMHw1MTAuMjR8MTEzLjEwfDAuMDA='>
    <rect x='0.00' y='0.00' width='510.24' height='113.10' />
  </clipPath>
</defs>
<defs>
  <clipPath id='cpNDQzLjA3fDUxMC4yNHwxMTMuMTB8MTguMDA='>
    <rect x='443.07' y='18.00' width='67.17' height='95.10' />
  </clipPath>
</defs>
<defs>
  <clipPath id='cpMC4wMHw1MTAuMjR8MTEzLjEwfDAuMDA='>
    <rect x='0.00' y='0.00' width='510.24' height='113.10' />
  </clipPath>
</defs>
<polyline points='449.74,92.60 449.74,90.61 ' style='stroke-width: 0.78; stroke: #333333; stroke-linecap: butt;' clip-path='url(#cpMC4wMHw1MTAuMjR8MTEzLjEwfDAuMDA=)' />
<polyline points='463.20,92.60 463.20,90.61 ' style='stroke-width: 0.78; stroke: #333333; stroke-linecap: butt;' clip-path='url(#cpMC4wMHw1MTAuMjR8MTEzLjEwfDAuMDA=)' />
<polyline points='476.65,92.60 476.65,90.61 ' style='stroke-width: 0.78; stroke: #333333; stroke-linecap: butt;' clip-path='url(#cpMC4wMHw1MTAuMjR8MTEzLjEwfDAuMDA=)' />
<polyline points='490.11,92.60 490.11,90.61 ' style='stroke-width: 0.78; stroke: #333333; stroke-linecap: butt;' clip-path='url(#cpMC4wMHw1MTAuMjR8MTEzLjEwfDAuMDA=)' />
<polyline points='503.56,92.60 503.56,90.61 ' style='stroke-width: 0.78; stroke: #333333; stroke-linecap: butt;' clip-path='url(#cpMC4wMHw1MTAuMjR8MTEzLjEwfDAuMDA=)' />
<g clip-path='url(#cpMC4wMHw1MTAuMjR8MTEzLjEwfDAuMDA=)'><text x='444.23' y='98.77' style='font-size: 6.40px; fill: #4D4D4D; font-family: Arial;' textLength='11.03px' lengthAdjust='spacingAndGlyphs'>-1.0</text></g>
<g clip-path='url(#cpMC4wMHw1MTAuMjR8MTEzLjEwfDAuMDA=)'><text x='457.68' y='98.77' style='font-size: 6.40px; fill: #4D4D4D; font-family: Arial;' textLength='11.03px' lengthAdjust='spacingAndGlyphs'>-0.5</text></g>
<g clip-path='url(#cpMC4wMHw1MTAuMjR8MTEzLjEwfDAuMDA=)'><text x='472.20' y='98.77' style='font-size: 6.40px; fill: #4D4D4D; font-family: Arial;' textLength='8.90px' lengthAdjust='spacingAndGlyphs'>0.0</text></g>
<g clip-path='url(#cpMC4wMHw1MTAuMjR8MTEzLjEwfDAuMDA=)'><text x='485.66' y='98.77' style='font-size: 6.40px; fill: #4D4D4D; font-family: Arial;' textLength='8.90px' lengthAdjust='spacingAndGlyphs'>0.5</text></g>
<g clip-path='url(#cpMC4wMHw1MTAuMjR8MTEzLjEwfDAuMDA=)'><text x='499.11' y='98.77' style='font-size: 6.40px; fill: #4D4D4D; font-family: Arial;' textLength='8.90px' lengthAdjust='spacingAndGlyphs'>1.0</text></g>
<defs>
  <clipPath id='cpNDQzLjA3fDUxMC4yNHwxMTMuMTB8MTguMDA='>
    <rect x='443.07' y='18.00' width='67.17' height='95.10' />
  </clipPath>
</defs>
<defs>
  <clipPath id='cpMC4wMHw1MTAuMjR8MTEzLjEwfDAuMDA='>
    <rect x='0.00' y='0.00' width='510.24' height='113.10' />
  </clipPath>
</defs>
<defs>
  <clipPath id='cpNDQzLjA3fDUxMC4yNHwxMTMuMTB8MTguMDA='>
    <rect x='443.07' y='18.00' width='67.17' height='95.10' />
  </clipPath>
</defs>
<defs>
  <clipPath id='cpMC4wMHw1MTAuMjR8MTEzLjEwfDAuMDA='>
    <rect x='0.00' y='0.00' width='510.24' height='113.10' />
  </clipPath>
</defs>
<g clip-path='url(#cpMC4wMHw1MTAuMjR8MTEzLjEwfDAuMDA=)'><text x='433.96' y='107.62' style='font-size: 8.00px; font-family: Arial;' textLength='85.38px' lengthAdjust='spacingAndGlyphs'>95% CIs of associations</text></g>
<defs>
  <clipPath id='cpNDQzLjA3fDUxMC4yNHwxMTMuMTB8MTguMDA='>
    <rect x='443.07' y='18.00' width='67.17' height='95.10' />
  </clipPath>
</defs>
<defs>
  <clipPath id='cpMC4wMHw1MTAuMjR8MTEzLjEwfDAuMDA='>
    <rect x='0.00' y='0.00' width='510.24' height='113.10' />
  </clipPath>
</defs>
<defs>
  <clipPath id='cpNDQzLjA3fDUxMC4yNHwxMTMuMTB8MTguMDA='>
    <rect x='443.07' y='18.00' width='67.17' height='95.10' />
  </clipPath>
</defs>
<defs>
  <clipPath id='cpMC4wMHw1MTAuMjR8MTEzLjEwfDAuMDA='>
    <rect x='0.00' y='0.00' width='510.24' height='113.10' />
  </clipPath>
</defs>
<defs>
  <clipPath id='cpNDQzLjA3fDUxMC4yNHwxMTMuMTB8MTguMDA='>
    <rect x='443.07' y='18.00' width='67.17' height='95.10' />
  </clipPath>
</defs>
<defs>
  <clipPath id='cpMC4wMHw1MTAuMjR8MTEzLjEwfDAuMDA='>
    <rect x='0.00' y='0.00' width='510.24' height='113.10' />
  </clipPath>
</defs>
<defs>
  <clipPath id='cpNDQzLjA3fDUxMC4yNHwxMTMuMTB8MTguMDA='>
    <rect x='443.07' y='18.00' width='67.17' height='95.10' />
  </clipPath>
</defs>
<defs>
  <clipPath id='cpMC4wMHw1MTAuMjR8MTEzLjEwfDAuMDA='>
    <rect x='0.00' y='0.00' width='510.24' height='113.10' />
  </clipPath>
</defs>
<defs>
  <clipPath id='cpNDQzLjA3fDUxMC4yNHwxMTMuMTB8MTguMDA='>
    <rect x='443.07' y='18.00' width='67.17' height='95.10' />
  </clipPath>
</defs>
<defs>
  <clipPath id='cpMC4wMHw1MTAuMjR8MTEzLjEwfDAuMDA='>
    <rect x='0.00' y='0.00' width='510.24' height='113.10' />
  </clipPath>
</defs>
<defs>
  <clipPath id='cpNDQzLjA3fDUxMC4yNHwxMTMuMTB8MTguMDA='>
    <rect x='443.07' y='18.00' width='67.17' height='95.10' />
  </clipPath>
</defs>
<defs>
  <clipPath id='cpMC4wMHw1MTAuMjR8MTEzLjEwfDAuMDA='>
    <rect x='0.00' y='0.00' width='510.24' height='113.10' />
  </clipPath>
</defs>
<defs>
  <clipPath id='cpNDQzLjA3fDUxMC4yNHwxMTMuMTB8MTguMDA='>
    <rect x='443.07' y='18.00' width='67.17' height='95.10' />
  </clipPath>
</defs>
<defs>
  <clipPath id='cpMC4wMHw1MTAuMjR8MTEzLjEwfDAuMDA='>
    <rect x='0.00' y='0.00' width='510.24' height='113.10' />
  </clipPath>
</defs>
<g clip-path='url(#cpMC4wMHw1MTAuMjR8MTEzLjEwfDAuMDA=)'><text x='2.30' y='8.78' style='font-size: 9.60px; font-weight: bold; font-family: Arial;' textLength='147.76px' lengthAdjust='spacingAndGlyphs'>Means and associations (r) with </text></g>
<g clip-path='url(#cpMC4wMHw1MTAuMjR8MTEzLjEwfDAuMDA=)'><text x='150.07' y='8.78' style='font-size: 9.60px; font-weight: bold; font-family: Arial;' textLength='43.21px' lengthAdjust='spacingAndGlyphs'>proximity</text></g>
<g clip-path='url(#cpMC4wMHw1MTAuMjR8MTEzLjEwfDAuMDA=)'><text x='193.28' y='8.78' style='font-size: 9.60px; font-weight: bold; font-family: Arial;' textLength='2.67px' lengthAdjust='spacingAndGlyphs'> </text></g>
</svg>
